3025.3,1100,0
3927.2,1100,0
3927.2,1350,251
3927.2,1600,503
4829.1,1100,0
4829.1,1350,251
4829.1,1600,503
4829.1,1100,2
4829.1,1350,251
4829.1,1600,502
4829.1,1850,754
4829.1,1100,6
4829.1,1350,254
4829.1,1600,503
4829.1,1850,754
4829.1,2100,1006
5731.1,1100,0
5731.1,1350,251
5731.1,1600,503
5731.1,1100,2
5731.1,1350,251
5731.1,1600,502
5731.1,1850,754
5731.1,1100,6
5731.1,1350,254
5731.1,1600,503
5731.1,1850,754
5731.1,2100,1006
5731.1,1100,2
5731.1,1350,253
5731.1,1600,505
5731.1,1100,2
5731.1,1350,251
5731.1,1600,502
5731.1,1850,754
5731.1,1100,5
5731.1,1350,253
5731.1,1600,502
5731.1,1850,753
5731.1,2100,1005
5731.1,1350,257
5731.1,1600,505
5731.1,1850,754
5731.1,2100,1005
5731.1,2350,1257
5731.1,1100,6
5731.1,1350,257
5731.1,1600,509
5731.1,1100,5
5731.1,1350,254
5731.1,1600,505
5731.1,1850,757
5731.1,1100,6
5731.1,1350,254
5731.1,1600,503
5731.1,1850,754
5731.1,2100,1006
5731.1,1350,257
5731.1,1600,505
5731.1,1850,754
5731.1,2100,1005
5731.1,2350,1257
5731.1,1600,509
5731.1,1850,757
5731.1,2100,1006
5731.1,2350,1257
5731.1,2600,1509
6633,1100,0
6633,1350,251
6633,1600,503
6633,1100,2
6633,1350,251
6633,1600,502
6633,1850,754
6633,1100,6
6633,1350,254
6633,1600,503
6633,1850,754
6633,2100,1006
6633,1100,2
6633,1350,253
6633,1600,505
6633,1100,2
6633,1350,251
6633,1600,502
6633,1850,754
6633,1100,5
6633,1350,253
6633,1600,502
6633,1850,753
6633,2100,1005
6633,1350,257
6633,1600,505
6633,1850,754
6633,2100,1005
6633,2350,1257
6633,1100,6
6633,1350,257
6633,1600,509
6633,1100,5
6633,1350,254
6633,1600,505
6633,1850,757
6633,1100,6
6633,1350,254
6633,1600,503
6633,1850,754
6633,2100,1006
6633,1350,257
6633,1600,505
6633,1850,754
6633,2100,1005
6633,2350,1257
6633,1600,509
6633,1850,757
6633,2100,1006
6633,2350,1257
6633,2600,1509
6633,1100,2
6633,1350,253
6633,1600,505
6633,1100,4
6633,1350,253
6633,1600,504
6633,1850,756
6633,1100,8
6633,1350,256
6633,1600,505
6633,1850,756
6633,2100,1008
6633,1100,2
6633,1350,253
6633,1600,505
6633,1100,2
6633,1350,251
6633,1600,502
6633,1850,754
6633,1100,5
6633,1350,253
6633,1600,502
6633,1850,753
6633,2100,1005
6633,1350,257
6633,1600,505
6633,1850,754
6633,2100,1005
6633,2350,1257
6633,1100,5
6633,1350,256
6633,1600,508
6633,1100,4
6633,1350,253
6633,1600,504
6633,1850,756
6633,1100,5
6633,1350,253
6633,1600,502
6633,1850,753
6633,2100,1005
6633,1350,256
6633,1600,504
6633,1850,753
6633,2100,1004
6633,2350,1256
6633,1600,508
6633,1850,756
6633,2100,1005
6633,2350,1256
6633,2600,1508
6633,1100,8
6633,1350,257
6633,1600,508
6633,1850,760
6633,1100,8
6633,1350,256
6633,1600,505
6633,1850,756
6633,2100,1008
6633,1350,257
6633,1600,505
6633,1850,754
6633,2100,1005
6633,2350,1257
6633,1600,508
6633,1850,756
6633,2100,1005
6633,2350,1256
6633,2600,1508
6633,1850,760
6633,2100,1008
6633,2350,1257
6633,2600,1508
6633,2850,1760
6633,1100,6
6633,1350,257
6633,1600,509
6633,1100,8
6633,1350,257
6633,1600,508
6633,1850,760
6633,1100,12
6633,1350,260
6633,1600,509
6633,1850,760
6633,2100,1012
6633,1100,5
6633,1350,256
6633,1600,508
6633,1100,5
6633,1350,254
6633,1600,505
6633,1850,757
6633,1100,8
6633,1350,256
6633,1600,505
6633,1850,756
6633,2100,1008
6633,1350,260
6633,1600,508
6633,1850,757
6633,2100,1008
6633,2350,1260
6633,1100,6
6633,1350,257
6633,1600,509
6633,1100,5
6633,1350,254
6633,1600,505
6633,1850,757
6633,1100,6
6633,1350,254
6633,1600,503
6633,1850,754
6633,2100,1006
6633,1350,257
6633,1600,505
6633,1850,754
6633,2100,1005
6633,2350,1257
6633,1600,509
6633,1850,757
6633,2100,1006
6633,2350,1257
6633,2600,1509
6633,1100,8
6633,1350,257
6633,1600,508
6633,1850,760
6633,1100,8
6633,1350,256
6633,1600,505
6633,1850,756
6633,2100,1008
6633,1350,257
6633,1600,505
6633,1850,754
6633,2100,1005
6633,2350,1257
6633,1600,508
6633,1850,756
6633,2100,1005
6633,2350,1256
6633,2600,1508
6633,1850,760
6633,2100,1008
6633,2350,1257
6633,2600,1508
6633,2850,1760
6633,1100,12
6633,1350,260
6633,1600,509
6633,1850,760
6633,2100,1012
6633,1350,260
6633,1600,508
6633,1850,757
6633,2100,1008
6633,2350,1260
6633,1600,509
6633,1850,757
6633,2100,1006
6633,2350,1257
6633,2600,1509
6633,1850,760
6633,2100,1008
6633,2350,1257
6633,2600,1508
6633,2850,1760
6633,2100,1012
6633,2350,1260
6633,2600,1509
6633,2850,1760
6633,3100,2012
7534.9,1100,0
7534.9,1350,251
7534.9,1600,503
7534.9,1100,2
7534.9,1350,251
7534.9,1600,502
7534.9,1850,754
7534.9,1100,6
7534.9,1350,254
7534.9,1600,503
7534.9,1850,754
7534.9,2100,1006
7534.9,1100,2
7534.9,1350,253
7534.9,1600,505
7534.9,1100,2
7534.9,1350,251
7534.9,1600,502
7534.9,1850,754
7534.9,1100,5
7534.9,1350,253
7534.9,1600,502
7534.9,1850,753
7534.9,2100,1005
7534.9,1350,257
7534.9,1600,505
7534.9,1850,754
7534.9,2100,1005
7534.9,2350,1257
7534.9,1100,6
7534.9,1350,257
7534.9,1600,509
7534.9,1100,5
7534.9,1350,254
7534.9,1600,505
7534.9,1850,757
7534.9,1100,6
7534.9,1350,254
7534.9,1600,503
7534.9,1850,754
7534.9,2100,1006
7534.9,1350,257
7534.9,1600,505
7534.9,1850,754
7534.9,2100,1005
7534.9,2350,1257
7534.9,1600,509
7534.9,1850,757
7534.9,2100,1006
7534.9,2350,1257
7534.9,2600,1509
7534.9,1100,2
7534.9,1350,253
7534.9,1600,505
7534.9,1100,4
7534.9,1350,253
7534.9,1600,504
7534.9,1850,756
7534.9,1100,8
7534.9,1350,256
7534.9,1600,505
7534.9,1850,756
7534.9,2100,1008
7534.9,1100,2
7534.9,1350,253
7534.9,1600,505
7534.9,1100,2
7534.9,1350,251
7534.9,1600,502
7534.9,1850,754
7534.9,1100,5
7534.9,1350,253
7534.9,1600,502
7534.9,1850,753
7534.9,2100,1005
7534.9,1350,257
7534.9,1600,505
7534.9,1850,754
7534.9,2100,1005
7534.9,2350,1257
7534.9,1100,5
7534.9,1350,256
7534.9,1600,508
7534.9,1100,4
7534.9,1350,253
7534.9,1600,504
7534.9,1850,756
7534.9,1100,5
7534.9,1350,253
7534.9,1600,502
7534.9,1850,753
7534.9,2100,1005
7534.9,1350,256
7534.9,1600,504
7534.9,1850,753
7534.9,2100,1004
7534.9,2350,1256
7534.9,1600,508
7534.9,1850,756
7534.9,2100,1005
7534.9,2350,1256
7534.9,2600,1508
7534.9,1100,8
7534.9,1350,257
7534.9,1600,508
7534.9,1850,760
7534.9,1100,8
7534.9,1350,256
7534.9,1600,505
7534.9,1850,756
7534.9,2100,1008
7534.9,1350,257
7534.9,1600,505
7534.9,1850,754
7534.9,2100,1005
7534.9,2350,1257
7534.9,1600,508
7534.9,1850,756
7534.9,2100,1005
7534.9,2350,1256
7534.9,2600,1508
7534.9,1850,760
7534.9,2100,1008
7534.9,2350,1257
7534.9,2600,1508
7534.9,2850,1760
7534.9,1100,6
7534.9,1350,257
7534.9,1600,509
7534.9,1100,8
7534.9,1350,257
7534.9,1600,508
7534.9,1850,760
7534.9,1100,12
7534.9,1350,260
7534.9,1600,509
7534.9,1850,760
7534.9,2100,1012
7534.9,1100,5
7534.9,1350,256
7534.9,1600,508
7534.9,1100,5
7534.9,1350,254
7534.9,1600,505
7534.9,1850,757
7534.9,1100,8
7534.9,1350,256
7534.9,1600,505
7534.9,1850,756
7534.9,2100,1008
7534.9,1350,260
7534.9,1600,508
7534.9,1850,757
7534.9,2100,1008
7534.9,2350,1260
7534.9,1100,6
7534.9,1350,257
7534.9,1600,509
7534.9,1100,5
7534.9,1350,254
7534.9,1600,505
7534.9,1850,757
7534.9,1100,6
7534.9,1350,254
7534.9,1600,503
7534.9,1850,754
7534.9,2100,1006
7534.9,1350,257
7534.9,1600,505
7534.9,1850,754
7534.9,2100,1005
7534.9,2350,1257
7534.9,1600,509
7534.9,1850,757
7534.9,2100,1006
7534.9,2350,1257
7534.9,2600,1509
7534.9,1100,8
7534.9,1350,257
7534.9,1600,508
7534.9,1850,760
7534.9,1100,8
7534.9,1350,256
7534.9,1600,505
7534.9,1850,756
7534.9,2100,1008
7534.9,1350,257
7534.9,1600,505
7534.9,1850,754
7534.9,2100,1005
7534.9,2350,1257
7534.9,1600,508
7534.9,1850,756
7534.9,2100,1005
7534.9,2350,1256
7534.9,2600,1508
7534.9,1850,760
7534.9,2100,1008
7534.9,2350,1257
7534.9,2600,1508
7534.9,2850,1760
7534.9,1100,12
7534.9,1350,260
7534.9,1600,509
7534.9,1850,760
7534.9,2100,1012
7534.9,1350,260
7534.9,1600,508
7534.9,1850,757
7534.9,2100,1008
7534.9,2350,1260
7534.9,1600,509
7534.9,1850,757
7534.9,2100,1006
7534.9,2350,1257
7534.9,2600,1509
7534.9,1850,760
7534.9,2100,1008
7534.9,2350,1257
7534.9,2600,1508
7534.9,2850,1760
7534.9,2100,1012
7534.9,2350,1260
7534.9,2600,1509
7534.9,2850,1760
7534.9,3100,2012
7534.9,1100,2
7534.9,1350,253
7534.9,1600,505
7534.9,1100,4
7534.9,1350,253
7534.9,1600,504
7534.9,1850,756
7534.9,1100,8
7534.9,1350,256
7534.9,1600,505
7534.9,1850,756
7534.9,2100,1008
7534.9,1100,4
7534.9,1350,255
7534.9,1600,507
7534.9,1100,4
7534.9,1350,253
7534.9,1600,504
7534.9,1850,756
7534.9,1100,7
7534.9,1350,255
7534.9,1600,504
7534.9,1850,755
7534.9,2100,1007
7534.9,1350,259
7534.9,1600,507
7534.9,1850,756
7534.9,2100,1007
7534.9,2350,1259
7534.9,1100,8
7534.9,1350,259
7534.9,1600,511
7534.9,1100,7
7534.9,1350,256
7534.9,1600,507
7534.9,1850,759
7534.9,1100,8
7534.9,1350,256
7534.9,1600,505
7534.9,1850,756
7534.9,2100,1008
7534.9,1350,259
7534.9,1600,507
7534.9,1850,756
7534.9,2100,1007
7534.9,2350,1259
7534.9,1600,511
7534.9,1850,759
7534.9,2100,1008
7534.9,2350,1259
7534.9,2600,1511
7534.9,1100,2
7534.9,1350,253
7534.9,1600,505
7534.9,1100,4
7534.9,1350,253
7534.9,1600,504
7534.9,1850,756
7534.9,1100,8
7534.9,1350,256
7534.9,1600,505
7534.9,1850,756
7534.9,2100,1008
7534.9,1100,2
7534.9,1350,253
7534.9,1600,505
7534.9,1100,2
7534.9,1350,251
7534.9,1600,502
7534.9,1850,754
7534.9,1100,5
7534.9,1350,253
7534.9,1600,502
7534.9,1850,753
7534.9,2100,1005
7534.9,1350,257
7534.9,1600,505
7534.9,1850,754
7534.9,2100,1005
7534.9,2350,1257
7534.9,1100,5
7534.9,1350,256
7534.9,1600,508
7534.9,1100,4
7534.9,1350,253
7534.9,1600,504
7534.9,1850,756
7534.9,1100,5
7534.9,1350,253
7534.9,1600,502
7534.9,1850,753
7534.9,2100,1005
7534.9,1350,256
7534.9,1600,504
7534.9,1850,753
7534.9,2100,1004
7534.9,2350,1256
7534.9,1600,508
7534.9,1850,756
7534.9,2100,1005
7534.9,2350,1256
7534.9,2600,1508
7534.9,1100,8
7534.9,1350,257
7534.9,1600,508
7534.9,1850,760
7534.9,1100,8
7534.9,1350,256
7534.9,1600,505
7534.9,1850,756
7534.9,2100,1008
7534.9,1350,257
7534.9,1600,505
7534.9,1850,754
7534.9,2100,1005
7534.9,2350,1257
7534.9,1600,508
7534.9,1850,756
7534.9,2100,1005
7534.9,2350,1256
7534.9,2600,1508
7534.9,1850,760
7534.9,2100,1008
7534.9,2350,1257
7534.9,2600,1508
7534.9,2850,1760
7534.9,1100,5
7534.9,1350,256
7534.9,1600,508
7534.9,1100,7
7534.9,1350,256
7534.9,1600,507
7534.9,1850,759
7534.9,1100,11
7534.9,1350,259
7534.9,1600,508
7534.9,1850,759
7534.9,2100,1011
7534.9,1100,4
7534.9,1350,255
7534.9,1600,507
7534.9,1100,4
7534.9,1350,253
7534.9,1600,504
7534.9,1850,756
7534.9,1100,7
7534.9,1350,255
7534.9,1600,504
7534.9,1850,755
7534.9,2100,1007
7534.9,1350,259
7534.9,1600,507
7534.9,1850,756
7534.9,2100,1007
7534.9,2350,1259
7534.9,1100,5
7534.9,1350,256
7534.9,1600,508
7534.9,1100,4
7534.9,1350,253
7534.9,1600,504
7534.9,1850,756
7534.9,1100,5
7534.9,1350,253
7534.9,1600,502
7534.9,1850,753
7534.9,2100,1005
7534.9,1350,256
7534.9,1600,504
7534.9,1850,753
7534.9,2100,1004
7534.9,2350,1256
7534.9,1600,508
7534.9,1850,756
7534.9,2100,1005
7534.9,2350,1256
7534.9,2600,1508
7534.9,1100,7
7534.9,1350,256
7534.9,1600,507
7534.9,1850,759
7534.9,1100,7
7534.9,1350,255
7534.9,1600,504
7534.9,1850,755
7534.9,2100,1007
7534.9,1350,256
7534.9,1600,504
7534.9,1850,753
7534.9,2100,1004
7534.9,2350,1256
7534.9,1600,507
7534.9,1850,755
7534.9,2100,1004
7534.9,2350,1255
7534.9,2600,1507
7534.9,1850,759
7534.9,2100,1007
7534.9,2350,1256
7534.9,2600,1507
7534.9,2850,1759
7534.9,1100,11
7534.9,1350,259
7534.9,1600,508
7534.9,1850,759
7534.9,2100,1011
7534.9,1350,259
7534.9,1600,507
7534.9,1850,756
7534.9,2100,1007
7534.9,2350,1259
7534.9,1600,508
7534.9,1850,756
7534.9,2100,1005
7534.9,2350,1256
7534.9,2600,1508
7534.9,1850,759
7534.9,2100,1007
7534.9,2350,1256
7534.9,2600,1507
7534.9,2850,1759
7534.9,2100,1011
7534.9,2350,1259
7534.9,2600,1508
7534.9,2850,1759
7534.9,3100,2011
7534.9,1100,8
7534.9,1350,259
7534.9,1600,511
7534.9,1100,8
7534.9,1350,257
7534.9,1600,508
7534.9,1850,760
7534.9,1100,11
7534.9,1350,259
7534.9,1600,508
7534.9,1850,759
7534.9,2100,1011
7534.9,1350,263
7534.9,1600,511
7534.9,1850,760
7534.9,2100,1011
7534.9,2350,1263
7534.9,1100,8
7534.9,1350,259
7534.9,1600,511
7534.9,1100,7
7534.9,1350,256
7534.9,1600,507
7534.9,1850,759
7534.9,1100,8
7534.9,1350,256
7534.9,1600,505
7534.9,1850,756
7534.9,2100,1008
7534.9,1350,259
7534.9,1600,507
7534.9,1850,756
7534.9,2100,1007
7534.9,2350,1259
7534.9,1600,511
7534.9,1850,759
7534.9,2100,1008
7534.9,2350,1259
7534.9,2600,1511
7534.9,1100,8
7534.9,1350,257
7534.9,1600,508
7534.9,1850,760
7534.9,1100,8
7534.9,1350,256
7534.9,1600,505
7534.9,1850,756
7534.9,2100,1008
7534.9,1350,257
7534.9,1600,505
7534.9,1850,754
7534.9,2100,1005
7534.9,2350,1257
7534.9,1600,508
7534.9,1850,756
7534.9,2100,1005
7534.9,2350,1256
7534.9,2600,1508
7534.9,1850,760
7534.9,2100,1008
7534.9,2350,1257
7534.9,2600,1508
7534.9,2850,1760
7534.9,1100,11
7534.9,1350,259
7534.9,1600,508
7534.9,1850,759
7534.9,2100,1011
7534.9,1350,259
7534.9,1600,507
7534.9,1850,756
7534.9,2100,1007
7534.9,2350,1259
7534.9,1600,508
7534.9,1850,756
7534.9,2100,1005
7534.9,2350,1256
7534.9,2600,1508
7534.9,1850,759
7534.9,2100,1007
7534.9,2350,1256
7534.9,2600,1507
7534.9,2850,1759
7534.9,2100,1011
7534.9,2350,1259
7534.9,2600,1508
7534.9,2850,1759
7534.9,3100,2011
7534.9,1350,263
7534.9,1600,511
7534.9,1850,760
7534.9,2100,1011
7534.9,2350,1263
7534.9,1600,511
7534.9,1850,759
7534.9,2100,1008
7534.9,2350,1259
7534.9,2600,1511
7534.9,1850,760
7534.9,2100,1008
7534.9,2350,1257
7534.9,2600,1508
7534.9,2850,1760
7534.9,2100,1011
7534.9,2350,1259
7534.9,2600,1508
7534.9,2850,1759
7534.9,3100,2011
7534.9,2350,1263
7534.9,2600,1511
7534.9,2850,1760
7534.9,3100,2011
7534.9,3350,2263
7534.9,1100,6
7534.9,1350,257
7534.9,1600,509
7534.9,1100,8
7534.9,1350,257
7534.9,1600,508
7534.9,1850,760
7534.9,1100,12
7534.9,1350,260
7534.9,1600,509
7534.9,1850,760
7534.9,2100,1012
7534.9,1100,8
7534.9,1350,259
7534.9,1600,511
7534.9,1100,8
7534.9,1350,257
7534.9,1600,508
7534.9,1850,760
7534.9,1100,11
7534.9,1350,259
7534.9,1600,508
7534.9,1850,759
7534.9,2100,1011
7534.9,1350,263
7534.9,1600,511
7534.9,1850,760
7534.9,2100,1011
7534.9,2350,1263
7534.9,1100,12
7534.9,1350,263
7534.9,1600,515
7534.9,1100,11
7534.9,1350,260
7534.9,1600,511
7534.9,1850,763
7534.9,1100,12
7534.9,1350,260
7534.9,1600,509
7534.9,1850,760
7534.9,2100,1012
7534.9,1350,263
7534.9,1600,511
7534.9,1850,760
7534.9,2100,1011
7534.9,2350,1263
7534.9,1600,515
7534.9,1850,763
7534.9,2100,1012
7534.9,2350,1263
7534.9,2600,1515
7534.9,1100,5
7534.9,1350,256
7534.9,1600,508
7534.9,1100,7
7534.9,1350,256
7534.9,1600,507
7534.9,1850,759
7534.9,1100,11
7534.9,1350,259
7534.9,1600,508
7534.9,1850,759
7534.9,2100,1011
7534.9,1100,5
7534.9,1350,256
7534.9,1600,508
7534.9,1100,5
7534.9,1350,254
7534.9,1600,505
7534.9,1850,757
7534.9,1100,8
7534.9,1350,256
7534.9,1600,505
7534.9,1850,756
7534.9,2100,1008
7534.9,1350,260
7534.9,1600,508
7534.9,1850,757
7534.9,2100,1008
7534.9,2350,1260
7534.9,1100,8
7534.9,1350,259
7534.9,1600,511
7534.9,1100,7
7534.9,1350,256
7534.9,1600,507
7534.9,1850,759
7534.9,1100,8
7534.9,1350,256
7534.9,1600,505
7534.9,1850,756
7534.9,2100,1008
7534.9,1350,259
7534.9,1600,507
7534.9,1850,756
7534.9,2100,1007
7534.9,2350,1259
7534.9,1600,511
7534.9,1850,759
7534.9,2100,1008
7534.9,2350,1259
7534.9,2600,1511
7534.9,1100,11
7534.9,1350,260
7534.9,1600,511
7534.9,1850,763
7534.9,1100,11
7534.9,1350,259
7534.9,1600,508
7534.9,1850,759
7534.9,2100,1011
7534.9,1350,260
7534.9,1600,508
7534.9,1850,757
7534.9,2100,1008
7534.9,2350,1260
7534.9,1600,511
7534.9,1850,759
7534.9,2100,1008
7534.9,2350,1259
7534.9,2600,1511
7534.9,1850,763
7534.9,2100,1011
7534.9,2350,1260
7534.9,2600,1511
7534.9,2850,1763
7534.9,1100,6
7534.9,1350,257
7534.9,1600,509
7534.9,1100,8
7534.9,1350,257
7534.9,1600,508
7534.9,1850,760
7534.9,1100,12
7534.9,1350,260
7534.9,1600,509
7534.9,1850,760
7534.9,2100,1012
7534.9,1100,5
7534.9,1350,256
7534.9,1600,508
7534.9,1100,5
7534.9,1350,254
7534.9,1600,505
7534.9,1850,757
7534.9,1100,8
7534.9,1350,256
7534.9,1600,505
7534.9,1850,756
7534.9,2100,1008
7534.9,1350,260
7534.9,1600,508
7534.9,1850,757
7534.9,2100,1008
7534.9,2350,1260
7534.9,1100,6
7534.9,1350,257
7534.9,1600,509
7534.9,1100,5
7534.9,1350,254
7534.9,1600,505
7534.9,1850,757
7534.9,1100,6
7534.9,1350,254
7534.9,1600,503
7534.9,1850,754
7534.9,2100,1006
7534.9,1350,257
7534.9,1600,505
7534.9,1850,754
7534.9,2100,1005
7534.9,2350,1257
7534.9,1600,509
7534.9,1850,757
7534.9,2100,1006
7534.9,2350,1257
7534.9,2600,1509
7534.9,1100,8
7534.9,1350,257
7534.9,1600,508
7534.9,1850,760
7534.9,1100,8
7534.9,1350,256
7534.9,1600,505
7534.9,1850,756
7534.9,2100,1008
7534.9,1350,257
7534.9,1600,505
7534.9,1850,754
7534.9,2100,1005
7534.9,2350,1257
7534.9,1600,508
7534.9,1850,756
7534.9,2100,1005
7534.9,2350,1256
7534.9,2600,1508
7534.9,1850,760
7534.9,2100,1008
7534.9,2350,1257
7534.9,2600,1508
7534.9,2850,1760
7534.9,1100,12
7534.9,1350,260
7534.9,1600,509
7534.9,1850,760
7534.9,2100,1012
7534.9,1350,260
7534.9,1600,508
7534.9,1850,757
7534.9,2100,1008
7534.9,2350,1260
7534.9,1600,509
7534.9,1850,757
7534.9,2100,1006
7534.9,2350,1257
7534.9,2600,1509
7534.9,1850,760
7534.9,2100,1008
7534.9,2350,1257
7534.9,2600,1508
7534.9,2850,1760
7534.9,2100,1012
7534.9,2350,1260
7534.9,2600,1509
7534.9,2850,1760
7534.9,3100,2012
7534.9,1100,8
7534.9,1350,259
7534.9,1600,511
7534.9,1100,8
7534.9,1350,257
7534.9,1600,508
7534.9,1850,760
7534.9,1100,11
7534.9,1350,259
7534.9,1600,508
7534.9,1850,759
7534.9,2100,1011
7534.9,1350,263
7534.9,1600,511
7534.9,1850,760
7534.9,2100,1011
7534.9,2350,1263
7534.9,1100,8
7534.9,1350,259
7534.9,1600,511
7534.9,1100,7
7534.9,1350,256
7534.9,1600,507
7534.9,1850,759
7534.9,1100,8
7534.9,1350,256
7534.9,1600,505
7534.9,1850,756
7534.9,2100,1008
7534.9,1350,259
7534.9,1600,507
7534.9,1850,756
7534.9,2100,1007
7534.9,2350,1259
7534.9,1600,511
7534.9,1850,759
7534.9,2100,1008
7534.9,2350,1259
7534.9,2600,1511
7534.9,1100,8
7534.9,1350,257
7534.9,1600,508
7534.9,1850,760
7534.9,1100,8
7534.9,1350,256
7534.9,1600,505
7534.9,1850,756
7534.9,2100,1008
7534.9,1350,257
7534.9,1600,505
7534.9,1850,754
7534.9,2100,1005
7534.9,2350,1257
7534.9,1600,508
7534.9,1850,756
7534.9,2100,1005
7534.9,2350,1256
7534.9,2600,1508
7534.9,1850,760
7534.9,2100,1008
7534.9,2350,1257
7534.9,2600,1508
7534.9,2850,1760
7534.9,1100,11
7534.9,1350,259
7534.9,1600,508
7534.9,1850,759
7534.9,2100,1011
7534.9,1350,259
7534.9,1600,507
7534.9,1850,756
7534.9,2100,1007
7534.9,2350,1259
7534.9,1600,508
7534.9,1850,756
7534.9,2100,1005
7534.9,2350,1256
7534.9,2600,1508
7534.9,1850,759
7534.9,2100,1007
7534.9,2350,1256
7534.9,2600,1507
7534.9,2850,1759
7534.9,2100,1011
7534.9,2350,1259
7534.9,2600,1508
7534.9,2850,1759
7534.9,3100,2011
7534.9,1350,263
7534.9,1600,511
7534.9,1850,760
7534.9,2100,1011
7534.9,2350,1263
7534.9,1600,511
7534.9,1850,759
7534.9,2100,1008
7534.9,2350,1259
7534.9,2600,1511
7534.9,1850,760
7534.9,2100,1008
7534.9,2350,1257
7534.9,2600,1508
7534.9,2850,1760
7534.9,2100,1011
7534.9,2350,1259
7534.9,2600,1508
7534.9,2850,1759
7534.9,3100,2011
7534.9,2350,1263
7534.9,2600,1511
7534.9,2850,1760
7534.9,3100,2011
7534.9,3350,2263
7534.9,1100,12
7534.9,1350,263
7534.9,1600,515
7534.9,1100,11
7534.9,1350,260
7534.9,1600,511
7534.9,1850,763
7534.9,1100,12
7534.9,1350,260
7534.9,1600,509
7534.9,1850,760
7534.9,2100,1012
7534.9,1350,263
7534.9,1600,511
7534.9,1850,760
7534.9,2100,1011
7534.9,2350,1263
7534.9,1600,515
7534.9,1850,763
7534.9,2100,1012
7534.9,2350,1263
7534.9,2600,1515
7534.9,1100,11
7534.9,1350,260
7534.9,1600,511
7534.9,1850,763
7534.9,1100,11
7534.9,1350,259
7534.9,1600,508
7534.9,1850,759
7534.9,2100,1011
7534.9,1350,260
7534.9,1600,508
7534.9,1850,757
7534.9,2100,1008
7534.9,2350,1260
7534.9,1600,511
7534.9,1850,759
7534.9,2100,1008
7534.9,2350,1259
7534.9,2600,1511
7534.9,1850,763
7534.9,2100,1011
7534.9,2350,1260
7534.9,2600,1511
7534.9,2850,1763
7534.9,1100,12
7534.9,1350,260
7534.9,1600,509
7534.9,1850,760
7534.9,2100,1012
7534.9,1350,260
7534.9,1600,508
7534.9,1850,757
7534.9,2100,1008
7534.9,2350,1260
7534.9,1600,509
7534.9,1850,757
7534.9,2100,1006
7534.9,2350,1257
7534.9,2600,1509
7534.9,1850,760
7534.9,2100,1008
7534.9,2350,1257
7534.9,2600,1508
7534.9,2850,1760
7534.9,2100,1012
7534.9,2350,1260
7534.9,2600,1509
7534.9,2850,1760
7534.9,3100,2012
7534.9,1350,263
7534.9,1600,511
7534.9,1850,760
7534.9,2100,1011
7534.9,2350,1263
7534.9,1600,511
7534.9,1850,759
7534.9,2100,1008
7534.9,2350,1259
7534.9,2600,1511
7534.9,1850,760
7534.9,2100,1008
7534.9,2350,1257
7534.9,2600,1508
7534.9,2850,1760
7534.9,2100,1011
7534.9,2350,1259
7534.9,2600,1508
7534.9,2850,1759
7534.9,3100,2011
7534.9,2350,1263
7534.9,2600,1511
7534.9,2850,1760
7534.9,3100,2011
7534.9,3350,2263
7534.9,1600,515
7534.9,1850,763
7534.9,2100,1012
7534.9,2350,1263
7534.9,2600,1515
7534.9,1850,763
7534.9,2100,1011
7534.9,2350,1260
7534.9,2600,1511
7534.9,2850,1763
7534.9,2100,1012
7534.9,2350,1260
7534.9,2600,1509
7534.9,2850,1760
7534.9,3100,2012
7534.9,2350,1263
7534.9,2600,1511
7534.9,2850,1760
7534.9,3100,2011
7534.9,3350,2263
7534.9,2600,1515
7534.9,2850,1763
7534.9,3100,2012
7534.9,3350,2263
7534.9,3600,2515
8436.9,1100,0
8436.9,1350,251
8436.9,1600,503
8436.9,1100,2
8436.9,1350,251
8436.9,1600,502
8436.9,1850,754
8436.9,1100,6
8436.9,1350,254
8436.9,1600,503
8436.9,1850,754
8436.9,2100,1006
8436.9,1100,2
8436.9,1350,253
8436.9,1600,505
8436.9,1100,2
8436.9,1350,251
8436.9,1600,502
8436.9,1850,754
8436.9,1100,5
8436.9,1350,253
8436.9,1600,502
8436.9,1850,753
8436.9,2100,1005
8436.9,1350,257
8436.9,1600,505
8436.9,1850,754
8436.9,2100,1005
8436.9,2350,1257
8436.9,1100,6
8436.9,1350,257
8436.9,1600,509
8436.9,1100,5
8436.9,1350,254
8436.9,1600,505
8436.9,1850,757
8436.9,1100,6
8436.9,1350,254
8436.9,1600,503
8436.9,1850,754
8436.9,2100,1006
8436.9,1350,257
8436.9,1600,505
8436.9,1850,754
8436.9,2100,1005
8436.9,2350,1257
8436.9,1600,509
8436.9,1850,757
8436.9,2100,1006
8436.9,2350,1257
8436.9,2600,1509
8436.9,1100,2
8436.9,1350,253
8436.9,1600,505
8436.9,1100,4
8436.9,1350,253
8436.9,1600,504
8436.9,1850,756
8436.9,1100,8
8436.9,1350,256
8436.9,1600,505
8436.9,1850,756
8436.9,2100,1008
8436.9,1100,2
8436.9,1350,253
8436.9,1600,505
8436.9,1100,2
8436.9,1350,251
8436.9,1600,502
8436.9,1850,754
8436.9,1100,5
8436.9,1350,253
8436.9,1600,502
8436.9,1850,753
8436.9,2100,1005
8436.9,1350,257
8436.9,1600,505
8436.9,1850,754
8436.9,2100,1005
8436.9,2350,1257
8436.9,1100,5
8436.9,1350,256
8436.9,1600,508
8436.9,1100,4
8436.9,1350,253
8436.9,1600,504
8436.9,1850,756
8436.9,1100,5
8436.9,1350,253
8436.9,1600,502
8436.9,1850,753
8436.9,2100,1005
8436.9,1350,256
8436.9,1600,504
8436.9,1850,753
8436.9,2100,1004
8436.9,2350,1256
8436.9,1600,508
8436.9,1850,756
8436.9,2100,1005
8436.9,2350,1256
8436.9,2600,1508
8436.9,1100,8
8436.9,1350,257
8436.9,1600,508
8436.9,1850,760
8436.9,1100,8
8436.9,1350,256
8436.9,1600,505
8436.9,1850,756
8436.9,2100,1008
8436.9,1350,257
8436.9,1600,505
8436.9,1850,754
8436.9,2100,1005
8436.9,2350,1257
8436.9,1600,508
8436.9,1850,756
8436.9,2100,1005
8436.9,2350,1256
8436.9,2600,1508
8436.9,1850,760
8436.9,2100,1008
8436.9,2350,1257
8436.9,2600,1508
8436.9,2850,1760
8436.9,1100,6
8436.9,1350,257
8436.9,1600,509
8436.9,1100,8
8436.9,1350,257
8436.9,1600,508
8436.9,1850,760
8436.9,1100,12
8436.9,1350,260
8436.9,1600,509
8436.9,1850,760
8436.9,2100,1012
8436.9,1100,5
8436.9,1350,256
8436.9,1600,508
8436.9,1100,5
8436.9,1350,254
8436.9,1600,505
8436.9,1850,757
8436.9,1100,8
8436.9,1350,256
8436.9,1600,505
8436.9,1850,756
8436.9,2100,1008
8436.9,1350,260
8436.9,1600,508
8436.9,1850,757
8436.9,2100,1008
8436.9,2350,1260
8436.9,1100,6
8436.9,1350,257
8436.9,1600,509
8436.9,1100,5
8436.9,1350,254
8436.9,1600,505
8436.9,1850,757
8436.9,1100,6
8436.9,1350,254
8436.9,1600,503
8436.9,1850,754
8436.9,2100,1006
8436.9,1350,257
8436.9,1600,505
8436.9,1850,754
8436.9,2100,1005
8436.9,2350,1257
8436.9,1600,509
8436.9,1850,757
8436.9,2100,1006
8436.9,2350,1257
8436.9,2600,1509
8436.9,1100,8
8436.9,1350,257
8436.9,1600,508
8436.9,1850,760
8436.9,1100,8
8436.9,1350,256
8436.9,1600,505
8436.9,1850,756
8436.9,2100,1008
8436.9,1350,257
8436.9,1600,505
8436.9,1850,754
8436.9,2100,1005
8436.9,2350,1257
8436.9,1600,508
8436.9,1850,756
8436.9,2100,1005
8436.9,2350,1256
8436.9,2600,1508
8436.9,1850,760
8436.9,2100,1008
8436.9,2350,1257
8436.9,2600,1508
8436.9,2850,1760
8436.9,1100,12
8436.9,1350,260
8436.9,1600,509
8436.9,1850,760
8436.9,2100,1012
8436.9,1350,260
8436.9,1600,508
8436.9,1850,757
8436.9,2100,1008
8436.9,2350,1260
8436.9,1600,509
8436.9,1850,757
8436.9,2100,1006
8436.9,2350,1257
8436.9,2600,1509
8436.9,1850,760
8436.9,2100,1008
8436.9,2350,1257
8436.9,2600,1508
8436.9,2850,1760
8436.9,2100,1012
8436.9,2350,1260
8436.9,2600,1509
8436.9,2850,1760
8436.9,3100,2012
8436.9,1100,2
8436.9,1350,253
8436.9,1600,505
8436.9,1100,4
8436.9,1350,253
8436.9,1600,504
8436.9,1850,756
8436.9,1100,8
8436.9,1350,256
8436.9,1600,505
8436.9,1850,756
8436.9,2100,1008
8436.9,1100,4
8436.9,1350,255
8436.9,1600,507
8436.9,1100,4
8436.9,1350,253
8436.9,1600,504
8436.9,1850,756
8436.9,1100,7
8436.9,1350,255
8436.9,1600,504
8436.9,1850,755
8436.9,2100,1007
8436.9,1350,259
8436.9,1600,507
8436.9,1850,756
8436.9,2100,1007
8436.9,2350,1259
8436.9,1100,8
8436.9,1350,259
8436.9,1600,511
8436.9,1100,7
8436.9,1350,256
8436.9,1600,507
8436.9,1850,759
8436.9,1100,8
8436.9,1350,256
8436.9,1600,505
8436.9,1850,756
8436.9,2100,1008
8436.9,1350,259
8436.9,1600,507
8436.9,1850,756
8436.9,2100,1007
8436.9,2350,1259
8436.9,1600,511
8436.9,1850,759
8436.9,2100,1008
8436.9,2350,1259
8436.9,2600,1511
8436.9,1100,2
8436.9,1350,253
8436.9,1600,505
8436.9,1100,4
8436.9,1350,253
8436.9,1600,504
8436.9,1850,756
8436.9,1100,8
8436.9,1350,256
8436.9,1600,505
8436.9,1850,756
8436.9,2100,1008
8436.9,1100,2
8436.9,1350,253
8436.9,1600,505
8436.9,1100,2
8436.9,1350,251
8436.9,1600,502
8436.9,1850,754
8436.9,1100,5
8436.9,1350,253
8436.9,1600,502
8436.9,1850,753
8436.9,2100,1005
8436.9,1350,257
8436.9,1600,505
8436.9,1850,754
8436.9,2100,1005
8436.9,2350,1257
8436.9,1100,5
8436.9,1350,256
8436.9,1600,508
8436.9,1100,4
8436.9,1350,253
8436.9,1600,504
8436.9,1850,756
8436.9,1100,5
8436.9,1350,253
8436.9,1600,502
8436.9,1850,753
8436.9,2100,1005
8436.9,1350,256
8436.9,1600,504
8436.9,1850,753
8436.9,2100,1004
8436.9,2350,1256
8436.9,1600,508
8436.9,1850,756
8436.9,2100,1005
8436.9,2350,1256
8436.9,2600,1508
8436.9,1100,8
8436.9,1350,257
8436.9,1600,508
8436.9,1850,760
8436.9,1100,8
8436.9,1350,256
8436.9,1600,505
8436.9,1850,756
8436.9,2100,1008
8436.9,1350,257
8436.9,1600,505
8436.9,1850,754
8436.9,2100,1005
8436.9,2350,1257
8436.9,1600,508
8436.9,1850,756
8436.9,2100,1005
8436.9,2350,1256
8436.9,2600,1508
8436.9,1850,760
8436.9,2100,1008
8436.9,2350,1257
8436.9,2600,1508
8436.9,2850,1760
8436.9,1100,5
8436.9,1350,256
8436.9,1600,508
8436.9,1100,7
8436.9,1350,256
8436.9,1600,507
8436.9,1850,759
8436.9,1100,11
8436.9,1350,259
8436.9,1600,508
8436.9,1850,759
8436.9,2100,1011
8436.9,1100,4
8436.9,1350,255
8436.9,1600,507
8436.9,1100,4
8436.9,1350,253
8436.9,1600,504
8436.9,1850,756
8436.9,1100,7
8436.9,1350,255
8436.9,1600,504
8436.9,1850,755
8436.9,2100,1007
8436.9,1350,259
8436.9,1600,507
8436.9,1850,756
8436.9,2100,1007
8436.9,2350,1259
8436.9,1100,5
8436.9,1350,256
8436.9,1600,508
8436.9,1100,4
8436.9,1350,253
8436.9,1600,504
8436.9,1850,756
8436.9,1100,5
8436.9,1350,253
8436.9,1600,502
8436.9,1850,753
8436.9,2100,1005
8436.9,1350,256
8436.9,1600,504
8436.9,1850,753
8436.9,2100,1004
8436.9,2350,1256
8436.9,1600,508
8436.9,1850,756
8436.9,2100,1005
8436.9,2350,1256
8436.9,2600,1508
8436.9,1100,7
8436.9,1350,256
8436.9,1600,507
8436.9,1850,759
8436.9,1100,7
8436.9,1350,255
8436.9,1600,504
8436.9,1850,755
8436.9,2100,1007
8436.9,1350,256
8436.9,1600,504
8436.9,1850,753
8436.9,2100,1004
8436.9,2350,1256
8436.9,1600,507
8436.9,1850,755
8436.9,2100,1004
8436.9,2350,1255
8436.9,2600,1507
8436.9,1850,759
8436.9,2100,1007
8436.9,2350,1256
8436.9,2600,1507
8436.9,2850,1759
8436.9,1100,11
8436.9,1350,259
8436.9,1600,508
8436.9,1850,759
8436.9,2100,1011
8436.9,1350,259
8436.9,1600,507
8436.9,1850,756
8436.9,2100,1007
8436.9,2350,1259
8436.9,1600,508
8436.9,1850,756
8436.9,2100,1005
8436.9,2350,1256
8436.9,2600,1508
8436.9,1850,759
8436.9,2100,1007
8436.9,2350,1256
8436.9,2600,1507
8436.9,2850,1759
8436.9,2100,1011
8436.9,2350,1259
8436.9,2600,1508
8436.9,2850,1759
8436.9,3100,2011
8436.9,1100,8
8436.9,1350,259
8436.9,1600,511
8436.9,1100,8
8436.9,1350,257
8436.9,1600,508
8436.9,1850,760
8436.9,1100,11
8436.9,1350,259
8436.9,1600,508
8436.9,1850,759
8436.9,2100,1011
8436.9,1350,263
8436.9,1600,511
8436.9,1850,760
8436.9,2100,1011
8436.9,2350,1263
8436.9,1100,8
8436.9,1350,259
8436.9,1600,511
8436.9,1100,7
8436.9,1350,256
8436.9,1600,507
8436.9,1850,759
8436.9,1100,8
8436.9,1350,256
8436.9,1600,505
8436.9,1850,756
8436.9,2100,1008
8436.9,1350,259
8436.9,1600,507
8436.9,1850,756
8436.9,2100,1007
8436.9,2350,1259
8436.9,1600,511
8436.9,1850,759
8436.9,2100,1008
8436.9,2350,1259
8436.9,2600,1511
8436.9,1100,8
8436.9,1350,257
8436.9,1600,508
8436.9,1850,760
8436.9,1100,8
8436.9,1350,256
8436.9,1600,505
8436.9,1850,756
8436.9,2100,1008
8436.9,1350,257
8436.9,1600,505
8436.9,1850,754
8436.9,2100,1005
8436.9,2350,1257
8436.9,1600,508
8436.9,1850,756
8436.9,2100,1005
8436.9,2350,1256
8436.9,2600,1508
8436.9,1850,760
8436.9,2100,1008
8436.9,2350,1257
8436.9,2600,1508
8436.9,2850,1760
8436.9,1100,11
8436.9,1350,259
8436.9,1600,508
8436.9,1850,759
8436.9,2100,1011
8436.9,1350,259
8436.9,1600,507
8436.9,1850,756
8436.9,2100,1007
8436.9,2350,1259
8436.9,1600,508
8436.9,1850,756
8436.9,2100,1005
8436.9,2350,1256
8436.9,2600,1508
8436.9,1850,759
8436.9,2100,1007
8436.9,2350,1256
8436.9,2600,1507
8436.9,2850,1759
8436.9,2100,1011
8436.9,2350,1259
8436.9,2600,1508
8436.9,2850,1759
8436.9,3100,2011
8436.9,1350,263
8436.9,1600,511
8436.9,1850,760
8436.9,2100,1011
8436.9,2350,1263
8436.9,1600,511
8436.9,1850,759
8436.9,2100,1008
8436.9,2350,1259
8436.9,2600,1511
8436.9,1850,760
8436.9,2100,1008
8436.9,2350,1257
8436.9,2600,1508
8436.9,2850,1760
8436.9,2100,1011
8436.9,2350,1259
8436.9,2600,1508
8436.9,2850,1759
8436.9,3100,2011
8436.9,2350,1263
8436.9,2600,1511
8436.9,2850,1760
8436.9,3100,2011
8436.9,3350,2263
8436.9,1100,6
8436.9,1350,257
8436.9,1600,509
8436.9,1100,8
8436.9,1350,257
8436.9,1600,508
8436.9,1850,760
8436.9,1100,12
8436.9,1350,260
8436.9,1600,509
8436.9,1850,760
8436.9,2100,1012
8436.9,1100,8
8436.9,1350,259
8436.9,1600,511
8436.9,1100,8
8436.9,1350,257
8436.9,1600,508
8436.9,1850,760
8436.9,1100,11
8436.9,1350,259
8436.9,1600,508
8436.9,1850,759
8436.9,2100,1011
8436.9,1350,263
8436.9,1600,511
8436.9,1850,760
8436.9,2100,1011
8436.9,2350,1263
8436.9,1100,12
8436.9,1350,263
8436.9,1600,515
8436.9,1100,11
8436.9,1350,260
8436.9,1600,511
8436.9,1850,763
8436.9,1100,12
8436.9,1350,260
8436.9,1600,509
8436.9,1850,760
8436.9,2100,1012
8436.9,1350,263
8436.9,1600,511
8436.9,1850,760
8436.9,2100,1011
8436.9,2350,1263
8436.9,1600,515
8436.9,1850,763
8436.9,2100,1012
8436.9,2350,1263
8436.9,2600,1515
8436.9,1100,5
8436.9,1350,256
8436.9,1600,508
8436.9,1100,7
8436.9,1350,256
8436.9,1600,507
8436.9,1850,759
8436.9,1100,11
8436.9,1350,259
8436.9,1600,508
8436.9,1850,759
8436.9,2100,1011
8436.9,1100,5
8436.9,1350,256
8436.9,1600,508
8436.9,1100,5
8436.9,1350,254
8436.9,1600,505
8436.9,1850,757
8436.9,1100,8
8436.9,1350,256
8436.9,1600,505
8436.9,1850,756
8436.9,2100,1008
8436.9,1350,260
8436.9,1600,508
8436.9,1850,757
8436.9,2100,1008
8436.9,2350,1260
8436.9,1100,8
8436.9,1350,259
8436.9,1600,511
8436.9,1100,7
8436.9,1350,256
8436.9,1600,507
8436.9,1850,759
8436.9,1100,8
8436.9,1350,256
8436.9,1600,505
8436.9,1850,756
8436.9,2100,1008
8436.9,1350,259
8436.9,1600,507
8436.9,1850,756
8436.9,2100,1007
8436.9,2350,1259
8436.9,1600,511
8436.9,1850,759
8436.9,2100,1008
8436.9,2350,1259
8436.9,2600,1511
8436.9,1100,11
8436.9,1350,260
8436.9,1600,511
8436.9,1850,763
8436.9,1100,11
8436.9,1350,259
8436.9,1600,508
8436.9,1850,759
8436.9,2100,1011
8436.9,1350,260
8436.9,1600,508
8436.9,1850,757
8436.9,2100,1008
8436.9,2350,1260
8436.9,1600,511
8436.9,1850,759
8436.9,2100,1008
8436.9,2350,1259
8436.9,2600,1511
8436.9,1850,763
8436.9,2100,1011
8436.9,2350,1260
8436.9,2600,1511
8436.9,2850,1763
8436.9,1100,6
8436.9,1350,257
8436.9,1600,509
8436.9,1100,8
8436.9,1350,257
8436.9,1600,508
8436.9,1850,760
8436.9,1100,12
8436.9,1350,260
8436.9,1600,509
8436.9,1850,760
8436.9,2100,1012
8436.9,1100,5
8436.9,1350,256
8436.9,1600,508
8436.9,1100,5
8436.9,1350,254
8436.9,1600,505
8436.9,1850,757
8436.9,1100,8
8436.9,1350,256
8436.9,1600,505
8436.9,1850,756
8436.9,2100,1008
8436.9,1350,260
8436.9,1600,508
8436.9,1850,757
8436.9,2100,1008
8436.9,2350,1260
8436.9,1100,6
8436.9,1350,257
8436.9,1600,509
8436.9,1100,5
8436.9,1350,254
8436.9,1600,505
8436.9,1850,757
8436.9,1100,6
8436.9,1350,254
8436.9,1600,503
8436.9,1850,754
8436.9,2100,1006
8436.9,1350,257
8436.9,1600,505
8436.9,1850,754
8436.9,2100,1005
8436.9,2350,1257
8436.9,1600,509
8436.9,1850,757
8436.9,2100,1006
8436.9,2350,1257
8436.9,2600,1509
8436.9,1100,8
8436.9,1350,257
8436.9,1600,508
8436.9,1850,760
8436.9,1100,8
8436.9,1350,256
8436.9,1600,505
8436.9,1850,756
8436.9,2100,1008
8436.9,1350,257
8436.9,1600,505
8436.9,1850,754
8436.9,2100,1005
8436.9,2350,1257
8436.9,1600,508
8436.9,1850,756
8436.9,2100,1005
8436.9,2350,1256
8436.9,2600,1508
8436.9,1850,760
8436.9,2100,1008
8436.9,2350,1257
8436.9,2600,1508
8436.9,2850,1760
8436.9,1100,12
8436.9,1350,260
8436.9,1600,509
8436.9,1850,760
8436.9,2100,1012
8436.9,1350,260
8436.9,1600,508
8436.9,1850,757
8436.9,2100,1008
8436.9,2350,1260
8436.9,1600,509
8436.9,1850,757
8436.9,2100,1006
8436.9,2350,1257
8436.9,2600,1509
8436.9,1850,760
8436.9,2100,1008
8436.9,2350,1257
8436.9,2600,1508
8436.9,2850,1760
8436.9,2100,1012
8436.9,2350,1260
8436.9,2600,1509
8436.9,2850,1760
8436.9,3100,2012
8436.9,1100,8
8436.9,1350,259
8436.9,1600,511
8436.9,1100,8
8436.9,1350,257
8436.9,1600,508
8436.9,1850,760
8436.9,1100,11
8436.9,1350,259
8436.9,1600,508
8436.9,1850,759
8436.9,2100,1011
8436.9,1350,263
8436.9,1600,511
8436.9,1850,760
8436.9,2100,1011
8436.9,2350,1263
8436.9,1100,8
8436.9,1350,259
8436.9,1600,511
8436.9,1100,7
8436.9,1350,256
8436.9,1600,507
8436.9,1850,759
8436.9,1100,8
8436.9,1350,256
8436.9,1600,505
8436.9,1850,756
8436.9,2100,1008
8436.9,1350,259
8436.9,1600,507
8436.9,1850,756
8436.9,2100,1007
8436.9,2350,1259
8436.9,1600,511
8436.9,1850,759
8436.9,2100,1008
8436.9,2350,1259
8436.9,2600,1511
8436.9,1100,8
8436.9,1350,257
8436.9,1600,508
8436.9,1850,760
8436.9,1100,8
8436.9,1350,256
8436.9,1600,505
8436.9,1850,756
8436.9,2100,1008
8436.9,1350,257
8436.9,1600,505
8436.9,1850,754
8436.9,2100,1005
8436.9,2350,1257
8436.9,1600,508
8436.9,1850,756
8436.9,2100,1005
8436.9,2350,1256
8436.9,2600,1508
8436.9,1850,760
8436.9,2100,1008
8436.9,2350,1257
8436.9,2600,1508
8436.9,2850,1760
8436.9,1100,11
8436.9,1350,259
8436.9,1600,508
8436.9,1850,759
8436.9,2100,1011
8436.9,1350,259
8436.9,1600,507
8436.9,1850,756
8436.9,2100,1007
8436.9,2350,1259
8436.9,1600,508
8436.9,1850,756
8436.9,2100,1005
8436.9,2350,1256
8436.9,2600,1508
8436.9,1850,759
8436.9,2100,1007
8436.9,2350,1256
8436.9,2600,1507
8436.9,2850,1759
8436.9,2100,1011
8436.9,2350,1259
8436.9,2600,1508
8436.9,2850,1759
8436.9,3100,2011
8436.9,1350,263
8436.9,1600,511
8436.9,1850,760
8436.9,2100,1011
8436.9,2350,1263
8436.9,1600,511
8436.9,1850,759
8436.9,2100,1008
8436.9,2350,1259
8436.9,2600,1511
8436.9,1850,760
8436.9,2100,1008
8436.9,2350,1257
8436.9,2600,1508
8436.9,2850,1760
8436.9,2100,1011
8436.9,2350,1259
8436.9,2600,1508
8436.9,2850,1759
8436.9,3100,2011
8436.9,2350,1263
8436.9,2600,1511
8436.9,2850,1760
8436.9,3100,2011
8436.9,3350,2263
8436.9,1100,12
8436.9,1350,263
8436.9,1600,515
8436.9,1100,11
8436.9,1350,260
8436.9,1600,511
8436.9,1850,763
8436.9,1100,12
8436.9,1350,260
8436.9,1600,509
8436.9,1850,760
8436.9,2100,1012
8436.9,1350,263
8436.9,1600,511
8436.9,1850,760
8436.9,2100,1011
8436.9,2350,1263
8436.9,1600,515
8436.9,1850,763
8436.9,2100,1012
8436.9,2350,1263
8436.9,2600,1515
8436.9,1100,11
8436.9,1350,260
8436.9,1600,511
8436.9,1850,763
8436.9,1100,11
8436.9,1350,259
8436.9,1600,508
8436.9,1850,759
8436.9,2100,1011
8436.9,1350,260
8436.9,1600,508
8436.9,1850,757
8436.9,2100,1008
8436.9,2350,1260
8436.9,1600,511
8436.9,1850,759
8436.9,2100,1008
8436.9,2350,1259
8436.9,2600,1511
8436.9,1850,763
8436.9,2100,1011
8436.9,2350,1260
8436.9,2600,1511
8436.9,2850,1763
8436.9,1100,12
8436.9,1350,260
8436.9,1600,509
8436.9,1850,760
8436.9,2100,1012
8436.9,1350,260
8436.9,1600,508
8436.9,1850,757
8436.9,2100,1008
8436.9,2350,1260
8436.9,1600,509
8436.9,1850,757
8436.9,2100,1006
8436.9,2350,1257
8436.9,2600,1509
8436.9,1850,760
8436.9,2100,1008
8436.9,2350,1257
8436.9,2600,1508
8436.9,2850,1760
8436.9,2100,1012
8436.9,2350,1260
8436.9,2600,1509
8436.9,2850,1760
8436.9,3100,2012
8436.9,1350,263
8436.9,1600,511
8436.9,1850,760
8436.9,2100,1011
8436.9,2350,1263
8436.9,1600,511
8436.9,1850,759
8436.9,2100,1008
8436.9,2350,1259
8436.9,2600,1511
8436.9,1850,760
8436.9,2100,1008
8436.9,2350,1257
8436.9,2600,1508
8436.9,2850,1760
8436.9,2100,1011
8436.9,2350,1259
8436.9,2600,1508
8436.9,2850,1759
8436.9,3100,2011
8436.9,2350,1263
8436.9,2600,1511
8436.9,2850,1760
8436.9,3100,2011
8436.9,3350,2263
8436.9,1600,515
8436.9,1850,763
8436.9,2100,1012
8436.9,2350,1263
8436.9,2600,1515
8436.9,1850,763
8436.9,2100,1011
8436.9,2350,1260
8436.9,2600,1511
8436.9,2850,1763
8436.9,2100,1012
8436.9,2350,1260
8436.9,2600,1509
8436.9,2850,1760
8436.9,3100,2012
8436.9,2350,1263
8436.9,2600,1511
8436.9,2850,1760
8436.9,3100,2011
8436.9,3350,2263
8436.9,2600,1515
8436.9,2850,1763
8436.9,3100,2012
8436.9,3350,2263
8436.9,3600,2515
8436.9,1100,2
8436.9,1350,253
8436.9,1600,505
8436.9,1100,4
8436.9,1350,253
8436.9,1600,504
8436.9,1850,756
8436.9,1100,8
8436.9,1350,256
8436.9,1600,505
8436.9,1850,756
8436.9,2100,1008
8436.9,1100,4
8436.9,1350,255
8436.9,1600,507
8436.9,1100,4
8436.9,1350,253
8436.9,1600,504
8436.9,1850,756
8436.9,1100,7
8436.9,1350,255
8436.9,1600,504
8436.9,1850,755
8436.9,2100,1007
8436.9,1350,259
8436.9,1600,507
8436.9,1850,756
8436.9,2100,1007
8436.9,2350,1259
8436.9,1100,8
8436.9,1350,259
8436.9,1600,511
8436.9,1100,7
8436.9,1350,256
8436.9,1600,507
8436.9,1850,759
8436.9,1100,8
8436.9,1350,256
8436.9,1600,505
8436.9,1850,756
8436.9,2100,1008
8436.9,1350,259
8436.9,1600,507
8436.9,1850,756
8436.9,2100,1007
8436.9,2350,1259
8436.9,1600,511
8436.9,1850,759
8436.9,2100,1008
8436.9,2350,1259
8436.9,2600,1511
8436.9,1100,4
8436.9,1350,255
8436.9,1600,507
8436.9,1100,6
8436.9,1350,255
8436.9,1600,506
8436.9,1850,758
8436.9,1100,10
8436.9,1350,258
8436.9,1600,507
8436.9,1850,758
8436.9,2100,1010
8436.9,1100,4
8436.9,1350,255
8436.9,1600,507
8436.9,1100,4
8436.9,1350,253
8436.9,1600,504
8436.9,1850,756
8436.9,1100,7
8436.9,1350,255
8436.9,1600,504
8436.9,1850,755
8436.9,2100,1007
8436.9,1350,259
8436.9,1600,507
8436.9,1850,756
8436.9,2100,1007
8436.9,2350,1259
8436.9,1100,7
8436.9,1350,258
8436.9,1600,510
8436.9,1100,6
8436.9,1350,255
8436.9,1600,506
8436.9,1850,758
8436.9,1100,7
8436.9,1350,255
8436.9,1600,504
8436.9,1850,755
8436.9,2100,1007
8436.9,1350,258
8436.9,1600,506
8436.9,1850,755
8436.9,2100,1006
8436.9,2350,1258
8436.9,1600,510
8436.9,1850,758
8436.9,2100,1007
8436.9,2350,1258
8436.9,2600,1510
8436.9,1100,10
8436.9,1350,259
8436.9,1600,510
8436.9,1850,762
8436.9,1100,10
8436.9,1350,258
8436.9,1600,507
8436.9,1850,758
8436.9,2100,1010
8436.9,1350,259
8436.9,1600,507
8436.9,1850,756
8436.9,2100,1007
8436.9,2350,1259
8436.9,1600,510
8436.9,1850,758
8436.9,2100,1007
8436.9,2350,1258
8436.9,2600,1510
8436.9,1850,762
8436.9,2100,1010
8436.9,2350,1259
8436.9,2600,1510
8436.9,2850,1762
8436.9,1100,8
8436.9,1350,259
8436.9,1600,511
8436.9,1100,10
8436.9,1350,259
8436.9,1600,510
8436.9,1850,762
8436.9,1100,14
8436.9,1350,262
8436.9,1600,511
8436.9,1850,762
8436.9,2100,1014
8436.9,1100,7
8436.9,1350,258
8436.9,1600,510
8436.9,1100,7
8436.9,1350,256
8436.9,1600,507
8436.9,1850,759
8436.9,1100,10
8436.9,1350,258
8436.9,1600,507
8436.9,1850,758
8436.9,2100,1010
8436.9,1350,262
8436.9,1600,510
8436.9,1850,759
8436.9,2100,1010
8436.9,2350,1262
8436.9,1100,8
8436.9,1350,259
8436.9,1600,511
8436.9,1100,7
8436.9,1350,256
8436.9,1600,507
8436.9,1850,759
8436.9,1100,8
8436.9,1350,256
8436.9,1600,505
8436.9,1850,756
8436.9,2100,1008
8436.9,1350,259
8436.9,1600,507
8436.9,1850,756
8436.9,2100,1007
8436.9,2350,1259
8436.9,1600,511
8436.9,1850,759
8436.9,2100,1008
8436.9,2350,1259
8436.9,2600,1511
8436.9,1100,10
8436.9,1350,259
8436.9,1600,510
8436.9,1850,762
8436.9,1100,10
8436.9,1350,258
8436.9,1600,507
8436.9,1850,758
8436.9,2100,1010
8436.9,1350,259
8436.9,1600,507
8436.9,1850,756
8436.9,2100,1007
8436.9,2350,1259
8436.9,1600,510
8436.9,1850,758
8436.9,2100,1007
8436.9,2350,1258
8436.9,2600,1510
8436.9,1850,762
8436.9,2100,1010
8436.9,2350,1259
8436.9,2600,1510
8436.9,2850,1762
8436.9,1100,14
8436.9,1350,262
8436.9,1600,511
8436.9,1850,762
8436.9,2100,1014
8436.9,1350,262
8436.9,1600,510
8436.9,1850,759
8436.9,2100,1010
8436.9,2350,1262
8436.9,1600,511
8436.9,1850,759
8436.9,2100,1008
8436.9,2350,1259
8436.9,2600,1511
8436.9,1850,762
8436.9,2100,1010
8436.9,2350,1259
8436.9,2600,1510
8436.9,2850,1762
8436.9,2100,1014
8436.9,2350,1262
8436.9,2600,1511
8436.9,2850,1762
8436.9,3100,2014
8436.9,1100,2
8436.9,1350,253
8436.9,1600,505
8436.9,1100,4
8436.9,1350,253
8436.9,1600,504
8436.9,1850,756
8436.9,1100,8
8436.9,1350,256
8436.9,1600,505
8436.9,1850,756
8436.9,2100,1008
8436.9,1100,4
8436.9,1350,255
8436.9,1600,507
8436.9,1100,4
8436.9,1350,253
8436.9,1600,504
8436.9,1850,756
8436.9,1100,7
8436.9,1350,255
8436.9,1600,504
8436.9,1850,755
8436.9,2100,1007
8436.9,1350,259
8436.9,1600,507
8436.9,1850,756
8436.9,2100,1007
8436.9,2350,1259
8436.9,1100,8
8436.9,1350,259
8436.9,1600,511
8436.9,1100,7
8436.9,1350,256
8436.9,1600,507
8436.9,1850,759
8436.9,1100,8
8436.9,1350,256
8436.9,1600,505
8436.9,1850,756
8436.9,2100,1008
8436.9,1350,259
8436.9,1600,507
8436.9,1850,756
8436.9,2100,1007
8436.9,2350,1259
8436.9,1600,511
8436.9,1850,759
8436.9,2100,1008
8436.9,2350,1259
8436.9,2600,1511
8436.9,1100,2
8436.9,1350,253
8436.9,1600,505
8436.9,1100,4
8436.9,1350,253
8436.9,1600,504
8436.9,1850,756
8436.9,1100,8
8436.9,1350,256
8436.9,1600,505
8436.9,1850,756
8436.9,2100,1008
8436.9,1100,2
8436.9,1350,253
8436.9,1600,505
8436.9,1100,2
8436.9,1350,251
8436.9,1600,502
8436.9,1850,754
8436.9,1100,5
8436.9,1350,253
8436.9,1600,502
8436.9,1850,753
8436.9,2100,1005
8436.9,1350,257
8436.9,1600,505
8436.9,1850,754
8436.9,2100,1005
8436.9,2350,1257
8436.9,1100,5
8436.9,1350,256
8436.9,1600,508
8436.9,1100,4
8436.9,1350,253
8436.9,1600,504
8436.9,1850,756
8436.9,1100,5
8436.9,1350,253
8436.9,1600,502
8436.9,1850,753
8436.9,2100,1005
8436.9,1350,256
8436.9,1600,504
8436.9,1850,753
8436.9,2100,1004
8436.9,2350,1256
8436.9,1600,508
8436.9,1850,756
8436.9,2100,1005
8436.9,2350,1256
8436.9,2600,1508
8436.9,1100,8
8436.9,1350,257
8436.9,1600,508
8436.9,1850,760
8436.9,1100,8
8436.9,1350,256
8436.9,1600,505
8436.9,1850,756
8436.9,2100,1008
8436.9,1350,257
8436.9,1600,505
8436.9,1850,754
8436.9,2100,1005
8436.9,2350,1257
8436.9,1600,508
8436.9,1850,756
8436.9,2100,1005
8436.9,2350,1256
8436.9,2600,1508
8436.9,1850,760
8436.9,2100,1008
8436.9,2350,1257
8436.9,2600,1508
8436.9,2850,1760
8436.9,1100,5
8436.9,1350,256
8436.9,1600,508
8436.9,1100,7
8436.9,1350,256
8436.9,1600,507
8436.9,1850,759
8436.9,1100,11
8436.9,1350,259
8436.9,1600,508
8436.9,1850,759
8436.9,2100,1011
8436.9,1100,4
8436.9,1350,255
8436.9,1600,507
8436.9,1100,4
8436.9,1350,253
8436.9,1600,504
8436.9,1850,756
8436.9,1100,7
8436.9,1350,255
8436.9,1600,504
8436.9,1850,755
8436.9,2100,1007
8436.9,1350,259
8436.9,1600,507
8436.9,1850,756
8436.9,2100,1007
8436.9,2350,1259
8436.9,1100,5
8436.9,1350,256
8436.9,1600,508
8436.9,1100,4
8436.9,1350,253
8436.9,1600,504
8436.9,1850,756
8436.9,1100,5
8436.9,1350,253
8436.9,1600,502
8436.9,1850,753
8436.9,2100,1005
8436.9,1350,256
8436.9,1600,504
8436.9,1850,753
8436.9,2100,1004
8436.9,2350,1256
8436.9,1600,508
8436.9,1850,756
8436.9,2100,1005
8436.9,2350,1256
8436.9,2600,1508
8436.9,1100,7
8436.9,1350,256
8436.9,1600,507
8436.9,1850,759
8436.9,1100,7
8436.9,1350,255
8436.9,1600,504
8436.9,1850,755
8436.9,2100,1007
8436.9,1350,256
8436.9,1600,504
8436.9,1850,753
8436.9,2100,1004
8436.9,2350,1256
8436.9,1600,507
8436.9,1850,755
8436.9,2100,1004
8436.9,2350,1255
8436.9,2600,1507
8436.9,1850,759
8436.9,2100,1007
8436.9,2350,1256
8436.9,2600,1507
8436.9,2850,1759
8436.9,1100,11
8436.9,1350,259
8436.9,1600,508
8436.9,1850,759
8436.9,2100,1011
8436.9,1350,259
8436.9,1600,507
8436.9,1850,756
8436.9,2100,1007
8436.9,2350,1259
8436.9,1600,508
8436.9,1850,756
8436.9,2100,1005
8436.9,2350,1256
8436.9,2600,1508
8436.9,1850,759
8436.9,2100,1007
8436.9,2350,1256
8436.9,2600,1507
8436.9,2850,1759
8436.9,2100,1011
8436.9,2350,1259
8436.9,2600,1508
8436.9,2850,1759
8436.9,3100,2011
8436.9,1100,8
8436.9,1350,259
8436.9,1600,511
8436.9,1100,8
8436.9,1350,257
8436.9,1600,508
8436.9,1850,760
8436.9,1100,11
8436.9,1350,259
8436.9,1600,508
8436.9,1850,759
8436.9,2100,1011
8436.9,1350,263
8436.9,1600,511
8436.9,1850,760
8436.9,2100,1011
8436.9,2350,1263
8436.9,1100,8
8436.9,1350,259
8436.9,1600,511
8436.9,1100,7
8436.9,1350,256
8436.9,1600,507
8436.9,1850,759
8436.9,1100,8
8436.9,1350,256
8436.9,1600,505
8436.9,1850,756
8436.9,2100,1008
8436.9,1350,259
8436.9,1600,507
8436.9,1850,756
8436.9,2100,1007
8436.9,2350,1259
8436.9,1600,511
8436.9,1850,759
8436.9,2100,1008
8436.9,2350,1259
8436.9,2600,1511
8436.9,1100,8
8436.9,1350,257
8436.9,1600,508
8436.9,1850,760
8436.9,1100,8
8436.9,1350,256
8436.9,1600,505
8436.9,1850,756
8436.9,2100,1008
8436.9,1350,257
8436.9,1600,505
8436.9,1850,754
8436.9,2100,1005
8436.9,2350,1257
8436.9,1600,508
8436.9,1850,756
8436.9,2100,1005
8436.9,2350,1256
8436.9,2600,1508
8436.9,1850,760
8436.9,2100,1008
8436.9,2350,1257
8436.9,2600,1508
8436.9,2850,1760
8436.9,1100,11
8436.9,1350,259
8436.9,1600,508
8436.9,1850,759
8436.9,2100,1011
8436.9,1350,259
8436.9,1600,507
8436.9,1850,756
8436.9,2100,1007
8436.9,2350,1259
8436.9,1600,508
8436.9,1850,756
8436.9,2100,1005
8436.9,2350,1256
8436.9,2600,1508
8436.9,1850,759
8436.9,2100,1007
8436.9,2350,1256
8436.9,2600,1507
8436.9,2850,1759
8436.9,2100,1011
8436.9,2350,1259
8436.9,2600,1508
8436.9,2850,1759
8436.9,3100,2011
8436.9,1350,263
8436.9,1600,511
8436.9,1850,760
8436.9,2100,1011
8436.9,2350,1263
8436.9,1600,511
8436.9,1850,759
8436.9,2100,1008
8436.9,2350,1259
8436.9,2600,1511
8436.9,1850,760
8436.9,2100,1008
8436.9,2350,1257
8436.9,2600,1508
8436.9,2850,1760
8436.9,2100,1011
8436.9,2350,1259
8436.9,2600,1508
8436.9,2850,1759
8436.9,3100,2011
8436.9,2350,1263
8436.9,2600,1511
8436.9,2850,1760
8436.9,3100,2011
8436.9,3350,2263
8436.9,1100,5
8436.9,1350,256
8436.9,1600,508
8436.9,1100,7
8436.9,1350,256
8436.9,1600,507
8436.9,1850,759
8436.9,1100,11
8436.9,1350,259
8436.9,1600,508
8436.9,1850,759
8436.9,2100,1011
8436.9,1100,7
8436.9,1350,258
8436.9,1600,510
8436.9,1100,7
8436.9,1350,256
8436.9,1600,507
8436.9,1850,759
8436.9,1100,10
8436.9,1350,258
8436.9,1600,507
8436.9,1850,758
8436.9,2100,1010
8436.9,1350,262
8436.9,1600,510
8436.9,1850,759
8436.9,2100,1010
8436.9,2350,1262
8436.9,1100,11
8436.9,1350,262
8436.9,1600,514
8436.9,1100,10
8436.9,1350,259
8436.9,1600,510
8436.9,1850,762
8436.9,1100,11
8436.9,1350,259
8436.9,1600,508
8436.9,1850,759
8436.9,2100,1011
8436.9,1350,262
8436.9,1600,510
8436.9,1850,759
8436.9,2100,1010
8436.9,2350,1262
8436.9,1600,514
8436.9,1850,762
8436.9,2100,1011
8436.9,2350,1262
8436.9,2600,1514
8436.9,1100,4
8436.9,1350,255
8436.9,1600,507
8436.9,1100,6
8436.9,1350,255
8436.9,1600,506
8436.9,1850,758
8436.9,1100,10
8436.9,1350,258
8436.9,1600,507
8436.9,1850,758
8436.9,2100,1010
8436.9,1100,4
8436.9,1350,255
8436.9,1600,507
8436.9,1100,4
8436.9,1350,253
8436.9,1600,504
8436.9,1850,756
8436.9,1100,7
8436.9,1350,255
8436.9,1600,504
8436.9,1850,755
8436.9,2100,1007
8436.9,1350,259
8436.9,1600,507
8436.9,1850,756
8436.9,2100,1007
8436.9,2350,1259
8436.9,1100,7
8436.9,1350,258
8436.9,1600,510
8436.9,1100,6
8436.9,1350,255
8436.9,1600,506
8436.9,1850,758
8436.9,1100,7
8436.9,1350,255
8436.9,1600,504
8436.9,1850,755
8436.9,2100,1007
8436.9,1350,258
8436.9,1600,506
8436.9,1850,755
8436.9,2100,1006
8436.9,2350,1258
8436.9,1600,510
8436.9,1850,758
8436.9,2100,1007
8436.9,2350,1258
8436.9,2600,1510
8436.9,1100,10
8436.9,1350,259
8436.9,1600,510
8436.9,1850,762
8436.9,1100,10
8436.9,1350,258
8436.9,1600,507
8436.9,1850,758
8436.9,2100,1010
8436.9,1350,259
8436.9,1600,507
8436.9,1850,756
8436.9,2100,1007
8436.9,2350,1259
8436.9,1600,510
8436.9,1850,758
8436.9,2100,1007
8436.9,2350,1258
8436.9,2600,1510
8436.9,1850,762
8436.9,2100,1010
8436.9,2350,1259
8436.9,2600,1510
8436.9,2850,1762
8436.9,1100,5
8436.9,1350,256
8436.9,1600,508
8436.9,1100,7
8436.9,1350,256
8436.9,1600,507
8436.9,1850,759
8436.9,1100,11
8436.9,1350,259
8436.9,1600,508
8436.9,1850,759
8436.9,2100,1011
8436.9,1100,4
8436.9,1350,255
8436.9,1600,507
8436.9,1100,4
8436.9,1350,253
8436.9,1600,504
8436.9,1850,756
8436.9,1100,7
8436.9,1350,255
8436.9,1600,504
8436.9,1850,755
8436.9,2100,1007
8436.9,1350,259
8436.9,1600,507
8436.9,1850,756
8436.9,2100,1007
8436.9,2350,1259
8436.9,1100,5
8436.9,1350,256
8436.9,1600,508
8436.9,1100,4
8436.9,1350,253
8436.9,1600,504
8436.9,1850,756
8436.9,1100,5
8436.9,1350,253
8436.9,1600,502
8436.9,1850,753
8436.9,2100,1005
8436.9,1350,256
8436.9,1600,504
8436.9,1850,753
8436.9,2100,1004
8436.9,2350,1256
8436.9,1600,508
8436.9,1850,756
8436.9,2100,1005
8436.9,2350,1256
8436.9,2600,1508
8436.9,1100,7
8436.9,1350,256
8436.9,1600,507
8436.9,1850,759
8436.9,1100,7
8436.9,1350,255
8436.9,1600,504
8436.9,1850,755
8436.9,2100,1007
8436.9,1350,256
8436.9,1600,504
8436.9,1850,753
8436.9,2100,1004
8436.9,2350,1256
8436.9,1600,507
8436.9,1850,755
8436.9,2100,1004
8436.9,2350,1255
8436.9,2600,1507
8436.9,1850,759
8436.9,2100,1007
8436.9,2350,1256
8436.9,2600,1507
8436.9,2850,1759
8436.9,1100,11
8436.9,1350,259
8436.9,1600,508
8436.9,1850,759
8436.9,2100,1011
8436.9,1350,259
8436.9,1600,507
8436.9,1850,756
8436.9,2100,1007
8436.9,2350,1259
8436.9,1600,508
8436.9,1850,756
8436.9,2100,1005
8436.9,2350,1256
8436.9,2600,1508
8436.9,1850,759
8436.9,2100,1007
8436.9,2350,1256
8436.9,2600,1507
8436.9,2850,1759
8436.9,2100,1011
8436.9,2350,1259
8436.9,2600,1508
8436.9,2850,1759
8436.9,3100,2011
8436.9,1100,7
8436.9,1350,258
8436.9,1600,510
8436.9,1100,7
8436.9,1350,256
8436.9,1600,507
8436.9,1850,759
8436.9,1100,10
8436.9,1350,258
8436.9,1600,507
8436.9,1850,758
8436.9,2100,1010
8436.9,1350,262
8436.9,1600,510
8436.9,1850,759
8436.9,2100,1010
8436.9,2350,1262
8436.9,1100,7
8436.9,1350,258
8436.9,1600,510
8436.9,1100,6
8436.9,1350,255
8436.9,1600,506
8436.9,1850,758
8436.9,1100,7
8436.9,1350,255
8436.9,1600,504
8436.9,1850,755
8436.9,2100,1007
8436.9,1350,258
8436.9,1600,506
8436.9,1850,755
8436.9,2100,1006
8436.9,2350,1258
8436.9,1600,510
8436.9,1850,758
8436.9,2100,1007
8436.9,2350,1258
8436.9,2600,1510
8436.9,1100,7
8436.9,1350,256
8436.9,1600,507
8436.9,1850,759
8436.9,1100,7
8436.9,1350,255
8436.9,1600,504
8436.9,1850,755
8436.9,2100,1007
8436.9,1350,256
8436.9,1600,504
8436.9,1850,753
8436.9,2100,1004
8436.9,2350,1256
8436.9,1600,507
8436.9,1850,755
8436.9,2100,1004
8436.9,2350,1255
8436.9,2600,1507
8436.9,1850,759
8436.9,2100,1007
8436.9,2350,1256
8436.9,2600,1507
8436.9,2850,1759
8436.9,1100,10
8436.9,1350,258
8436.9,1600,507
8436.9,1850,758
8436.9,2100,1010
8436.9,1350,258
8436.9,1600,506
8436.9,1850,755
8436.9,2100,1006
8436.9,2350,1258
8436.9,1600,507
8436.9,1850,755
8436.9,2100,1004
8436.9,2350,1255
8436.9,2600,1507
8436.9,1850,758
8436.9,2100,1006
8436.9,2350,1255
8436.9,2600,1506
8436.9,2850,1758
8436.9,2100,1010
8436.9,2350,1258
8436.9,2600,1507
8436.9,2850,1758
8436.9,3100,2010
8436.9,1350,262
8436.9,1600,510
8436.9,1850,759
8436.9,2100,1010
8436.9,2350,1262
8436.9,1600,510
8436.9,1850,758
8436.9,2100,1007
8436.9,2350,1258
8436.9,2600,1510
8436.9,1850,759
8436.9,2100,1007
8436.9,2350,1256
8436.9,2600,1507
8436.9,2850,1759
8436.9,2100,1010
8436.9,2350,1258
8436.9,2600,1507
8436.9,2850,1758
8436.9,3100,2010
8436.9,2350,1262
8436.9,2600,1510
8436.9,2850,1759
8436.9,3100,2010
8436.9,3350,2262
8436.9,1100,11
8436.9,1350,262
8436.9,1600,514
8436.9,1100,10
8436.9,1350,259
8436.9,1600,510
8436.9,1850,762
8436.9,1100,11
8436.9,1350,259
8436.9,1600,508
8436.9,1850,759
8436.9,2100,1011
8436.9,1350,262
8436.9,1600,510
8436.9,1850,759
8436.9,2100,1010
8436.9,2350,1262
8436.9,1600,514
8436.9,1850,762
8436.9,2100,1011
8436.9,2350,1262
8436.9,2600,1514
8436.9,1100,10
8436.9,1350,259
8436.9,1600,510
8436.9,1850,762
8436.9,1100,10
8436.9,1350,258
8436.9,1600,507
8436.9,1850,758
8436.9,2100,1010
8436.9,1350,259
8436.9,1600,507
8436.9,1850,756
8436.9,2100,1007
8436.9,2350,1259
8436.9,1600,510
8436.9,1850,758
8436.9,2100,1007
8436.9,2350,1258
8436.9,2600,1510
8436.9,1850,762
8436.9,2100,1010
8436.9,2350,1259
8436.9,2600,1510
8436.9,2850,1762
8436.9,1100,11
8436.9,1350,259
8436.9,1600,508
8436.9,1850,759
8436.9,2100,1011
8436.9,1350,259
8436.9,1600,507
8436.9,1850,756
8436.9,2100,1007
8436.9,2350,1259
8436.9,1600,508
8436.9,1850,756
8436.9,2100,1005
8436.9,2350,1256
8436.9,2600,1508
8436.9,1850,759
8436.9,2100,1007
8436.9,2350,1256
8436.9,2600,1507
8436.9,2850,1759
8436.9,2100,1011
8436.9,2350,1259
8436.9,2600,1508
8436.9,2850,1759
8436.9,3100,2011
8436.9,1350,262
8436.9,1600,510
8436.9,1850,759
8436.9,2100,1010
8436.9,2350,1262
8436.9,1600,510
8436.9,1850,758
8436.9,2100,1007
8436.9,2350,1258
8436.9,2600,1510
8436.9,1850,759
8436.9,2100,1007
8436.9,2350,1256
8436.9,2600,1507
8436.9,2850,1759
8436.9,2100,1010
8436.9,2350,1258
8436.9,2600,1507
8436.9,2850,1758
8436.9,3100,2010
8436.9,2350,1262
8436.9,2600,1510
8436.9,2850,1759
8436.9,3100,2010
8436.9,3350,2262
8436.9,1600,514
8436.9,1850,762
8436.9,2100,1011
8436.9,2350,1262
8436.9,2600,1514
8436.9,1850,762
8436.9,2100,1010
8436.9,2350,1259
8436.9,2600,1510
8436.9,2850,1762
8436.9,2100,1011
8436.9,2350,1259
8436.9,2600,1508
8436.9,2850,1759
8436.9,3100,2011
8436.9,2350,1262
8436.9,2600,1510
8436.9,2850,1759
8436.9,3100,2010
8436.9,3350,2262
8436.9,2600,1514
8436.9,2850,1762
8436.9,3100,2011
8436.9,3350,2262
8436.9,3600,2514
8436.9,1100,8
8436.9,1350,259
8436.9,1600,511
8436.9,1100,10
8436.9,1350,259
8436.9,1600,510
8436.9,1850,762
8436.9,1100,14
8436.9,1350,262
8436.9,1600,511
8436.9,1850,762
8436.9,2100,1014
8436.9,1100,8
8436.9,1350,259
8436.9,1600,511
8436.9,1100,8
8436.9,1350,257
8436.9,1600,508
8436.9,1850,760
8436.9,1100,11
8436.9,1350,259
8436.9,1600,508
8436.9,1850,759
8436.9,2100,1011
8436.9,1350,263
8436.9,1600,511
8436.9,1850,760
8436.9,2100,1011
8436.9,2350,1263
8436.9,1100,11
8436.9,1350,262
8436.9,1600,514
8436.9,1100,10
8436.9,1350,259
8436.9,1600,510
8436.9,1850,762
8436.9,1100,11
8436.9,1350,259
8436.9,1600,508
8436.9,1850,759
8436.9,2100,1011
8436.9,1350,262
8436.9,1600,510
8436.9,1850,759
8436.9,2100,1010
8436.9,2350,1262
8436.9,1600,514
8436.9,1850,762
8436.9,2100,1011
8436.9,2350,1262
8436.9,2600,1514
8436.9,1100,14
8436.9,1350,263
8436.9,1600,514
8436.9,1850,766
8436.9,1100,14
8436.9,1350,262
8436.9,1600,511
8436.9,1850,762
8436.9,2100,1014
8436.9,1350,263
8436.9,1600,511
8436.9,1850,760
8436.9,2100,1011
8436.9,2350,1263
8436.9,1600,514
8436.9,1850,762
8436.9,2100,1011
8436.9,2350,1262
8436.9,2600,1514
8436.9,1850,766
8436.9,2100,1014
8436.9,2350,1263
8436.9,2600,1514
8436.9,2850,1766
8436.9,1100,8
8436.9,1350,259
8436.9,1600,511
8436.9,1100,10
8436.9,1350,259
8436.9,1600,510
8436.9,1850,762
8436.9,1100,14
8436.9,1350,262
8436.9,1600,511
8436.9,1850,762
8436.9,2100,1014
8436.9,1100,7
8436.9,1350,258
8436.9,1600,510
8436.9,1100,7
8436.9,1350,256
8436.9,1600,507
8436.9,1850,759
8436.9,1100,10
8436.9,1350,258
8436.9,1600,507
8436.9,1850,758
8436.9,2100,1010
8436.9,1350,262
8436.9,1600,510
8436.9,1850,759
8436.9,2100,1010
8436.9,2350,1262
8436.9,1100,8
8436.9,1350,259
8436.9,1600,511
8436.9,1100,7
8436.9,1350,256
8436.9,1600,507
8436.9,1850,759
8436.9,1100,8
8436.9,1350,256
8436.9,1600,505
8436.9,1850,756
8436.9,2100,1008
8436.9,1350,259
8436.9,1600,507
8436.9,1850,756
8436.9,2100,1007
8436.9,2350,1259
8436.9,1600,511
8436.9,1850,759
8436.9,2100,1008
8436.9,2350,1259
8436.9,2600,1511
8436.9,1100,10
8436.9,1350,259
8436.9,1600,510
8436.9,1850,762
8436.9,1100,10
8436.9,1350,258
8436.9,1600,507
8436.9,1850,758
8436.9,2100,1010
8436.9,1350,259
8436.9,1600,507
8436.9,1850,756
8436.9,2100,1007
8436.9,2350,1259
8436.9,1600,510
8436.9,1850,758
8436.9,2100,1007
8436.9,2350,1258
8436.9,2600,1510
8436.9,1850,762
8436.9,2100,1010
8436.9,2350,1259
8436.9,2600,1510
8436.9,2850,1762
8436.9,1100,14
8436.9,1350,262
8436.9,1600,511
8436.9,1850,762
8436.9,2100,1014
8436.9,1350,262
8436.9,1600,510
8436.9,1850,759
8436.9,2100,1010
8436.9,2350,1262
8436.9,1600,511
8436.9,1850,759
8436.9,2100,1008
8436.9,2350,1259
8436.9,2600,1511
8436.9,1850,762
8436.9,2100,1010
8436.9,2350,1259
8436.9,2600,1510
8436.9,2850,1762
8436.9,2100,1014
8436.9,2350,1262
8436.9,2600,1511
8436.9,2850,1762
8436.9,3100,2014
8436.9,1100,8
8436.9,1350,259
8436.9,1600,511
8436.9,1100,8
8436.9,1350,257
8436.9,1600,508
8436.9,1850,760
8436.9,1100,11
8436.9,1350,259
8436.9,1600,508
8436.9,1850,759
8436.9,2100,1011
8436.9,1350,263
8436.9,1600,511
8436.9,1850,760
8436.9,2100,1011
8436.9,2350,1263
8436.9,1100,8
8436.9,1350,259
8436.9,1600,511
8436.9,1100,7
8436.9,1350,256
8436.9,1600,507
8436.9,1850,759
8436.9,1100,8
8436.9,1350,256
8436.9,1600,505
8436.9,1850,756
8436.9,2100,1008
8436.9,1350,259
8436.9,1600,507
8436.9,1850,756
8436.9,2100,1007
8436.9,2350,1259
8436.9,1600,511
8436.9,1850,759
8436.9,2100,1008
8436.9,2350,1259
8436.9,2600,1511
8436.9,1100,8
8436.9,1350,257
8436.9,1600,508
8436.9,1850,760
8436.9,1100,8
8436.9,1350,256
8436.9,1600,505
8436.9,1850,756
8436.9,2100,1008
8436.9,1350,257
8436.9,1600,505
8436.9,1850,754
8436.9,2100,1005
8436.9,2350,1257
8436.9,1600,508
8436.9,1850,756
8436.9,2100,1005
8436.9,2350,1256
8436.9,2600,1508
8436.9,1850,760
8436.9,2100,1008
8436.9,2350,1257
8436.9,2600,1508
8436.9,2850,1760
8436.9,1100,11
8436.9,1350,259
8436.9,1600,508
8436.9,1850,759
8436.9,2100,1011
8436.9,1350,259
8436.9,1600,507
8436.9,1850,756
8436.9,2100,1007
8436.9,2350,1259
8436.9,1600,508
8436.9,1850,756
8436.9,2100,1005
8436.9,2350,1256
8436.9,2600,1508
8436.9,1850,759
8436.9,2100,1007
8436.9,2350,1256
8436.9,2600,1507
8436.9,2850,1759
8436.9,2100,1011
8436.9,2350,1259
8436.9,2600,1508
8436.9,2850,1759
8436.9,3100,2011
8436.9,1350,263
8436.9,1600,511
8436.9,1850,760
8436.9,2100,1011
8436.9,2350,1263
8436.9,1600,511
8436.9,1850,759
8436.9,2100,1008
8436.9,2350,1259
8436.9,2600,1511
8436.9,1850,760
8436.9,2100,1008
8436.9,2350,1257
8436.9,2600,1508
8436.9,2850,1760
8436.9,2100,1011
8436.9,2350,1259
8436.9,2600,1508
8436.9,2850,1759
8436.9,3100,2011
8436.9,2350,1263
8436.9,2600,1511
8436.9,2850,1760
8436.9,3100,2011
8436.9,3350,2263
8436.9,1100,11
8436.9,1350,262
8436.9,1600,514
8436.9,1100,10
8436.9,1350,259
8436.9,1600,510
8436.9,1850,762
8436.9,1100,11
8436.9,1350,259
8436.9,1600,508
8436.9,1850,759
8436.9,2100,1011
8436.9,1350,262
8436.9,1600,510
8436.9,1850,759
8436.9,2100,1010
8436.9,2350,1262
8436.9,1600,514
8436.9,1850,762
8436.9,2100,1011
8436.9,2350,1262
8436.9,2600,1514
8436.9,1100,10
8436.9,1350,259
8436.9,1600,510
8436.9,1850,762
8436.9,1100,10
8436.9,1350,258
8436.9,1600,507
8436.9,1850,758
8436.9,2100,1010
8436.9,1350,259
8436.9,1600,507
8436.9,1850,756
8436.9,2100,1007
8436.9,2350,1259
8436.9,1600,510
8436.9,1850,758
8436.9,2100,1007
8436.9,2350,1258
8436.9,2600,1510
8436.9,1850,762
8436.9,2100,1010
8436.9,2350,1259
8436.9,2600,1510
8436.9,2850,1762
8436.9,1100,11
8436.9,1350,259
8436.9,1600,508
8436.9,1850,759
8436.9,2100,1011
8436.9,1350,259
8436.9,1600,507
8436.9,1850,756
8436.9,2100,1007
8436.9,2350,1259
8436.9,1600,508
8436.9,1850,756
8436.9,2100,1005
8436.9,2350,1256
8436.9,2600,1508
8436.9,1850,759
8436.9,2100,1007
8436.9,2350,1256
8436.9,2600,1507
8436.9,2850,1759
8436.9,2100,1011
8436.9,2350,1259
8436.9,2600,1508
8436.9,2850,1759
8436.9,3100,2011
8436.9,1350,262
8436.9,1600,510
8436.9,1850,759
8436.9,2100,1010
8436.9,2350,1262
8436.9,1600,510
8436.9,1850,758
8436.9,2100,1007
8436.9,2350,1258
8436.9,2600,1510
8436.9,1850,759
8436.9,2100,1007
8436.9,2350,1256
8436.9,2600,1507
8436.9,2850,1759
8436.9,2100,1010
8436.9,2350,1258
8436.9,2600,1507
8436.9,2850,1758
8436.9,3100,2010
8436.9,2350,1262
8436.9,2600,1510
8436.9,2850,1759
8436.9,3100,2010
8436.9,3350,2262
8436.9,1600,514
8436.9,1850,762
8436.9,2100,1011
8436.9,2350,1262
8436.9,2600,1514
8436.9,1850,762
8436.9,2100,1010
8436.9,2350,1259
8436.9,2600,1510
8436.9,2850,1762
8436.9,2100,1011
8436.9,2350,1259
8436.9,2600,1508
8436.9,2850,1759
8436.9,3100,2011
8436.9,2350,1262
8436.9,2600,1510
8436.9,2850,1759
8436.9,3100,2010
8436.9,3350,2262
8436.9,2600,1514
8436.9,2850,1762
8436.9,3100,2011
8436.9,3350,2262
8436.9,3600,2514
8436.9,1100,14
8436.9,1350,263
8436.9,1600,514
8436.9,1850,766
8436.9,1100,14
8436.9,1350,262
8436.9,1600,511
8436.9,1850,762
8436.9,2100,1014
8436.9,1350,263
8436.9,1600,511
8436.9,1850,760
8436.9,2100,1011
8436.9,2350,1263
8436.9,1600,514
8436.9,1850,762
8436.9,2100,1011
8436.9,2350,1262
8436.9,2600,1514
8436.9,1850,766
8436.9,2100,1014
8436.9,2350,1263
8436.9,2600,1514
8436.9,2850,1766
8436.9,1100,14
8436.9,1350,262
8436.9,1600,511
8436.9,1850,762
8436.9,2100,1014
8436.9,1350,262
8436.9,1600,510
8436.9,1850,759
8436.9,2100,1010
8436.9,2350,1262
8436.9,1600,511
8436.9,1850,759
8436.9,2100,1008
8436.9,2350,1259
8436.9,2600,1511
8436.9,1850,762
8436.9,2100,1010
8436.9,2350,1259
8436.9,2600,1510
8436.9,2850,1762
8436.9,2100,1014
8436.9,2350,1262
8436.9,2600,1511
8436.9,2850,1762
8436.9,3100,2014
8436.9,1350,263
8436.9,1600,511
8436.9,1850,760
8436.9,2100,1011
8436.9,2350,1263
8436.9,1600,511
8436.9,1850,759
8436.9,2100,1008
8436.9,2350,1259
8436.9,2600,1511
8436.9,1850,760
8436.9,2100,1008
8436.9,2350,1257
8436.9,2600,1508
8436.9,2850,1760
8436.9,2100,1011
8436.9,2350,1259
8436.9,2600,1508
8436.9,2850,1759
8436.9,3100,2011
8436.9,2350,1263
8436.9,2600,1511
8436.9,2850,1760
8436.9,3100,2011
8436.9,3350,2263
8436.9,1600,514
8436.9,1850,762
8436.9,2100,1011
8436.9,2350,1262
8436.9,2600,1514
8436.9,1850,762
8436.9,2100,1010
8436.9,2350,1259
8436.9,2600,1510
8436.9,2850,1762
8436.9,2100,1011
8436.9,2350,1259
8436.9,2600,1508
8436.9,2850,1759
8436.9,3100,2011
8436.9,2350,1262
8436.9,2600,1510
8436.9,2850,1759
8436.9,3100,2010
8436.9,3350,2262
8436.9,2600,1514
8436.9,2850,1762
8436.9,3100,2011
8436.9,3350,2262
8436.9,3600,2514
8436.9,1850,766
8436.9,2100,1014
8436.9,2350,1263
8436.9,2600,1514
8436.9,2850,1766
8436.9,2100,1014
8436.9,2350,1262
8436.9,2600,1511
8436.9,2850,1762
8436.9,3100,2014
8436.9,2350,1263
8436.9,2600,1511
8436.9,2850,1760
8436.9,3100,2011
8436.9,3350,2263
8436.9,2600,1514
8436.9,2850,1762
8436.9,3100,2011
8436.9,3350,2262
8436.9,3600,2514
8436.9,2850,1766
8436.9,3100,2014
8436.9,3350,2263
8436.9,3600,2514
8436.9,3850,2766
8436.9,1100,6
8436.9,1350,257
8436.9,1600,509
8436.9,1100,8
8436.9,1350,257
8436.9,1600,508
8436.9,1850,760
8436.9,1100,12
8436.9,1350,260
8436.9,1600,509
8436.9,1850,760
8436.9,2100,1012
8436.9,1100,8
8436.9,1350,259
8436.9,1600,511
8436.9,1100,8
8436.9,1350,257
8436.9,1600,508
8436.9,1850,760
8436.9,1100,11
8436.9,1350,259
8436.9,1600,508
8436.9,1850,759
8436.9,2100,1011
8436.9,1350,263
8436.9,1600,511
8436.9,1850,760
8436.9,2100,1011
8436.9,2350,1263
8436.9,1100,12
8436.9,1350,263
8436.9,1600,515
8436.9,1100,11
8436.9,1350,260
8436.9,1600,511
8436.9,1850,763
8436.9,1100,12
8436.9,1350,260
8436.9,1600,509
8436.9,1850,760
8436.9,2100,1012
8436.9,1350,263
8436.9,1600,511
8436.9,1850,760
8436.9,2100,1011
8436.9,2350,1263
8436.9,1600,515
8436.9,1850,763
8436.9,2100,1012
8436.9,2350,1263
8436.9,2600,1515
8436.9,1100,8
8436.9,1350,259
8436.9,1600,511
8436.9,1100,10
8436.9,1350,259
8436.9,1600,510
8436.9,1850,762
8436.9,1100,14
8436.9,1350,262
8436.9,1600,511
8436.9,1850,762
8436.9,2100,1014
8436.9,1100,8
8436.9,1350,259
8436.9,1600,511
8436.9,1100,8
8436.9,1350,257
8436.9,1600,508
8436.9,1850,760
8436.9,1100,11
8436.9,1350,259
8436.9,1600,508
8436.9,1850,759
8436.9,2100,1011
8436.9,1350,263
8436.9,1600,511
8436.9,1850,760
8436.9,2100,1011
8436.9,2350,1263
8436.9,1100,11
8436.9,1350,262
8436.9,1600,514
8436.9,1100,10
8436.9,1350,259
8436.9,1600,510
8436.9,1850,762
8436.9,1100,11
8436.9,1350,259
8436.9,1600,508
8436.9,1850,759
8436.9,2100,1011
8436.9,1350,262
8436.9,1600,510
8436.9,1850,759
8436.9,2100,1010
8436.9,2350,1262
8436.9,1600,514
8436.9,1850,762
8436.9,2100,1011
8436.9,2350,1262
8436.9,2600,1514
8436.9,1100,14
8436.9,1350,263
8436.9,1600,514
8436.9,1850,766
8436.9,1100,14
8436.9,1350,262
8436.9,1600,511
8436.9,1850,762
8436.9,2100,1014
8436.9,1350,263
8436.9,1600,511
8436.9,1850,760
8436.9,2100,1011
8436.9,2350,1263
8436.9,1600,514
8436.9,1850,762
8436.9,2100,1011
8436.9,2350,1262
8436.9,2600,1514
8436.9,1850,766
8436.9,2100,1014
8436.9,2350,1263
8436.9,2600,1514
8436.9,2850,1766
8436.9,1100,12
8436.9,1350,263
8436.9,1600,515
8436.9,1100,14
8436.9,1350,263
8436.9,1600,514
8436.9,1850,766
8436.9,1100,18
8436.9,1350,266
8436.9,1600,515
8436.9,1850,766
8436.9,2100,1018
8436.9,1100,11
8436.9,1350,262
8436.9,1600,514
8436.9,1100,11
8436.9,1350,260
8436.9,1600,511
8436.9,1850,763
8436.9,1100,14
8436.9,1350,262
8436.9,1600,511
8436.9,1850,762
8436.9,2100,1014
8436.9,1350,266
8436.9,1600,514
8436.9,1850,763
8436.9,2100,1014
8436.9,2350,1266
8436.9,1100,12
8436.9,1350,263
8436.9,1600,515
8436.9,1100,11
8436.9,1350,260
8436.9,1600,511
8436.9,1850,763
8436.9,1100,12
8436.9,1350,260
8436.9,1600,509
8436.9,1850,760
8436.9,2100,1012
8436.9,1350,263
8436.9,1600,511
8436.9,1850,760
8436.9,2100,1011
8436.9,2350,1263
8436.9,1600,515
8436.9,1850,763
8436.9,2100,1012
8436.9,2350,1263
8436.9,2600,1515
8436.9,1100,14
8436.9,1350,263
8436.9,1600,514
8436.9,1850,766
8436.9,1100,14
8436.9,1350,262
8436.9,1600,511
8436.9,1850,762
8436.9,2100,1014
8436.9,1350,263
8436.9,1600,511
8436.9,1850,760
8436.9,2100,1011
8436.9,2350,1263
8436.9,1600,514
8436.9,1850,762
8436.9,2100,1011
8436.9,2350,1262
8436.9,2600,1514
8436.9,1850,766
8436.9,2100,1014
8436.9,2350,1263
8436.9,2600,1514
8436.9,2850,1766
8436.9,1100,18
8436.9,1350,266
8436.9,1600,515
8436.9,1850,766
8436.9,2100,1018
8436.9,1350,266
8436.9,1600,514
8436.9,1850,763
8436.9,2100,1014
8436.9,2350,1266
8436.9,1600,515
8436.9,1850,763
8436.9,2100,1012
8436.9,2350,1263
8436.9,2600,1515
8436.9,1850,766
8436.9,2100,1014
8436.9,2350,1263
8436.9,2600,1514
8436.9,2850,1766
8436.9,2100,1018
8436.9,2350,1266
8436.9,2600,1515
8436.9,2850,1766
8436.9,3100,2018
8436.9,1100,5
8436.9,1350,256
8436.9,1600,508
8436.9,1100,7
8436.9,1350,256
8436.9,1600,507
8436.9,1850,759
8436.9,1100,11
8436.9,1350,259
8436.9,1600,508
8436.9,1850,759
8436.9,2100,1011
8436.9,1100,7
8436.9,1350,258
8436.9,1600,510
8436.9,1100,7
8436.9,1350,256
8436.9,1600,507
8436.9,1850,759
8436.9,1100,10
8436.9,1350,258
8436.9,1600,507
8436.9,1850,758
8436.9,2100,1010
8436.9,1350,262
8436.9,1600,510
8436.9,1850,759
8436.9,2100,1010
8436.9,2350,1262
8436.9,1100,11
8436.9,1350,262
8436.9,1600,514
8436.9,1100,10
8436.9,1350,259
8436.9,1600,510
8436.9,1850,762
8436.9,1100,11
8436.9,1350,259
8436.9,1600,508
8436.9,1850,759
8436.9,2100,1011
8436.9,1350,262
8436.9,1600,510
8436.9,1850,759
8436.9,2100,1010
8436.9,2350,1262
8436.9,1600,514
8436.9,1850,762
8436.9,2100,1011
8436.9,2350,1262
8436.9,2600,1514
8436.9,1100,5
8436.9,1350,256
8436.9,1600,508
8436.9,1100,7
8436.9,1350,256
8436.9,1600,507
8436.9,1850,759
8436.9,1100,11
8436.9,1350,259
8436.9,1600,508
8436.9,1850,759
8436.9,2100,1011
8436.9,1100,5
8436.9,1350,256
8436.9,1600,508
8436.9,1100,5
8436.9,1350,254
8436.9,1600,505
8436.9,1850,757
8436.9,1100,8
8436.9,1350,256
8436.9,1600,505
8436.9,1850,756
8436.9,2100,1008
8436.9,1350,260
8436.9,1600,508
8436.9,1850,757
8436.9,2100,1008
8436.9,2350,1260
8436.9,1100,8
8436.9,1350,259
8436.9,1600,511
8436.9,1100,7
8436.9,1350,256
8436.9,1600,507
8436.9,1850,759
8436.9,1100,8
8436.9,1350,256
8436.9,1600,505
8436.9,1850,756
8436.9,2100,1008
8436.9,1350,259
8436.9,1600,507
8436.9,1850,756
8436.9,2100,1007
8436.9,2350,1259
8436.9,1600,511
8436.9,1850,759
8436.9,2100,1008
8436.9,2350,1259
8436.9,2600,1511
8436.9,1100,11
8436.9,1350,260
8436.9,1600,511
8436.9,1850,763
8436.9,1100,11
8436.9,1350,259
8436.9,1600,508
8436.9,1850,759
8436.9,2100,1011
8436.9,1350,260
8436.9,1600,508
8436.9,1850,757
8436.9,2100,1008
8436.9,2350,1260
8436.9,1600,511
8436.9,1850,759
8436.9,2100,1008
8436.9,2350,1259
8436.9,2600,1511
8436.9,1850,763
8436.9,2100,1011
8436.9,2350,1260
8436.9,2600,1511
8436.9,2850,1763
8436.9,1100,8
8436.9,1350,259
8436.9,1600,511
8436.9,1100,10
8436.9,1350,259
8436.9,1600,510
8436.9,1850,762
8436.9,1100,14
8436.9,1350,262
8436.9,1600,511
8436.9,1850,762
8436.9,2100,1014
8436.9,1100,7
8436.9,1350,258
8436.9,1600,510
8436.9,1100,7
8436.9,1350,256
8436.9,1600,507
8436.9,1850,759
8436.9,1100,10
8436.9,1350,258
8436.9,1600,507
8436.9,1850,758
8436.9,2100,1010
8436.9,1350,262
8436.9,1600,510
8436.9,1850,759
8436.9,2100,1010
8436.9,2350,1262
8436.9,1100,8
8436.9,1350,259
8436.9,1600,511
8436.9,1100,7
8436.9,1350,256
8436.9,1600,507
8436.9,1850,759
8436.9,1100,8
8436.9,1350,256
8436.9,1600,505
8436.9,1850,756
8436.9,2100,1008
8436.9,1350,259
8436.9,1600,507
8436.9,1850,756
8436.9,2100,1007
8436.9,2350,1259
8436.9,1600,511
8436.9,1850,759
8436.9,2100,1008
8436.9,2350,1259
8436.9,2600,1511
8436.9,1100,10
8436.9,1350,259
8436.9,1600,510
8436.9,1850,762
8436.9,1100,10
8436.9,1350,258
8436.9,1600,507
8436.9,1850,758
8436.9,2100,1010
8436.9,1350,259
8436.9,1600,507
8436.9,1850,756
8436.9,2100,1007
8436.9,2350,1259
8436.9,1600,510
8436.9,1850,758
8436.9,2100,1007
8436.9,2350,1258
8436.9,2600,1510
8436.9,1850,762
8436.9,2100,1010
8436.9,2350,1259
8436.9,2600,1510
8436.9,2850,1762
8436.9,1100,14
8436.9,1350,262
8436.9,1600,511
8436.9,1850,762
8436.9,2100,1014
8436.9,1350,262
8436.9,1600,510
8436.9,1850,759
8436.9,2100,1010
8436.9,2350,1262
8436.9,1600,511
8436.9,1850,759
8436.9,2100,1008
8436.9,2350,1259
8436.9,2600,1511
8436.9,1850,762
8436.9,2100,1010
8436.9,2350,1259
8436.9,2600,1510
8436.9,2850,1762
8436.9,2100,1014
8436.9,2350,1262
8436.9,2600,1511
8436.9,2850,1762
8436.9,3100,2014
8436.9,1100,11
8436.9,1350,262
8436.9,1600,514
8436.9,1100,11
8436.9,1350,260
8436.9,1600,511
8436.9,1850,763
8436.9,1100,14
8436.9,1350,262
8436.9,1600,511
8436.9,1850,762
8436.9,2100,1014
8436.9,1350,266
8436.9,1600,514
8436.9,1850,763
8436.9,2100,1014
8436.9,2350,1266
8436.9,1100,11
8436.9,1350,262
8436.9,1600,514
8436.9,1100,10
8436.9,1350,259
8436.9,1600,510
8436.9,1850,762
8436.9,1100,11
8436.9,1350,259
8436.9,1600,508
8436.9,1850,759
8436.9,2100,1011
8436.9,1350,262
8436.9,1600,510
8436.9,1850,759
8436.9,2100,1010
8436.9,2350,1262
8436.9,1600,514
8436.9,1850,762
8436.9,2100,1011
8436.9,2350,1262
8436.9,2600,1514
8436.9,1100,11
8436.9,1350,260
8436.9,1600,511
8436.9,1850,763
8436.9,1100,11
8436.9,1350,259
8436.9,1600,508
8436.9,1850,759
8436.9,2100,1011
8436.9,1350,260
8436.9,1600,508
8436.9,1850,757
8436.9,2100,1008
8436.9,2350,1260
8436.9,1600,511
8436.9,1850,759
8436.9,2100,1008
8436.9,2350,1259
8436.9,2600,1511
8436.9,1850,763
8436.9,2100,1011
8436.9,2350,1260
8436.9,2600,1511
8436.9,2850,1763
8436.9,1100,14
8436.9,1350,262
8436.9,1600,511
8436.9,1850,762
8436.9,2100,1014
8436.9,1350,262
8436.9,1600,510
8436.9,1850,759
8436.9,2100,1010
8436.9,2350,1262
8436.9,1600,511
8436.9,1850,759
8436.9,2100,1008
8436.9,2350,1259
8436.9,2600,1511
8436.9,1850,762
8436.9,2100,1010
8436.9,2350,1259
8436.9,2600,1510
8436.9,2850,1762
8436.9,2100,1014
8436.9,2350,1262
8436.9,2600,1511
8436.9,2850,1762
8436.9,3100,2014
8436.9,1350,266
8436.9,1600,514
8436.9,1850,763
8436.9,2100,1014
8436.9,2350,1266
8436.9,1600,514
8436.9,1850,762
8436.9,2100,1011
8436.9,2350,1262
8436.9,2600,1514
8436.9,1850,763
8436.9,2100,1011
8436.9,2350,1260
8436.9,2600,1511
8436.9,2850,1763
8436.9,2100,1014
8436.9,2350,1262
8436.9,2600,1511
8436.9,2850,1762
8436.9,3100,2014
8436.9,2350,1266
8436.9,2600,1514
8436.9,2850,1763
8436.9,3100,2014
8436.9,3350,2266
8436.9,1100,6
8436.9,1350,257
8436.9,1600,509
8436.9,1100,8
8436.9,1350,257
8436.9,1600,508
8436.9,1850,760
8436.9,1100,12
8436.9,1350,260
8436.9,1600,509
8436.9,1850,760
8436.9,2100,1012
8436.9,1100,8
8436.9,1350,259
8436.9,1600,511
8436.9,1100,8
8436.9,1350,257
8436.9,1600,508
8436.9,1850,760
8436.9,1100,11
8436.9,1350,259
8436.9,1600,508
8436.9,1850,759
8436.9,2100,1011
8436.9,1350,263
8436.9,1600,511
8436.9,1850,760
8436.9,2100,1011
8436.9,2350,1263
8436.9,1100,12
8436.9,1350,263
8436.9,1600,515
8436.9,1100,11
8436.9,1350,260
8436.9,1600,511
8436.9,1850,763
8436.9,1100,12
8436.9,1350,260
8436.9,1600,509
8436.9,1850,760
8436.9,2100,1012
8436.9,1350,263
8436.9,1600,511
8436.9,1850,760
8436.9,2100,1011
8436.9,2350,1263
8436.9,1600,515
8436.9,1850,763
8436.9,2100,1012
8436.9,2350,1263
8436.9,2600,1515
8436.9,1100,5
8436.9,1350,256
8436.9,1600,508
8436.9,1100,7
8436.9,1350,256
8436.9,1600,507
8436.9,1850,759
8436.9,1100,11
8436.9,1350,259
8436.9,1600,508
8436.9,1850,759
8436.9,2100,1011
8436.9,1100,5
8436.9,1350,256
8436.9,1600,508
8436.9,1100,5
8436.9,1350,254
8436.9,1600,505
8436.9,1850,757
8436.9,1100,8
8436.9,1350,256
8436.9,1600,505
8436.9,1850,756
8436.9,2100,1008
8436.9,1350,260
8436.9,1600,508
8436.9,1850,757
8436.9,2100,1008
8436.9,2350,1260
8436.9,1100,8
8436.9,1350,259
8436.9,1600,511
8436.9,1100,7
8436.9,1350,256
8436.9,1600,507
8436.9,1850,759
8436.9,1100,8
8436.9,1350,256
8436.9,1600,505
8436.9,1850,756
8436.9,2100,1008
8436.9,1350,259
8436.9,1600,507
8436.9,1850,756
8436.9,2100,1007
8436.9,2350,1259
8436.9,1600,511
8436.9,1850,759
8436.9,2100,1008
8436.9,2350,1259
8436.9,2600,1511
8436.9,1100,11
8436.9,1350,260
8436.9,1600,511
8436.9,1850,763
8436.9,1100,11
8436.9,1350,259
8436.9,1600,508
8436.9,1850,759
8436.9,2100,1011
8436.9,1350,260
8436.9,1600,508
8436.9,1850,757
8436.9,2100,1008
8436.9,2350,1260
8436.9,1600,511
8436.9,1850,759
8436.9,2100,1008
8436.9,2350,1259
8436.9,2600,1511
8436.9,1850,763
8436.9,2100,1011
8436.9,2350,1260
8436.9,2600,1511
8436.9,2850,1763
8436.9,1100,6
8436.9,1350,257
8436.9,1600,509
8436.9,1100,8
8436.9,1350,257
8436.9,1600,508
8436.9,1850,760
8436.9,1100,12
8436.9,1350,260
8436.9,1600,509
8436.9,1850,760
8436.9,2100,1012
8436.9,1100,5
8436.9,1350,256
8436.9,1600,508
8436.9,1100,5
8436.9,1350,254
8436.9,1600,505
8436.9,1850,757
8436.9,1100,8
8436.9,1350,256
8436.9,1600,505
8436.9,1850,756
8436.9,2100,1008
8436.9,1350,260
8436.9,1600,508
8436.9,1850,757
8436.9,2100,1008
8436.9,2350,1260
8436.9,1100,6
8436.9,1350,257
8436.9,1600,509
8436.9,1100,5
8436.9,1350,254
8436.9,1600,505
8436.9,1850,757
8436.9,1100,6
8436.9,1350,254
8436.9,1600,503
8436.9,1850,754
8436.9,2100,1006
8436.9,1350,257
8436.9,1600,505
8436.9,1850,754
8436.9,2100,1005
8436.9,2350,1257
8436.9,1600,509
8436.9,1850,757
8436.9,2100,1006
8436.9,2350,1257
8436.9,2600,1509
8436.9,1100,8
8436.9,1350,257
8436.9,1600,508
8436.9,1850,760
8436.9,1100,8
8436.9,1350,256
8436.9,1600,505
8436.9,1850,756
8436.9,2100,1008
8436.9,1350,257
8436.9,1600,505
8436.9,1850,754
8436.9,2100,1005
8436.9,2350,1257
8436.9,1600,508
8436.9,1850,756
8436.9,2100,1005
8436.9,2350,1256
8436.9,2600,1508
8436.9,1850,760
8436.9,2100,1008
8436.9,2350,1257
8436.9,2600,1508
8436.9,2850,1760
8436.9,1100,12
8436.9,1350,260
8436.9,1600,509
8436.9,1850,760
8436.9,2100,1012
8436.9,1350,260
8436.9,1600,508
8436.9,1850,757
8436.9,2100,1008
8436.9,2350,1260
8436.9,1600,509
8436.9,1850,757
8436.9,2100,1006
8436.9,2350,1257
8436.9,2600,1509
8436.9,1850,760
8436.9,2100,1008
8436.9,2350,1257
8436.9,2600,1508
8436.9,2850,1760
8436.9,2100,1012
8436.9,2350,1260
8436.9,2600,1509
8436.9,2850,1760
8436.9,3100,2012
8436.9,1100,8
8436.9,1350,259
8436.9,1600,511
8436.9,1100,8
8436.9,1350,257
8436.9,1600,508
8436.9,1850,760
8436.9,1100,11
8436.9,1350,259
8436.9,1600,508
8436.9,1850,759
8436.9,2100,1011
8436.9,1350,263
8436.9,1600,511
8436.9,1850,760
8436.9,2100,1011
8436.9,2350,1263
8436.9,1100,8
8436.9,1350,259
8436.9,1600,511
8436.9,1100,7
8436.9,1350,256
8436.9,1600,507
8436.9,1850,759
8436.9,1100,8
8436.9,1350,256
8436.9,1600,505
8436.9,1850,756
8436.9,2100,1008
8436.9,1350,259
8436.9,1600,507
8436.9,1850,756
8436.9,2100,1007
8436.9,2350,1259
8436.9,1600,511
8436.9,1850,759
8436.9,2100,1008
8436.9,2350,1259
8436.9,2600,1511
8436.9,1100,8
8436.9,1350,257
8436.9,1600,508
8436.9,1850,760
8436.9,1100,8
8436.9,1350,256
8436.9,1600,505
8436.9,1850,756
8436.9,2100,1008
8436.9,1350,257
8436.9,1600,505
8436.9,1850,754
8436.9,2100,1005
8436.9,2350,1257
8436.9,1600,508
8436.9,1850,756
8436.9,2100,1005
8436.9,2350,1256
8436.9,2600,1508
8436.9,1850,760
8436.9,2100,1008
8436.9,2350,1257
8436.9,2600,1508
8436.9,2850,1760
8436.9,1100,11
8436.9,1350,259
8436.9,1600,508
8436.9,1850,759
8436.9,2100,1011
8436.9,1350,259
8436.9,1600,507
8436.9,1850,756
8436.9,2100,1007
8436.9,2350,1259
8436.9,1600,508
8436.9,1850,756
8436.9,2100,1005
8436.9,2350,1256
8436.9,2600,1508
8436.9,1850,759
8436.9,2100,1007
8436.9,2350,1256
8436.9,2600,1507
8436.9,2850,1759
8436.9,2100,1011
8436.9,2350,1259
8436.9,2600,1508
8436.9,2850,1759
8436.9,3100,2011
8436.9,1350,263
8436.9,1600,511
8436.9,1850,760
8436.9,2100,1011
8436.9,2350,1263
8436.9,1600,511
8436.9,1850,759
8436.9,2100,1008
8436.9,2350,1259
8436.9,2600,1511
8436.9,1850,760
8436.9,2100,1008
8436.9,2350,1257
8436.9,2600,1508
8436.9,2850,1760
8436.9,2100,1011
8436.9,2350,1259
8436.9,2600,1508
8436.9,2850,1759
8436.9,3100,2011
8436.9,2350,1263
8436.9,2600,1511
8436.9,2850,1760
8436.9,3100,2011
8436.9,3350,2263
8436.9,1100,12
8436.9,1350,263
8436.9,1600,515
8436.9,1100,11
8436.9,1350,260
8436.9,1600,511
8436.9,1850,763
8436.9,1100,12
8436.9,1350,260
8436.9,1600,509
8436.9,1850,760
8436.9,2100,1012
8436.9,1350,263
8436.9,1600,511
8436.9,1850,760
8436.9,2100,1011
8436.9,2350,1263
8436.9,1600,515
8436.9,1850,763
8436.9,2100,1012
8436.9,2350,1263
8436.9,2600,1515
8436.9,1100,11
8436.9,1350,260
8436.9,1600,511
8436.9,1850,763
8436.9,1100,11
8436.9,1350,259
8436.9,1600,508
8436.9,1850,759
8436.9,2100,1011
8436.9,1350,260
8436.9,1600,508
8436.9,1850,757
8436.9,2100,1008
8436.9,2350,1260
8436.9,1600,511
8436.9,1850,759
8436.9,2100,1008
8436.9,2350,1259
8436.9,2600,1511
8436.9,1850,763
8436.9,2100,1011
8436.9,2350,1260
8436.9,2600,1511
8436.9,2850,1763
8436.9,1100,12
8436.9,1350,260
8436.9,1600,509
8436.9,1850,760
8436.9,2100,1012
8436.9,1350,260
8436.9,1600,508
8436.9,1850,757
8436.9,2100,1008
8436.9,2350,1260
8436.9,1600,509
8436.9,1850,757
8436.9,2100,1006
8436.9,2350,1257
8436.9,2600,1509
8436.9,1850,760
8436.9,2100,1008
8436.9,2350,1257
8436.9,2600,1508
8436.9,2850,1760
8436.9,2100,1012
8436.9,2350,1260
8436.9,2600,1509
8436.9,2850,1760
8436.9,3100,2012
8436.9,1350,263
8436.9,1600,511
8436.9,1850,760
8436.9,2100,1011
8436.9,2350,1263
8436.9,1600,511
8436.9,1850,759
8436.9,2100,1008
8436.9,2350,1259
8436.9,2600,1511
8436.9,1850,760
8436.9,2100,1008
8436.9,2350,1257
8436.9,2600,1508
8436.9,2850,1760
8436.9,2100,1011
8436.9,2350,1259
8436.9,2600,1508
8436.9,2850,1759
8436.9,3100,2011
8436.9,2350,1263
8436.9,2600,1511
8436.9,2850,1760
8436.9,3100,2011
8436.9,3350,2263
8436.9,1600,515
8436.9,1850,763
8436.9,2100,1012
8436.9,2350,1263
8436.9,2600,1515
8436.9,1850,763
8436.9,2100,1011
8436.9,2350,1260
8436.9,2600,1511
8436.9,2850,1763
8436.9,2100,1012
8436.9,2350,1260
8436.9,2600,1509
8436.9,2850,1760
8436.9,3100,2012
8436.9,2350,1263
8436.9,2600,1511
8436.9,2850,1760
8436.9,3100,2011
8436.9,3350,2263
8436.9,2600,1515
8436.9,2850,1763
8436.9,3100,2012
8436.9,3350,2263
8436.9,3600,2515
8436.9,1100,8
8436.9,1350,259
8436.9,1600,511
8436.9,1100,10
8436.9,1350,259
8436.9,1600,510
8436.9,1850,762
8436.9,1100,14
8436.9,1350,262
8436.9,1600,511
8436.9,1850,762
8436.9,2100,1014
8436.9,1100,8
8436.9,1350,259
8436.9,1600,511
8436.9,1100,8
8436.9,1350,257
8436.9,1600,508
8436.9,1850,760
8436.9,1100,11
8436.9,1350,259
8436.9,1600,508
8436.9,1850,759
8436.9,2100,1011
8436.9,1350,263
8436.9,1600,511
8436.9,1850,760
8436.9,2100,1011
8436.9,2350,1263
8436.9,1100,11
8436.9,1350,262
8436.9,1600,514
8436.9,1100,10
8436.9,1350,259
8436.9,1600,510
8436.9,1850,762
8436.9,1100,11
8436.9,1350,259
8436.9,1600,508
8436.9,1850,759
8436.9,2100,1011
8436.9,1350,262
8436.9,1600,510
8436.9,1850,759
8436.9,2100,1010
8436.9,2350,1262
8436.9,1600,514
8436.9,1850,762
8436.9,2100,1011
8436.9,2350,1262
8436.9,2600,1514
8436.9,1100,14
8436.9,1350,263
8436.9,1600,514
8436.9,1850,766
8436.9,1100,14
8436.9,1350,262
8436.9,1600,511
8436.9,1850,762
8436.9,2100,1014
8436.9,1350,263
8436.9,1600,511
8436.9,1850,760
8436.9,2100,1011
8436.9,2350,1263
8436.9,1600,514
8436.9,1850,762
8436.9,2100,1011
8436.9,2350,1262
8436.9,2600,1514
8436.9,1850,766
8436.9,2100,1014
8436.9,2350,1263
8436.9,2600,1514
8436.9,2850,1766
8436.9,1100,8
8436.9,1350,259
8436.9,1600,511
8436.9,1100,10
8436.9,1350,259
8436.9,1600,510
8436.9,1850,762
8436.9,1100,14
8436.9,1350,262
8436.9,1600,511
8436.9,1850,762
8436.9,2100,1014
8436.9,1100,7
8436.9,1350,258
8436.9,1600,510
8436.9,1100,7
8436.9,1350,256
8436.9,1600,507
8436.9,1850,759
8436.9,1100,10
8436.9,1350,258
8436.9,1600,507
8436.9,1850,758
8436.9,2100,1010
8436.9,1350,262
8436.9,1600,510
8436.9,1850,759
8436.9,2100,1010
8436.9,2350,1262
8436.9,1100,8
8436.9,1350,259
8436.9,1600,511
8436.9,1100,7
8436.9,1350,256
8436.9,1600,507
8436.9,1850,759
8436.9,1100,8
8436.9,1350,256
8436.9,1600,505
8436.9,1850,756
8436.9,2100,1008
8436.9,1350,259
8436.9,1600,507
8436.9,1850,756
8436.9,2100,1007
8436.9,2350,1259
8436.9,1600,511
8436.9,1850,759
8436.9,2100,1008
8436.9,2350,1259
8436.9,2600,1511
8436.9,1100,10
8436.9,1350,259
8436.9,1600,510
8436.9,1850,762
8436.9,1100,10
8436.9,1350,258
8436.9,1600,507
8436.9,1850,758
8436.9,2100,1010
8436.9,1350,259
8436.9,1600,507
8436.9,1850,756
8436.9,2100,1007
8436.9,2350,1259
8436.9,1600,510
8436.9,1850,758
8436.9,2100,1007
8436.9,2350,1258
8436.9,2600,1510
8436.9,1850,762
8436.9,2100,1010
8436.9,2350,1259
8436.9,2600,1510
8436.9,2850,1762
8436.9,1100,14
8436.9,1350,262
8436.9,1600,511
8436.9,1850,762
8436.9,2100,1014
8436.9,1350,262
8436.9,1600,510
8436.9,1850,759
8436.9,2100,1010
8436.9,2350,1262
8436.9,1600,511
8436.9,1850,759
8436.9,2100,1008
8436.9,2350,1259
8436.9,2600,1511
8436.9,1850,762
8436.9,2100,1010
8436.9,2350,1259
8436.9,2600,1510
8436.9,2850,1762
8436.9,2100,1014
8436.9,2350,1262
8436.9,2600,1511
8436.9,2850,1762
8436.9,3100,2014
8436.9,1100,8
8436.9,1350,259
8436.9,1600,511
8436.9,1100,8
8436.9,1350,257
8436.9,1600,508
8436.9,1850,760
8436.9,1100,11
8436.9,1350,259
8436.9,1600,508
8436.9,1850,759
8436.9,2100,1011
8436.9,1350,263
8436.9,1600,511
8436.9,1850,760
8436.9,2100,1011
8436.9,2350,1263
8436.9,1100,8
8436.9,1350,259
8436.9,1600,511
8436.9,1100,7
8436.9,1350,256
8436.9,1600,507
8436.9,1850,759
8436.9,1100,8
8436.9,1350,256
8436.9,1600,505
8436.9,1850,756
8436.9,2100,1008
8436.9,1350,259
8436.9,1600,507
8436.9,1850,756
8436.9,2100,1007
8436.9,2350,1259
8436.9,1600,511
8436.9,1850,759
8436.9,2100,1008
8436.9,2350,1259
8436.9,2600,1511
8436.9,1100,8
8436.9,1350,257
8436.9,1600,508
8436.9,1850,760
8436.9,1100,8
8436.9,1350,256
8436.9,1600,505
8436.9,1850,756
8436.9,2100,1008
8436.9,1350,257
8436.9,1600,505
8436.9,1850,754
8436.9,2100,1005
8436.9,2350,1257
8436.9,1600,508
8436.9,1850,756
8436.9,2100,1005
8436.9,2350,1256
8436.9,2600,1508
8436.9,1850,760
8436.9,2100,1008
8436.9,2350,1257
8436.9,2600,1508
8436.9,2850,1760
8436.9,1100,11
8436.9,1350,259
8436.9,1600,508
8436.9,1850,759
8436.9,2100,1011
8436.9,1350,259
8436.9,1600,507
8436.9,1850,756
8436.9,2100,1007
8436.9,2350,1259
8436.9,1600,508
8436.9,1850,756
8436.9,2100,1005
8436.9,2350,1256
8436.9,2600,1508
8436.9,1850,759
8436.9,2100,1007
8436.9,2350,1256
8436.9,2600,1507
8436.9,2850,1759
8436.9,2100,1011
8436.9,2350,1259
8436.9,2600,1508
8436.9,2850,1759
8436.9,3100,2011
8436.9,1350,263
8436.9,1600,511
8436.9,1850,760
8436.9,2100,1011
8436.9,2350,1263
8436.9,1600,511
8436.9,1850,759
8436.9,2100,1008
8436.9,2350,1259
8436.9,2600,1511
8436.9,1850,760
8436.9,2100,1008
8436.9,2350,1257
8436.9,2600,1508
8436.9,2850,1760
8436.9,2100,1011
8436.9,2350,1259
8436.9,2600,1508
8436.9,2850,1759
8436.9,3100,2011
8436.9,2350,1263
8436.9,2600,1511
8436.9,2850,1760
8436.9,3100,2011
8436.9,3350,2263
8436.9,1100,11
8436.9,1350,262
8436.9,1600,514
8436.9,1100,10
8436.9,1350,259
8436.9,1600,510
8436.9,1850,762
8436.9,1100,11
8436.9,1350,259
8436.9,1600,508
8436.9,1850,759
8436.9,2100,1011
8436.9,1350,262
8436.9,1600,510
8436.9,1850,759
8436.9,2100,1010
8436.9,2350,1262
8436.9,1600,514
8436.9,1850,762
8436.9,2100,1011
8436.9,2350,1262
8436.9,2600,1514
8436.9,1100,10
8436.9,1350,259
8436.9,1600,510
8436.9,1850,762
8436.9,1100,10
8436.9,1350,258
8436.9,1600,507
8436.9,1850,758
8436.9,2100,1010
8436.9,1350,259
8436.9,1600,507
8436.9,1850,756
8436.9,2100,1007
8436.9,2350,1259
8436.9,1600,510
8436.9,1850,758
8436.9,2100,1007
8436.9,2350,1258
8436.9,2600,1510
8436.9,1850,762
8436.9,2100,1010
8436.9,2350,1259
8436.9,2600,1510
8436.9,2850,1762
8436.9,1100,11
8436.9,1350,259
8436.9,1600,508
8436.9,1850,759
8436.9,2100,1011
8436.9,1350,259
8436.9,1600,507
8436.9,1850,756
8436.9,2100,1007
8436.9,2350,1259
8436.9,1600,508
8436.9,1850,756
8436.9,2100,1005
8436.9,2350,1256
8436.9,2600,1508
8436.9,1850,759
8436.9,2100,1007
8436.9,2350,1256
8436.9,2600,1507
8436.9,2850,1759
8436.9,2100,1011
8436.9,2350,1259
8436.9,2600,1508
8436.9,2850,1759
8436.9,3100,2011
8436.9,1350,262
8436.9,1600,510
8436.9,1850,759
8436.9,2100,1010
8436.9,2350,1262
8436.9,1600,510
8436.9,1850,758
8436.9,2100,1007
8436.9,2350,1258
8436.9,2600,1510
8436.9,1850,759
8436.9,2100,1007
8436.9,2350,1256
8436.9,2600,1507
8436.9,2850,1759
8436.9,2100,1010
8436.9,2350,1258
8436.9,2600,1507
8436.9,2850,1758
8436.9,3100,2010
8436.9,2350,1262
8436.9,2600,1510
8436.9,2850,1759
8436.9,3100,2010
8436.9,3350,2262
8436.9,1600,514
8436.9,1850,762
8436.9,2100,1011
8436.9,2350,1262
8436.9,2600,1514
8436.9,1850,762
8436.9,2100,1010
8436.9,2350,1259
8436.9,2600,1510
8436.9,2850,1762
8436.9,2100,1011
8436.9,2350,1259
8436.9,2600,1508
8436.9,2850,1759
8436.9,3100,2011
8436.9,2350,1262
8436.9,2600,1510
8436.9,2850,1759
8436.9,3100,2010
8436.9,3350,2262
8436.9,2600,1514
8436.9,2850,1762
8436.9,3100,2011
8436.9,3350,2262
8436.9,3600,2514
8436.9,1100,14
8436.9,1350,263
8436.9,1600,514
8436.9,1850,766
8436.9,1100,14
8436.9,1350,262
8436.9,1600,511
8436.9,1850,762
8436.9,2100,1014
8436.9,1350,263
8436.9,1600,511
8436.9,1850,760
8436.9,2100,1011
8436.9,2350,1263
8436.9,1600,514
8436.9,1850,762
8436.9,2100,1011
8436.9,2350,1262
8436.9,2600,1514
8436.9,1850,766
8436.9,2100,1014
8436.9,2350,1263
8436.9,2600,1514
8436.9,2850,1766
8436.9,1100,14
8436.9,1350,262
8436.9,1600,511
8436.9,1850,762
8436.9,2100,1014
8436.9,1350,262
8436.9,1600,510
8436.9,1850,759
8436.9,2100,1010
8436.9,2350,1262
8436.9,1600,511
8436.9,1850,759
8436.9,2100,1008
8436.9,2350,1259
8436.9,2600,1511
8436.9,1850,762
8436.9,2100,1010
8436.9,2350,1259
8436.9,2600,1510
8436.9,2850,1762
8436.9,2100,1014
8436.9,2350,1262
8436.9,2600,1511
8436.9,2850,1762
8436.9,3100,2014
8436.9,1350,263
8436.9,1600,511
8436.9,1850,760
8436.9,2100,1011
8436.9,2350,1263
8436.9,1600,511
8436.9,1850,759
8436.9,2100,1008
8436.9,2350,1259
8436.9,2600,1511
8436.9,1850,760
8436.9,2100,1008
8436.9,2350,1257
8436.9,2600,1508
8436.9,2850,1760
8436.9,2100,1011
8436.9,2350,1259
8436.9,2600,1508
8436.9,2850,1759
8436.9,3100,2011
8436.9,2350,1263
8436.9,2600,1511
8436.9,2850,1760
8436.9,3100,2011
8436.9,3350,2263
8436.9,1600,514
8436.9,1850,762
8436.9,2100,1011
8436.9,2350,1262
8436.9,2600,1514
8436.9,1850,762
8436.9,2100,1010
8436.9,2350,1259
8436.9,2600,1510
8436.9,2850,1762
8436.9,2100,1011
8436.9,2350,1259
8436.9,2600,1508
8436.9,2850,1759
8436.9,3100,2011
8436.9,2350,1262
8436.9,2600,1510
8436.9,2850,1759
8436.9,3100,2010
8436.9,3350,2262
8436.9,2600,1514
8436.9,2850,1762
8436.9,3100,2011
8436.9,3350,2262
8436.9,3600,2514
8436.9,1850,766
8436.9,2100,1014
8436.9,2350,1263
8436.9,2600,1514
8436.9,2850,1766
8436.9,2100,1014
8436.9,2350,1262
8436.9,2600,1511
8436.9,2850,1762
8436.9,3100,2014
8436.9,2350,1263
8436.9,2600,1511
8436.9,2850,1760
8436.9,3100,2011
8436.9,3350,2263
8436.9,2600,1514
8436.9,2850,1762
8436.9,3100,2011
8436.9,3350,2262
8436.9,3600,2514
8436.9,2850,1766
8436.9,3100,2014
8436.9,3350,2263
8436.9,3600,2514
8436.9,3850,2766
8436.9,1100,12
8436.9,1350,263
8436.9,1600,515
8436.9,1100,14
8436.9,1350,263
8436.9,1600,514
8436.9,1850,766
8436.9,1100,18
8436.9,1350,266
8436.9,1600,515
8436.9,1850,766
8436.9,2100,1018
8436.9,1100,11
8436.9,1350,262
8436.9,1600,514
8436.9,1100,11
8436.9,1350,260
8436.9,1600,511
8436.9,1850,763
8436.9,1100,14
8436.9,1350,262
8436.9,1600,511
8436.9,1850,762
8436.9,2100,1014
8436.9,1350,266
8436.9,1600,514
8436.9,1850,763
8436.9,2100,1014
8436.9,2350,1266
8436.9,1100,12
8436.9,1350,263
8436.9,1600,515
8436.9,1100,11
8436.9,1350,260
8436.9,1600,511
8436.9,1850,763
8436.9,1100,12
8436.9,1350,260
8436.9,1600,509
8436.9,1850,760
8436.9,2100,1012
8436.9,1350,263
8436.9,1600,511
8436.9,1850,760
8436.9,2100,1011
8436.9,2350,1263
8436.9,1600,515
8436.9,1850,763
8436.9,2100,1012
8436.9,2350,1263
8436.9,2600,1515
8436.9,1100,14
8436.9,1350,263
8436.9,1600,514
8436.9,1850,766
8436.9,1100,14
8436.9,1350,262
8436.9,1600,511
8436.9,1850,762
8436.9,2100,1014
8436.9,1350,263
8436.9,1600,511
8436.9,1850,760
8436.9,2100,1011
8436.9,2350,1263
8436.9,1600,514
8436.9,1850,762
8436.9,2100,1011
8436.9,2350,1262
8436.9,2600,1514
8436.9,1850,766
8436.9,2100,1014
8436.9,2350,1263
8436.9,2600,1514
8436.9,2850,1766
8436.9,1100,18
8436.9,1350,266
8436.9,1600,515
8436.9,1850,766
8436.9,2100,1018
8436.9,1350,266
8436.9,1600,514
8436.9,1850,763
8436.9,2100,1014
8436.9,2350,1266
8436.9,1600,515
8436.9,1850,763
8436.9,2100,1012
8436.9,2350,1263
8436.9,2600,1515
8436.9,1850,766
8436.9,2100,1014
8436.9,2350,1263
8436.9,2600,1514
8436.9,2850,1766
8436.9,2100,1018
8436.9,2350,1266
8436.9,2600,1515
8436.9,2850,1766
8436.9,3100,2018
8436.9,1100,11
8436.9,1350,262
8436.9,1600,514
8436.9,1100,11
8436.9,1350,260
8436.9,1600,511
8436.9,1850,763
8436.9,1100,14
8436.9,1350,262
8436.9,1600,511
8436.9,1850,762
8436.9,2100,1014
8436.9,1350,266
8436.9,1600,514
8436.9,1850,763
8436.9,2100,1014
8436.9,2350,1266
8436.9,1100,11
8436.9,1350,262
8436.9,1600,514
8436.9,1100,10
8436.9,1350,259
8436.9,1600,510
8436.9,1850,762
8436.9,1100,11
8436.9,1350,259
8436.9,1600,508
8436.9,1850,759
8436.9,2100,1011
8436.9,1350,262
8436.9,1600,510
8436.9,1850,759
8436.9,2100,1010
8436.9,2350,1262
8436.9,1600,514
8436.9,1850,762
8436.9,2100,1011
8436.9,2350,1262
8436.9,2600,1514
8436.9,1100,11
8436.9,1350,260
8436.9,1600,511
8436.9,1850,763
8436.9,1100,11
8436.9,1350,259
8436.9,1600,508
8436.9,1850,759
8436.9,2100,1011
8436.9,1350,260
8436.9,1600,508
8436.9,1850,757
8436.9,2100,1008
8436.9,2350,1260
8436.9,1600,511
8436.9,1850,759
8436.9,2100,1008
8436.9,2350,1259
8436.9,2600,1511
8436.9,1850,763
8436.9,2100,1011
8436.9,2350,1260
8436.9,2600,1511
8436.9,2850,1763
8436.9,1100,14
8436.9,1350,262
8436.9,1600,511
8436.9,1850,762
8436.9,2100,1014
8436.9,1350,262
8436.9,1600,510
8436.9,1850,759
8436.9,2100,1010
8436.9,2350,1262
8436.9,1600,511
8436.9,1850,759
8436.9,2100,1008
8436.9,2350,1259
8436.9,2600,1511
8436.9,1850,762
8436.9,2100,1010
8436.9,2350,1259
8436.9,2600,1510
8436.9,2850,1762
8436.9,2100,1014
8436.9,2350,1262
8436.9,2600,1511
8436.9,2850,1762
8436.9,3100,2014
8436.9,1350,266
8436.9,1600,514
8436.9,1850,763
8436.9,2100,1014
8436.9,2350,1266
8436.9,1600,514
8436.9,1850,762
8436.9,2100,1011
8436.9,2350,1262
8436.9,2600,1514
8436.9,1850,763
8436.9,2100,1011
8436.9,2350,1260
8436.9,2600,1511
8436.9,2850,1763
8436.9,2100,1014
8436.9,2350,1262
8436.9,2600,1511
8436.9,2850,1762
8436.9,3100,2014
8436.9,2350,1266
8436.9,2600,1514
8436.9,2850,1763
8436.9,3100,2014
8436.9,3350,2266
8436.9,1100,12
8436.9,1350,263
8436.9,1600,515
8436.9,1100,11
8436.9,1350,260
8436.9,1600,511
8436.9,1850,763
8436.9,1100,12
8436.9,1350,260
8436.9,1600,509
8436.9,1850,760
8436.9,2100,1012
8436.9,1350,263
8436.9,1600,511
8436.9,1850,760
8436.9,2100,1011
8436.9,2350,1263
8436.9,1600,515
8436.9,1850,763
8436.9,2100,1012
8436.9,2350,1263
8436.9,2600,1515
8436.9,1100,11
8436.9,1350,260
8436.9,1600,511
8436.9,1850,763
8436.9,1100,11
8436.9,1350,259
8436.9,1600,508
8436.9,1850,759
8436.9,2100,1011
8436.9,1350,260
8436.9,1600,508
8436.9,1850,757
8436.9,2100,1008
8436.9,2350,1260
8436.9,1600,511
8436.9,1850,759
8436.9,2100,1008
8436.9,2350,1259
8436.9,2600,1511
8436.9,1850,763
8436.9,2100,1011
8436.9,2350,1260
8436.9,2600,1511
8436.9,2850,1763
8436.9,1100,12
8436.9,1350,260
8436.9,1600,509
8436.9,1850,760
8436.9,2100,1012
8436.9,1350,260
8436.9,1600,508
8436.9,1850,757
8436.9,2100,1008
8436.9,2350,1260
8436.9,1600,509
8436.9,1850,757
8436.9,2100,1006
8436.9,2350,1257
8436.9,2600,1509
8436.9,1850,760
8436.9,2100,1008
8436.9,2350,1257
8436.9,2600,1508
8436.9,2850,1760
8436.9,2100,1012
8436.9,2350,1260
8436.9,2600,1509
8436.9,2850,1760
8436.9,3100,2012
8436.9,1350,263
8436.9,1600,511
8436.9,1850,760
8436.9,2100,1011
8436.9,2350,1263
8436.9,1600,511
8436.9,1850,759
8436.9,2100,1008
8436.9,2350,1259
8436.9,2600,1511
8436.9,1850,760
8436.9,2100,1008
8436.9,2350,1257
8436.9,2600,1508
8436.9,2850,1760
8436.9,2100,1011
8436.9,2350,1259
8436.9,2600,1508
8436.9,2850,1759
8436.9,3100,2011
8436.9,2350,1263
8436.9,2600,1511
8436.9,2850,1760
8436.9,3100,2011
8436.9,3350,2263
8436.9,1600,515
8436.9,1850,763
8436.9,2100,1012
8436.9,2350,1263
8436.9,2600,1515
8436.9,1850,763
8436.9,2100,1011
8436.9,2350,1260
8436.9,2600,1511
8436.9,2850,1763
8436.9,2100,1012
8436.9,2350,1260
8436.9,2600,1509
8436.9,2850,1760
8436.9,3100,2012
8436.9,2350,1263
8436.9,2600,1511
8436.9,2850,1760
8436.9,3100,2011
8436.9,3350,2263
8436.9,2600,1515
8436.9,2850,1763
8436.9,3100,2012
8436.9,3350,2263
8436.9,3600,2515
8436.9,1100,14
8436.9,1350,263
8436.9,1600,514
8436.9,1850,766
8436.9,1100,14
8436.9,1350,262
8436.9,1600,511
8436.9,1850,762
8436.9,2100,1014
8436.9,1350,263
8436.9,1600,511
8436.9,1850,760
8436.9,2100,1011
8436.9,2350,1263
8436.9,1600,514
8436.9,1850,762
8436.9,2100,1011
8436.9,2350,1262
8436.9,2600,1514
8436.9,1850,766
8436.9,2100,1014
8436.9,2350,1263
8436.9,2600,1514
8436.9,2850,1766
8436.9,1100,14
8436.9,1350,262
8436.9,1600,511
8436.9,1850,762
8436.9,2100,1014
8436.9,1350,262
8436.9,1600,510
8436.9,1850,759
8436.9,2100,1010
8436.9,2350,1262
8436.9,1600,511
8436.9,1850,759
8436.9,2100,1008
8436.9,2350,1259
8436.9,2600,1511
8436.9,1850,762
8436.9,2100,1010
8436.9,2350,1259
8436.9,2600,1510
8436.9,2850,1762
8436.9,2100,1014
8436.9,2350,1262
8436.9,2600,1511
8436.9,2850,1762
8436.9,3100,2014
8436.9,1350,263
8436.9,1600,511
8436.9,1850,760
8436.9,2100,1011
8436.9,2350,1263
8436.9,1600,511
8436.9,1850,759
8436.9,2100,1008
8436.9,2350,1259
8436.9,2600,1511
8436.9,1850,760
8436.9,2100,1008
8436.9,2350,1257
8436.9,2600,1508
8436.9,2850,1760
8436.9,2100,1011
8436.9,2350,1259
8436.9,2600,1508
8436.9,2850,1759
8436.9,3100,2011
8436.9,2350,1263
8436.9,2600,1511
8436.9,2850,1760
8436.9,3100,2011
8436.9,3350,2263
8436.9,1600,514
8436.9,1850,762
8436.9,2100,1011
8436.9,2350,1262
8436.9,2600,1514
8436.9,1850,762
8436.9,2100,1010
8436.9,2350,1259
8436.9,2600,1510
8436.9,2850,1762
8436.9,2100,1011
8436.9,2350,1259
8436.9,2600,1508
8436.9,2850,1759
8436.9,3100,2011
8436.9,2350,1262
8436.9,2600,1510
8436.9,2850,1759
8436.9,3100,2010
8436.9,3350,2262
8436.9,2600,1514
8436.9,2850,1762
8436.9,3100,2011
8436.9,3350,2262
8436.9,3600,2514
8436.9,1850,766
8436.9,2100,1014
8436.9,2350,1263
8436.9,2600,1514
8436.9,2850,1766
8436.9,2100,1014
8436.9,2350,1262
8436.9,2600,1511
8436.9,2850,1762
8436.9,3100,2014
8436.9,2350,1263
8436.9,2600,1511
8436.9,2850,1760
8436.9,3100,2011
8436.9,3350,2263
8436.9,2600,1514
8436.9,2850,1762
8436.9,3100,2011
8436.9,3350,2262
8436.9,3600,2514
8436.9,2850,1766
8436.9,3100,2014
8436.9,3350,2263
8436.9,3600,2514
8436.9,3850,2766
8436.9,1100,18
8436.9,1350,266
8436.9,1600,515
8436.9,1850,766
8436.9,2100,1018
8436.9,1350,266
8436.9,1600,514
8436.9,1850,763
8436.9,2100,1014
8436.9,2350,1266
8436.9,1600,515
8436.9,1850,763
8436.9,2100,1012
8436.9,2350,1263
8436.9,2600,1515
8436.9,1850,766
8436.9,2100,1014
8436.9,2350,1263
8436.9,2600,1514
8436.9,2850,1766
8436.9,2100,1018
8436.9,2350,1266
8436.9,2600,1515
8436.9,2850,1766
8436.9,3100,2018
8436.9,1350,266
8436.9,1600,514
8436.9,1850,763
8436.9,2100,1014
8436.9,2350,1266
8436.9,1600,514
8436.9,1850,762
8436.9,2100,1011
8436.9,2350,1262
8436.9,2600,1514
8436.9,1850,763
8436.9,2100,1011
8436.9,2350,1260
8436.9,2600,1511
8436.9,2850,1763
8436.9,2100,1014
8436.9,2350,1262
8436.9,2600,1511
8436.9,2850,1762
8436.9,3100,2014
8436.9,2350,1266
8436.9,2600,1514
8436.9,2850,1763
8436.9,3100,2014
8436.9,3350,2266
8436.9,1600,515
8436.9,1850,763
8436.9,2100,1012
8436.9,2350,1263
8436.9,2600,1515
8436.9,1850,763
8436.9,2100,1011
8436.9,2350,1260
8436.9,2600,1511
8436.9,2850,1763
8436.9,2100,1012
8436.9,2350,1260
8436.9,2600,1509
8436.9,2850,1760
8436.9,3100,2012
8436.9,2350,1263
8436.9,2600,1511
8436.9,2850,1760
8436.9,3100,2011
8436.9,3350,2263
8436.9,2600,1515
8436.9,2850,1763
8436.9,3100,2012
8436.9,3350,2263
8436.9,3600,2515
8436.9,1850,766
8436.9,2100,1014
8436.9,2350,1263
8436.9,2600,1514
8436.9,2850,1766
8436.9,2100,1014
8436.9,2350,1262
8436.9,2600,1511
8436.9,2850,1762
8436.9,3100,2014
8436.9,2350,1263
8436.9,2600,1511
8436.9,2850,1760
8436.9,3100,2011
8436.9,3350,2263
8436.9,2600,1514
8436.9,2850,1762
8436.9,3100,2011
8436.9,3350,2262
8436.9,3600,2514
8436.9,2850,1766
8436.9,3100,2014
8436.9,3350,2263
8436.9,3600,2514
8436.9,3850,2766
8436.9,2100,1018
8436.9,2350,1266
8436.9,2600,1515
8436.9,2850,1766
8436.9,3100,2018
8436.9,2350,1266
8436.9,2600,1514
8436.9,2850,1763
8436.9,3100,2014
8436.9,3350,2266
8436.9,2600,1515
8436.9,2850,1763
8436.9,3100,2012
8436.9,3350,2263
8436.9,3600,2515
8436.9,2850,1766
8436.9,3100,2014
8436.9,3350,2263
8436.9,3600,2514
8436.9,3850,2766
8436.9,3100,2018
8436.9,3350,2266
8436.9,3600,2515
8436.9,3850,2766
8436.9,4100,3018
