1526.1,1948.8,1500
2428,1948.8,1250
2428,1948.8,1500
2428,1948.8,1750
2428,1948.8,2000
3329.9,1948.8,1250
3329.9,1948.8,1500
3329.9,1948.8,1750
3329.9,1948.8,1250
3329.9,1948.8,1500
3329.9,1948.8,1750
3329.9,1948.8,2000
3329.9,1948.8,1250
3329.9,1948.8,1500
3329.9,1948.8,1750
3329.9,1948.8,2000
3329.9,1948.8,2250
3329.9,1948.8,1500
3329.9,1948.8,1750
3329.9,1948.8,2000
3329.9,1948.8,2250
3329.9,1948.8,2500
4231.9,1948.8,1250
4231.9,1948.8,1250
4231.9,1948.8,1250
4231.9,1948.8,1250
4231.9,1948.8,1250
4231.9,1948.8,1250
4231.9,1948.8,1250
4231.9,1948.8,1250
4231.9,1948.8,1250
4231.9,1948.8,2750
4231.9,1948.8,1250
4231.9,1948.8,1250
4231.9,1948.8,2750
4231.9,1948.8,2750
4231.9,1948.8,3000
5133.8,1948.8,2500
5133.8,1948.8,2750
5133.8,1948.8,3000
5133.8,1948.8,3250
5133.8,1948.8,2500
5133.8,1948.8,2750
5133.8,1948.8,3000
5133.8,1948.8,3250
5133.8,1948.8,2500
5133.8,1948.8,2750
5133.8,1948.8,3000
5133.8,1948.8,3250
5133.8,1948.8,2500
5133.8,1948.8,2750
5133.8,1948.8,3000
5133.8,1948.8,3250
5133.8,1948.8,3500
6035.8,1948.8,2000
6035.8,1948.8,2250
6035.8,1948.8,2500
6035.8,1948.8,2750
6035.8,1948.8,3000
6035.8,1948.8,2250
6035.8,1948.8,2500
6035.8,1948.8,2750
6035.8,1948.8,3000
6035.8,1948.8,3250
6035.8,1948.8,2500
6035.8,1948.8,2750
6035.8,1948.8,3000
6035.8,1948.8,3250
6035.8,1948.8,3500
6035.8,1948.8,2750
6035.8,1948.8,3000
6035.8,1948.8,3250
6035.8,1948.8,3500
6035.8,1948.8,3750
6035.8,1948.8,2000
6035.8,1948.8,2250
6035.8,1948.8,2500
6035.8,1948.8,2750
6035.8,1948.8,3000
6035.8,1948.8,2250
6035.8,1948.8,2500
6035.8,1948.8,2750
6035.8,1948.8,3000
6035.8,1948.8,3250
6035.8,1948.8,2500
6035.8,1948.8,2750
6035.8,1948.8,3000
6035.8,1948.8,3250
6035.8,1948.8,3500
6035.8,1948.8,2750
6035.8,1948.8,3000
6035.8,1948.8,3250
6035.8,1948.8,3500
6035.8,1948.8,3750
6035.8,1948.8,2000
6035.8,1948.8,2250
6035.8,1948.8,2500
6035.8,1948.8,2750
6035.8,1948.8,3000
6035.8,1948.8,2250
6035.8,1948.8,2500
6035.8,1948.8,2750
6035.8,1948.8,3000
6035.8,1948.8,3250
6035.8,1948.8,2500
6035.8,1948.8,2750
6035.8,1948.8,3000
6035.8,1948.8,3250
6035.8,1948.8,3500
6035.8,1948.8,2750
6035.8,1948.8,3000
6035.8,1948.8,3250
6035.8,1948.8,3500
6035.8,1948.8,3750
6035.8,1948.8,2000
6035.8,1948.8,2250
6035.8,1948.8,2500
6035.8,1948.8,2750
6035.8,1948.8,3000
6035.8,1948.8,2250
6035.8,1948.8,2500
6035.8,1948.8,2750
6035.8,1948.8,3000
6035.8,1948.8,3250
6035.8,1948.8,2500
6035.8,1948.8,2750
6035.8,1948.8,3000
6035.8,1948.8,3250
6035.8,1948.8,3500
6035.8,1948.8,2750
6035.8,1948.8,3000
6035.8,1948.8,3250
6035.8,1948.8,3500
6035.8,1948.8,3750
6035.8,1948.8,3000
6035.8,1948.8,3250
6035.8,1948.8,3500
6035.8,1948.8,3750
6035.8,1948.8,4000
6937.7,1948.8,1500
6937.7,1948.8,1750
6937.7,1948.8,2000
6937.7,1948.8,2250
6937.7,1948.8,2500
6937.7,1948.8,1750
6937.7,1948.8,2000
6937.7,1948.8,2250
6937.7,1948.8,2500
6937.7,1948.8,2750
6937.7,1948.8,2000
6937.7,1948.8,2250
6937.7,1948.8,2500
6937.7,1948.8,2750
6937.7,1948.8,3000
6937.7,1948.8,2250
6937.7,1948.8,2500
6937.7,1948.8,2750
6937.7,1948.8,3000
6937.7,1948.8,3250
6937.7,1948.8,2500
6937.7,1948.8,2750
6937.7,1948.8,3000
6937.7,1948.8,3250
6937.7,1948.8,3500
6937.7,1948.8,1750
6937.7,1948.8,2000
6937.7,1948.8,2250
6937.7,1948.8,2500
6937.7,1948.8,2750
6937.7,1948.8,2000
6937.7,1948.8,2250
6937.7,1948.8,2500
6937.7,1948.8,2750
6937.7,1948.8,3000
6937.7,1948.8,2250
6937.7,1948.8,2500
6937.7,1948.8,2750
6937.7,1948.8,3000
6937.7,1948.8,3250
6937.7,1948.8,2500
6937.7,1948.8,2750
6937.7,1948.8,3000
6937.7,1948.8,3250
6937.7,1948.8,3500
6937.7,1948.8,2750
6937.7,1948.8,3000
6937.7,1948.8,3250
6937.7,1948.8,3500
6937.7,1948.8,3750
6937.7,1948.8,2000
6937.7,1948.8,2250
6937.7,1948.8,2500
6937.7,1948.8,2750
6937.7,1948.8,3000
6937.7,1948.8,2250
6937.7,1948.8,2500
6937.7,1948.8,2750
6937.7,1948.8,3000
6937.7,1948.8,3250
6937.7,1948.8,2500
6937.7,1948.8,2750
6937.7,1948.8,3000
6937.7,1948.8,3250
6937.7,1948.8,3500
6937.7,1948.8,2750
6937.7,1948.8,3000
6937.7,1948.8,3250
6937.7,1948.8,3500
6937.7,1948.8,3750
6937.7,1948.8,3000
6937.7,1948.8,3250
6937.7,1948.8,3500
6937.7,1948.8,3750
6937.7,1948.8,4000
6937.7,1948.8,2250
6937.7,1948.8,2500
6937.7,1948.8,2750
6937.7,1948.8,3000
6937.7,1948.8,3250
6937.7,1948.8,2500
6937.7,1948.8,2750
6937.7,1948.8,3000
6937.7,1948.8,3250
6937.7,1948.8,3500
6937.7,1948.8,2750
6937.7,1948.8,3000
6937.7,1948.8,3250
6937.7,1948.8,3500
6937.7,1948.8,3750
6937.7,1948.8,3000
6937.7,1948.8,3250
6937.7,1948.8,3500
6937.7,1948.8,3750
6937.7,1948.8,4000
6937.7,1948.8,3250
6937.7,1948.8,3500
6937.7,1948.8,3750
6937.7,1948.8,4000
6937.7,1948.8,4250
6937.7,1948.8,1500
6937.7,1948.8,1750
6937.7,1948.8,2000
6937.7,1948.8,2250
6937.7,1948.8,2500
6937.7,1948.8,1750
6937.7,1948.8,2000
6937.7,1948.8,2250
6937.7,1948.8,2500
6937.7,1948.8,2750
6937.7,1948.8,2000
6937.7,1948.8,2250
6937.7,1948.8,2500
6937.7,1948.8,2750
6937.7,1948.8,3000
6937.7,1948.8,2250
6937.7,1948.8,2500
6937.7,1948.8,2750
6937.7,1948.8,3000
6937.7,1948.8,3250
6937.7,1948.8,2500
6937.7,1948.8,2750
6937.7,1948.8,3000
6937.7,1948.8,3250
6937.7,1948.8,3500
6937.7,1948.8,1750
6937.7,1948.8,2000
6937.7,1948.8,2250
6937.7,1948.8,2500
6937.7,1948.8,2750
6937.7,1948.8,2000
6937.7,1948.8,2250
6937.7,1948.8,2500
6937.7,1948.8,2750
6937.7,1948.8,3000
6937.7,1948.8,2250
6937.7,1948.8,2500
6937.7,1948.8,2750
6937.7,1948.8,3000
6937.7,1948.8,3250
6937.7,1948.8,2500
6937.7,1948.8,2750
6937.7,1948.8,3000
6937.7,1948.8,3250
6937.7,1948.8,3500
6937.7,1948.8,2750
6937.7,1948.8,3000
6937.7,1948.8,3250
6937.7,1948.8,3500
6937.7,1948.8,3750
6937.7,1948.8,2000
6937.7,1948.8,2250
6937.7,1948.8,2500
6937.7,1948.8,2750
6937.7,1948.8,3000
6937.7,1948.8,2250
6937.7,1948.8,2500
6937.7,1948.8,2750
6937.7,1948.8,3000
6937.7,1948.8,3250
6937.7,1948.8,2500
6937.7,1948.8,2750
6937.7,1948.8,3000
6937.7,1948.8,3250
6937.7,1948.8,3500
6937.7,1948.8,2750
6937.7,1948.8,3000
6937.7,1948.8,3250
6937.7,1948.8,3500
6937.7,1948.8,3750
6937.7,1948.8,3000
6937.7,1948.8,3250
6937.7,1948.8,3500
6937.7,1948.8,3750
6937.7,1948.8,4000
6937.7,1948.8,2250
6937.7,1948.8,2500
6937.7,1948.8,2750
6937.7,1948.8,3000
6937.7,1948.8,3250
6937.7,1948.8,2500
6937.7,1948.8,2750
6937.7,1948.8,3000
6937.7,1948.8,3250
6937.7,1948.8,3500
6937.7,1948.8,2750
6937.7,1948.8,3000
6937.7,1948.8,3250
6937.7,1948.8,3500
6937.7,1948.8,3750
6937.7,1948.8,3000
6937.7,1948.8,3250
6937.7,1948.8,3500
6937.7,1948.8,3750
6937.7,1948.8,4000
6937.7,1948.8,3250
6937.7,1948.8,3500
6937.7,1948.8,3750
6937.7,1948.8,4000
6937.7,1948.8,4250
6937.7,1948.8,1500
6937.7,1948.8,1750
6937.7,1948.8,2000
6937.7,1948.8,2250
6937.7,1948.8,2500
6937.7,1948.8,1750
6937.7,1948.8,2000
6937.7,1948.8,2250
6937.7,1948.8,2500
6937.7,1948.8,2750
6937.7,1948.8,2000
6937.7,1948.8,2250
6937.7,1948.8,2500
6937.7,1948.8,2750
6937.7,1948.8,3000
6937.7,1948.8,2250
6937.7,1948.8,2500
6937.7,1948.8,2750
6937.7,1948.8,3000
6937.7,1948.8,3250
6937.7,1948.8,2500
6937.7,1948.8,2750
6937.7,1948.8,3000
6937.7,1948.8,3250
6937.7,1948.8,3500
6937.7,1948.8,1750
6937.7,1948.8,2000
6937.7,1948.8,2250
6937.7,1948.8,2500
6937.7,1948.8,2750
6937.7,1948.8,2000
6937.7,1948.8,2250
6937.7,1948.8,2500
6937.7,1948.8,2750
6937.7,1948.8,3000
6937.7,1948.8,2250
6937.7,1948.8,2500
6937.7,1948.8,2750
6937.7,1948.8,3000
6937.7,1948.8,3250
6937.7,1948.8,2500
6937.7,1948.8,2750
6937.7,1948.8,3000
6937.7,1948.8,3250
6937.7,1948.8,3500
6937.7,1948.8,2750
6937.7,1948.8,3000
6937.7,1948.8,3250
6937.7,1948.8,3500
6937.7,1948.8,3750
6937.7,1948.8,2000
6937.7,1948.8,2250
6937.7,1948.8,2500
6937.7,1948.8,2750
6937.7,1948.8,3000
6937.7,1948.8,2250
6937.7,1948.8,2500
6937.7,1948.8,2750
6937.7,1948.8,3000
6937.7,1948.8,3250
6937.7,1948.8,2500
6937.7,1948.8,2750
6937.7,1948.8,3000
6937.7,1948.8,3250
6937.7,1948.8,3500
6937.7,1948.8,2750
6937.7,1948.8,3000
6937.7,1948.8,3250
6937.7,1948.8,3500
6937.7,1948.8,3750
6937.7,1948.8,3000
6937.7,1948.8,3250
6937.7,1948.8,3500
6937.7,1948.8,3750
6937.7,1948.8,4000
6937.7,1948.8,2250
6937.7,1948.8,2500
6937.7,1948.8,2750
6937.7,1948.8,3000
6937.7,1948.8,3250
6937.7,1948.8,2500
6937.7,1948.8,2750
6937.7,1948.8,3000
6937.7,1948.8,3250
6937.7,1948.8,3500
6937.7,1948.8,2750
6937.7,1948.8,3000
6937.7,1948.8,3250
6937.7,1948.8,3500
6937.7,1948.8,3750
6937.7,1948.8,3000
6937.7,1948.8,3250
6937.7,1948.8,3500
6937.7,1948.8,3750
6937.7,1948.8,4000
6937.7,1948.8,3250
6937.7,1948.8,3500
6937.7,1948.8,3750
6937.7,1948.8,4000
6937.7,1948.8,4250
6937.7,1948.8,1500
6937.7,1948.8,1750
6937.7,1948.8,2000
6937.7,1948.8,2250
6937.7,1948.8,2500
6937.7,1948.8,1750
6937.7,1948.8,2000
6937.7,1948.8,2250
6937.7,1948.8,2500
6937.7,1948.8,2750
6937.7,1948.8,2000
6937.7,1948.8,2250
6937.7,1948.8,2500
6937.7,1948.8,2750
6937.7,1948.8,3000
6937.7,1948.8,2250
6937.7,1948.8,2500
6937.7,1948.8,2750
6937.7,1948.8,3000
6937.7,1948.8,3250
6937.7,1948.8,2500
6937.7,1948.8,2750
6937.7,1948.8,3000
6937.7,1948.8,3250
6937.7,1948.8,3500
6937.7,1948.8,1750
6937.7,1948.8,2000
6937.7,1948.8,2250
6937.7,1948.8,2500
6937.7,1948.8,2750
6937.7,1948.8,2000
6937.7,1948.8,2250
6937.7,1948.8,2500
6937.7,1948.8,2750
6937.7,1948.8,3000
6937.7,1948.8,2250
6937.7,1948.8,2500
6937.7,1948.8,2750
6937.7,1948.8,3000
6937.7,1948.8,3250
6937.7,1948.8,2500
6937.7,1948.8,2750
6937.7,1948.8,3000
6937.7,1948.8,3250
6937.7,1948.8,3500
6937.7,1948.8,2750
6937.7,1948.8,3000
6937.7,1948.8,3250
6937.7,1948.8,3500
6937.7,1948.8,3750
6937.7,1948.8,2000
6937.7,1948.8,2250
6937.7,1948.8,2500
6937.7,1948.8,2750
6937.7,1948.8,3000
6937.7,1948.8,2250
6937.7,1948.8,2500
6937.7,1948.8,2750
6937.7,1948.8,3000
6937.7,1948.8,3250
6937.7,1948.8,2500
6937.7,1948.8,2750
6937.7,1948.8,3000
6937.7,1948.8,3250
6937.7,1948.8,3500
6937.7,1948.8,2750
6937.7,1948.8,3000
6937.7,1948.8,3250
6937.7,1948.8,3500
6937.7,1948.8,3750
6937.7,1948.8,3000
6937.7,1948.8,3250
6937.7,1948.8,3500
6937.7,1948.8,3750
6937.7,1948.8,4000
6937.7,1948.8,2250
6937.7,1948.8,2500
6937.7,1948.8,2750
6937.7,1948.8,3000
6937.7,1948.8,3250
6937.7,1948.8,2500
6937.7,1948.8,2750
6937.7,1948.8,3000
6937.7,1948.8,3250
6937.7,1948.8,3500
6937.7,1948.8,2750
6937.7,1948.8,3000
6937.7,1948.8,3250
6937.7,1948.8,3500
6937.7,1948.8,3750
6937.7,1948.8,3000
6937.7,1948.8,3250
6937.7,1948.8,3500
6937.7,1948.8,3750
6937.7,1948.8,4000
6937.7,1948.8,3250
6937.7,1948.8,3500
6937.7,1948.8,3750
6937.7,1948.8,4000
6937.7,1948.8,4250
6937.7,1948.8,2500
6937.7,1948.8,2750
6937.7,1948.8,3000
6937.7,1948.8,3250
6937.7,1948.8,3500
6937.7,1948.8,2750
6937.7,1948.8,3000
6937.7,1948.8,3250
6937.7,1948.8,3500
6937.7,1948.8,3750
6937.7,1948.8,3000
6937.7,1948.8,3250
6937.7,1948.8,3500
6937.7,1948.8,3750
6937.7,1948.8,4000
6937.7,1948.8,3250
6937.7,1948.8,3500
6937.7,1948.8,3750
6937.7,1948.8,4000
6937.7,1948.8,4250
6937.7,1948.8,3500
6937.7,1948.8,3750
6937.7,1948.8,4000
6937.7,1948.8,4250
6937.7,1948.8,4500
