30462,5405.8,64.801
29622,5905.8,438.2
28782,6405.8,941.2
27942,5905.8,444.2
27942,6155.8,692.2
27942,6405.8,941.2
27942,6655.8,1192.2
27942,6905.8,1444.2
27102,5405.8,76.801
27102,5655.8,195.2
27102,5905.8,444.2
27102,6155.8,695.2
27102,6405.8,947.2
27102,5655.8,195.2
27102,5905.8,443.2
27102,6155.8,692.2
27102,6405.8,943.2
27102,6655.8,1195.2
27102,5905.8,444.2
27102,6155.8,692.2
27102,6405.8,941.2
27102,6655.8,1192.2
27102,6905.8,1444.2
27102,6155.8,695.2
27102,6405.8,943.2
27102,6655.8,1192.2
27102,6905.8,1443.2
27102,7155.8,1695.2
27102,6405.8,947.2
27102,6655.8,1195.2
27102,6905.8,1444.2
27102,7155.8,1695.2
27102,7405.8,1947.2
26262,4905.8,579.8
26262,5155.8,327.8
26262,5405.8,76.801
26262,5655.8,198.2
26262,5905.8,450.2
26262,5155.8,327.8
26262,5405.8,75.801
26262,5655.8,195.2
26262,5905.8,446.2
26262,6155.8,698.2
26262,5405.8,76.801
26262,5655.8,195.2
26262,5905.8,444.2
26262,6155.8,695.2
26262,6405.8,947.2
26262,5655.8,198.2
26262,5905.8,446.2
26262,6155.8,695.2
26262,6405.8,946.2
26262,6655.8,1198.2
26262,5905.8,450.2
26262,6155.8,698.2
26262,6405.8,947.2
26262,6655.8,1198.2
26262,6905.8,1450.2
26262,5155.8,327.8
26262,5405.8,75.801
26262,5655.8,195.2
26262,5905.8,446.2
26262,6155.8,698.2
26262,5405.8,75.801
26262,5655.8,194.2
26262,5905.8,443.2
26262,6155.8,694.2
26262,6405.8,946.2
26262,5655.8,195.2
26262,5905.8,443.2
26262,6155.8,692.2
26262,6405.8,943.2
26262,6655.8,1195.2
26262,5905.8,446.2
26262,6155.8,694.2
26262,6405.8,943.2
26262,6655.8,1194.2
26262,6905.8,1446.2
26262,6155.8,698.2
26262,6405.8,946.2
26262,6655.8,1195.2
26262,6905.8,1446.2
26262,7155.8,1698.2
26262,5405.8,76.801
26262,5655.8,195.2
26262,5905.8,444.2
26262,6155.8,695.2
26262,6405.8,947.2
26262,5655.8,195.2
26262,5905.8,443.2
26262,6155.8,692.2
26262,6405.8,943.2
26262,6655.8,1195.2
26262,5905.8,444.2
26262,6155.8,692.2
26262,6405.8,941.2
26262,6655.8,1192.2
26262,6905.8,1444.2
26262,6155.8,695.2
26262,6405.8,943.2
26262,6655.8,1192.2
26262,6905.8,1443.2
26262,7155.8,1695.2
26262,6405.8,947.2
26262,6655.8,1195.2
26262,6905.8,1444.2
26262,7155.8,1695.2
26262,7405.8,1947.2
26262,5655.8,198.2
26262,5905.8,446.2
26262,6155.8,695.2
26262,6405.8,946.2
26262,6655.8,1198.2
26262,5905.8,446.2
26262,6155.8,694.2
26262,6405.8,943.2
26262,6655.8,1194.2
26262,6905.8,1446.2
26262,6155.8,695.2
26262,6405.8,943.2
26262,6655.8,1192.2
26262,6905.8,1443.2
26262,7155.8,1695.2
26262,6405.8,946.2
26262,6655.8,1194.2
26262,6905.8,1443.2
26262,7155.8,1694.2
26262,7405.8,1946.2
26262,6655.8,1198.2
26262,6905.8,1446.2
26262,7155.8,1695.2
26262,7405.8,1946.2
26262,7655.8,2198.2
26262,5905.8,450.2
26262,6155.8,698.2
26262,6405.8,947.2
26262,6655.8,1198.2
26262,6905.8,1450.2
26262,6155.8,698.2
26262,6405.8,946.2
26262,6655.8,1195.2
26262,6905.8,1446.2
26262,7155.8,1698.2
26262,6405.8,947.2
26262,6655.8,1195.2
26262,6905.8,1444.2
26262,7155.8,1695.2
26262,7405.8,1947.2
26262,6655.8,1198.2
26262,6905.8,1446.2
26262,7155.8,1695.2
26262,7405.8,1946.2
26262,7655.8,2198.2
26262,6905.8,1450.2
26262,7155.8,1698.2
26262,7405.8,1947.2
26262,7655.8,2198.2
26262,7905.8,2450.2
25422,4405.8,1082.8
25422,4655.8,830.8
25422,4905.8,579.8
25422,5155.8,330.8
25422,5405.8,82.801
25422,4655.8,830.8
25422,4905.8,578.8
25422,5155.8,327.8
25422,5405.8,78.801
25422,5655.8,201.2
25422,4905.8,579.8
25422,5155.8,327.8
25422,5405.8,76.801
25422,5655.8,198.2
25422,5905.8,450.2
25422,5155.8,330.8
25422,5405.8,78.801
25422,5655.8,198.2
25422,5905.8,449.2
25422,6155.8,701.2
25422,5405.8,82.801
25422,5655.8,201.2
25422,5905.8,450.2
25422,6155.8,701.2
25422,6405.8,953.2
25422,4655.8,830.8
25422,4905.8,578.8
25422,5155.8,327.8
25422,5405.8,78.801
25422,5655.8,201.2
25422,4905.8,578.8
25422,5155.8,326.8
25422,5405.8,75.801
25422,5655.8,197.2
25422,5905.8,449.2
25422,5155.8,327.8
25422,5405.8,75.801
25422,5655.8,195.2
25422,5905.8,446.2
25422,6155.8,698.2
25422,5405.8,78.801
25422,5655.8,197.2
25422,5905.8,446.2
25422,6155.8,697.2
25422,6405.8,949.2
25422,5655.8,201.2
25422,5905.8,449.2
25422,6155.8,698.2
25422,6405.8,949.2
25422,6655.8,1201.2
25422,4905.8,579.8
25422,5155.8,327.8
25422,5405.8,76.801
25422,5655.8,198.2
25422,5905.8,450.2
25422,5155.8,327.8
25422,5405.8,75.801
25422,5655.8,195.2
25422,5905.8,446.2
25422,6155.8,698.2
25422,5405.8,76.801
25422,5655.8,195.2
25422,5905.8,444.2
25422,6155.8,695.2
25422,6405.8,947.2
25422,5655.8,198.2
25422,5905.8,446.2
25422,6155.8,695.2
25422,6405.8,946.2
25422,6655.8,1198.2
25422,5905.8,450.2
25422,6155.8,698.2
25422,6405.8,947.2
25422,6655.8,1198.2
25422,6905.8,1450.2
25422,5155.8,330.8
25422,5405.8,78.801
25422,5655.8,198.2
25422,5905.8,449.2
25422,6155.8,701.2
25422,5405.8,78.801
25422,5655.8,197.2
25422,5905.8,446.2
25422,6155.8,697.2
25422,6405.8,949.2
25422,5655.8,198.2
25422,5905.8,446.2
25422,6155.8,695.2
25422,6405.8,946.2
25422,6655.8,1198.2
25422,5905.8,449.2
25422,6155.8,697.2
25422,6405.8,946.2
25422,6655.8,1197.2
25422,6905.8,1449.2
25422,6155.8,701.2
25422,6405.8,949.2
25422,6655.8,1198.2
25422,6905.8,1449.2
25422,7155.8,1701.2
25422,5405.8,82.801
25422,5655.8,201.2
25422,5905.8,450.2
25422,6155.8,701.2
25422,6405.8,953.2
25422,5655.8,201.2
25422,5905.8,449.2
25422,6155.8,698.2
25422,6405.8,949.2
25422,6655.8,1201.2
25422,5905.8,450.2
25422,6155.8,698.2
25422,6405.8,947.2
25422,6655.8,1198.2
25422,6905.8,1450.2
25422,6155.8,701.2
25422,6405.8,949.2
25422,6655.8,1198.2
25422,6905.8,1449.2
25422,7155.8,1701.2
25422,6405.8,953.2
25422,6655.8,1201.2
25422,6905.8,1450.2
25422,7155.8,1701.2
25422,7405.8,1953.2
25422,4655.8,830.8
25422,4905.8,578.8
25422,5155.8,327.8
25422,5405.8,78.801
25422,5655.8,201.2
25422,4905.8,578.8
25422,5155.8,326.8
25422,5405.8,75.801
25422,5655.8,197.2
25422,5905.8,449.2
25422,5155.8,327.8
25422,5405.8,75.801
25422,5655.8,195.2
25422,5905.8,446.2
25422,6155.8,698.2
25422,5405.8,78.801
25422,5655.8,197.2
25422,5905.8,446.2
25422,6155.8,697.2
25422,6405.8,949.2
25422,5655.8,201.2
25422,5905.8,449.2
25422,6155.8,698.2
25422,6405.8,949.2
25422,6655.8,1201.2
25422,4905.8,578.8
25422,5155.8,326.8
25422,5405.8,75.801
25422,5655.8,197.2
25422,5905.8,449.2
25422,5155.8,326.8
25422,5405.8,74.801
25422,5655.8,194.2
25422,5905.8,445.2
25422,6155.8,697.2
25422,5405.8,75.801
25422,5655.8,194.2
25422,5905.8,443.2
25422,6155.8,694.2
25422,6405.8,946.2
25422,5655.8,197.2
25422,5905.8,445.2
25422,6155.8,694.2
25422,6405.8,945.2
25422,6655.8,1197.2
25422,5905.8,449.2
25422,6155.8,697.2
25422,6405.8,946.2
25422,6655.8,1197.2
25422,6905.8,1449.2
25422,5155.8,327.8
25422,5405.8,75.801
25422,5655.8,195.2
25422,5905.8,446.2
25422,6155.8,698.2
25422,5405.8,75.801
25422,5655.8,194.2
25422,5905.8,443.2
25422,6155.8,694.2
25422,6405.8,946.2
25422,5655.8,195.2
25422,5905.8,443.2
25422,6155.8,692.2
25422,6405.8,943.2
25422,6655.8,1195.2
25422,5905.8,446.2
25422,6155.8,694.2
25422,6405.8,943.2
25422,6655.8,1194.2
25422,6905.8,1446.2
25422,6155.8,698.2
25422,6405.8,946.2
25422,6655.8,1195.2
25422,6905.8,1446.2
25422,7155.8,1698.2
25422,5405.8,78.801
25422,5655.8,197.2
25422,5905.8,446.2
25422,6155.8,697.2
25422,6405.8,949.2
25422,5655.8,197.2
25422,5905.8,445.2
25422,6155.8,694.2
25422,6405.8,945.2
25422,6655.8,1197.2
25422,5905.8,446.2
25422,6155.8,694.2
25422,6405.8,943.2
25422,6655.8,1194.2
25422,6905.8,1446.2
25422,6155.8,697.2
25422,6405.8,945.2
25422,6655.8,1194.2
25422,6905.8,1445.2
25422,7155.8,1697.2
25422,6405.8,949.2
25422,6655.8,1197.2
25422,6905.8,1446.2
25422,7155.8,1697.2
25422,7405.8,1949.2
25422,5655.8,201.2
25422,5905.8,449.2
25422,6155.8,698.2
25422,6405.8,949.2
25422,6655.8,1201.2
25422,5905.8,449.2
25422,6155.8,697.2
25422,6405.8,946.2
25422,6655.8,1197.2
25422,6905.8,1449.2
25422,6155.8,698.2
25422,6405.8,946.2
25422,6655.8,1195.2
25422,6905.8,1446.2
25422,7155.8,1698.2
25422,6405.8,949.2
25422,6655.8,1197.2
25422,6905.8,1446.2
25422,7155.8,1697.2
25422,7405.8,1949.2
25422,6655.8,1201.2
25422,6905.8,1449.2
25422,7155.8,1698.2
25422,7405.8,1949.2
25422,7655.8,2201.2
25422,4905.8,579.8
25422,5155.8,327.8
25422,5405.8,76.801
25422,5655.8,198.2
25422,5905.8,450.2
25422,5155.8,327.8
25422,5405.8,75.801
25422,5655.8,195.2
25422,5905.8,446.2
25422,6155.8,698.2
25422,5405.8,76.801
25422,5655.8,195.2
25422,5905.8,444.2
25422,6155.8,695.2
25422,6405.8,947.2
25422,5655.8,198.2
25422,5905.8,446.2
25422,6155.8,695.2
25422,6405.8,946.2
25422,6655.8,1198.2
25422,5905.8,450.2
25422,6155.8,698.2
25422,6405.8,947.2
25422,6655.8,1198.2
25422,6905.8,1450.2
25422,5155.8,327.8
25422,5405.8,75.801
25422,5655.8,195.2
25422,5905.8,446.2
25422,6155.8,698.2
25422,5405.8,75.801
25422,5655.8,194.2
25422,5905.8,443.2
25422,6155.8,694.2
25422,6405.8,946.2
25422,5655.8,195.2
25422,5905.8,443.2
25422,6155.8,692.2
25422,6405.8,943.2
25422,6655.8,1195.2
25422,5905.8,446.2
25422,6155.8,694.2
25422,6405.8,943.2
25422,6655.8,1194.2
25422,6905.8,1446.2
25422,6155.8,698.2
25422,6405.8,946.2
25422,6655.8,1195.2
25422,6905.8,1446.2
25422,7155.8,1698.2
25422,5405.8,76.801
25422,5655.8,195.2
25422,5905.8,444.2
25422,6155.8,695.2
25422,6405.8,947.2
25422,5655.8,195.2
25422,5905.8,443.2
25422,6155.8,692.2
25422,6405.8,943.2
25422,6655.8,1195.2
25422,5905.8,444.2
25422,6155.8,692.2
25422,6405.8,941.2
25422,6655.8,1192.2
25422,6905.8,1444.2
25422,6155.8,695.2
25422,6405.8,943.2
25422,6655.8,1192.2
25422,6905.8,1443.2
25422,7155.8,1695.2
25422,6405.8,947.2
25422,6655.8,1195.2
25422,6905.8,1444.2
25422,7155.8,1695.2
25422,7405.8,1947.2
25422,5655.8,198.2
25422,5905.8,446.2
25422,6155.8,695.2
25422,6405.8,946.2
25422,6655.8,1198.2
25422,5905.8,446.2
25422,6155.8,694.2
25422,6405.8,943.2
25422,6655.8,1194.2
25422,6905.8,1446.2
25422,6155.8,695.2
25422,6405.8,943.2
25422,6655.8,1192.2
25422,6905.8,1443.2
25422,7155.8,1695.2
25422,6405.8,946.2
25422,6655.8,1194.2
25422,6905.8,1443.2
25422,7155.8,1694.2
25422,7405.8,1946.2
25422,6655.8,1198.2
25422,6905.8,1446.2
25422,7155.8,1695.2
25422,7405.8,1946.2
25422,7655.8,2198.2
25422,5905.8,450.2
25422,6155.8,698.2
25422,6405.8,947.2
25422,6655.8,1198.2
25422,6905.8,1450.2
25422,6155.8,698.2
25422,6405.8,946.2
25422,6655.8,1195.2
25422,6905.8,1446.2
25422,7155.8,1698.2
25422,6405.8,947.2
25422,6655.8,1195.2
25422,6905.8,1444.2
25422,7155.8,1695.2
25422,7405.8,1947.2
25422,6655.8,1198.2
25422,6905.8,1446.2
25422,7155.8,1695.2
25422,7405.8,1946.2
25422,7655.8,2198.2
25422,6905.8,1450.2
25422,7155.8,1698.2
25422,7405.8,1947.2
25422,7655.8,2198.2
25422,7905.8,2450.2
25422,5155.8,330.8
25422,5405.8,78.801
25422,5655.8,198.2
25422,5905.8,449.2
25422,6155.8,701.2
25422,5405.8,78.801
25422,5655.8,197.2
25422,5905.8,446.2
25422,6155.8,697.2
25422,6405.8,949.2
25422,5655.8,198.2
25422,5905.8,446.2
25422,6155.8,695.2
25422,6405.8,946.2
25422,6655.8,1198.2
25422,5905.8,449.2
25422,6155.8,697.2
25422,6405.8,946.2
25422,6655.8,1197.2
25422,6905.8,1449.2
25422,6155.8,701.2
25422,6405.8,949.2
25422,6655.8,1198.2
25422,6905.8,1449.2
25422,7155.8,1701.2
25422,5405.8,78.801
25422,5655.8,197.2
25422,5905.8,446.2
25422,6155.8,697.2
25422,6405.8,949.2
25422,5655.8,197.2
25422,5905.8,445.2
25422,6155.8,694.2
25422,6405.8,945.2
25422,6655.8,1197.2
25422,5905.8,446.2
25422,6155.8,694.2
25422,6405.8,943.2
25422,6655.8,1194.2
25422,6905.8,1446.2
25422,6155.8,697.2
25422,6405.8,945.2
25422,6655.8,1194.2
25422,6905.8,1445.2
25422,7155.8,1697.2
25422,6405.8,949.2
25422,6655.8,1197.2
25422,6905.8,1446.2
25422,7155.8,1697.2
25422,7405.8,1949.2
25422,5655.8,198.2
25422,5905.8,446.2
25422,6155.8,695.2
25422,6405.8,946.2
25422,6655.8,1198.2
25422,5905.8,446.2
25422,6155.8,694.2
25422,6405.8,943.2
25422,6655.8,1194.2
25422,6905.8,1446.2
25422,6155.8,695.2
25422,6405.8,943.2
25422,6655.8,1192.2
25422,6905.8,1443.2
25422,7155.8,1695.2
25422,6405.8,946.2
25422,6655.8,1194.2
25422,6905.8,1443.2
25422,7155.8,1694.2
25422,7405.8,1946.2
25422,6655.8,1198.2
25422,6905.8,1446.2
25422,7155.8,1695.2
25422,7405.8,1946.2
25422,7655.8,2198.2
25422,5905.8,449.2
25422,6155.8,697.2
25422,6405.8,946.2
25422,6655.8,1197.2
25422,6905.8,1449.2
25422,6155.8,697.2
25422,6405.8,945.2
25422,6655.8,1194.2
25422,6905.8,1445.2
25422,7155.8,1697.2
25422,6405.8,946.2
25422,6655.8,1194.2
25422,6905.8,1443.2
25422,7155.8,1694.2
25422,7405.8,1946.2
25422,6655.8,1197.2
25422,6905.8,1445.2
25422,7155.8,1694.2
25422,7405.8,1945.2
25422,7655.8,2197.2
25422,6905.8,1449.2
25422,7155.8,1697.2
25422,7405.8,1946.2
25422,7655.8,2197.2
25422,7905.8,2449.2
25422,6155.8,701.2
25422,6405.8,949.2
25422,6655.8,1198.2
25422,6905.8,1449.2
25422,7155.8,1701.2
25422,6405.8,949.2
25422,6655.8,1197.2
25422,6905.8,1446.2
25422,7155.8,1697.2
25422,7405.8,1949.2
25422,6655.8,1198.2
25422,6905.8,1446.2
25422,7155.8,1695.2
25422,7405.8,1946.2
25422,7655.8,2198.2
25422,6905.8,1449.2
25422,7155.8,1697.2
25422,7405.8,1946.2
25422,7655.8,2197.2
25422,7905.8,2449.2
25422,7155.8,1701.2
25422,7405.8,1949.2
25422,7655.8,2198.2
25422,7905.8,2449.2
25422,8155.8,2701.2
25422,5405.8,82.801
25422,5655.8,201.2
25422,5905.8,450.2
25422,6155.8,701.2
25422,6405.8,953.2
25422,5655.8,201.2
25422,5905.8,449.2
25422,6155.8,698.2
25422,6405.8,949.2
25422,6655.8,1201.2
25422,5905.8,450.2
25422,6155.8,698.2
25422,6405.8,947.2
25422,6655.8,1198.2
25422,6905.8,1450.2
25422,6155.8,701.2
25422,6405.8,949.2
25422,6655.8,1198.2
25422,6905.8,1449.2
25422,7155.8,1701.2
25422,6405.8,953.2
25422,6655.8,1201.2
25422,6905.8,1450.2
25422,7155.8,1701.2
25422,7405.8,1953.2
25422,5655.8,201.2
25422,5905.8,449.2
25422,6155.8,698.2
25422,6405.8,949.2
25422,6655.8,1201.2
25422,5905.8,449.2
25422,6155.8,697.2
25422,6405.8,946.2
25422,6655.8,1197.2
25422,6905.8,1449.2
25422,6155.8,698.2
25422,6405.8,946.2
25422,6655.8,1195.2
25422,6905.8,1446.2
25422,7155.8,1698.2
25422,6405.8,949.2
25422,6655.8,1197.2
25422,6905.8,1446.2
25422,7155.8,1697.2
25422,7405.8,1949.2
25422,6655.8,1201.2
25422,6905.8,1449.2
25422,7155.8,1698.2
25422,7405.8,1949.2
25422,7655.8,2201.2
25422,5905.8,450.2
25422,6155.8,698.2
25422,6405.8,947.2
25422,6655.8,1198.2
25422,6905.8,1450.2
25422,6155.8,698.2
25422,6405.8,946.2
25422,6655.8,1195.2
25422,6905.8,1446.2
25422,7155.8,1698.2
25422,6405.8,947.2
25422,6655.8,1195.2
25422,6905.8,1444.2
25422,7155.8,1695.2
25422,7405.8,1947.2
25422,6655.8,1198.2
25422,6905.8,1446.2
25422,7155.8,1695.2
25422,7405.8,1946.2
25422,7655.8,2198.2
25422,6905.8,1450.2
25422,7155.8,1698.2
25422,7405.8,1947.2
25422,7655.8,2198.2
25422,7905.8,2450.2
25422,6155.8,701.2
25422,6405.8,949.2
25422,6655.8,1198.2
25422,6905.8,1449.2
25422,7155.8,1701.2
25422,6405.8,949.2
25422,6655.8,1197.2
25422,6905.8,1446.2
25422,7155.8,1697.2
25422,7405.8,1949.2
25422,6655.8,1198.2
25422,6905.8,1446.2
25422,7155.8,1695.2
25422,7405.8,1946.2
25422,7655.8,2198.2
25422,6905.8,1449.2
25422,7155.8,1697.2
25422,7405.8,1946.2
25422,7655.8,2197.2
25422,7905.8,2449.2
25422,7155.8,1701.2
25422,7405.8,1949.2
25422,7655.8,2198.2
25422,7905.8,2449.2
25422,8155.8,2701.2
25422,6405.8,953.2
25422,6655.8,1201.2
25422,6905.8,1450.2
25422,7155.8,1701.2
25422,7405.8,1953.2
25422,6655.8,1201.2
25422,6905.8,1449.2
25422,7155.8,1698.2
25422,7405.8,1949.2
25422,7655.8,2201.2
25422,6905.8,1450.2
25422,7155.8,1698.2
25422,7405.8,1947.2
25422,7655.8,2198.2
25422,7905.8,2450.2
25422,7155.8,1701.2
25422,7405.8,1949.2
25422,7655.8,2198.2
25422,7905.8,2449.2
25422,8155.8,2701.2
25422,7405.8,1953.2
25422,7655.8,2201.2
25422,7905.8,2450.2
25422,8155.8,2701.2
25422,8405.8,2953.2
