58778,5199.1,455.55
57910,4699.1,47.448
57910,4949.1,206.55
57910,5199.1,455.55
57910,5449.1,706.55
57910,5699.1,958.55
57042,4199.1,550.45
57042,4449.1,298.45
57042,4699.1,47.448
57042,4949.1,209.55
57042,5199.1,461.55
57042,4449.1,298.45
57042,4699.1,46.448
57042,4949.1,206.55
57042,5199.1,457.55
57042,5449.1,709.55
57042,4699.1,47.448
57042,4949.1,206.55
57042,5199.1,455.55
57042,5449.1,706.55
57042,5699.1,958.55
57042,4949.1,209.55
57042,5199.1,457.55
57042,5449.1,706.55
57042,5699.1,957.55
57042,5949.1,1209.6
57042,5199.1,461.55
57042,5449.1,709.55
57042,5699.1,958.55
57042,5949.1,1209.6
57042,6199.1,1461.6
56174,3699.1,1053.4
56174,3949.1,801.45
56174,4199.1,550.45
56174,4449.1,301.45
56174,4699.1,53.448
56174,3949.1,801.45
56174,4199.1,549.45
56174,4449.1,298.45
56174,4699.1,49.448
56174,4949.1,212.55
56174,4199.1,550.45
56174,4449.1,298.45
56174,4699.1,47.448
56174,4949.1,209.55
56174,4449.1,301.45
56174,4699.1,49.448
56174,4949.1,209.55
56174,4699.1,53.448
56174,4949.1,212.55
56174,3949.1,801.45
56174,4199.1,549.45
56174,4449.1,298.45
56174,4699.1,49.448
56174,4949.1,212.55
56174,4199.1,549.45
56174,4449.1,297.45
56174,4699.1,46.448
56174,4949.1,208.55
56174,4449.1,298.45
56174,4699.1,46.448
56174,4949.1,206.55
56174,4699.1,49.448
56174,4949.1,208.55
56174,4949.1,212.55
56174,4199.1,550.45
56174,4449.1,298.45
56174,4699.1,47.448
56174,4949.1,209.55
56174,4449.1,298.45
56174,4699.1,46.448
56174,4949.1,206.55
56174,4699.1,47.448
56174,4949.1,206.55
56174,4949.1,209.55
56174,4449.1,301.45
56174,4699.1,49.448
56174,4949.1,209.55
56174,4699.1,49.448
56174,4949.1,208.55
56174,4949.1,209.55
56174,6449.1,1712.6
56174,4699.1,53.448
56174,4949.1,212.55
56174,4949.1,212.55
56174,6449.1,1712.6
56174,6449.1,1712.6
56174,6699.1,1964.6
55306,3199.1,1556.4
55306,3449.1,1304.4
55306,3699.1,1053.4
55306,3949.1,804.45
55306,4199.1,556.45
55306,3449.1,1304.4
55306,3699.1,1052.4
55306,3949.1,801.45
55306,4199.1,552.45
55306,4449.1,304.45
55306,3699.1,1053.4
55306,3949.1,801.45
55306,4199.1,550.45
55306,4449.1,301.45
55306,3949.1,804.45
55306,4199.1,552.45
55306,4449.1,301.45
55306,4199.1,556.45
55306,4449.1,304.45
55306,3449.1,1304.4
55306,3699.1,1052.4
55306,3949.1,801.45
55306,4199.1,552.45
55306,4449.1,304.45
55306,3699.1,1052.4
55306,3949.1,800.45
55306,4199.1,549.45
55306,4449.1,300.45
55306,3949.1,801.45
55306,4199.1,549.45
55306,4449.1,298.45
55306,4199.1,552.45
55306,4449.1,300.45
55306,4449.1,304.45
55306,3699.1,1053.4
55306,3949.1,801.45
55306,4199.1,550.45
55306,4449.1,301.45
55306,3949.1,801.45
55306,4199.1,549.45
55306,4449.1,298.45
55306,4199.1,550.45
55306,4449.1,298.45
55306,4449.1,301.45
55306,3949.1,804.45
55306,4199.1,552.45
55306,4449.1,301.45
55306,4199.1,552.45
55306,4449.1,300.45
55306,4449.1,301.45
55306,4199.1,556.45
55306,4449.1,304.45
55306,4449.1,304.45
55306,3449.1,1304.4
55306,3699.1,1052.4
55306,3949.1,801.45
55306,4199.1,552.45
55306,4449.1,304.45
55306,3699.1,1052.4
55306,3949.1,800.45
55306,4199.1,549.45
55306,4449.1,300.45
55306,3949.1,801.45
55306,4199.1,549.45
55306,4449.1,298.45
55306,4199.1,552.45
55306,4449.1,300.45
55306,4449.1,304.45
55306,3699.1,1052.4
55306,3949.1,800.45
55306,4199.1,549.45
55306,4449.1,300.45
55306,3949.1,800.45
55306,4199.1,548.45
55306,4449.1,297.45
55306,4199.1,549.45
55306,4449.1,297.45
55306,4449.1,300.45
55306,3949.1,801.45
55306,4199.1,549.45
55306,4449.1,298.45
55306,4199.1,549.45
55306,4449.1,297.45
55306,4449.1,298.45
55306,4199.1,552.45
55306,4449.1,300.45
55306,4449.1,300.45
55306,4449.1,304.45
55306,3699.1,1053.4
55306,3949.1,801.45
55306,4199.1,550.45
55306,4449.1,301.45
55306,3949.1,801.45
55306,4199.1,549.45
55306,4449.1,298.45
55306,4199.1,550.45
55306,4449.1,298.45
55306,4449.1,301.45
55306,3949.1,801.45
55306,4199.1,549.45
55306,4449.1,298.45
55306,4199.1,549.45
55306,4449.1,297.45
55306,4449.1,298.45
55306,4199.1,550.45
55306,4449.1,298.45
55306,4449.1,298.45
55306,4449.1,301.45
55306,3949.1,804.45
55306,4199.1,552.45
55306,4449.1,301.45
55306,4199.1,552.45
55306,4449.1,300.45
55306,4449.1,301.45
55306,4199.1,552.45
55306,4449.1,300.45
55306,4449.1,300.45
55306,4449.1,301.45
55306,5949.1,1215.6
55306,6199.1,1463.6
55306,6449.1,1712.6
55306,6699.1,1963.6
55306,6949.1,2215.6
55306,4199.1,556.45
55306,4449.1,304.45
55306,4449.1,304.45
55306,4449.1,304.45
55306,5949.1,1215.6
55306,6199.1,1463.6
55306,6449.1,1712.6
55306,6699.1,1963.6
55306,6949.1,2215.6
55306,5949.1,1215.6
55306,6199.1,1463.6
55306,6449.1,1712.6
55306,6699.1,1963.6
55306,6949.1,2215.6
55306,6199.1,1467.6
55306,6449.1,1715.6
55306,6699.1,1964.6
55306,6949.1,2215.6
55306,7199.1,2467.6
54438,2699.1,2059.4
54438,2949.1,1807.4
54438,3199.1,1556.4
54438,3449.1,1307.4
54438,3699.1,1059.4
54438,2949.1,1807.4
54438,3199.1,1555.4
54438,3449.1,1304.4
54438,3699.1,1055.4
54438,3949.1,807.45
54438,3199.1,1556.4
54438,3449.1,1304.4
54438,3699.1,1053.4
54438,3949.1,804.45
54438,4199.1,556.45
54438,3449.1,1307.4
54438,3699.1,1055.4
54438,3949.1,804.45
54438,4199.1,555.45
54438,4449.1,307.45
54438,3699.1,1059.4
54438,3949.1,807.45
54438,4199.1,556.45
54438,4449.1,307.45
54438,4699.1,59.448
54438,2949.1,1807.4
54438,3199.1,1555.4
54438,3449.1,1304.4
54438,3699.1,1055.4
54438,3949.1,807.45
54438,3199.1,1555.4
54438,3449.1,1303.4
54438,3699.1,1052.4
54438,3949.1,803.45
54438,4199.1,555.45
54438,3449.1,1304.4
54438,3699.1,1052.4
54438,3949.1,801.45
54438,4199.1,552.45
54438,4449.1,304.45
54438,3699.1,1055.4
54438,3949.1,803.45
54438,4199.1,552.45
54438,4449.1,303.45
54438,4699.1,55.448
54438,3949.1,807.45
54438,4199.1,555.45
54438,4449.1,304.45
54438,4699.1,55.448
54438,4949.1,218.55
54438,3199.1,1556.4
54438,3449.1,1304.4
54438,3699.1,1053.4
54438,3949.1,804.45
54438,4199.1,556.45
54438,3449.1,1304.4
54438,3699.1,1052.4
54438,3949.1,801.45
54438,4199.1,552.45
54438,4449.1,304.45
54438,3699.1,1053.4
54438,3949.1,801.45
54438,4199.1,550.45
54438,4449.1,301.45
54438,4699.1,53.448
54438,3949.1,804.45
54438,4199.1,552.45
54438,4449.1,301.45
54438,4699.1,52.448
54438,4949.1,215.55
54438,3449.1,1307.4
54438,3699.1,1055.4
54438,3949.1,804.45
54438,4199.1,555.45
54438,4449.1,307.45
54438,3699.1,1055.4
54438,3949.1,803.45
54438,4199.1,552.45
54438,4449.1,303.45
54438,4699.1,55.448
54438,3949.1,804.45
54438,4199.1,552.45
54438,4449.1,301.45
54438,4699.1,52.448
54438,4949.1,215.55
54438,3699.1,1059.4
54438,3949.1,807.45
54438,4199.1,556.45
54438,4449.1,307.45
54438,4699.1,59.448
54438,3949.1,807.45
54438,4199.1,555.45
54438,4449.1,304.45
54438,4699.1,55.448
54438,4949.1,218.55
54438,2949.1,1807.4
54438,3199.1,1555.4
54438,3449.1,1304.4
54438,3699.1,1055.4
54438,3949.1,807.45
54438,3199.1,1555.4
54438,3449.1,1303.4
54438,3699.1,1052.4
54438,3949.1,803.45
54438,4199.1,555.45
54438,3449.1,1304.4
54438,3699.1,1052.4
54438,3949.1,801.45
54438,4199.1,552.45
54438,4449.1,304.45
54438,3699.1,1055.4
54438,3949.1,803.45
54438,4199.1,552.45
54438,4449.1,303.45
54438,4699.1,55.448
54438,3949.1,807.45
54438,4199.1,555.45
54438,4449.1,304.45
54438,4699.1,55.448
54438,4949.1,218.55
54438,3199.1,1555.4
54438,3449.1,1303.4
54438,3699.1,1052.4
54438,3949.1,803.45
54438,4199.1,555.45
54438,3449.1,1303.4
54438,3699.1,1051.4
54438,3949.1,800.45
54438,4199.1,551.45
54438,4449.1,303.45
54438,3699.1,1052.4
54438,3949.1,800.45
54438,4199.1,549.45
54438,4449.1,300.45
54438,4699.1,52.448
54438,3949.1,803.45
54438,4199.1,551.45
54438,4449.1,300.45
54438,4699.1,51.448
54438,4949.1,214.55
54438,3449.1,1304.4
54438,3699.1,1052.4
54438,3949.1,801.45
54438,4199.1,552.45
54438,4449.1,304.45
54438,3699.1,1052.4
54438,3949.1,800.45
54438,4199.1,549.45
54438,4449.1,300.45
54438,4699.1,52.448
54438,3949.1,801.45
54438,4199.1,549.45
54438,4449.1,298.45
54438,4699.1,49.448
54438,4949.1,212.55
54438,3699.1,1055.4
54438,3949.1,803.45
54438,4199.1,552.45
54438,4449.1,303.45
54438,4699.1,55.448
54438,3949.1,803.45
54438,4199.1,551.45
54438,4449.1,300.45
54438,4699.1,51.448
54438,4949.1,214.55
54438,3949.1,807.45
54438,4199.1,555.45
54438,4449.1,304.45
54438,4699.1,55.448
54438,4949.1,218.55
54438,3199.1,1556.4
54438,3449.1,1304.4
54438,3699.1,1053.4
54438,3949.1,804.45
54438,4199.1,556.45
54438,3449.1,1304.4
54438,3699.1,1052.4
54438,3949.1,801.45
54438,4199.1,552.45
54438,4449.1,304.45
54438,3699.1,1053.4
54438,3949.1,801.45
54438,4199.1,550.45
54438,4449.1,301.45
54438,4699.1,53.448
54438,3949.1,804.45
54438,4199.1,552.45
54438,4449.1,301.45
54438,4699.1,52.448
54438,4949.1,215.55
54438,3449.1,1304.4
54438,3699.1,1052.4
54438,3949.1,801.45
54438,4199.1,552.45
54438,4449.1,304.45
54438,3699.1,1052.4
54438,3949.1,800.45
54438,4199.1,549.45
54438,4449.1,300.45
54438,4699.1,52.448
54438,3949.1,801.45
54438,4199.1,549.45
54438,4449.1,298.45
54438,4699.1,49.448
54438,4949.1,212.55
54438,3699.1,1053.4
54438,3949.1,801.45
54438,4199.1,550.45
54438,4449.1,301.45
54438,4699.1,53.448
54438,3949.1,801.45
54438,4199.1,549.45
54438,4449.1,298.45
54438,4699.1,49.448
54438,4949.1,212.55
54438,3949.1,804.45
54438,4199.1,552.45
54438,4449.1,301.45
54438,4699.1,52.448
54438,4949.1,215.55
54438,3449.1,1307.4
54438,3699.1,1055.4
54438,3949.1,804.45
54438,4199.1,555.45
54438,4449.1,307.45
54438,3699.1,1055.4
54438,3949.1,803.45
54438,4199.1,552.45
54438,4449.1,303.45
54438,4699.1,55.448
54438,3949.1,804.45
54438,4199.1,552.45
54438,4449.1,301.45
54438,4699.1,52.448
54438,4949.1,215.55
54438,3699.1,1055.4
54438,3949.1,803.45
54438,4199.1,552.45
54438,4449.1,303.45
54438,4699.1,55.448
54438,3949.1,803.45
54438,4199.1,551.45
54438,4449.1,300.45
54438,4699.1,51.448
54438,4949.1,214.55
54438,3949.1,804.45
54438,4199.1,552.45
54438,4449.1,301.45
54438,4699.1,52.448
54438,4949.1,215.55
54438,3699.1,1059.4
54438,3949.1,807.45
54438,4199.1,556.45
54438,4449.1,307.45
54438,4699.1,59.448
54438,3949.1,807.45
54438,4199.1,555.45
54438,4449.1,304.45
54438,4699.1,55.448
54438,4949.1,218.55
54438,3949.1,807.45
54438,4199.1,555.45
54438,4449.1,304.45
54438,4699.1,55.448
54438,4949.1,218.55
54438,2949.1,1807.4
54438,3199.1,1555.4
54438,3449.1,1304.4
54438,3699.1,1055.4
54438,3949.1,807.45
54438,3199.1,1555.4
54438,3449.1,1303.4
54438,3699.1,1052.4
54438,3949.1,803.45
54438,4199.1,555.45
54438,3449.1,1304.4
54438,3699.1,1052.4
54438,3949.1,801.45
54438,4199.1,552.45
54438,4449.1,304.45
54438,3699.1,1055.4
54438,3949.1,803.45
54438,4199.1,552.45
54438,4449.1,303.45
54438,4699.1,55.448
54438,3949.1,807.45
54438,4199.1,555.45
54438,4449.1,304.45
54438,4699.1,55.448
54438,4949.1,218.55
54438,3199.1,1555.4
54438,3449.1,1303.4
54438,3699.1,1052.4
54438,3949.1,803.45
54438,4199.1,555.45
54438,3449.1,1303.4
54438,3699.1,1051.4
54438,3949.1,800.45
54438,4199.1,551.45
54438,4449.1,303.45
54438,3699.1,1052.4
54438,3949.1,800.45
54438,4199.1,549.45
54438,4449.1,300.45
54438,4699.1,52.448
54438,3949.1,803.45
54438,4199.1,551.45
54438,4449.1,300.45
54438,4699.1,51.448
54438,4949.1,214.55
54438,3449.1,1304.4
54438,3699.1,1052.4
54438,3949.1,801.45
54438,4199.1,552.45
54438,4449.1,304.45
54438,3699.1,1052.4
54438,3949.1,800.45
54438,4199.1,549.45
54438,4449.1,300.45
54438,4699.1,52.448
54438,3949.1,801.45
54438,4199.1,549.45
54438,4449.1,298.45
54438,4699.1,49.448
54438,4949.1,212.55
54438,3699.1,1055.4
54438,3949.1,803.45
54438,4199.1,552.45
54438,4449.1,303.45
54438,4699.1,55.448
54438,3949.1,803.45
54438,4199.1,551.45
54438,4449.1,300.45
54438,4699.1,51.448
54438,4949.1,214.55
54438,3949.1,807.45
54438,4199.1,555.45
54438,4449.1,304.45
54438,4699.1,55.448
54438,4949.1,218.55
54438,3199.1,1555.4
54438,3449.1,1303.4
54438,3699.1,1052.4
54438,3949.1,803.45
54438,4199.1,555.45
54438,3449.1,1303.4
54438,3699.1,1051.4
54438,3949.1,800.45
54438,4199.1,551.45
54438,4449.1,303.45
54438,3699.1,1052.4
54438,3949.1,800.45
54438,4199.1,549.45
54438,4449.1,300.45
54438,4699.1,52.448
54438,3949.1,803.45
54438,4199.1,551.45
54438,4449.1,300.45
54438,4699.1,51.448
54438,4949.1,214.55
54438,3449.1,1303.4
54438,3699.1,1051.4
54438,3949.1,800.45
54438,4199.1,551.45
54438,4449.1,303.45
54438,3699.1,1051.4
54438,3949.1,799.45
54438,4199.1,548.45
54438,4449.1,299.45
54438,4699.1,51.448
54438,3949.1,800.45
54438,4199.1,548.45
54438,4449.1,297.45
54438,4699.1,48.448
54438,4949.1,211.55
54438,3699.1,1052.4
54438,3949.1,800.45
54438,4199.1,549.45
54438,4449.1,300.45
54438,4699.1,52.448
54438,3949.1,800.45
54438,4199.1,548.45
54438,4449.1,297.45
54438,4699.1,48.448
54438,4949.1,211.55
54438,3949.1,803.45
54438,4199.1,551.45
54438,4449.1,300.45
54438,4699.1,51.448
54438,4949.1,214.55
54438,3449.1,1304.4
54438,3699.1,1052.4
54438,3949.1,801.45
54438,4199.1,552.45
54438,4449.1,304.45
54438,3699.1,1052.4
54438,3949.1,800.45
54438,4199.1,549.45
54438,4449.1,300.45
54438,4699.1,52.448
54438,3949.1,801.45
54438,4199.1,549.45
54438,4449.1,298.45
54438,4699.1,49.448
54438,4949.1,212.55
54438,3699.1,1052.4
54438,3949.1,800.45
54438,4199.1,549.45
54438,4449.1,300.45
54438,4699.1,52.448
54438,3949.1,800.45
54438,4199.1,548.45
54438,4449.1,297.45
54438,4699.1,48.448
54438,4949.1,211.55
54438,3949.1,801.45
54438,4199.1,549.45
54438,4449.1,298.45
54438,4699.1,49.448
54438,4949.1,212.55
54438,3699.1,1055.4
54438,3949.1,803.45
54438,4199.1,552.45
54438,4449.1,303.45
54438,4699.1,55.448
54438,3949.1,803.45
54438,4199.1,551.45
54438,4449.1,300.45
54438,4699.1,51.448
54438,4949.1,214.55
54438,3949.1,803.45
54438,4199.1,551.45
54438,4449.1,300.45
54438,4699.1,51.448
54438,4949.1,214.55
54438,3949.1,807.45
54438,4199.1,555.45
54438,4449.1,304.45
54438,4699.1,55.448
54438,4949.1,218.55
54438,3199.1,1556.4
54438,3449.1,1304.4
54438,3699.1,1053.4
54438,3949.1,804.45
54438,4199.1,556.45
54438,3449.1,1304.4
54438,3699.1,1052.4
54438,3949.1,801.45
54438,4199.1,552.45
54438,4449.1,304.45
54438,3699.1,1053.4
54438,3949.1,801.45
54438,4199.1,550.45
54438,4449.1,301.45
54438,4699.1,53.448
54438,3949.1,804.45
54438,4199.1,552.45
54438,4449.1,301.45
54438,4699.1,52.448
54438,4949.1,215.55
54438,3449.1,1304.4
54438,3699.1,1052.4
54438,3949.1,801.45
54438,4199.1,552.45
54438,4449.1,304.45
54438,3699.1,1052.4
54438,3949.1,800.45
54438,4199.1,549.45
54438,4449.1,300.45
54438,4699.1,52.448
54438,3949.1,801.45
54438,4199.1,549.45
54438,4449.1,298.45
54438,4699.1,49.448
54438,4949.1,212.55
54438,3699.1,1053.4
54438,3949.1,801.45
54438,4199.1,550.45
54438,4449.1,301.45
54438,4699.1,53.448
54438,3949.1,801.45
54438,4199.1,549.45
54438,4449.1,298.45
54438,4699.1,49.448
54438,4949.1,212.55
54438,3949.1,804.45
54438,4199.1,552.45
54438,4449.1,301.45
54438,4699.1,52.448
54438,4949.1,215.55
54438,3449.1,1304.4
54438,3699.1,1052.4
54438,3949.1,801.45
54438,4199.1,552.45
54438,4449.1,304.45
54438,3699.1,1052.4
54438,3949.1,800.45
54438,4199.1,549.45
54438,4449.1,300.45
54438,4699.1,52.448
54438,3949.1,801.45
54438,4199.1,549.45
54438,4449.1,298.45
54438,4699.1,49.448
54438,4949.1,212.55
54438,3699.1,1052.4
54438,3949.1,800.45
54438,4199.1,549.45
54438,4449.1,300.45
54438,4699.1,52.448
54438,3949.1,800.45
54438,4199.1,548.45
54438,4449.1,297.45
54438,4699.1,48.448
54438,4949.1,211.55
54438,3949.1,801.45
54438,4199.1,549.45
54438,4449.1,298.45
54438,4699.1,49.448
54438,4949.1,212.55
54438,3699.1,1053.4
54438,3949.1,801.45
54438,4199.1,550.45
54438,4449.1,301.45
54438,4699.1,53.448
54438,3949.1,801.45
54438,4199.1,549.45
54438,4449.1,298.45
54438,4699.1,49.448
54438,4949.1,212.55
54438,3949.1,801.45
54438,4199.1,549.45
54438,4449.1,298.45
54438,4699.1,49.448
54438,4949.1,212.55
54438,3949.1,804.45
54438,4199.1,552.45
54438,4449.1,301.45
54438,4699.1,52.448
54438,4949.1,215.55
54438,3449.1,1307.4
54438,3699.1,1055.4
54438,3949.1,804.45
54438,4199.1,555.45
54438,4449.1,307.45
54438,3699.1,1055.4
54438,3949.1,803.45
54438,4199.1,552.45
54438,4449.1,303.45
54438,4699.1,55.448
54438,3949.1,804.45
54438,4199.1,552.45
54438,4449.1,301.45
54438,4699.1,52.448
54438,4949.1,215.55
54438,3699.1,1055.4
54438,3949.1,803.45
54438,4199.1,552.45
54438,4449.1,303.45
54438,4699.1,55.448
54438,3949.1,803.45
54438,4199.1,551.45
54438,4449.1,300.45
54438,4699.1,51.448
54438,4949.1,214.55
54438,3949.1,804.45
54438,4199.1,552.45
54438,4449.1,301.45
54438,4699.1,52.448
54438,4949.1,215.55
54438,3699.1,1055.4
54438,3949.1,803.45
54438,4199.1,552.45
54438,4449.1,303.45
54438,4699.1,55.448
54438,3949.1,803.45
54438,4199.1,551.45
54438,4449.1,300.45
54438,4699.1,51.448
54438,4949.1,214.55
54438,3949.1,803.45
54438,4199.1,551.45
54438,4449.1,300.45
54438,4699.1,51.448
54438,4949.1,214.55
54438,3949.1,804.45
54438,4199.1,552.45
54438,4449.1,301.45
54438,4699.1,52.448
54438,4949.1,215.55
54438,6449.1,1718.6
54438,6449.1,1714.6
54438,6699.1,1966.6
54438,6449.1,1712.6
54438,6699.1,1963.6
54438,6949.1,2215.6
54438,6449.1,1714.6
54438,6699.1,1963.6
54438,6949.1,2214.6
54438,7199.1,2466.6
54438,6449.1,1718.6
54438,6699.1,1966.6
54438,6949.1,2215.6
54438,7199.1,2466.6
54438,7449.1,2718.6
54438,3699.1,1059.4
54438,3949.1,807.45
54438,4199.1,556.45
54438,4449.1,307.45
54438,4699.1,59.448
54438,3949.1,807.45
54438,4199.1,555.45
54438,4449.1,304.45
54438,4699.1,55.448
54438,4949.1,218.55
54438,3949.1,807.45
54438,4199.1,555.45
54438,4449.1,304.45
54438,4699.1,55.448
54438,4949.1,218.55
54438,3949.1,807.45
54438,4199.1,555.45
54438,4449.1,304.45
54438,4699.1,55.448
54438,4949.1,218.55
54438,6449.1,1718.6
54438,6449.1,1714.6
54438,6699.1,1966.6
54438,6449.1,1712.6
54438,6699.1,1963.6
54438,6949.1,2215.6
54438,6449.1,1714.6
54438,6699.1,1963.6
54438,6949.1,2214.6
54438,7199.1,2466.6
54438,6449.1,1718.6
54438,6699.1,1966.6
54438,6949.1,2215.6
54438,7199.1,2466.6
54438,7449.1,2718.6
54438,6449.1,1718.6
54438,6449.1,1714.6
54438,6699.1,1966.6
54438,6449.1,1712.6
54438,6699.1,1963.6
54438,6949.1,2215.6
54438,6449.1,1714.6
54438,6699.1,1963.6
54438,6949.1,2214.6
54438,7199.1,2466.6
54438,6449.1,1718.6
54438,6699.1,1966.6
54438,6949.1,2215.6
54438,7199.1,2466.6
54438,7449.1,2718.6
54438,6449.1,1718.6
54438,6699.1,1970.6
54438,6449.1,1715.6
54438,6699.1,1966.6
54438,6949.1,2218.6
54438,6449.1,1715.6
54438,6699.1,1964.6
54438,6949.1,2215.6
54438,7199.1,2467.6
54438,6449.1,1718.6
54438,6699.1,1966.6
54438,6949.1,2215.6
54438,7199.1,2466.6
54438,7449.1,2718.6
54438,6699.1,1970.6
54438,6949.1,2218.6
54438,7199.1,2467.6
54438,7449.1,2718.6
54438,7699.1,2970.6
53570,2199.1,2562.4
53570,2449.1,2310.4
53570,2699.1,2059.4
53570,2949.1,1810.4
53570,3199.1,1562.4
53570,2449.1,2310.4
53570,2699.1,2058.4
53570,2949.1,1807.4
53570,3199.1,1558.4
53570,3449.1,1310.4
53570,2699.1,2059.4
53570,2949.1,1807.4
53570,3199.1,1556.4
53570,3449.1,1307.4
53570,3699.1,1059.4
53570,2949.1,1810.4
53570,3199.1,1558.4
53570,3449.1,1307.4
53570,3699.1,1058.4
53570,3949.1,810.45
53570,3199.1,1562.4
53570,3449.1,1310.4
53570,3699.1,1059.4
53570,3949.1,810.45
53570,4199.1,562.45
53570,2449.1,2310.4
53570,2699.1,2058.4
53570,2949.1,1807.4
53570,3199.1,1558.4
53570,3449.1,1310.4
53570,2699.1,2058.4
53570,2949.1,1806.4
53570,3199.1,1555.4
53570,3449.1,1306.4
53570,3699.1,1058.4
53570,2949.1,1807.4
53570,3199.1,1555.4
53570,3449.1,1304.4
53570,3699.1,1055.4
53570,3949.1,807.45
53570,3199.1,1558.4
53570,3449.1,1306.4
53570,3699.1,1055.4
53570,3949.1,806.45
53570,4199.1,558.45
53570,3449.1,1310.4
53570,3699.1,1058.4
53570,3949.1,807.45
53570,4199.1,558.45
53570,4449.1,310.45
53570,2699.1,2059.4
53570,2949.1,1807.4
53570,3199.1,1556.4
53570,3449.1,1307.4
53570,3699.1,1059.4
53570,2949.1,1807.4
53570,3199.1,1555.4
53570,3449.1,1304.4
53570,3699.1,1055.4
53570,3949.1,807.45
53570,3199.1,1556.4
53570,3449.1,1304.4
53570,3699.1,1053.4
53570,3949.1,804.45
53570,4199.1,556.45
53570,3449.1,1307.4
53570,3699.1,1055.4
53570,3949.1,804.45
53570,4199.1,555.45
53570,4449.1,307.45
53570,3699.1,1059.4
53570,3949.1,807.45
53570,4199.1,556.45
53570,4449.1,307.45
53570,4699.1,59.448
53570,2949.1,1810.4
53570,3199.1,1558.4
53570,3449.1,1307.4
53570,3699.1,1058.4
53570,3949.1,810.45
53570,3199.1,1558.4
53570,3449.1,1306.4
53570,3699.1,1055.4
53570,3949.1,806.45
53570,4199.1,558.45
53570,3449.1,1307.4
53570,3699.1,1055.4
53570,3949.1,804.45
53570,4199.1,555.45
53570,4449.1,307.45
53570,3699.1,1058.4
53570,3949.1,806.45
53570,4199.1,555.45
53570,4449.1,306.45
53570,4699.1,58.448
53570,3949.1,810.45
53570,4199.1,558.45
53570,4449.1,307.45
53570,4699.1,58.448
53570,4949.1,221.55
53570,3199.1,1562.4
53570,3449.1,1310.4
53570,3699.1,1059.4
53570,3949.1,810.45
53570,4199.1,562.45
53570,3449.1,1310.4
53570,3699.1,1058.4
53570,3949.1,807.45
53570,4199.1,558.45
53570,4449.1,310.45
53570,3699.1,1059.4
53570,3949.1,807.45
53570,4199.1,556.45
53570,4449.1,307.45
53570,4699.1,59.448
53570,3949.1,810.45
53570,4199.1,558.45
53570,4449.1,307.45
53570,4699.1,58.448
53570,4949.1,221.55
53570,4199.1,562.45
53570,4449.1,310.45
53570,4699.1,59.448
53570,4949.1,221.55
53570,5199.1,473.55
53570,2449.1,2310.4
53570,2699.1,2058.4
53570,2949.1,1807.4
53570,3199.1,1558.4
53570,3449.1,1310.4
53570,2699.1,2058.4
53570,2949.1,1806.4
53570,3199.1,1555.4
53570,3449.1,1306.4
53570,3699.1,1058.4
53570,2949.1,1807.4
53570,3199.1,1555.4
53570,3449.1,1304.4
53570,3699.1,1055.4
53570,3949.1,807.45
53570,3199.1,1558.4
53570,3449.1,1306.4
53570,3699.1,1055.4
53570,3949.1,806.45
53570,4199.1,558.45
53570,3449.1,1310.4
53570,3699.1,1058.4
53570,3949.1,807.45
53570,4199.1,558.45
53570,4449.1,310.45
53570,2699.1,2058.4
53570,2949.1,1806.4
53570,3199.1,1555.4
53570,3449.1,1306.4
53570,3699.1,1058.4
53570,2949.1,1806.4
53570,3199.1,1554.4
53570,3449.1,1303.4
53570,3699.1,1054.4
53570,3949.1,806.45
53570,3199.1,1555.4
53570,3449.1,1303.4
53570,3699.1,1052.4
53570,3949.1,803.45
53570,4199.1,555.45
53570,3449.1,1306.4
53570,3699.1,1054.4
53570,3949.1,803.45
53570,4199.1,554.45
53570,4449.1,306.45
53570,3699.1,1058.4
53570,3949.1,806.45
53570,4199.1,555.45
53570,4449.1,306.45
53570,4699.1,58.448
53570,2949.1,1807.4
53570,3199.1,1555.4
53570,3449.1,1304.4
53570,3699.1,1055.4
53570,3949.1,807.45
53570,3199.1,1555.4
53570,3449.1,1303.4
53570,3699.1,1052.4
53570,3949.1,803.45
53570,4199.1,555.45
53570,3449.1,1304.4
53570,3699.1,1052.4
53570,3949.1,801.45
53570,4199.1,552.45
53570,4449.1,304.45
53570,3699.1,1055.4
53570,3949.1,803.45
53570,4199.1,552.45
53570,4449.1,303.45
53570,4699.1,55.448
53570,3949.1,807.45
53570,4199.1,555.45
53570,4449.1,304.45
53570,4699.1,55.448
53570,4949.1,218.55
53570,3199.1,1558.4
53570,3449.1,1306.4
53570,3699.1,1055.4
53570,3949.1,806.45
53570,4199.1,558.45
53570,3449.1,1306.4
53570,3699.1,1054.4
53570,3949.1,803.45
53570,4199.1,554.45
53570,4449.1,306.45
53570,3699.1,1055.4
53570,3949.1,803.45
53570,4199.1,552.45
53570,4449.1,303.45
53570,4699.1,55.448
53570,3949.1,806.45
53570,4199.1,554.45
53570,4449.1,303.45
53570,4699.1,54.448
53570,4949.1,217.55
53570,4199.1,558.45
53570,4449.1,306.45
53570,4699.1,55.448
53570,4949.1,217.55
53570,5199.1,469.55
53570,3449.1,1310.4
53570,3699.1,1058.4
53570,3949.1,807.45
53570,4199.1,558.45
53570,4449.1,310.45
53570,3699.1,1058.4
53570,3949.1,806.45
53570,4199.1,555.45
53570,4449.1,306.45
53570,4699.1,58.448
53570,3949.1,807.45
53570,4199.1,555.45
53570,4449.1,304.45
53570,4699.1,55.448
53570,4949.1,218.55
53570,4199.1,558.45
53570,4449.1,306.45
53570,4699.1,55.448
53570,4949.1,217.55
53570,5199.1,469.55
53570,4449.1,310.45
53570,4699.1,58.448
53570,4949.1,218.55
53570,5199.1,469.55
53570,5449.1,721.55
53570,2699.1,2059.4
53570,2949.1,1807.4
53570,3199.1,1556.4
53570,3449.1,1307.4
53570,3699.1,1059.4
53570,2949.1,1807.4
53570,3199.1,1555.4
53570,3449.1,1304.4
53570,3699.1,1055.4
53570,3949.1,807.45
53570,3199.1,1556.4
53570,3449.1,1304.4
53570,3699.1,1053.4
53570,3949.1,804.45
53570,4199.1,556.45
53570,3449.1,1307.4
53570,3699.1,1055.4
53570,3949.1,804.45
53570,4199.1,555.45
53570,4449.1,307.45
53570,3699.1,1059.4
53570,3949.1,807.45
53570,4199.1,556.45
53570,4449.1,307.45
53570,4699.1,59.448
53570,2949.1,1807.4
53570,3199.1,1555.4
53570,3449.1,1304.4
53570,3699.1,1055.4
53570,3949.1,807.45
53570,3199.1,1555.4
53570,3449.1,1303.4
53570,3699.1,1052.4
53570,3949.1,803.45
53570,4199.1,555.45
53570,3449.1,1304.4
53570,3699.1,1052.4
53570,3949.1,801.45
53570,4199.1,552.45
53570,4449.1,304.45
53570,3699.1,1055.4
53570,3949.1,803.45
53570,4199.1,552.45
53570,4449.1,303.45
53570,4699.1,55.448
53570,3949.1,807.45
53570,4199.1,555.45
53570,4449.1,304.45
53570,4699.1,55.448
53570,4949.1,218.55
53570,3199.1,1556.4
53570,3449.1,1304.4
53570,3699.1,1053.4
53570,3949.1,804.45
53570,4199.1,556.45
53570,3449.1,1304.4
53570,3699.1,1052.4
53570,3949.1,801.45
53570,4199.1,552.45
53570,4449.1,304.45
53570,3699.1,1053.4
53570,3949.1,801.45
53570,4199.1,550.45
53570,4449.1,301.45
53570,4699.1,53.448
53570,3949.1,804.45
53570,4199.1,552.45
53570,4449.1,301.45
53570,4699.1,52.448
53570,4949.1,215.55
53570,4199.1,556.45
53570,4449.1,304.45
53570,4699.1,53.448
53570,4949.1,215.55
53570,5199.1,467.55
53570,3449.1,1307.4
53570,3699.1,1055.4
53570,3949.1,804.45
53570,4199.1,555.45
53570,4449.1,307.45
53570,3699.1,1055.4
53570,3949.1,803.45
53570,4199.1,552.45
53570,4449.1,303.45
53570,4699.1,55.448
53570,3949.1,804.45
53570,4199.1,552.45
53570,4449.1,301.45
53570,4699.1,52.448
53570,4949.1,215.55
53570,4199.1,555.45
53570,4449.1,303.45
53570,4699.1,52.448
53570,4949.1,214.55
53570,5199.1,466.55
53570,4449.1,307.45
53570,4699.1,55.448
53570,4949.1,215.55
53570,5199.1,466.55
53570,5449.1,718.55
53570,2949.1,1810.4
53570,3199.1,1558.4
53570,3449.1,1307.4
53570,3699.1,1058.4
53570,3949.1,810.45
53570,3199.1,1558.4
53570,3449.1,1306.4
53570,3699.1,1055.4
53570,3949.1,806.45
53570,4199.1,558.45
53570,3449.1,1307.4
53570,3699.1,1055.4
53570,3949.1,804.45
53570,4199.1,555.45
53570,4449.1,307.45
53570,3699.1,1058.4
53570,3949.1,806.45
53570,4199.1,555.45
53570,4449.1,306.45
53570,4699.1,58.448
53570,3949.1,810.45
53570,4199.1,558.45
53570,4449.1,307.45
53570,4699.1,58.448
53570,4949.1,221.55
53570,3199.1,1558.4
53570,3449.1,1306.4
53570,3699.1,1055.4
53570,3949.1,806.45
53570,4199.1,558.45
53570,3449.1,1306.4
53570,3699.1,1054.4
53570,3949.1,803.45
53570,4199.1,554.45
53570,4449.1,306.45
53570,3699.1,1055.4
53570,3949.1,803.45
53570,4199.1,552.45
53570,4449.1,303.45
53570,4699.1,55.448
53570,3949.1,806.45
53570,4199.1,554.45
53570,4449.1,303.45
53570,4699.1,54.448
53570,4949.1,217.55
53570,4199.1,558.45
53570,4449.1,306.45
53570,4699.1,55.448
53570,4949.1,217.55
53570,5199.1,469.55
53570,3449.1,1307.4
53570,3699.1,1055.4
53570,3949.1,804.45
53570,4199.1,555.45
53570,4449.1,307.45
53570,3699.1,1055.4
53570,3949.1,803.45
53570,4199.1,552.45
53570,4449.1,303.45
53570,4699.1,55.448
53570,3949.1,804.45
53570,4199.1,552.45
53570,4449.1,301.45
53570,4699.1,52.448
53570,4949.1,215.55
53570,4199.1,555.45
53570,4449.1,303.45
53570,4699.1,52.448
53570,4949.1,214.55
53570,5199.1,466.55
53570,4449.1,307.45
53570,4699.1,55.448
53570,4949.1,215.55
53570,5199.1,466.55
53570,5449.1,718.55
53570,3199.1,1562.4
53570,3449.1,1310.4
53570,3699.1,1059.4
53570,3949.1,810.45
53570,4199.1,562.45
53570,3449.1,1310.4
53570,3699.1,1058.4
53570,3949.1,807.45
53570,4199.1,558.45
53570,4449.1,310.45
53570,3699.1,1059.4
53570,3949.1,807.45
53570,4199.1,556.45
53570,4449.1,307.45
53570,4699.1,59.448
53570,3949.1,810.45
53570,4199.1,558.45
53570,4449.1,307.45
53570,4699.1,58.448
53570,4949.1,221.55
53570,4199.1,562.45
53570,4449.1,310.45
53570,4699.1,59.448
53570,4949.1,221.55
53570,5199.1,473.55
53570,3449.1,1310.4
53570,3699.1,1058.4
53570,3949.1,807.45
53570,4199.1,558.45
53570,4449.1,310.45
53570,3699.1,1058.4
53570,3949.1,806.45
53570,4199.1,555.45
53570,4449.1,306.45
53570,4699.1,58.448
53570,3949.1,807.45
53570,4199.1,555.45
53570,4449.1,304.45
53570,4699.1,55.448
53570,4949.1,218.55
53570,4199.1,558.45
53570,4449.1,306.45
53570,4699.1,55.448
53570,4949.1,217.55
53570,5199.1,469.55
53570,4449.1,310.45
53570,4699.1,58.448
53570,4949.1,218.55
53570,5199.1,469.55
53570,5449.1,721.55
53570,2449.1,2310.4
53570,2699.1,2058.4
53570,2949.1,1807.4
53570,3199.1,1558.4
53570,3449.1,1310.4
53570,2699.1,2058.4
53570,2949.1,1806.4
53570,3199.1,1555.4
53570,3449.1,1306.4
53570,3699.1,1058.4
53570,2949.1,1807.4
53570,3199.1,1555.4
53570,3449.1,1304.4
53570,3699.1,1055.4
53570,3949.1,807.45
53570,3199.1,1558.4
53570,3449.1,1306.4
53570,3699.1,1055.4
53570,3949.1,806.45
53570,4199.1,558.45
53570,3449.1,1310.4
53570,3699.1,1058.4
53570,3949.1,807.45
53570,4199.1,558.45
53570,4449.1,310.45
53570,2699.1,2058.4
53570,2949.1,1806.4
53570,3199.1,1555.4
53570,3449.1,1306.4
53570,3699.1,1058.4
53570,2949.1,1806.4
53570,3199.1,1554.4
53570,3449.1,1303.4
53570,3699.1,1054.4
53570,3949.1,806.45
53570,3199.1,1555.4
53570,3449.1,1303.4
53570,3699.1,1052.4
53570,3949.1,803.45
53570,4199.1,555.45
53570,3449.1,1306.4
53570,3699.1,1054.4
53570,3949.1,803.45
53570,4199.1,554.45
53570,4449.1,306.45
53570,3699.1,1058.4
53570,3949.1,806.45
53570,4199.1,555.45
53570,4449.1,306.45
53570,4699.1,58.448
53570,2949.1,1807.4
53570,3199.1,1555.4
53570,3449.1,1304.4
53570,3699.1,1055.4
53570,3949.1,807.45
53570,3199.1,1555.4
53570,3449.1,1303.4
53570,3699.1,1052.4
53570,3949.1,803.45
53570,4199.1,555.45
53570,3449.1,1304.4
53570,3699.1,1052.4
53570,3949.1,801.45
53570,4199.1,552.45
53570,4449.1,304.45
53570,3699.1,1055.4
53570,3949.1,803.45
53570,4199.1,552.45
53570,4449.1,303.45
53570,4699.1,55.448
53570,3949.1,807.45
53570,4199.1,555.45
53570,4449.1,304.45
53570,4699.1,55.448
53570,4949.1,218.55
53570,3199.1,1558.4
53570,3449.1,1306.4
53570,3699.1,1055.4
53570,3949.1,806.45
53570,4199.1,558.45
53570,3449.1,1306.4
53570,3699.1,1054.4
53570,3949.1,803.45
53570,4199.1,554.45
53570,4449.1,306.45
53570,3699.1,1055.4
53570,3949.1,803.45
53570,4199.1,552.45
53570,4449.1,303.45
53570,4699.1,55.448
53570,3949.1,806.45
53570,4199.1,554.45
53570,4449.1,303.45
53570,4699.1,54.448
53570,4949.1,217.55
53570,4199.1,558.45
53570,4449.1,306.45
53570,4699.1,55.448
53570,4949.1,217.55
53570,5199.1,469.55
53570,3449.1,1310.4
53570,3699.1,1058.4
53570,3949.1,807.45
53570,4199.1,558.45
53570,4449.1,310.45
53570,3699.1,1058.4
53570,3949.1,806.45
53570,4199.1,555.45
53570,4449.1,306.45
53570,4699.1,58.448
53570,3949.1,807.45
53570,4199.1,555.45
53570,4449.1,304.45
53570,4699.1,55.448
53570,4949.1,218.55
53570,4199.1,558.45
53570,4449.1,306.45
53570,4699.1,55.448
53570,4949.1,217.55
53570,5199.1,469.55
53570,4449.1,310.45
53570,4699.1,58.448
53570,4949.1,218.55
53570,5199.1,469.55
53570,5449.1,721.55
53570,2699.1,2058.4
53570,2949.1,1806.4
53570,3199.1,1555.4
53570,3449.1,1306.4
53570,3699.1,1058.4
53570,2949.1,1806.4
53570,3199.1,1554.4
53570,3449.1,1303.4
53570,3699.1,1054.4
53570,3949.1,806.45
53570,3199.1,1555.4
53570,3449.1,1303.4
53570,3699.1,1052.4
53570,3949.1,803.45
53570,4199.1,555.45
53570,3449.1,1306.4
53570,3699.1,1054.4
53570,3949.1,803.45
53570,4199.1,554.45
53570,4449.1,306.45
53570,3699.1,1058.4
53570,3949.1,806.45
53570,4199.1,555.45
53570,4449.1,306.45
53570,4699.1,58.448
53570,2949.1,1806.4
53570,3199.1,1554.4
53570,3449.1,1303.4
53570,3699.1,1054.4
53570,3949.1,806.45
53570,3199.1,1554.4
53570,3449.1,1302.4
53570,3699.1,1051.4
53570,3949.1,802.45
53570,4199.1,554.45
53570,3449.1,1303.4
53570,3699.1,1051.4
53570,3949.1,800.45
53570,4199.1,551.45
53570,4449.1,303.45
53570,3699.1,1054.4
53570,3949.1,802.45
53570,4199.1,551.45
53570,4449.1,302.45
53570,4699.1,54.448
53570,3949.1,806.45
53570,4199.1,554.45
53570,4449.1,303.45
53570,4699.1,54.448
53570,4949.1,217.55
53570,3199.1,1555.4
53570,3449.1,1303.4
53570,3699.1,1052.4
53570,3949.1,803.45
53570,4199.1,555.45
53570,3449.1,1303.4
53570,3699.1,1051.4
53570,3949.1,800.45
53570,4199.1,551.45
53570,4449.1,303.45
53570,3699.1,1052.4
53570,3949.1,800.45
53570,4199.1,549.45
53570,4449.1,300.45
53570,4699.1,52.448
53570,3949.1,803.45
53570,4199.1,551.45
53570,4449.1,300.45
53570,4699.1,51.448
53570,4949.1,214.55
53570,4199.1,555.45
53570,4449.1,303.45
53570,4699.1,52.448
53570,4949.1,214.55
53570,5199.1,466.55
53570,3449.1,1306.4
53570,3699.1,1054.4
53570,3949.1,803.45
53570,4199.1,554.45
53570,4449.1,306.45
53570,3699.1,1054.4
53570,3949.1,802.45
53570,4199.1,551.45
53570,4449.1,302.45
53570,4699.1,54.448
53570,3949.1,803.45
53570,4199.1,551.45
53570,4449.1,300.45
53570,4699.1,51.448
53570,4949.1,214.55
53570,4199.1,554.45
53570,4449.1,302.45
53570,4699.1,51.448
53570,4949.1,213.55
53570,5199.1,465.55
53570,4449.1,306.45
53570,4699.1,54.448
53570,4949.1,214.55
53570,5199.1,465.55
53570,5449.1,717.55
53570,2949.1,1807.4
53570,3199.1,1555.4
53570,3449.1,1304.4
53570,3699.1,1055.4
53570,3949.1,807.45
53570,3199.1,1555.4
53570,3449.1,1303.4
53570,3699.1,1052.4
53570,3949.1,803.45
53570,4199.1,555.45
53570,3449.1,1304.4
53570,3699.1,1052.4
53570,3949.1,801.45
53570,4199.1,552.45
53570,4449.1,304.45
53570,3699.1,1055.4
53570,3949.1,803.45
53570,4199.1,552.45
53570,4449.1,303.45
53570,4699.1,55.448
53570,3949.1,807.45
53570,4199.1,555.45
53570,4449.1,304.45
53570,4699.1,55.448
53570,4949.1,218.55
53570,3199.1,1555.4
53570,3449.1,1303.4
53570,3699.1,1052.4
53570,3949.1,803.45
53570,4199.1,555.45
53570,3449.1,1303.4
53570,3699.1,1051.4
53570,3949.1,800.45
53570,4199.1,551.45
53570,4449.1,303.45
53570,3699.1,1052.4
53570,3949.1,800.45
53570,4199.1,549.45
53570,4449.1,300.45
53570,4699.1,52.448
53570,3949.1,803.45
53570,4199.1,551.45
53570,4449.1,300.45
53570,4699.1,51.448
53570,4949.1,214.55
53570,4199.1,555.45
53570,4449.1,303.45
53570,4699.1,52.448
53570,4949.1,214.55
53570,5199.1,466.55
53570,3449.1,1304.4
53570,3699.1,1052.4
53570,3949.1,801.45
53570,4199.1,552.45
53570,4449.1,304.45
53570,3699.1,1052.4
53570,3949.1,800.45
53570,4199.1,549.45
53570,4449.1,300.45
53570,4699.1,52.448
53570,3949.1,801.45
53570,4199.1,549.45
53570,4449.1,298.45
53570,4699.1,49.448
53570,4949.1,212.55
53570,4199.1,552.45
53570,4449.1,300.45
53570,4699.1,49.448
53570,4949.1,211.55
53570,5199.1,463.55
53570,4449.1,304.45
53570,4699.1,52.448
53570,4949.1,212.55
53570,5199.1,463.55
53570,5449.1,715.55
53570,3199.1,1558.4
53570,3449.1,1306.4
53570,3699.1,1055.4
53570,3949.1,806.45
53570,4199.1,558.45
53570,3449.1,1306.4
53570,3699.1,1054.4
53570,3949.1,803.45
53570,4199.1,554.45
53570,4449.1,306.45
53570,3699.1,1055.4
53570,3949.1,803.45
53570,4199.1,552.45
53570,4449.1,303.45
53570,4699.1,55.448
53570,3949.1,806.45
53570,4199.1,554.45
53570,4449.1,303.45
53570,4699.1,54.448
53570,4949.1,217.55
53570,4199.1,558.45
53570,4449.1,306.45
53570,4699.1,55.448
53570,4949.1,217.55
53570,5199.1,469.55
53570,3449.1,1306.4
53570,3699.1,1054.4
53570,3949.1,803.45
53570,4199.1,554.45
53570,4449.1,306.45
53570,3699.1,1054.4
53570,3949.1,802.45
53570,4199.1,551.45
53570,4449.1,302.45
53570,4699.1,54.448
53570,3949.1,803.45
53570,4199.1,551.45
53570,4449.1,300.45
53570,4699.1,51.448
53570,4949.1,214.55
53570,4199.1,554.45
53570,4449.1,302.45
53570,4699.1,51.448
53570,4949.1,213.55
53570,5199.1,465.55
53570,4449.1,306.45
53570,4699.1,54.448
53570,4949.1,214.55
53570,5199.1,465.55
53570,5449.1,717.55
53570,3449.1,1310.4
53570,3699.1,1058.4
53570,3949.1,807.45
53570,4199.1,558.45
53570,4449.1,310.45
53570,3699.1,1058.4
53570,3949.1,806.45
53570,4199.1,555.45
53570,4449.1,306.45
53570,4699.1,58.448
53570,3949.1,807.45
53570,4199.1,555.45
53570,4449.1,304.45
53570,4699.1,55.448
53570,4949.1,218.55
53570,4199.1,558.45
53570,4449.1,306.45
53570,4699.1,55.448
53570,4949.1,217.55
53570,5199.1,469.55
53570,4449.1,310.45
53570,4699.1,58.448
53570,4949.1,218.55
53570,5199.1,469.55
53570,5449.1,721.55
53570,2699.1,2059.4
53570,2949.1,1807.4
53570,3199.1,1556.4
53570,3449.1,1307.4
53570,3699.1,1059.4
53570,2949.1,1807.4
53570,3199.1,1555.4
53570,3449.1,1304.4
53570,3699.1,1055.4
53570,3949.1,807.45
53570,3199.1,1556.4
53570,3449.1,1304.4
53570,3699.1,1053.4
53570,3949.1,804.45
53570,4199.1,556.45
53570,3449.1,1307.4
53570,3699.1,1055.4
53570,3949.1,804.45
53570,4199.1,555.45
53570,4449.1,307.45
53570,3699.1,1059.4
53570,3949.1,807.45
53570,4199.1,556.45
53570,4449.1,307.45
53570,4699.1,59.448
53570,2949.1,1807.4
53570,3199.1,1555.4
53570,3449.1,1304.4
53570,3699.1,1055.4
53570,3949.1,807.45
53570,3199.1,1555.4
53570,3449.1,1303.4
53570,3699.1,1052.4
53570,3949.1,803.45
53570,4199.1,555.45
53570,3449.1,1304.4
53570,3699.1,1052.4
53570,3949.1,801.45
53570,4199.1,552.45
53570,4449.1,304.45
53570,3699.1,1055.4
53570,3949.1,803.45
53570,4199.1,552.45
53570,4449.1,303.45
53570,4699.1,55.448
53570,3949.1,807.45
53570,4199.1,555.45
53570,4449.1,304.45
53570,4699.1,55.448
53570,4949.1,218.55
53570,3199.1,1556.4
53570,3449.1,1304.4
53570,3699.1,1053.4
53570,3949.1,804.45
53570,4199.1,556.45
53570,3449.1,1304.4
53570,3699.1,1052.4
53570,3949.1,801.45
53570,4199.1,552.45
53570,4449.1,304.45
53570,3699.1,1053.4
53570,3949.1,801.45
53570,4199.1,550.45
53570,4449.1,301.45
53570,4699.1,53.448
53570,3949.1,804.45
53570,4199.1,552.45
53570,4449.1,301.45
53570,4699.1,52.448
53570,4949.1,215.55
53570,4199.1,556.45
53570,4449.1,304.45
53570,4699.1,53.448
53570,4949.1,215.55
53570,5199.1,467.55
53570,3449.1,1307.4
53570,3699.1,1055.4
53570,3949.1,804.45
53570,4199.1,555.45
53570,4449.1,307.45
53570,3699.1,1055.4
53570,3949.1,803.45
53570,4199.1,552.45
53570,4449.1,303.45
53570,4699.1,55.448
53570,3949.1,804.45
53570,4199.1,552.45
53570,4449.1,301.45
53570,4699.1,52.448
53570,4949.1,215.55
53570,4199.1,555.45
53570,4449.1,303.45
53570,4699.1,52.448
53570,4949.1,214.55
53570,5199.1,466.55
53570,4449.1,307.45
53570,4699.1,55.448
53570,4949.1,215.55
53570,5199.1,466.55
53570,5449.1,718.55
53570,2949.1,1807.4
53570,3199.1,1555.4
53570,3449.1,1304.4
53570,3699.1,1055.4
53570,3949.1,807.45
53570,3199.1,1555.4
53570,3449.1,1303.4
53570,3699.1,1052.4
53570,3949.1,803.45
53570,4199.1,555.45
53570,3449.1,1304.4
53570,3699.1,1052.4
53570,3949.1,801.45
53570,4199.1,552.45
53570,4449.1,304.45
53570,3699.1,1055.4
53570,3949.1,803.45
53570,4199.1,552.45
53570,4449.1,303.45
53570,4699.1,55.448
53570,3949.1,807.45
53570,4199.1,555.45
53570,4449.1,304.45
53570,4699.1,55.448
53570,4949.1,218.55
53570,3199.1,1555.4
53570,3449.1,1303.4
53570,3699.1,1052.4
53570,3949.1,803.45
53570,4199.1,555.45
53570,3449.1,1303.4
53570,3699.1,1051.4
53570,3949.1,800.45
53570,4199.1,551.45
53570,4449.1,303.45
53570,3699.1,1052.4
53570,3949.1,800.45
53570,4199.1,549.45
53570,4449.1,300.45
53570,4699.1,52.448
53570,3949.1,803.45
53570,4199.1,551.45
53570,4449.1,300.45
53570,4699.1,51.448
53570,4949.1,214.55
53570,4199.1,555.45
53570,4449.1,303.45
53570,4699.1,52.448
53570,4949.1,214.55
53570,5199.1,466.55
53570,3449.1,1304.4
53570,3699.1,1052.4
53570,3949.1,801.45
53570,4199.1,552.45
53570,4449.1,304.45
53570,3699.1,1052.4
53570,3949.1,800.45
53570,4199.1,549.45
53570,4449.1,300.45
53570,4699.1,52.448
53570,3949.1,801.45
53570,4199.1,549.45
53570,4449.1,298.45
53570,4699.1,49.448
53570,4949.1,212.55
53570,4199.1,552.45
53570,4449.1,300.45
53570,4699.1,49.448
53570,4949.1,211.55
53570,5199.1,463.55
53570,4449.1,304.45
53570,4699.1,52.448
53570,4949.1,212.55
53570,5199.1,463.55
53570,5449.1,715.55
53570,3199.1,1556.4
53570,3449.1,1304.4
53570,3699.1,1053.4
53570,3949.1,804.45
53570,4199.1,556.45
53570,3449.1,1304.4
53570,3699.1,1052.4
53570,3949.1,801.45
53570,4199.1,552.45
53570,4449.1,304.45
53570,3699.1,1053.4
53570,3949.1,801.45
53570,4199.1,550.45
53570,4449.1,301.45
53570,4699.1,53.448
53570,3949.1,804.45
53570,4199.1,552.45
53570,4449.1,301.45
53570,4699.1,52.448
53570,4949.1,215.55
53570,4199.1,556.45
53570,4449.1,304.45
53570,4699.1,53.448
53570,4949.1,215.55
53570,5199.1,467.55
53570,3449.1,1304.4
53570,3699.1,1052.4
53570,3949.1,801.45
53570,4199.1,552.45
53570,4449.1,304.45
53570,3699.1,1052.4
53570,3949.1,800.45
53570,4199.1,549.45
53570,4449.1,300.45
53570,4699.1,52.448
53570,3949.1,801.45
53570,4199.1,549.45
53570,4449.1,298.45
53570,4699.1,49.448
53570,4949.1,212.55
53570,4199.1,552.45
53570,4449.1,300.45
53570,4699.1,49.448
53570,4949.1,211.55
53570,5199.1,463.55
53570,4449.1,304.45
53570,4699.1,52.448
53570,4949.1,212.55
53570,5199.1,463.55
53570,5449.1,715.55
53570,3449.1,1307.4
53570,3699.1,1055.4
53570,3949.1,804.45
53570,4199.1,555.45
53570,4449.1,307.45
53570,3699.1,1055.4
53570,3949.1,803.45
53570,4199.1,552.45
53570,4449.1,303.45
53570,4699.1,55.448
53570,3949.1,804.45
53570,4199.1,552.45
53570,4449.1,301.45
53570,4699.1,52.448
53570,4949.1,215.55
53570,4199.1,555.45
53570,4449.1,303.45
53570,4699.1,52.448
53570,4949.1,214.55
53570,5199.1,466.55
53570,4449.1,307.45
53570,4699.1,55.448
53570,4949.1,215.55
53570,5199.1,466.55
53570,5449.1,718.55
53570,2949.1,1810.4
53570,3199.1,1558.4
53570,3449.1,1307.4
53570,3699.1,1058.4
53570,3949.1,810.45
53570,3199.1,1558.4
53570,3449.1,1306.4
53570,3699.1,1055.4
53570,3949.1,806.45
53570,4199.1,558.45
53570,3449.1,1307.4
53570,3699.1,1055.4
53570,3949.1,804.45
53570,4199.1,555.45
53570,4449.1,307.45
53570,3699.1,1058.4
53570,3949.1,806.45
53570,4199.1,555.45
53570,4449.1,306.45
53570,4699.1,58.448
53570,3949.1,810.45
53570,4199.1,558.45
53570,4449.1,307.45
53570,4699.1,58.448
53570,4949.1,221.55
53570,3199.1,1558.4
53570,3449.1,1306.4
53570,3699.1,1055.4
53570,3949.1,806.45
53570,4199.1,558.45
53570,3449.1,1306.4
53570,3699.1,1054.4
53570,3949.1,803.45
53570,4199.1,554.45
53570,4449.1,306.45
53570,3699.1,1055.4
53570,3949.1,803.45
53570,4199.1,552.45
53570,4449.1,303.45
53570,4699.1,55.448
53570,3949.1,806.45
53570,4199.1,554.45
53570,4449.1,303.45
53570,4699.1,54.448
53570,4949.1,217.55
53570,4199.1,558.45
53570,4449.1,306.45
53570,4699.1,55.448
53570,4949.1,217.55
53570,5199.1,469.55
53570,3449.1,1307.4
53570,3699.1,1055.4
53570,3949.1,804.45
53570,4199.1,555.45
53570,4449.1,307.45
53570,3699.1,1055.4
53570,3949.1,803.45
53570,4199.1,552.45
53570,4449.1,303.45
53570,4699.1,55.448
53570,3949.1,804.45
53570,4199.1,552.45
53570,4449.1,301.45
53570,4699.1,52.448
53570,4949.1,215.55
53570,4199.1,555.45
53570,4449.1,303.45
53570,4699.1,52.448
53570,4949.1,214.55
53570,5199.1,466.55
53570,4449.1,307.45
53570,4699.1,55.448
53570,4949.1,215.55
53570,5199.1,466.55
53570,5449.1,718.55
53570,3199.1,1558.4
53570,3449.1,1306.4
53570,3699.1,1055.4
53570,3949.1,806.45
53570,4199.1,558.45
53570,3449.1,1306.4
53570,3699.1,1054.4
53570,3949.1,803.45
53570,4199.1,554.45
53570,4449.1,306.45
53570,3699.1,1055.4
53570,3949.1,803.45
53570,4199.1,552.45
53570,4449.1,303.45
53570,4699.1,55.448
53570,3949.1,806.45
53570,4199.1,554.45
53570,4449.1,303.45
53570,4699.1,54.448
53570,4949.1,217.55
53570,4199.1,558.45
53570,4449.1,306.45
53570,4699.1,55.448
53570,4949.1,217.55
53570,5199.1,469.55
53570,3449.1,1306.4
53570,3699.1,1054.4
53570,3949.1,803.45
53570,4199.1,554.45
53570,4449.1,306.45
53570,3699.1,1054.4
53570,3949.1,802.45
53570,4199.1,551.45
53570,4449.1,302.45
53570,4699.1,54.448
53570,3949.1,803.45
53570,4199.1,551.45
53570,4449.1,300.45
53570,4699.1,51.448
53570,4949.1,214.55
53570,4199.1,554.45
53570,4449.1,302.45
53570,4699.1,51.448
53570,4949.1,213.55
53570,5199.1,465.55
53570,4449.1,306.45
53570,4699.1,54.448
53570,4949.1,214.55
53570,5199.1,465.55
53570,5449.1,717.55
53570,3449.1,1307.4
53570,3699.1,1055.4
53570,3949.1,804.45
53570,4199.1,555.45
53570,4449.1,307.45
53570,3699.1,1055.4
53570,3949.1,803.45
53570,4199.1,552.45
53570,4449.1,303.45
53570,4699.1,55.448
53570,3949.1,804.45
53570,4199.1,552.45
53570,4449.1,301.45
53570,4699.1,52.448
53570,4949.1,215.55
53570,4199.1,555.45
53570,4449.1,303.45
53570,4699.1,52.448
53570,4949.1,214.55
53570,5199.1,466.55
53570,4449.1,307.45
53570,4699.1,55.448
53570,4949.1,215.55
53570,5199.1,466.55
53570,5449.1,718.55
53570,3199.1,1562.4
53570,3449.1,1310.4
53570,3699.1,1059.4
53570,3949.1,810.45
53570,4199.1,562.45
53570,3449.1,1310.4
53570,3699.1,1058.4
53570,3949.1,807.45
53570,4199.1,558.45
53570,4449.1,310.45
53570,3699.1,1059.4
53570,3949.1,807.45
53570,4199.1,556.45
53570,4449.1,307.45
53570,4699.1,59.448
53570,3949.1,810.45
53570,4199.1,558.45
53570,4449.1,307.45
53570,4699.1,58.448
53570,4949.1,221.55
53570,4199.1,562.45
53570,4449.1,310.45
53570,4699.1,59.448
53570,4949.1,221.55
53570,5199.1,473.55
53570,3449.1,1310.4
53570,3699.1,1058.4
53570,3949.1,807.45
53570,4199.1,558.45
53570,4449.1,310.45
53570,3699.1,1058.4
53570,3949.1,806.45
53570,4199.1,555.45
53570,4449.1,306.45
53570,4699.1,58.448
53570,3949.1,807.45
53570,4199.1,555.45
53570,4449.1,304.45
53570,4699.1,55.448
53570,4949.1,218.55
53570,4199.1,558.45
53570,4449.1,306.45
53570,4699.1,55.448
53570,4949.1,217.55
53570,5199.1,469.55
53570,4449.1,310.45
53570,4699.1,58.448
53570,4949.1,218.55
53570,5199.1,469.55
53570,5449.1,721.55
53570,3449.1,1310.4
53570,3699.1,1058.4
53570,3949.1,807.45
53570,4199.1,558.45
53570,4449.1,310.45
53570,3699.1,1058.4
53570,3949.1,806.45
53570,4199.1,555.45
53570,4449.1,306.45
53570,4699.1,58.448
53570,3949.1,807.45
53570,4199.1,555.45
53570,4449.1,304.45
53570,4699.1,55.448
53570,4949.1,218.55
53570,4199.1,558.45
53570,4449.1,306.45
53570,4699.1,55.448
53570,4949.1,217.55
53570,5199.1,469.55
53570,4449.1,310.45
53570,4699.1,58.448
53570,4949.1,218.55
53570,5199.1,469.55
53570,5449.1,721.55
53570,2449.1,2310.4
53570,2699.1,2058.4
53570,2949.1,1807.4
53570,3199.1,1558.4
53570,3449.1,1310.4
53570,2699.1,2058.4
53570,2949.1,1806.4
53570,3199.1,1555.4
53570,3449.1,1306.4
53570,3699.1,1058.4
53570,2949.1,1807.4
53570,3199.1,1555.4
53570,3449.1,1304.4
53570,3699.1,1055.4
53570,3949.1,807.45
53570,3199.1,1558.4
53570,3449.1,1306.4
53570,3699.1,1055.4
53570,3949.1,806.45
53570,4199.1,558.45
53570,3449.1,1310.4
53570,3699.1,1058.4
53570,3949.1,807.45
53570,4199.1,558.45
53570,4449.1,310.45
53570,2699.1,2058.4
53570,2949.1,1806.4
53570,3199.1,1555.4
53570,3449.1,1306.4
53570,3699.1,1058.4
53570,2949.1,1806.4
53570,3199.1,1554.4
53570,3449.1,1303.4
53570,3699.1,1054.4
53570,3949.1,806.45
53570,3199.1,1555.4
53570,3449.1,1303.4
53570,3699.1,1052.4
53570,3949.1,803.45
53570,4199.1,555.45
53570,3449.1,1306.4
53570,3699.1,1054.4
53570,3949.1,803.45
53570,4199.1,554.45
53570,4449.1,306.45
53570,3699.1,1058.4
53570,3949.1,806.45
53570,4199.1,555.45
53570,4449.1,306.45
53570,4699.1,58.448
53570,2949.1,1807.4
53570,3199.1,1555.4
53570,3449.1,1304.4
53570,3699.1,1055.4
53570,3949.1,807.45
53570,3199.1,1555.4
53570,3449.1,1303.4
53570,3699.1,1052.4
53570,3949.1,803.45
53570,4199.1,555.45
53570,3449.1,1304.4
53570,3699.1,1052.4
53570,3949.1,801.45
53570,4199.1,552.45
53570,4449.1,304.45
53570,3699.1,1055.4
53570,3949.1,803.45
53570,4199.1,552.45
53570,4449.1,303.45
53570,4699.1,55.448
53570,3949.1,807.45
53570,4199.1,555.45
53570,4449.1,304.45
53570,4699.1,55.448
53570,4949.1,218.55
53570,3199.1,1558.4
53570,3449.1,1306.4
53570,3699.1,1055.4
53570,3949.1,806.45
53570,4199.1,558.45
53570,3449.1,1306.4
53570,3699.1,1054.4
53570,3949.1,803.45
53570,4199.1,554.45
53570,4449.1,306.45
53570,3699.1,1055.4
53570,3949.1,803.45
53570,4199.1,552.45
53570,4449.1,303.45
53570,4699.1,55.448
53570,3949.1,806.45
53570,4199.1,554.45
53570,4449.1,303.45
53570,4699.1,54.448
53570,4949.1,217.55
53570,4199.1,558.45
53570,4449.1,306.45
53570,4699.1,55.448
53570,4949.1,217.55
53570,5199.1,469.55
53570,3449.1,1310.4
53570,3699.1,1058.4
53570,3949.1,807.45
53570,4199.1,558.45
53570,4449.1,310.45
53570,3699.1,1058.4
53570,3949.1,806.45
53570,4199.1,555.45
53570,4449.1,306.45
53570,4699.1,58.448
53570,3949.1,807.45
53570,4199.1,555.45
53570,4449.1,304.45
53570,4699.1,55.448
53570,4949.1,218.55
53570,4199.1,558.45
53570,4449.1,306.45
53570,4699.1,55.448
53570,4949.1,217.55
53570,5199.1,469.55
53570,4449.1,310.45
53570,4699.1,58.448
53570,4949.1,218.55
53570,5199.1,469.55
53570,5449.1,721.55
53570,2699.1,2058.4
53570,2949.1,1806.4
53570,3199.1,1555.4
53570,3449.1,1306.4
53570,3699.1,1058.4
53570,2949.1,1806.4
53570,3199.1,1554.4
53570,3449.1,1303.4
53570,3699.1,1054.4
53570,3949.1,806.45
53570,3199.1,1555.4
53570,3449.1,1303.4
53570,3699.1,1052.4
53570,3949.1,803.45
53570,4199.1,555.45
53570,3449.1,1306.4
53570,3699.1,1054.4
53570,3949.1,803.45
53570,4199.1,554.45
53570,4449.1,306.45
53570,3699.1,1058.4
53570,3949.1,806.45
53570,4199.1,555.45
53570,4449.1,306.45
53570,4699.1,58.448
53570,2949.1,1806.4
53570,3199.1,1554.4
53570,3449.1,1303.4
53570,3699.1,1054.4
53570,3949.1,806.45
53570,3199.1,1554.4
53570,3449.1,1302.4
53570,3699.1,1051.4
53570,3949.1,802.45
53570,4199.1,554.45
53570,3449.1,1303.4
53570,3699.1,1051.4
53570,3949.1,800.45
53570,4199.1,551.45
53570,4449.1,303.45
53570,3699.1,1054.4
53570,3949.1,802.45
53570,4199.1,551.45
53570,4449.1,302.45
53570,4699.1,54.448
53570,3949.1,806.45
53570,4199.1,554.45
53570,4449.1,303.45
53570,4699.1,54.448
53570,4949.1,217.55
53570,3199.1,1555.4
53570,3449.1,1303.4
53570,3699.1,1052.4
53570,3949.1,803.45
53570,4199.1,555.45
53570,3449.1,1303.4
53570,3699.1,1051.4
53570,3949.1,800.45
53570,4199.1,551.45
53570,4449.1,303.45
53570,3699.1,1052.4
53570,3949.1,800.45
53570,4199.1,549.45
53570,4449.1,300.45
53570,4699.1,52.448
53570,3949.1,803.45
53570,4199.1,551.45
53570,4449.1,300.45
53570,4699.1,51.448
53570,4949.1,214.55
53570,4199.1,555.45
53570,4449.1,303.45
53570,4699.1,52.448
53570,4949.1,214.55
53570,5199.1,466.55
53570,3449.1,1306.4
53570,3699.1,1054.4
53570,3949.1,803.45
53570,4199.1,554.45
53570,4449.1,306.45
53570,3699.1,1054.4
53570,3949.1,802.45
53570,4199.1,551.45
53570,4449.1,302.45
53570,4699.1,54.448
53570,3949.1,803.45
53570,4199.1,551.45
53570,4449.1,300.45
53570,4699.1,51.448
53570,4949.1,214.55
53570,4199.1,554.45
53570,4449.1,302.45
53570,4699.1,51.448
53570,4949.1,213.55
53570,5199.1,465.55
53570,4449.1,306.45
53570,4699.1,54.448
53570,4949.1,214.55
53570,5199.1,465.55
53570,5449.1,717.55
53570,2949.1,1807.4
53570,3199.1,1555.4
53570,3449.1,1304.4
53570,3699.1,1055.4
53570,3949.1,807.45
53570,3199.1,1555.4
53570,3449.1,1303.4
53570,3699.1,1052.4
53570,3949.1,803.45
53570,4199.1,555.45
53570,3449.1,1304.4
53570,3699.1,1052.4
53570,3949.1,801.45
53570,4199.1,552.45
53570,4449.1,304.45
53570,3699.1,1055.4
53570,3949.1,803.45
53570,4199.1,552.45
53570,4449.1,303.45
53570,4699.1,55.448
53570,3949.1,807.45
53570,4199.1,555.45
53570,4449.1,304.45
53570,4699.1,55.448
53570,4949.1,218.55
53570,3199.1,1555.4
53570,3449.1,1303.4
53570,3699.1,1052.4
53570,3949.1,803.45
53570,4199.1,555.45
53570,3449.1,1303.4
53570,3699.1,1051.4
53570,3949.1,800.45
53570,4199.1,551.45
53570,4449.1,303.45
53570,3699.1,1052.4
53570,3949.1,800.45
53570,4199.1,549.45
53570,4449.1,300.45
53570,4699.1,52.448
53570,3949.1,803.45
53570,4199.1,551.45
53570,4449.1,300.45
53570,4699.1,51.448
53570,4949.1,214.55
53570,4199.1,555.45
53570,4449.1,303.45
53570,4699.1,52.448
53570,4949.1,214.55
53570,5199.1,466.55
53570,3449.1,1304.4
53570,3699.1,1052.4
53570,3949.1,801.45
53570,4199.1,552.45
53570,4449.1,304.45
53570,3699.1,1052.4
53570,3949.1,800.45
53570,4199.1,549.45
53570,4449.1,300.45
53570,4699.1,52.448
53570,3949.1,801.45
53570,4199.1,549.45
53570,4449.1,298.45
53570,4699.1,49.448
53570,4949.1,212.55
53570,4199.1,552.45
53570,4449.1,300.45
53570,4699.1,49.448
53570,4949.1,211.55
53570,5199.1,463.55
53570,4449.1,304.45
53570,4699.1,52.448
53570,4949.1,212.55
53570,5199.1,463.55
53570,5449.1,715.55
53570,3199.1,1558.4
53570,3449.1,1306.4
53570,3699.1,1055.4
53570,3949.1,806.45
53570,4199.1,558.45
53570,3449.1,1306.4
53570,3699.1,1054.4
53570,3949.1,803.45
53570,4199.1,554.45
53570,4449.1,306.45
53570,3699.1,1055.4
53570,3949.1,803.45
53570,4199.1,552.45
53570,4449.1,303.45
53570,4699.1,55.448
53570,3949.1,806.45
53570,4199.1,554.45
53570,4449.1,303.45
53570,4699.1,54.448
53570,4949.1,217.55
53570,4199.1,558.45
53570,4449.1,306.45
53570,4699.1,55.448
53570,4949.1,217.55
53570,5199.1,469.55
53570,3449.1,1306.4
53570,3699.1,1054.4
53570,3949.1,803.45
53570,4199.1,554.45
53570,4449.1,306.45
53570,3699.1,1054.4
53570,3949.1,802.45
53570,4199.1,551.45
53570,4449.1,302.45
53570,4699.1,54.448
53570,3949.1,803.45
53570,4199.1,551.45
53570,4449.1,300.45
53570,4699.1,51.448
53570,4949.1,214.55
53570,4199.1,554.45
53570,4449.1,302.45
53570,4699.1,51.448
53570,4949.1,213.55
53570,5199.1,465.55
53570,4449.1,306.45
53570,4699.1,54.448
53570,4949.1,214.55
53570,5199.1,465.55
53570,5449.1,717.55
53570,3449.1,1310.4
53570,3699.1,1058.4
53570,3949.1,807.45
53570,4199.1,558.45
53570,4449.1,310.45
53570,3699.1,1058.4
53570,3949.1,806.45
53570,4199.1,555.45
53570,4449.1,306.45
53570,4699.1,58.448
53570,3949.1,807.45
53570,4199.1,555.45
53570,4449.1,304.45
53570,4699.1,55.448
53570,4949.1,218.55
53570,4199.1,558.45
53570,4449.1,306.45
53570,4699.1,55.448
53570,4949.1,217.55
53570,5199.1,469.55
53570,4449.1,310.45
53570,4699.1,58.448
53570,4949.1,218.55
53570,5199.1,469.55
53570,5449.1,721.55
53570,2699.1,2058.4
53570,2949.1,1806.4
53570,3199.1,1555.4
53570,3449.1,1306.4
53570,3699.1,1058.4
53570,2949.1,1806.4
53570,3199.1,1554.4
53570,3449.1,1303.4
53570,3699.1,1054.4
53570,3949.1,806.45
53570,3199.1,1555.4
53570,3449.1,1303.4
53570,3699.1,1052.4
53570,3949.1,803.45
53570,4199.1,555.45
53570,3449.1,1306.4
53570,3699.1,1054.4
53570,3949.1,803.45
53570,4199.1,554.45
53570,4449.1,306.45
53570,3699.1,1058.4
53570,3949.1,806.45
53570,4199.1,555.45
53570,4449.1,306.45
53570,4699.1,58.448
53570,2949.1,1806.4
53570,3199.1,1554.4
53570,3449.1,1303.4
53570,3699.1,1054.4
53570,3949.1,806.45
53570,3199.1,1554.4
53570,3449.1,1302.4
53570,3699.1,1051.4
53570,3949.1,802.45
53570,4199.1,554.45
53570,3449.1,1303.4
53570,3699.1,1051.4
53570,3949.1,800.45
53570,4199.1,551.45
53570,4449.1,303.45
53570,3699.1,1054.4
53570,3949.1,802.45
53570,4199.1,551.45
53570,4449.1,302.45
53570,4699.1,54.448
53570,3949.1,806.45
53570,4199.1,554.45
53570,4449.1,303.45
53570,4699.1,54.448
53570,4949.1,217.55
53570,3199.1,1555.4
53570,3449.1,1303.4
53570,3699.1,1052.4
53570,3949.1,803.45
53570,4199.1,555.45
53570,3449.1,1303.4
53570,3699.1,1051.4
53570,3949.1,800.45
53570,4199.1,551.45
53570,4449.1,303.45
53570,3699.1,1052.4
53570,3949.1,800.45
53570,4199.1,549.45
53570,4449.1,300.45
53570,4699.1,52.448
53570,3949.1,803.45
53570,4199.1,551.45
53570,4449.1,300.45
53570,4699.1,51.448
53570,4949.1,214.55
53570,4199.1,555.45
53570,4449.1,303.45
53570,4699.1,52.448
53570,4949.1,214.55
53570,5199.1,466.55
53570,3449.1,1306.4
53570,3699.1,1054.4
53570,3949.1,803.45
53570,4199.1,554.45
53570,4449.1,306.45
53570,3699.1,1054.4
53570,3949.1,802.45
53570,4199.1,551.45
53570,4449.1,302.45
53570,4699.1,54.448
53570,3949.1,803.45
53570,4199.1,551.45
53570,4449.1,300.45
53570,4699.1,51.448
53570,4949.1,214.55
53570,4199.1,554.45
53570,4449.1,302.45
53570,4699.1,51.448
53570,4949.1,213.55
53570,5199.1,465.55
53570,4449.1,306.45
53570,4699.1,54.448
53570,4949.1,214.55
53570,5199.1,465.55
53570,5449.1,717.55
53570,2949.1,1806.4
53570,3199.1,1554.4
53570,3449.1,1303.4
53570,3699.1,1054.4
53570,3949.1,806.45
53570,3199.1,1554.4
53570,3449.1,1302.4
53570,3699.1,1051.4
53570,3949.1,802.45
53570,4199.1,554.45
53570,3449.1,1303.4
53570,3699.1,1051.4
53570,3949.1,800.45
53570,4199.1,551.45
53570,4449.1,303.45
53570,3699.1,1054.4
53570,3949.1,802.45
53570,4199.1,551.45
53570,4449.1,302.45
53570,4699.1,54.448
53570,3949.1,806.45
53570,4199.1,554.45
53570,4449.1,303.45
53570,4699.1,54.448
53570,4949.1,217.55
53570,3199.1,1554.4
53570,3449.1,1302.4
53570,3699.1,1051.4
53570,3949.1,802.45
53570,4199.1,554.45
53570,3449.1,1302.4
53570,3699.1,1050.4
53570,3949.1,799.45
53570,4199.1,550.45
53570,4449.1,302.45
53570,3699.1,1051.4
53570,3949.1,799.45
53570,4199.1,548.45
53570,4449.1,299.45
53570,4699.1,51.448
53570,3949.1,802.45
53570,4199.1,550.45
53570,4449.1,299.45
53570,4699.1,50.448
53570,4949.1,213.55
53570,4199.1,554.45
53570,4449.1,302.45
53570,4699.1,51.448
53570,4949.1,213.55
53570,5199.1,465.55
53570,3449.1,1303.4
53570,3699.1,1051.4
53570,3949.1,800.45
53570,4199.1,551.45
53570,4449.1,303.45
53570,3699.1,1051.4
53570,3949.1,799.45
53570,4199.1,548.45
53570,4449.1,299.45
53570,4699.1,51.448
53570,3949.1,800.45
53570,4199.1,548.45
53570,4449.1,297.45
53570,4699.1,48.448
53570,4949.1,211.55
53570,4199.1,551.45
53570,4449.1,299.45
53570,4699.1,48.448
53570,4949.1,210.55
53570,5199.1,462.55
53570,4449.1,303.45
53570,4699.1,51.448
53570,4949.1,211.55
53570,5199.1,462.55
53570,5449.1,714.55
53570,3199.1,1555.4
53570,3449.1,1303.4
53570,3699.1,1052.4
53570,3949.1,803.45
53570,4199.1,555.45
53570,3449.1,1303.4
53570,3699.1,1051.4
53570,3949.1,800.45
53570,4199.1,551.45
53570,4449.1,303.45
53570,3699.1,1052.4
53570,3949.1,800.45
53570,4199.1,549.45
53570,4449.1,300.45
53570,4699.1,52.448
53570,3949.1,803.45
53570,4199.1,551.45
53570,4449.1,300.45
53570,4699.1,51.448
53570,4949.1,214.55
53570,4199.1,555.45
53570,4449.1,303.45
53570,4699.1,52.448
53570,4949.1,214.55
53570,5199.1,466.55
53570,3449.1,1303.4
53570,3699.1,1051.4
53570,3949.1,800.45
53570,4199.1,551.45
53570,4449.1,303.45
53570,3699.1,1051.4
53570,3949.1,799.45
53570,4199.1,548.45
53570,4449.1,299.45
53570,4699.1,51.448
53570,3949.1,800.45
53570,4199.1,548.45
53570,4449.1,297.45
53570,4699.1,48.448
53570,4949.1,211.55
53570,4199.1,551.45
53570,4449.1,299.45
53570,4699.1,48.448
53570,4949.1,210.55
53570,5199.1,462.55
53570,4449.1,303.45
53570,4699.1,51.448
53570,4949.1,211.55
53570,5199.1,462.55
53570,5449.1,714.55
53570,3449.1,1306.4
53570,3699.1,1054.4
53570,3949.1,803.45
53570,4199.1,554.45
53570,4449.1,306.45
53570,3699.1,1054.4
53570,3949.1,802.45
53570,4199.1,551.45
53570,4449.1,302.45
53570,4699.1,54.448
53570,3949.1,803.45
53570,4199.1,551.45
53570,4449.1,300.45
53570,4699.1,51.448
53570,4949.1,214.55
53570,4199.1,554.45
53570,4449.1,302.45
53570,4699.1,51.448
53570,4949.1,213.55
53570,5199.1,465.55
53570,4449.1,306.45
53570,4699.1,54.448
53570,4949.1,214.55
53570,5199.1,465.55
53570,5449.1,717.55
53570,2949.1,1807.4
53570,3199.1,1555.4
53570,3449.1,1304.4
53570,3699.1,1055.4
53570,3949.1,807.45
53570,3199.1,1555.4
53570,3449.1,1303.4
53570,3699.1,1052.4
53570,3949.1,803.45
53570,4199.1,555.45
53570,3449.1,1304.4
53570,3699.1,1052.4
53570,3949.1,801.45
53570,4199.1,552.45
53570,4449.1,304.45
53570,3699.1,1055.4
53570,3949.1,803.45
53570,4199.1,552.45
53570,4449.1,303.45
53570,4699.1,55.448
53570,3949.1,807.45
53570,4199.1,555.45
53570,4449.1,304.45
53570,4699.1,55.448
53570,4949.1,218.55
53570,3199.1,1555.4
53570,3449.1,1303.4
53570,3699.1,1052.4
53570,3949.1,803.45
53570,4199.1,555.45
53570,3449.1,1303.4
53570,3699.1,1051.4
53570,3949.1,800.45
53570,4199.1,551.45
53570,4449.1,303.45
53570,3699.1,1052.4
53570,3949.1,800.45
53570,4199.1,549.45
53570,4449.1,300.45
53570,4699.1,52.448
53570,3949.1,803.45
53570,4199.1,551.45
53570,4449.1,300.45
53570,4699.1,51.448
53570,4949.1,214.55
53570,4199.1,555.45
53570,4449.1,303.45
53570,4699.1,52.448
53570,4949.1,214.55
53570,5199.1,466.55
53570,3449.1,1304.4
53570,3699.1,1052.4
53570,3949.1,801.45
53570,4199.1,552.45
53570,4449.1,304.45
53570,3699.1,1052.4
53570,3949.1,800.45
53570,4199.1,549.45
53570,4449.1,300.45
53570,4699.1,52.448
53570,3949.1,801.45
53570,4199.1,549.45
53570,4449.1,298.45
53570,4699.1,49.448
53570,4949.1,212.55
53570,4199.1,552.45
53570,4449.1,300.45
53570,4699.1,49.448
53570,4949.1,211.55
53570,5199.1,463.55
53570,4449.1,304.45
53570,4699.1,52.448
53570,4949.1,212.55
53570,5199.1,463.55
53570,5449.1,715.55
53570,3199.1,1555.4
53570,3449.1,1303.4
53570,3699.1,1052.4
53570,3949.1,803.45
53570,4199.1,555.45
53570,3449.1,1303.4
53570,3699.1,1051.4
53570,3949.1,800.45
53570,4199.1,551.45
53570,4449.1,303.45
53570,3699.1,1052.4
53570,3949.1,800.45
53570,4199.1,549.45
53570,4449.1,300.45
53570,4699.1,52.448
53570,3949.1,803.45
53570,4199.1,551.45
53570,4449.1,300.45
53570,4699.1,51.448
53570,4949.1,214.55
53570,4199.1,555.45
53570,4449.1,303.45
53570,4699.1,52.448
53570,4949.1,214.55
53570,5199.1,466.55
53570,3449.1,1303.4
53570,3699.1,1051.4
53570,3949.1,800.45
53570,4199.1,551.45
53570,4449.1,303.45
53570,3699.1,1051.4
53570,3949.1,799.45
53570,4199.1,548.45
53570,4449.1,299.45
53570,4699.1,51.448
53570,3949.1,800.45
53570,4199.1,548.45
53570,4449.1,297.45
53570,4699.1,48.448
53570,4949.1,211.55
53570,4199.1,551.45
53570,4449.1,299.45
53570,4699.1,48.448
53570,4949.1,210.55
53570,5199.1,462.55
53570,4449.1,303.45
53570,4699.1,51.448
53570,4949.1,211.55
53570,5199.1,462.55
53570,5449.1,714.55
53570,3449.1,1304.4
53570,3699.1,1052.4
53570,3949.1,801.45
53570,4199.1,552.45
53570,4449.1,304.45
53570,3699.1,1052.4
53570,3949.1,800.45
53570,4199.1,549.45
53570,4449.1,300.45
53570,4699.1,52.448
53570,3949.1,801.45
53570,4199.1,549.45
53570,4449.1,298.45
53570,4699.1,49.448
53570,4949.1,212.55
53570,4199.1,552.45
53570,4449.1,300.45
53570,4699.1,49.448
53570,4949.1,211.55
53570,5199.1,463.55
53570,4449.1,304.45
53570,4699.1,52.448
53570,4949.1,212.55
53570,5199.1,463.55
53570,5449.1,715.55
53570,3199.1,1558.4
53570,3449.1,1306.4
53570,3699.1,1055.4
53570,3949.1,806.45
53570,4199.1,558.45
53570,3449.1,1306.4
53570,3699.1,1054.4
53570,3949.1,803.45
53570,4199.1,554.45
53570,4449.1,306.45
53570,3699.1,1055.4
53570,3949.1,803.45
53570,4199.1,552.45
53570,4449.1,303.45
53570,4699.1,55.448
53570,3949.1,806.45
53570,4199.1,554.45
53570,4449.1,303.45
53570,4699.1,54.448
53570,4949.1,217.55
53570,4199.1,558.45
53570,4449.1,306.45
53570,4699.1,55.448
53570,4949.1,217.55
53570,5199.1,469.55
53570,3449.1,1306.4
53570,3699.1,1054.4
53570,3949.1,803.45
53570,4199.1,554.45
53570,4449.1,306.45
53570,3699.1,1054.4
53570,3949.1,802.45
53570,4199.1,551.45
53570,4449.1,302.45
53570,4699.1,54.448
53570,3949.1,803.45
53570,4199.1,551.45
53570,4449.1,300.45
53570,4699.1,51.448
53570,4949.1,214.55
53570,4199.1,554.45
53570,4449.1,302.45
53570,4699.1,51.448
53570,4949.1,213.55
53570,5199.1,465.55
53570,4449.1,306.45
53570,4699.1,54.448
53570,4949.1,214.55
53570,5199.1,465.55
53570,5449.1,717.55
53570,3449.1,1306.4
53570,3699.1,1054.4
53570,3949.1,803.45
53570,4199.1,554.45
53570,4449.1,306.45
53570,3699.1,1054.4
53570,3949.1,802.45
53570,4199.1,551.45
53570,4449.1,302.45
53570,4699.1,54.448
53570,3949.1,803.45
53570,4199.1,551.45
53570,4449.1,300.45
53570,4699.1,51.448
53570,4949.1,214.55
53570,4199.1,554.45
53570,4449.1,302.45
53570,4699.1,51.448
53570,4949.1,213.55
53570,5199.1,465.55
53570,4449.1,306.45
53570,4699.1,54.448
53570,4949.1,214.55
53570,5199.1,465.55
53570,5449.1,717.55
53570,3449.1,1310.4
53570,3699.1,1058.4
53570,3949.1,807.45
53570,4199.1,558.45
53570,4449.1,310.45
53570,3699.1,1058.4
53570,3949.1,806.45
53570,4199.1,555.45
53570,4449.1,306.45
53570,4699.1,58.448
53570,3949.1,807.45
53570,4199.1,555.45
53570,4449.1,304.45
53570,4699.1,55.448
53570,4949.1,218.55
53570,4199.1,558.45
53570,4449.1,306.45
53570,4699.1,55.448
53570,4949.1,217.55
53570,5199.1,469.55
53570,4449.1,310.45
53570,4699.1,58.448
53570,4949.1,218.55
53570,5199.1,469.55
53570,5449.1,721.55
53570,2699.1,2059.4
53570,2949.1,1807.4
53570,3199.1,1556.4
53570,3449.1,1307.4
53570,3699.1,1059.4
53570,2949.1,1807.4
53570,3199.1,1555.4
53570,3449.1,1304.4
53570,3699.1,1055.4
53570,3949.1,807.45
53570,3199.1,1556.4
53570,3449.1,1304.4
53570,3699.1,1053.4
53570,3949.1,804.45
53570,4199.1,556.45
53570,3449.1,1307.4
53570,3699.1,1055.4
53570,3949.1,804.45
53570,4199.1,555.45
53570,4449.1,307.45
53570,3699.1,1059.4
53570,3949.1,807.45
53570,4199.1,556.45
53570,4449.1,307.45
53570,4699.1,59.448
53570,2949.1,1807.4
53570,3199.1,1555.4
53570,3449.1,1304.4
53570,3699.1,1055.4
53570,3949.1,807.45
53570,3199.1,1555.4
53570,3449.1,1303.4
53570,3699.1,1052.4
53570,3949.1,803.45
53570,4199.1,555.45
53570,3449.1,1304.4
53570,3699.1,1052.4
53570,3949.1,801.45
53570,4199.1,552.45
53570,4449.1,304.45
53570,3699.1,1055.4
53570,3949.1,803.45
53570,4199.1,552.45
53570,4449.1,303.45
53570,4699.1,55.448
53570,3949.1,807.45
53570,4199.1,555.45
53570,4449.1,304.45
53570,4699.1,55.448
53570,4949.1,218.55
53570,3199.1,1556.4
53570,3449.1,1304.4
53570,3699.1,1053.4
53570,3949.1,804.45
53570,4199.1,556.45
53570,3449.1,1304.4
53570,3699.1,1052.4
53570,3949.1,801.45
53570,4199.1,552.45
53570,4449.1,304.45
53570,3699.1,1053.4
53570,3949.1,801.45
53570,4199.1,550.45
53570,4449.1,301.45
53570,4699.1,53.448
53570,3949.1,804.45
53570,4199.1,552.45
53570,4449.1,301.45
53570,4699.1,52.448
53570,4949.1,215.55
53570,4199.1,556.45
53570,4449.1,304.45
53570,4699.1,53.448
53570,4949.1,215.55
53570,5199.1,467.55
53570,3449.1,1307.4
53570,3699.1,1055.4
53570,3949.1,804.45
53570,4199.1,555.45
53570,4449.1,307.45
53570,3699.1,1055.4
53570,3949.1,803.45
53570,4199.1,552.45
53570,4449.1,303.45
53570,4699.1,55.448
53570,3949.1,804.45
53570,4199.1,552.45
53570,4449.1,301.45
53570,4699.1,52.448
53570,4949.1,215.55
53570,4199.1,555.45
53570,4449.1,303.45
53570,4699.1,52.448
53570,4949.1,214.55
53570,5199.1,466.55
53570,4449.1,307.45
53570,4699.1,55.448
53570,4949.1,215.55
53570,5199.1,466.55
53570,5449.1,718.55
53570,2949.1,1807.4
53570,3199.1,1555.4
53570,3449.1,1304.4
53570,3699.1,1055.4
53570,3949.1,807.45
53570,3199.1,1555.4
53570,3449.1,1303.4
53570,3699.1,1052.4
53570,3949.1,803.45
53570,4199.1,555.45
53570,3449.1,1304.4
53570,3699.1,1052.4
53570,3949.1,801.45
53570,4199.1,552.45
53570,4449.1,304.45
53570,3699.1,1055.4
53570,3949.1,803.45
53570,4199.1,552.45
53570,4449.1,303.45
53570,4699.1,55.448
53570,3949.1,807.45
53570,4199.1,555.45
53570,4449.1,304.45
53570,4699.1,55.448
53570,4949.1,218.55
53570,3199.1,1555.4
53570,3449.1,1303.4
53570,3699.1,1052.4
53570,3949.1,803.45
53570,4199.1,555.45
53570,3449.1,1303.4
53570,3699.1,1051.4
53570,3949.1,800.45
53570,4199.1,551.45
53570,4449.1,303.45
53570,3699.1,1052.4
53570,3949.1,800.45
53570,4199.1,549.45
53570,4449.1,300.45
53570,4699.1,52.448
53570,3949.1,803.45
53570,4199.1,551.45
53570,4449.1,300.45
53570,4699.1,51.448
53570,4949.1,214.55
53570,4199.1,555.45
53570,4449.1,303.45
53570,4699.1,52.448
53570,4949.1,214.55
53570,5199.1,466.55
53570,3449.1,1304.4
53570,3699.1,1052.4
53570,3949.1,801.45
53570,4199.1,552.45
53570,4449.1,304.45
53570,3699.1,1052.4
53570,3949.1,800.45
53570,4199.1,549.45
53570,4449.1,300.45
53570,4699.1,52.448
53570,3949.1,801.45
53570,4199.1,549.45
53570,4449.1,298.45
53570,4699.1,49.448
53570,4949.1,212.55
53570,4199.1,552.45
53570,4449.1,300.45
53570,4699.1,49.448
53570,4949.1,211.55
53570,5199.1,463.55
53570,4449.1,304.45
53570,4699.1,52.448
53570,4949.1,212.55
53570,5199.1,463.55
53570,5449.1,715.55
53570,3199.1,1556.4
53570,3449.1,1304.4
53570,3699.1,1053.4
53570,3949.1,804.45
53570,4199.1,556.45
53570,3449.1,1304.4
53570,3699.1,1052.4
53570,3949.1,801.45
53570,4199.1,552.45
53570,4449.1,304.45
53570,3699.1,1053.4
53570,3949.1,801.45
53570,4199.1,550.45
53570,4449.1,301.45
53570,4699.1,53.448
53570,3949.1,804.45
53570,4199.1,552.45
53570,4449.1,301.45
53570,4699.1,52.448
53570,4949.1,215.55
53570,4199.1,556.45
53570,4449.1,304.45
53570,4699.1,53.448
53570,4949.1,215.55
53570,5199.1,467.55
53570,3449.1,1304.4
53570,3699.1,1052.4
53570,3949.1,801.45
53570,4199.1,552.45
53570,4449.1,304.45
53570,3699.1,1052.4
53570,3949.1,800.45
53570,4199.1,549.45
53570,4449.1,300.45
53570,4699.1,52.448
53570,3949.1,801.45
53570,4199.1,549.45
53570,4449.1,298.45
53570,4699.1,49.448
53570,4949.1,212.55
53570,4199.1,552.45
53570,4449.1,300.45
53570,4699.1,49.448
53570,4949.1,211.55
53570,5199.1,463.55
53570,4449.1,304.45
53570,4699.1,52.448
53570,4949.1,212.55
53570,5199.1,463.55
53570,5449.1,715.55
53570,3449.1,1307.4
53570,3699.1,1055.4
53570,3949.1,804.45
53570,4199.1,555.45
53570,4449.1,307.45
53570,3699.1,1055.4
53570,3949.1,803.45
53570,4199.1,552.45
53570,4449.1,303.45
53570,4699.1,55.448
53570,3949.1,804.45
53570,4199.1,552.45
53570,4449.1,301.45
53570,4699.1,52.448
53570,4949.1,215.55
53570,4199.1,555.45
53570,4449.1,303.45
53570,4699.1,52.448
53570,4949.1,214.55
53570,5199.1,466.55
53570,4449.1,307.45
53570,4699.1,55.448
53570,4949.1,215.55
53570,5199.1,466.55
53570,5449.1,718.55
53570,2949.1,1807.4
53570,3199.1,1555.4
53570,3449.1,1304.4
53570,3699.1,1055.4
53570,3949.1,807.45
53570,3199.1,1555.4
53570,3449.1,1303.4
53570,3699.1,1052.4
53570,3949.1,803.45
53570,4199.1,555.45
53570,3449.1,1304.4
53570,3699.1,1052.4
53570,3949.1,801.45
53570,4199.1,552.45
53570,4449.1,304.45
53570,3699.1,1055.4
53570,3949.1,803.45
53570,4199.1,552.45
53570,4449.1,303.45
53570,4699.1,55.448
53570,3949.1,807.45
53570,4199.1,555.45
53570,4449.1,304.45
53570,4699.1,55.448
53570,4949.1,218.55
53570,3199.1,1555.4
53570,3449.1,1303.4
53570,3699.1,1052.4
53570,3949.1,803.45
53570,4199.1,555.45
53570,3449.1,1303.4
53570,3699.1,1051.4
53570,3949.1,800.45
53570,4199.1,551.45
53570,4449.1,303.45
53570,3699.1,1052.4
53570,3949.1,800.45
53570,4199.1,549.45
53570,4449.1,300.45
53570,4699.1,52.448
53570,3949.1,803.45
53570,4199.1,551.45
53570,4449.1,300.45
53570,4699.1,51.448
53570,4949.1,214.55
53570,4199.1,555.45
53570,4449.1,303.45
53570,4699.1,52.448
53570,4949.1,214.55
53570,5199.1,466.55
53570,3449.1,1304.4
53570,3699.1,1052.4
53570,3949.1,801.45
53570,4199.1,552.45
53570,4449.1,304.45
53570,3699.1,1052.4
53570,3949.1,800.45
53570,4199.1,549.45
53570,4449.1,300.45
53570,4699.1,52.448
53570,3949.1,801.45
53570,4199.1,549.45
53570,4449.1,298.45
53570,4699.1,49.448
53570,4949.1,212.55
53570,4199.1,552.45
53570,4449.1,300.45
53570,4699.1,49.448
53570,4949.1,211.55
53570,5199.1,463.55
53570,4449.1,304.45
53570,4699.1,52.448
53570,4949.1,212.55
53570,5199.1,463.55
53570,5449.1,715.55
53570,3199.1,1555.4
53570,3449.1,1303.4
53570,3699.1,1052.4
53570,3949.1,803.45
53570,4199.1,555.45
53570,3449.1,1303.4
53570,3699.1,1051.4
53570,3949.1,800.45
53570,4199.1,551.45
53570,4449.1,303.45
53570,3699.1,1052.4
53570,3949.1,800.45
53570,4199.1,549.45
53570,4449.1,300.45
53570,4699.1,52.448
53570,3949.1,803.45
53570,4199.1,551.45
53570,4449.1,300.45
53570,4699.1,51.448
53570,4949.1,214.55
53570,4199.1,555.45
53570,4449.1,303.45
53570,4699.1,52.448
53570,4949.1,214.55
53570,5199.1,466.55
53570,3449.1,1303.4
53570,3699.1,1051.4
53570,3949.1,800.45
53570,4199.1,551.45
53570,4449.1,303.45
53570,3699.1,1051.4
53570,3949.1,799.45
53570,4199.1,548.45
53570,4449.1,299.45
53570,4699.1,51.448
53570,3949.1,800.45
53570,4199.1,548.45
53570,4449.1,297.45
53570,4699.1,48.448
53570,4949.1,211.55
53570,4199.1,551.45
53570,4449.1,299.45
53570,4699.1,48.448
53570,4949.1,210.55
53570,5199.1,462.55
53570,4449.1,303.45
53570,4699.1,51.448
53570,4949.1,211.55
53570,5199.1,462.55
53570,5449.1,714.55
53570,3449.1,1304.4
53570,3699.1,1052.4
53570,3949.1,801.45
53570,4199.1,552.45
53570,4449.1,304.45
53570,3699.1,1052.4
53570,3949.1,800.45
53570,4199.1,549.45
53570,4449.1,300.45
53570,4699.1,52.448
53570,3949.1,801.45
53570,4199.1,549.45
53570,4449.1,298.45
53570,4699.1,49.448
53570,4949.1,212.55
53570,4199.1,552.45
53570,4449.1,300.45
53570,4699.1,49.448
53570,4949.1,211.55
53570,5199.1,463.55
53570,4449.1,304.45
53570,4699.1,52.448
53570,4949.1,212.55
53570,5199.1,463.55
53570,5449.1,715.55
53570,3199.1,1556.4
53570,3449.1,1304.4
53570,3699.1,1053.4
53570,3949.1,804.45
53570,4199.1,556.45
53570,3449.1,1304.4
53570,3699.1,1052.4
53570,3949.1,801.45
53570,4199.1,552.45
53570,4449.1,304.45
53570,3699.1,1053.4
53570,3949.1,801.45
53570,4199.1,550.45
53570,4449.1,301.45
53570,4699.1,53.448
53570,3949.1,804.45
53570,4199.1,552.45
53570,4449.1,301.45
53570,4699.1,52.448
53570,4949.1,215.55
53570,4199.1,556.45
53570,4449.1,304.45
53570,4699.1,53.448
53570,4949.1,215.55
53570,5199.1,467.55
53570,3449.1,1304.4
53570,3699.1,1052.4
53570,3949.1,801.45
53570,4199.1,552.45
53570,4449.1,304.45
53570,3699.1,1052.4
53570,3949.1,800.45
53570,4199.1,549.45
53570,4449.1,300.45
53570,4699.1,52.448
53570,3949.1,801.45
53570,4199.1,549.45
53570,4449.1,298.45
53570,4699.1,49.448
53570,4949.1,212.55
53570,4199.1,552.45
53570,4449.1,300.45
53570,4699.1,49.448
53570,4949.1,211.55
53570,5199.1,463.55
53570,4449.1,304.45
53570,4699.1,52.448
53570,4949.1,212.55
53570,5199.1,463.55
53570,5449.1,715.55
53570,3449.1,1304.4
53570,3699.1,1052.4
53570,3949.1,801.45
53570,4199.1,552.45
53570,4449.1,304.45
53570,3699.1,1052.4
53570,3949.1,800.45
53570,4199.1,549.45
53570,4449.1,300.45
53570,4699.1,52.448
53570,3949.1,801.45
53570,4199.1,549.45
53570,4449.1,298.45
53570,4699.1,49.448
53570,4949.1,212.55
53570,4199.1,552.45
53570,4449.1,300.45
53570,4699.1,49.448
53570,4949.1,211.55
53570,5199.1,463.55
53570,4449.1,304.45
53570,4699.1,52.448
53570,4949.1,212.55
53570,5199.1,463.55
53570,5449.1,715.55
53570,3449.1,1307.4
53570,3699.1,1055.4
53570,3949.1,804.45
53570,4199.1,555.45
53570,4449.1,307.45
53570,3699.1,1055.4
53570,3949.1,803.45
53570,4199.1,552.45
53570,4449.1,303.45
53570,4699.1,55.448
53570,3949.1,804.45
53570,4199.1,552.45
53570,4449.1,301.45
53570,4699.1,52.448
53570,4949.1,215.55
53570,4199.1,555.45
53570,4449.1,303.45
53570,4699.1,52.448
53570,4949.1,214.55
53570,5199.1,466.55
53570,4449.1,307.45
53570,4699.1,55.448
53570,4949.1,215.55
53570,5199.1,466.55
53570,5449.1,718.55
53570,2949.1,1810.4
53570,3199.1,1558.4
53570,3449.1,1307.4
53570,3699.1,1058.4
53570,3949.1,810.45
53570,3199.1,1558.4
53570,3449.1,1306.4
53570,3699.1,1055.4
53570,3949.1,806.45
53570,4199.1,558.45
53570,3449.1,1307.4
53570,3699.1,1055.4
53570,3949.1,804.45
53570,4199.1,555.45
53570,4449.1,307.45
53570,3699.1,1058.4
53570,3949.1,806.45
53570,4199.1,555.45
53570,4449.1,306.45
53570,4699.1,58.448
53570,3949.1,810.45
53570,4199.1,558.45
53570,4449.1,307.45
53570,4699.1,58.448
53570,4949.1,221.55
53570,3199.1,1558.4
53570,3449.1,1306.4
53570,3699.1,1055.4
53570,3949.1,806.45
53570,4199.1,558.45
53570,3449.1,1306.4
53570,3699.1,1054.4
53570,3949.1,803.45
53570,4199.1,554.45
53570,4449.1,306.45
53570,3699.1,1055.4
53570,3949.1,803.45
53570,4199.1,552.45
53570,4449.1,303.45
53570,4699.1,55.448
53570,3949.1,806.45
53570,4199.1,554.45
53570,4449.1,303.45
53570,4699.1,54.448
53570,4949.1,217.55
53570,4199.1,558.45
53570,4449.1,306.45
53570,4699.1,55.448
53570,4949.1,217.55
53570,5199.1,469.55
53570,3449.1,1307.4
53570,3699.1,1055.4
53570,3949.1,804.45
53570,4199.1,555.45
53570,4449.1,307.45
53570,3699.1,1055.4
53570,3949.1,803.45
53570,4199.1,552.45
53570,4449.1,303.45
53570,4699.1,55.448
53570,3949.1,804.45
53570,4199.1,552.45
53570,4449.1,301.45
53570,4699.1,52.448
53570,4949.1,215.55
53570,4199.1,555.45
53570,4449.1,303.45
53570,4699.1,52.448
53570,4949.1,214.55
53570,5199.1,466.55
53570,4449.1,307.45
53570,4699.1,55.448
53570,4949.1,215.55
53570,5199.1,466.55
53570,5449.1,718.55
53570,3199.1,1558.4
53570,3449.1,1306.4
53570,3699.1,1055.4
53570,3949.1,806.45
53570,4199.1,558.45
53570,3449.1,1306.4
53570,3699.1,1054.4
53570,3949.1,803.45
53570,4199.1,554.45
53570,4449.1,306.45
53570,3699.1,1055.4
53570,3949.1,803.45
53570,4199.1,552.45
53570,4449.1,303.45
53570,4699.1,55.448
53570,3949.1,806.45
53570,4199.1,554.45
53570,4449.1,303.45
53570,4699.1,54.448
53570,4949.1,217.55
53570,4199.1,558.45
53570,4449.1,306.45
53570,4699.1,55.448
53570,4949.1,217.55
53570,5199.1,469.55
53570,3449.1,1306.4
53570,3699.1,1054.4
53570,3949.1,803.45
53570,4199.1,554.45
53570,4449.1,306.45
53570,3699.1,1054.4
53570,3949.1,802.45
53570,4199.1,551.45
53570,4449.1,302.45
53570,4699.1,54.448
53570,3949.1,803.45
53570,4199.1,551.45
53570,4449.1,300.45
53570,4699.1,51.448
53570,4949.1,214.55
53570,4199.1,554.45
53570,4449.1,302.45
53570,4699.1,51.448
53570,4949.1,213.55
53570,5199.1,465.55
53570,4449.1,306.45
53570,4699.1,54.448
53570,4949.1,214.55
53570,5199.1,465.55
53570,5449.1,717.55
53570,3449.1,1307.4
53570,3699.1,1055.4
53570,3949.1,804.45
53570,4199.1,555.45
53570,4449.1,307.45
53570,3699.1,1055.4
53570,3949.1,803.45
53570,4199.1,552.45
53570,4449.1,303.45
53570,4699.1,55.448
53570,3949.1,804.45
53570,4199.1,552.45
53570,4449.1,301.45
53570,4699.1,52.448
53570,4949.1,215.55
53570,4199.1,555.45
53570,4449.1,303.45
53570,4699.1,52.448
53570,4949.1,214.55
53570,5199.1,466.55
53570,4449.1,307.45
53570,4699.1,55.448
53570,4949.1,215.55
53570,5199.1,466.55
53570,5449.1,718.55
53570,3199.1,1558.4
53570,3449.1,1306.4
53570,3699.1,1055.4
53570,3949.1,806.45
53570,4199.1,558.45
53570,3449.1,1306.4
53570,3699.1,1054.4
53570,3949.1,803.45
53570,4199.1,554.45
53570,4449.1,306.45
53570,3699.1,1055.4
53570,3949.1,803.45
53570,4199.1,552.45
53570,4449.1,303.45
53570,4699.1,55.448
53570,3949.1,806.45
53570,4199.1,554.45
53570,4449.1,303.45
53570,4699.1,54.448
53570,4949.1,217.55
53570,4199.1,558.45
53570,4449.1,306.45
53570,4699.1,55.448
53570,4949.1,217.55
53570,5199.1,469.55
53570,3449.1,1306.4
53570,3699.1,1054.4
53570,3949.1,803.45
53570,4199.1,554.45
53570,4449.1,306.45
53570,3699.1,1054.4
53570,3949.1,802.45
53570,4199.1,551.45
53570,4449.1,302.45
53570,4699.1,54.448
53570,3949.1,803.45
53570,4199.1,551.45
53570,4449.1,300.45
53570,4699.1,51.448
53570,4949.1,214.55
53570,4199.1,554.45
53570,4449.1,302.45
53570,4699.1,51.448
53570,4949.1,213.55
53570,5199.1,465.55
53570,4449.1,306.45
53570,4699.1,54.448
53570,4949.1,214.55
53570,5199.1,465.55
53570,5449.1,717.55
53570,3449.1,1306.4
53570,3699.1,1054.4
53570,3949.1,803.45
53570,4199.1,554.45
53570,4449.1,306.45
53570,3699.1,1054.4
53570,3949.1,802.45
53570,4199.1,551.45
53570,4449.1,302.45
53570,4699.1,54.448
53570,3949.1,803.45
53570,4199.1,551.45
53570,4449.1,300.45
53570,4699.1,51.448
53570,4949.1,214.55
53570,4199.1,554.45
53570,4449.1,302.45
53570,4699.1,51.448
53570,4949.1,213.55
53570,5199.1,465.55
53570,4449.1,306.45
53570,4699.1,54.448
53570,4949.1,214.55
53570,5199.1,465.55
53570,5449.1,717.55
53570,3449.1,1307.4
53570,3699.1,1055.4
53570,3949.1,804.45
53570,4199.1,555.45
53570,4449.1,307.45
53570,3699.1,1055.4
53570,3949.1,803.45
53570,4199.1,552.45
53570,4449.1,303.45
53570,4699.1,55.448
53570,3949.1,804.45
53570,4199.1,552.45
53570,4449.1,301.45
53570,4699.1,52.448
53570,4949.1,215.55
53570,4199.1,555.45
53570,4449.1,303.45
53570,4699.1,52.448
53570,4949.1,214.55
53570,5199.1,466.55
53570,4449.1,307.45
53570,4699.1,55.448
53570,4949.1,215.55
53570,5199.1,466.55
53570,5449.1,718.55
53570,5949.1,1221.6
53570,6199.1,1469.6
53570,6449.1,1718.6
53570,6699.1,1969.6
53570,6949.1,2221.6
53570,5949.1,1217.6
53570,6199.1,1465.6
53570,6449.1,1714.6
53570,6699.1,1965.6
53570,6949.1,2217.6
53570,6199.1,1469.6
53570,6449.1,1717.6
53570,6699.1,1966.6
53570,6949.1,2217.6
53570,7199.1,2469.6
53570,5949.1,1215.6
53570,6199.1,1463.6
53570,6449.1,1712.6
53570,6699.1,1963.6
53570,6949.1,2215.6
53570,6199.1,1466.6
53570,6449.1,1714.6
53570,6699.1,1963.6
53570,6949.1,2214.6
53570,7199.1,2466.6
53570,6449.1,1718.6
53570,6699.1,1966.6
53570,6949.1,2215.6
53570,7199.1,2466.6
53570,7449.1,2718.6
53570,5949.1,1217.6
53570,6199.1,1465.6
53570,6449.1,1714.6
53570,6699.1,1965.6
53570,6949.1,2217.6
53570,6199.1,1466.6
53570,6449.1,1714.6
53570,6699.1,1963.6
53570,6949.1,2214.6
53570,7199.1,2466.6
53570,6449.1,1717.6
53570,6699.1,1965.6
53570,6949.1,2214.6
53570,7199.1,2465.6
53570,7449.1,2717.6
53570,6699.1,1969.6
53570,6949.1,2217.6
53570,7199.1,2466.6
53570,7449.1,2717.6
53570,7699.1,2969.6
53570,5949.1,1221.6
53570,6199.1,1469.6
53570,6449.1,1718.6
53570,6699.1,1969.6
53570,6949.1,2221.6
53570,6199.1,1469.6
53570,6449.1,1717.6
53570,6699.1,1966.6
53570,6949.1,2217.6
53570,7199.1,2469.6
53570,6449.1,1718.6
53570,6699.1,1966.6
53570,6949.1,2215.6
53570,7199.1,2466.6
53570,7449.1,2718.6
53570,6699.1,1969.6
53570,6949.1,2217.6
53570,7199.1,2466.6
53570,7449.1,2717.6
53570,7699.1,2969.6
53570,6949.1,2221.6
53570,7199.1,2469.6
53570,7449.1,2718.6
53570,7699.1,2969.6
53570,7949.1,3221.6
53570,3199.1,1562.4
53570,3449.1,1310.4
53570,3699.1,1059.4
53570,3949.1,810.45
53570,4199.1,562.45
53570,3449.1,1310.4
53570,3699.1,1058.4
53570,3949.1,807.45
53570,4199.1,558.45
53570,4449.1,310.45
53570,3699.1,1059.4
53570,3949.1,807.45
53570,4199.1,556.45
53570,4449.1,307.45
53570,4699.1,59.448
53570,3949.1,810.45
53570,4199.1,558.45
53570,4449.1,307.45
53570,4699.1,58.448
53570,4949.1,221.55
53570,4199.1,562.45
53570,4449.1,310.45
53570,4699.1,59.448
53570,4949.1,221.55
53570,5199.1,473.55
53570,3449.1,1310.4
53570,3699.1,1058.4
53570,3949.1,807.45
53570,4199.1,558.45
53570,4449.1,310.45
53570,3699.1,1058.4
53570,3949.1,806.45
53570,4199.1,555.45
53570,4449.1,306.45
53570,4699.1,58.448
53570,3949.1,807.45
53570,4199.1,555.45
53570,4449.1,304.45
53570,4699.1,55.448
53570,4949.1,218.55
53570,4199.1,558.45
53570,4449.1,306.45
53570,4699.1,55.448
53570,4949.1,217.55
53570,5199.1,469.55
53570,4449.1,310.45
53570,4699.1,58.448
53570,4949.1,218.55
53570,5199.1,469.55
53570,5449.1,721.55
53570,3449.1,1310.4
53570,3699.1,1058.4
53570,3949.1,807.45
53570,4199.1,558.45
53570,4449.1,310.45
53570,3699.1,1058.4
53570,3949.1,806.45
53570,4199.1,555.45
53570,4449.1,306.45
53570,4699.1,58.448
53570,3949.1,807.45
53570,4199.1,555.45
53570,4449.1,304.45
53570,4699.1,55.448
53570,4949.1,218.55
53570,4199.1,558.45
53570,4449.1,306.45
53570,4699.1,55.448
53570,4949.1,217.55
53570,5199.1,469.55
53570,4449.1,310.45
53570,4699.1,58.448
53570,4949.1,218.55
53570,5199.1,469.55
53570,5449.1,721.55
53570,3449.1,1310.4
53570,3699.1,1058.4
53570,3949.1,807.45
53570,4199.1,558.45
53570,4449.1,310.45
53570,3699.1,1058.4
53570,3949.1,806.45
53570,4199.1,555.45
53570,4449.1,306.45
53570,4699.1,58.448
53570,3949.1,807.45
53570,4199.1,555.45
53570,4449.1,304.45
53570,4699.1,55.448
53570,4949.1,218.55
53570,4199.1,558.45
53570,4449.1,306.45
53570,4699.1,55.448
53570,4949.1,217.55
53570,5199.1,469.55
53570,4449.1,310.45
53570,4699.1,58.448
53570,4949.1,218.55
53570,5199.1,469.55
53570,5449.1,721.55
53570,5949.1,1221.6
53570,6199.1,1469.6
53570,6449.1,1718.6
53570,6699.1,1969.6
53570,6949.1,2221.6
53570,5949.1,1217.6
53570,6199.1,1465.6
53570,6449.1,1714.6
53570,6699.1,1965.6
53570,6949.1,2217.6
53570,6199.1,1469.6
53570,6449.1,1717.6
53570,6699.1,1966.6
53570,6949.1,2217.6
53570,7199.1,2469.6
53570,5949.1,1215.6
53570,6199.1,1463.6
53570,6449.1,1712.6
53570,6699.1,1963.6
53570,6949.1,2215.6
53570,6199.1,1466.6
53570,6449.1,1714.6
53570,6699.1,1963.6
53570,6949.1,2214.6
53570,7199.1,2466.6
53570,6449.1,1718.6
53570,6699.1,1966.6
53570,6949.1,2215.6
53570,7199.1,2466.6
53570,7449.1,2718.6
53570,5949.1,1217.6
53570,6199.1,1465.6
53570,6449.1,1714.6
53570,6699.1,1965.6
53570,6949.1,2217.6
53570,6199.1,1466.6
53570,6449.1,1714.6
53570,6699.1,1963.6
53570,6949.1,2214.6
53570,7199.1,2466.6
53570,6449.1,1717.6
53570,6699.1,1965.6
53570,6949.1,2214.6
53570,7199.1,2465.6
53570,7449.1,2717.6
53570,6699.1,1969.6
53570,6949.1,2217.6
53570,7199.1,2466.6
53570,7449.1,2717.6
53570,7699.1,2969.6
53570,5949.1,1221.6
53570,6199.1,1469.6
53570,6449.1,1718.6
53570,6699.1,1969.6
53570,6949.1,2221.6
53570,6199.1,1469.6
53570,6449.1,1717.6
53570,6699.1,1966.6
53570,6949.1,2217.6
53570,7199.1,2469.6
53570,6449.1,1718.6
53570,6699.1,1966.6
53570,6949.1,2215.6
53570,7199.1,2466.6
53570,7449.1,2718.6
53570,6699.1,1969.6
53570,6949.1,2217.6
53570,7199.1,2466.6
53570,7449.1,2717.6
53570,7699.1,2969.6
53570,6949.1,2221.6
53570,7199.1,2469.6
53570,7449.1,2718.6
53570,7699.1,2969.6
53570,7949.1,3221.6
53570,5949.1,1221.6
53570,6199.1,1469.6
53570,6449.1,1718.6
53570,6699.1,1969.6
53570,6949.1,2221.6
53570,5949.1,1217.6
53570,6199.1,1465.6
53570,6449.1,1714.6
53570,6699.1,1965.6
53570,6949.1,2217.6
53570,6199.1,1469.6
53570,6449.1,1717.6
53570,6699.1,1966.6
53570,6949.1,2217.6
53570,7199.1,2469.6
53570,5949.1,1215.6
53570,6199.1,1463.6
53570,6449.1,1712.6
53570,6699.1,1963.6
53570,6949.1,2215.6
53570,6199.1,1466.6
53570,6449.1,1714.6
53570,6699.1,1963.6
53570,6949.1,2214.6
53570,7199.1,2466.6
53570,6449.1,1718.6
53570,6699.1,1966.6
53570,6949.1,2215.6
53570,7199.1,2466.6
53570,7449.1,2718.6
53570,5949.1,1217.6
53570,6199.1,1465.6
53570,6449.1,1714.6
53570,6699.1,1965.6
53570,6949.1,2217.6
53570,6199.1,1466.6
53570,6449.1,1714.6
53570,6699.1,1963.6
53570,6949.1,2214.6
53570,7199.1,2466.6
53570,6449.1,1717.6
53570,6699.1,1965.6
53570,6949.1,2214.6
53570,7199.1,2465.6
53570,7449.1,2717.6
53570,6699.1,1969.6
53570,6949.1,2217.6
53570,7199.1,2466.6
53570,7449.1,2717.6
53570,7699.1,2969.6
53570,5949.1,1221.6
53570,6199.1,1469.6
53570,6449.1,1718.6
53570,6699.1,1969.6
53570,6949.1,2221.6
53570,6199.1,1469.6
53570,6449.1,1717.6
53570,6699.1,1966.6
53570,6949.1,2217.6
53570,7199.1,2469.6
53570,6449.1,1718.6
53570,6699.1,1966.6
53570,6949.1,2215.6
53570,7199.1,2466.6
53570,7449.1,2718.6
53570,6699.1,1969.6
53570,6949.1,2217.6
53570,7199.1,2466.6
53570,7449.1,2717.6
53570,7699.1,2969.6
53570,6949.1,2221.6
53570,7199.1,2469.6
53570,7449.1,2718.6
53570,7699.1,2969.6
53570,7949.1,3221.6
53570,5949.1,1221.6
53570,6199.1,1469.6
53570,6449.1,1718.6
53570,6699.1,1969.6
53570,6949.1,2221.6
53570,6199.1,1473.6
53570,6449.1,1721.6
53570,6699.1,1970.6
53570,6949.1,2221.6
53570,7199.1,2473.6
53570,5949.1,1218.6
53570,6199.1,1466.6
53570,6449.1,1715.6
53570,6699.1,1966.6
53570,6949.1,2218.6
53570,6199.1,1469.6
53570,6449.1,1717.6
53570,6699.1,1966.6
53570,6949.1,2217.6
53570,7199.1,2469.6
53570,6449.1,1721.6
53570,6699.1,1969.6
53570,6949.1,2218.6
53570,7199.1,2469.6
53570,7449.1,2721.6
53570,5949.1,1218.6
53570,6199.1,1466.6
53570,6449.1,1715.6
53570,6699.1,1966.6
53570,6949.1,2218.6
53570,6199.1,1467.6
53570,6449.1,1715.6
53570,6699.1,1964.6
53570,6949.1,2215.6
53570,7199.1,2467.6
53570,6449.1,1718.6
53570,6699.1,1966.6
53570,6949.1,2215.6
53570,7199.1,2466.6
53570,7449.1,2718.6
53570,6699.1,1970.6
53570,6949.1,2218.6
53570,7199.1,2467.6
53570,7449.1,2718.6
53570,7699.1,2970.6
53570,5949.1,1221.6
53570,6199.1,1469.6
53570,6449.1,1718.6
53570,6699.1,1969.6
53570,6949.1,2221.6
53570,6199.1,1469.6
53570,6449.1,1717.6
53570,6699.1,1966.6
53570,6949.1,2217.6
53570,7199.1,2469.6
53570,6449.1,1718.6
53570,6699.1,1966.6
53570,6949.1,2215.6
53570,7199.1,2466.6
53570,7449.1,2718.6
53570,6699.1,1969.6
53570,6949.1,2217.6
53570,7199.1,2466.6
53570,7449.1,2717.6
53570,7699.1,2969.6
53570,6949.1,2221.6
53570,7199.1,2469.6
53570,7449.1,2718.6
53570,7699.1,2969.6
53570,7949.1,3221.6
53570,6199.1,1473.6
53570,6449.1,1721.6
53570,6699.1,1970.6
53570,6949.1,2221.6
53570,7199.1,2473.6
53570,6449.1,1721.6
53570,6699.1,1969.6
53570,6949.1,2218.6
53570,7199.1,2469.6
53570,7449.1,2721.6
53570,6699.1,1970.6
53570,6949.1,2218.6
53570,7199.1,2467.6
53570,7449.1,2718.6
53570,7699.1,2970.6
53570,6949.1,2221.6
53570,7199.1,2469.6
53570,7449.1,2718.6
53570,7699.1,2969.6
53570,7949.1,3221.6
53570,7199.1,2473.6
53570,7449.1,2721.6
53570,7699.1,2970.6
53570,7949.1,3221.6
53570,8199.1,3473.6
