49452,5251.3,89.45
50088,5001.3,340.45
50088,5251.3,89.45
50088,5501.3,161.55
50088,5751.3,413.55
50724,4501.3,843.45
50724,4751.3,591.45
50724,5001.3,340.45
50724,5251.3,91.45
50724,5501.3,164.55
50724,4751.3,592.45
50724,5001.3,340.45
50724,5251.3,89.45
50724,5501.3,161.55
50724,5751.3,413.55
50724,5001.3,343.45
50724,5251.3,91.45
50724,5501.3,161.55
50724,5751.3,412.55
50724,5251.3,95.45
50724,5501.3,164.55
50724,5751.3,413.55
51360,4001.3,1346.5
51360,4251.3,1094.5
51360,4501.3,843.45
51360,4751.3,594.45
51360,5001.3,346.45
51360,4251.3,1094.5
51360,4501.3,842.45
51360,4751.3,591.45
51360,5001.3,342.45
51360,5251.3,94.45
51360,4501.3,843.45
51360,4751.3,591.45
51360,5001.3,340.45
51360,5251.3,91.45
51360,5501.3,164.55
51360,4751.3,594.45
51360,5001.3,342.45
51360,5251.3,91.45
51360,5501.3,163.55
51360,5751.3,415.55
51360,5001.3,346.45
51360,5251.3,94.45
51360,5501.3,164.55
51360,5751.3,415.55
51360,6001.3,667.55
51360,4251.3,1095.5
51360,4501.3,843.45
51360,4751.3,592.45
51360,5001.3,343.45
51360,5251.3,95.45
51360,4501.3,843.45
51360,4751.3,591.45
51360,5001.3,340.45
51360,5251.3,91.45
51360,5501.3,164.55
51360,4751.3,592.45
51360,5001.3,340.45
51360,5251.3,89.45
51360,5501.3,161.55
51360,5751.3,413.55
51360,5001.3,343.45
51360,5251.3,91.45
51360,5501.3,161.55
51360,5751.3,412.55
51360,6001.3,664.55
51360,5251.3,95.45
51360,5501.3,164.55
51360,5751.3,413.55
51360,6001.3,664.55
51360,6251.3,916.55
51360,4501.3,846.45
51360,4751.3,594.45
51360,5001.3,343.45
51360,5251.3,94.45
51360,5501.3,167.55
51360,4751.3,594.45
51360,5001.3,342.45
51360,5251.3,91.45
51360,5501.3,163.55
51360,5751.3,415.55
51360,5001.3,343.45
51360,5251.3,91.45
51360,5501.3,161.55
51360,5751.3,412.55
51360,6001.3,664.55
51360,5251.3,94.45
51360,5501.3,163.55
51360,5751.3,412.55
51360,6001.3,663.55
51360,6251.3,915.55
51360,4751.3,598.45
51360,5001.3,346.45
51360,5251.3,95.45
51360,5501.3,167.55
51360,5751.3,419.55
51360,5001.3,346.45
51360,5251.3,94.45
51360,5501.3,164.55
51360,5751.3,415.55
51360,6001.3,667.55
51360,5251.3,95.45
51360,5501.3,164.55
51360,5751.3,413.55
51360,6001.3,664.55
51360,6251.3,916.55
51996,3501.3,1849.5
51996,3751.3,1597.5
51996,4001.3,1346.5
51996,4251.3,1097.5
51996,4501.3,849.45
51996,3751.3,1597.5
51996,4001.3,1345.5
51996,4251.3,1094.5
51996,4501.3,845.45
51996,4751.3,597.45
51996,4001.3,1346.5
51996,4251.3,1094.5
51996,4501.3,843.45
51996,4751.3,594.45
51996,5001.3,346.45
51996,4251.3,1097.5
51996,4501.3,845.45
51996,4751.3,594.45
51996,5001.3,345.45
51996,5251.3,97.45
51996,4501.3,849.45
51996,4751.3,597.45
51996,5001.3,346.45
51996,5251.3,97.45
51996,5501.3,170.55
51996,3751.3,1597.5
51996,4001.3,1345.5
51996,4251.3,1094.5
51996,4501.3,845.45
51996,4751.3,597.45
51996,4001.3,1345.5
51996,4251.3,1093.5
51996,4501.3,842.45
51996,4751.3,593.45
51996,5001.3,345.45
51996,4251.3,1094.5
51996,4501.3,842.45
51996,4751.3,591.45
51996,5001.3,342.45
51996,5251.3,94.45
51996,4501.3,845.45
51996,4751.3,593.45
51996,5001.3,342.45
51996,5251.3,93.45
51996,5501.3,166.55
51996,4751.3,597.45
51996,5001.3,345.45
51996,5251.3,94.45
51996,5501.3,166.55
51996,5751.3,418.55
51996,4001.3,1346.5
51996,4251.3,1094.5
51996,4501.3,843.45
51996,4751.3,594.45
51996,5001.3,346.45
51996,4251.3,1094.5
51996,4501.3,842.45
51996,4751.3,591.45
51996,5001.3,342.45
51996,5251.3,94.45
51996,4501.3,843.45
51996,4751.3,591.45
51996,5001.3,340.45
51996,5251.3,91.45
51996,5501.3,164.55
51996,4751.3,594.45
51996,5001.3,342.45
51996,5251.3,91.45
51996,5501.3,163.55
51996,5751.3,415.55
51996,5001.3,346.45
51996,5251.3,94.45
51996,5501.3,164.55
51996,5751.3,415.55
51996,4251.3,1097.5
51996,4501.3,845.45
51996,4751.3,594.45
51996,5001.3,345.45
51996,5251.3,97.45
51996,4501.3,845.45
51996,4751.3,593.45
51996,5001.3,342.45
51996,5251.3,93.45
51996,5501.3,166.55
51996,4751.3,594.45
51996,5001.3,342.45
51996,5251.3,91.45
51996,5501.3,163.55
51996,5751.3,415.55
51996,5001.3,345.45
51996,5251.3,93.45
51996,5501.3,163.55
51996,5751.3,414.55
51996,5251.3,97.45
51996,5501.3,166.55
51996,5751.3,415.55
51996,4501.3,849.45
51996,4751.3,597.45
51996,5001.3,346.45
51996,5251.3,97.45
51996,5501.3,170.55
51996,4751.3,597.45
51996,5001.3,345.45
51996,5251.3,94.45
51996,5501.3,166.55
51996,5751.3,418.55
51996,5001.3,346.45
51996,5251.3,94.45
51996,5501.3,164.55
51996,5751.3,415.55
51996,5251.3,97.45
51996,5501.3,166.55
51996,5751.3,415.55
51996,5501.3,170.55
51996,5751.3,418.55
51996,3751.3,1598.5
51996,4001.3,1346.5
51996,4251.3,1095.5
51996,4501.3,846.45
51996,4751.3,598.45
51996,4001.3,1346.5
51996,4251.3,1094.5
51996,4501.3,843.45
51996,4751.3,594.45
51996,5001.3,346.45
51996,4251.3,1095.5
51996,4501.3,843.45
51996,4751.3,592.45
51996,5001.3,343.45
51996,5251.3,95.45
51996,4501.3,846.45
51996,4751.3,594.45
51996,5001.3,343.45
51996,5251.3,94.45
51996,5501.3,167.55
51996,4751.3,598.45
51996,5001.3,346.45
51996,5251.3,95.45
51996,5501.3,167.55
51996,5751.3,419.55
51996,4001.3,1346.5
51996,4251.3,1094.5
51996,4501.3,843.45
51996,4751.3,594.45
51996,5001.3,346.45
51996,4251.3,1094.5
51996,4501.3,842.45
51996,4751.3,591.45
51996,5001.3,342.45
51996,5251.3,94.45
51996,4501.3,843.45
51996,4751.3,591.45
51996,5001.3,340.45
51996,5251.3,91.45
51996,5501.3,164.55
51996,4751.3,594.45
51996,5001.3,342.45
51996,5251.3,91.45
51996,5501.3,163.55
51996,5751.3,415.55
51996,5001.3,346.45
51996,5251.3,94.45
51996,5501.3,164.55
51996,5751.3,415.55
51996,4251.3,1095.5
51996,4501.3,843.45
51996,4751.3,592.45
51996,5001.3,343.45
51996,5251.3,95.45
51996,4501.3,843.45
51996,4751.3,591.45
51996,5001.3,340.45
51996,5251.3,91.45
51996,5501.3,164.55
51996,4751.3,592.45
51996,5001.3,340.45
51996,5251.3,89.45
51996,5501.3,161.55
51996,5751.3,413.55
51996,5001.3,343.45
51996,5251.3,91.45
51996,5501.3,161.55
51996,5751.3,412.55
51996,5251.3,95.45
51996,5501.3,164.55
51996,5751.3,413.55
51996,4501.3,846.45
51996,4751.3,594.45
51996,5001.3,343.45
51996,5251.3,94.45
51996,5501.3,167.55
51996,4751.3,594.45
51996,5001.3,342.45
51996,5251.3,91.45
51996,5501.3,163.55
51996,5751.3,415.55
51996,5001.3,343.45
51996,5251.3,91.45
51996,5501.3,161.55
51996,5751.3,412.55
51996,5251.3,94.45
51996,5501.3,163.55
51996,5751.3,412.55
51996,5501.3,167.55
51996,5751.3,415.55
51996,4751.3,598.45
51996,5001.3,346.45
51996,5251.3,95.45
51996,5501.3,167.55
51996,5751.3,419.55
51996,5001.3,346.45
51996,5251.3,94.45
51996,5501.3,164.55
51996,5751.3,415.55
51996,5251.3,95.45
51996,5501.3,164.55
51996,5751.3,413.55
51996,5501.3,167.55
51996,5751.3,415.55
51996,5751.3,419.55
51996,4001.3,1349.5
51996,4251.3,1097.5
51996,4501.3,846.45
51996,4751.3,597.45
51996,5001.3,349.45
51996,4251.3,1097.5
51996,4501.3,845.45
51996,4751.3,594.45
51996,5001.3,345.45
51996,5251.3,97.45
51996,4501.3,846.45
51996,4751.3,594.45
51996,5001.3,343.45
51996,5251.3,94.45
51996,5501.3,167.55
51996,4751.3,597.45
51996,5001.3,345.45
51996,5251.3,94.45
51996,5501.3,166.55
51996,5751.3,418.55
51996,5001.3,349.45
51996,5251.3,97.45
51996,5501.3,167.55
51996,5751.3,418.55
51996,4251.3,1097.5
51996,4501.3,845.45
51996,4751.3,594.45
51996,5001.3,345.45
51996,5251.3,97.45
51996,4501.3,845.45
51996,4751.3,593.45
51996,5001.3,342.45
51996,5251.3,93.45
51996,5501.3,166.55
51996,4751.3,594.45
51996,5001.3,342.45
51996,5251.3,91.45
51996,5501.3,163.55
51996,5751.3,415.55
51996,5001.3,345.45
51996,5251.3,93.45
51996,5501.3,163.55
51996,5751.3,414.55
51996,5251.3,97.45
51996,5501.3,166.55
51996,5751.3,415.55
51996,4501.3,846.45
51996,4751.3,594.45
51996,5001.3,343.45
51996,5251.3,94.45
51996,5501.3,167.55
51996,4751.3,594.45
51996,5001.3,342.45
51996,5251.3,91.45
51996,5501.3,163.55
51996,5751.3,415.55
51996,5001.3,343.45
51996,5251.3,91.45
51996,5501.3,161.55
51996,5751.3,412.55
51996,5251.3,94.45
51996,5501.3,163.55
51996,5751.3,412.55
51996,5501.3,167.55
51996,5751.3,415.55
51996,4751.3,597.45
51996,5001.3,345.45
51996,5251.3,94.45
51996,5501.3,166.55
51996,5751.3,418.55
51996,5001.3,345.45
51996,5251.3,93.45
51996,5501.3,163.55
51996,5751.3,414.55
51996,5251.3,94.45
51996,5501.3,163.55
51996,5751.3,412.55
51996,5501.3,166.55
51996,5751.3,414.55
51996,5751.3,418.55
51996,4251.3,1101.5
51996,4501.3,849.45
51996,4751.3,598.45
51996,5001.3,349.45
51996,5251.3,101.45
51996,4501.3,849.45
51996,4751.3,597.45
51996,5001.3,346.45
51996,5251.3,97.45
51996,5501.3,170.55
51996,4751.3,598.45
51996,5001.3,346.45
51996,5251.3,95.45
51996,5501.3,167.55
51996,5751.3,419.55
51996,5001.3,349.45
51996,5251.3,97.45
51996,5501.3,167.55
51996,5751.3,418.55
51996,5251.3,101.45
51996,5501.3,170.55
51996,5751.3,419.55
51996,4501.3,849.45
51996,4751.3,597.45
51996,5001.3,346.45
51996,5251.3,97.45
51996,5501.3,170.55
51996,4751.3,597.45
51996,5001.3,345.45
51996,5251.3,94.45
51996,5501.3,166.55
51996,5751.3,418.55
51996,5001.3,346.45
51996,5251.3,94.45
51996,5501.3,164.55
51996,5751.3,415.55
51996,5251.3,97.45
51996,5501.3,166.55
51996,5751.3,415.55
51996,5501.3,170.55
51996,5751.3,418.55
51996,4751.3,598.45
51996,5001.3,346.45
51996,5251.3,95.45
51996,5501.3,167.55
51996,5751.3,419.55
51996,5001.3,346.45
51996,5251.3,94.45
51996,5501.3,164.55
51996,5751.3,415.55
51996,5251.3,95.45
51996,5501.3,164.55
51996,5751.3,413.55
51996,5501.3,167.55
51996,5751.3,415.55
51996,5751.3,419.55
52633,3001.3,2352.5
52633,3251.3,2100.5
52633,3501.3,1849.5
52633,3751.3,1600.5
52633,4001.3,1352.5
52633,3251.3,2100.5
52633,3501.3,1848.5
52633,3751.3,1597.5
52633,4001.3,1348.5
52633,4251.3,1100.5
52633,3501.3,1849.5
52633,3751.3,1597.5
52633,4001.3,1346.5
52633,4251.3,1097.5
52633,4501.3,849.45
52633,3751.3,1600.5
52633,4001.3,1348.5
52633,4251.3,1097.5
52633,4501.3,848.45
52633,4751.3,600.45
52633,4001.3,1352.5
52633,4251.3,1100.5
52633,4501.3,849.45
52633,4751.3,600.45
52633,5001.3,352.45
52633,3251.3,2100.5
52633,3501.3,1848.5
52633,3751.3,1597.5
52633,4001.3,1348.5
52633,4251.3,1100.5
52633,3501.3,1848.5
52633,3751.3,1596.5
52633,4001.3,1345.5
52633,4251.3,1096.5
52633,4501.3,848.45
52633,3751.3,1597.5
52633,4001.3,1345.5
52633,4251.3,1094.5
52633,4501.3,845.45
52633,4751.3,597.45
52633,4001.3,1348.5
52633,4251.3,1096.5
52633,4501.3,845.45
52633,4751.3,596.45
52633,5001.3,348.45
52633,4251.3,1100.5
52633,4501.3,848.45
52633,4751.3,597.45
52633,5001.3,348.45
52633,3501.3,1849.5
52633,3751.3,1597.5
52633,4001.3,1346.5
52633,4251.3,1097.5
52633,4501.3,849.45
52633,3751.3,1597.5
52633,4001.3,1345.5
52633,4251.3,1094.5
52633,4501.3,845.45
52633,4751.3,597.45
52633,4001.3,1346.5
52633,4251.3,1094.5
52633,4501.3,843.45
52633,4751.3,594.45
52633,5001.3,346.45
52633,4251.3,1097.5
52633,4501.3,845.45
52633,4751.3,594.45
52633,5001.3,345.45
52633,4501.3,849.45
52633,4751.3,597.45
52633,5001.3,346.45
52633,3751.3,1600.5
52633,4001.3,1348.5
52633,4251.3,1097.5
52633,4501.3,848.45
52633,4751.3,600.45
52633,4001.3,1348.5
52633,4251.3,1096.5
52633,4501.3,845.45
52633,4751.3,596.45
52633,5001.3,348.45
52633,4251.3,1097.5
52633,4501.3,845.45
52633,4751.3,594.45
52633,5001.3,345.45
52633,4501.3,848.45
52633,4751.3,596.45
52633,5001.3,345.45
52633,4751.3,600.45
52633,5001.3,348.45
52633,4001.3,1352.5
52633,4251.3,1100.5
52633,4501.3,849.45
52633,4751.3,600.45
52633,5001.3,352.45
52633,4251.3,1100.5
52633,4501.3,848.45
52633,4751.3,597.45
52633,5001.3,348.45
52633,4501.3,849.45
52633,4751.3,597.45
52633,5001.3,346.45
52633,4751.3,600.45
52633,5001.3,348.45
52633,5001.3,352.45
52633,3251.3,2100.5
52633,3501.3,1848.5
52633,3751.3,1597.5
52633,4001.3,1348.5
52633,4251.3,1100.5
52633,3501.3,1848.5
52633,3751.3,1596.5
52633,4001.3,1345.5
52633,4251.3,1096.5
52633,4501.3,848.45
52633,3751.3,1597.5
52633,4001.3,1345.5
52633,4251.3,1094.5
52633,4501.3,845.45
52633,4751.3,597.45
52633,4001.3,1348.5
52633,4251.3,1096.5
52633,4501.3,845.45
52633,4751.3,596.45
52633,5001.3,348.45
52633,4251.3,1100.5
52633,4501.3,848.45
52633,4751.3,597.45
52633,5001.3,348.45
52633,3501.3,1848.5
52633,3751.3,1596.5
52633,4001.3,1345.5
52633,4251.3,1096.5
52633,4501.3,848.45
52633,3751.3,1596.5
52633,4001.3,1344.5
52633,4251.3,1093.5
52633,4501.3,844.45
52633,4751.3,596.45
52633,4001.3,1345.5
52633,4251.3,1093.5
52633,4501.3,842.45
52633,4751.3,593.45
52633,5001.3,345.45
52633,4251.3,1096.5
52633,4501.3,844.45
52633,4751.3,593.45
52633,5001.3,344.45
52633,4501.3,848.45
52633,4751.3,596.45
52633,5001.3,345.45
52633,3751.3,1597.5
52633,4001.3,1345.5
52633,4251.3,1094.5
52633,4501.3,845.45
52633,4751.3,597.45
52633,4001.3,1345.5
52633,4251.3,1093.5
52633,4501.3,842.45
52633,4751.3,593.45
52633,5001.3,345.45
52633,4251.3,1094.5
52633,4501.3,842.45
52633,4751.3,591.45
52633,5001.3,342.45
52633,4501.3,845.45
52633,4751.3,593.45
52633,5001.3,342.45
52633,4751.3,597.45
52633,5001.3,345.45
52633,4001.3,1348.5
52633,4251.3,1096.5
52633,4501.3,845.45
52633,4751.3,596.45
52633,5001.3,348.45
52633,4251.3,1096.5
52633,4501.3,844.45
52633,4751.3,593.45
52633,5001.3,344.45
52633,4501.3,845.45
52633,4751.3,593.45
52633,5001.3,342.45
52633,4751.3,596.45
52633,5001.3,344.45
52633,5001.3,348.45
52633,4251.3,1100.5
52633,4501.3,848.45
52633,4751.3,597.45
52633,5001.3,348.45
52633,4501.3,848.45
52633,4751.3,596.45
52633,5001.3,345.45
52633,4751.3,597.45
52633,5001.3,345.45
52633,5001.3,348.45
52633,3501.3,1849.5
52633,3751.3,1597.5
52633,4001.3,1346.5
52633,4251.3,1097.5
52633,4501.3,849.45
52633,3751.3,1597.5
52633,4001.3,1345.5
52633,4251.3,1094.5
52633,4501.3,845.45
52633,4751.3,597.45
52633,4001.3,1346.5
52633,4251.3,1094.5
52633,4501.3,843.45
52633,4751.3,594.45
52633,5001.3,346.45
52633,4251.3,1097.5
52633,4501.3,845.45
52633,4751.3,594.45
52633,5001.3,345.45
52633,4501.3,849.45
52633,4751.3,597.45
52633,5001.3,346.45
52633,3751.3,1597.5
52633,4001.3,1345.5
52633,4251.3,1094.5
52633,4501.3,845.45
52633,4751.3,597.45
52633,4001.3,1345.5
52633,4251.3,1093.5
52633,4501.3,842.45
52633,4751.3,593.45
52633,5001.3,345.45
52633,4251.3,1094.5
52633,4501.3,842.45
52633,4751.3,591.45
52633,5001.3,342.45
52633,4501.3,845.45
52633,4751.3,593.45
52633,5001.3,342.45
52633,4751.3,597.45
52633,5001.3,345.45
52633,4001.3,1346.5
52633,4251.3,1094.5
52633,4501.3,843.45
52633,4751.3,594.45
52633,5001.3,346.45
52633,4251.3,1094.5
52633,4501.3,842.45
52633,4751.3,591.45
52633,5001.3,342.45
52633,4501.3,843.45
52633,4751.3,591.45
52633,5001.3,340.45
52633,4751.3,594.45
52633,5001.3,342.45
52633,5001.3,346.45
52633,4251.3,1097.5
52633,4501.3,845.45
52633,4751.3,594.45
52633,5001.3,345.45
52633,4501.3,845.45
52633,4751.3,593.45
52633,5001.3,342.45
52633,4751.3,594.45
52633,5001.3,342.45
52633,5001.3,345.45
52633,4501.3,849.45
52633,4751.3,597.45
52633,5001.3,346.45
52633,4751.3,597.45
52633,5001.3,345.45
52633,5001.3,346.45
52633,3751.3,1600.5
52633,4001.3,1348.5
52633,4251.3,1097.5
52633,4501.3,848.45
52633,4751.3,600.45
52633,4001.3,1348.5
52633,4251.3,1096.5
52633,4501.3,845.45
52633,4751.3,596.45
52633,5001.3,348.45
52633,4251.3,1097.5
52633,4501.3,845.45
52633,4751.3,594.45
52633,5001.3,345.45
52633,4501.3,848.45
52633,4751.3,596.45
52633,5001.3,345.45
52633,4751.3,600.45
52633,5001.3,348.45
52633,4001.3,1348.5
52633,4251.3,1096.5
52633,4501.3,845.45
52633,4751.3,596.45
52633,5001.3,348.45
52633,4251.3,1096.5
52633,4501.3,844.45
52633,4751.3,593.45
52633,5001.3,344.45
52633,4501.3,845.45
52633,4751.3,593.45
52633,5001.3,342.45
52633,4751.3,596.45
52633,5001.3,344.45
52633,5001.3,348.45
52633,4251.3,1097.5
52633,4501.3,845.45
52633,4751.3,594.45
52633,5001.3,345.45
52633,4501.3,845.45
52633,4751.3,593.45
52633,5001.3,342.45
52633,4751.3,594.45
52633,5001.3,342.45
52633,5001.3,345.45
52633,4501.3,848.45
52633,4751.3,596.45
52633,5001.3,345.45
52633,4751.3,596.45
52633,5001.3,344.45
52633,5001.3,345.45
52633,4751.3,600.45
52633,5001.3,348.45
52633,5001.3,348.45
52633,4001.3,1352.5
52633,4251.3,1100.5
52633,4501.3,849.45
52633,4751.3,600.45
52633,5001.3,352.45
52633,4251.3,1100.5
52633,4501.3,848.45
52633,4751.3,597.45
52633,5001.3,348.45
52633,4501.3,849.45
52633,4751.3,597.45
52633,5001.3,346.45
52633,4751.3,600.45
52633,5001.3,348.45
52633,5001.3,352.45
52633,4251.3,1100.5
52633,4501.3,848.45
52633,4751.3,597.45
52633,5001.3,348.45
52633,4501.3,848.45
52633,4751.3,596.45
52633,5001.3,345.45
52633,4751.3,597.45
52633,5001.3,345.45
52633,5001.3,348.45
52633,4501.3,849.45
52633,4751.3,597.45
52633,5001.3,346.45
52633,4751.3,597.45
52633,5001.3,345.45
52633,5001.3,346.45
52633,4751.3,600.45
52633,5001.3,348.45
52633,5001.3,348.45
52633,5001.3,352.45
52633,3251.3,2101.5
52633,3501.3,1849.5
52633,3751.3,1598.5
52633,4001.3,1349.5
52633,4251.3,1101.5
52633,3501.3,1849.5
52633,3751.3,1597.5
52633,4001.3,1346.5
52633,4251.3,1097.5
52633,4501.3,849.45
52633,3751.3,1598.5
52633,4001.3,1346.5
52633,4251.3,1095.5
52633,4501.3,846.45
52633,4751.3,598.45
52633,4001.3,1349.5
52633,4251.3,1097.5
52633,4501.3,846.45
52633,4751.3,597.45
52633,5001.3,349.45
52633,4251.3,1101.5
52633,4501.3,849.45
52633,4751.3,598.45
52633,5001.3,349.45
52633,3501.3,1849.5
52633,3751.3,1597.5
52633,4001.3,1346.5
52633,4251.3,1097.5
52633,4501.3,849.45
52633,3751.3,1597.5
52633,4001.3,1345.5
52633,4251.3,1094.5
52633,4501.3,845.45
52633,4751.3,597.45
52633,4001.3,1346.5
52633,4251.3,1094.5
52633,4501.3,843.45
52633,4751.3,594.45
52633,5001.3,346.45
52633,4251.3,1097.5
52633,4501.3,845.45
52633,4751.3,594.45
52633,5001.3,345.45
52633,4501.3,849.45
52633,4751.3,597.45
52633,5001.3,346.45
52633,3751.3,1598.5
52633,4001.3,1346.5
52633,4251.3,1095.5
52633,4501.3,846.45
52633,4751.3,598.45
52633,4001.3,1346.5
52633,4251.3,1094.5
52633,4501.3,843.45
52633,4751.3,594.45
52633,5001.3,346.45
52633,4251.3,1095.5
52633,4501.3,843.45
52633,4751.3,592.45
52633,5001.3,343.45
52633,4501.3,846.45
52633,4751.3,594.45
52633,5001.3,343.45
52633,4751.3,598.45
52633,5001.3,346.45
52633,4001.3,1349.5
52633,4251.3,1097.5
52633,4501.3,846.45
52633,4751.3,597.45
52633,5001.3,349.45
52633,4251.3,1097.5
52633,4501.3,845.45
52633,4751.3,594.45
52633,5001.3,345.45
52633,4501.3,846.45
52633,4751.3,594.45
52633,5001.3,343.45
52633,4751.3,597.45
52633,5001.3,345.45
52633,5001.3,349.45
52633,4251.3,1101.5
52633,4501.3,849.45
52633,4751.3,598.45
52633,5001.3,349.45
52633,4501.3,849.45
52633,4751.3,597.45
52633,5001.3,346.45
52633,4751.3,598.45
52633,5001.3,346.45
52633,5001.3,349.45
52633,3501.3,1849.5
52633,3751.3,1597.5
52633,4001.3,1346.5
52633,4251.3,1097.5
52633,4501.3,849.45
52633,3751.3,1597.5
52633,4001.3,1345.5
52633,4251.3,1094.5
52633,4501.3,845.45
52633,4751.3,597.45
52633,4001.3,1346.5
52633,4251.3,1094.5
52633,4501.3,843.45
52633,4751.3,594.45
52633,5001.3,346.45
52633,4251.3,1097.5
52633,4501.3,845.45
52633,4751.3,594.45
52633,5001.3,345.45
52633,4501.3,849.45
52633,4751.3,597.45
52633,5001.3,346.45
52633,3751.3,1597.5
52633,4001.3,1345.5
52633,4251.3,1094.5
52633,4501.3,845.45
52633,4751.3,597.45
52633,4001.3,1345.5
52633,4251.3,1093.5
52633,4501.3,842.45
52633,4751.3,593.45
52633,5001.3,345.45
52633,4251.3,1094.5
52633,4501.3,842.45
52633,4751.3,591.45
52633,5001.3,342.45
52633,4501.3,845.45
52633,4751.3,593.45
52633,5001.3,342.45
52633,4751.3,597.45
52633,5001.3,345.45
52633,4001.3,1346.5
52633,4251.3,1094.5
52633,4501.3,843.45
52633,4751.3,594.45
52633,5001.3,346.45
52633,4251.3,1094.5
52633,4501.3,842.45
52633,4751.3,591.45
52633,5001.3,342.45
52633,4501.3,843.45
52633,4751.3,591.45
52633,5001.3,340.45
52633,4751.3,594.45
52633,5001.3,342.45
52633,5001.3,346.45
52633,4251.3,1097.5
52633,4501.3,845.45
52633,4751.3,594.45
52633,5001.3,345.45
52633,4501.3,845.45
52633,4751.3,593.45
52633,5001.3,342.45
52633,4751.3,594.45
52633,5001.3,342.45
52633,5001.3,345.45
52633,4501.3,849.45
52633,4751.3,597.45
52633,5001.3,346.45
52633,4751.3,597.45
52633,5001.3,345.45
52633,5001.3,346.45
52633,3751.3,1598.5
52633,4001.3,1346.5
52633,4251.3,1095.5
52633,4501.3,846.45
52633,4751.3,598.45
52633,4001.3,1346.5
52633,4251.3,1094.5
52633,4501.3,843.45
52633,4751.3,594.45
52633,5001.3,346.45
52633,4251.3,1095.5
52633,4501.3,843.45
52633,4751.3,592.45
52633,5001.3,343.45
52633,4501.3,846.45
52633,4751.3,594.45
52633,5001.3,343.45
52633,4751.3,598.45
52633,5001.3,346.45
52633,4001.3,1346.5
52633,4251.3,1094.5
52633,4501.3,843.45
52633,4751.3,594.45
52633,5001.3,346.45
52633,4251.3,1094.5
52633,4501.3,842.45
52633,4751.3,591.45
52633,5001.3,342.45
52633,4501.3,843.45
52633,4751.3,591.45
52633,5001.3,340.45
52633,4751.3,594.45
52633,5001.3,342.45
52633,5001.3,346.45
52633,4251.3,1095.5
52633,4501.3,843.45
52633,4751.3,592.45
52633,5001.3,343.45
52633,4501.3,843.45
52633,4751.3,591.45
52633,5001.3,340.45
52633,4751.3,592.45
52633,5001.3,340.45
52633,5001.3,343.45
52633,4501.3,846.45
52633,4751.3,594.45
52633,5001.3,343.45
52633,4751.3,594.45
52633,5001.3,342.45
52633,5001.3,343.45
52633,4751.3,598.45
52633,5001.3,346.45
52633,5001.3,346.45
52633,4001.3,1349.5
52633,4251.3,1097.5
52633,4501.3,846.45
52633,4751.3,597.45
52633,5001.3,349.45
52633,4251.3,1097.5
52633,4501.3,845.45
52633,4751.3,594.45
52633,5001.3,345.45
52633,4501.3,846.45
52633,4751.3,594.45
52633,5001.3,343.45
52633,4751.3,597.45
52633,5001.3,345.45
52633,5001.3,349.45
52633,4251.3,1097.5
52633,4501.3,845.45
52633,4751.3,594.45
52633,5001.3,345.45
52633,4501.3,845.45
52633,4751.3,593.45
52633,5001.3,342.45
52633,4751.3,594.45
52633,5001.3,342.45
52633,5001.3,345.45
52633,4501.3,846.45
52633,4751.3,594.45
52633,5001.3,343.45
52633,4751.3,594.45
52633,5001.3,342.45
52633,5001.3,343.45
52633,4751.3,597.45
52633,5001.3,345.45
52633,5001.3,345.45
52633,5001.3,349.45
52633,4251.3,1101.5
52633,4501.3,849.45
52633,4751.3,598.45
52633,5001.3,349.45
52633,4501.3,849.45
52633,4751.3,597.45
52633,5001.3,346.45
52633,4751.3,598.45
52633,5001.3,346.45
52633,5001.3,349.45
52633,4501.3,849.45
52633,4751.3,597.45
52633,5001.3,346.45
52633,4751.3,597.45
52633,5001.3,345.45
52633,5001.3,346.45
52633,4751.3,598.45
52633,5001.3,346.45
52633,5001.3,346.45
52633,5001.3,349.45
52633,3501.3,1852.5
52633,3751.3,1600.5
52633,4001.3,1349.5
52633,4251.3,1100.5
52633,4501.3,852.45
52633,3751.3,1600.5
52633,4001.3,1348.5
52633,4251.3,1097.5
52633,4501.3,848.45
52633,4751.3,600.45
52633,4001.3,1349.5
52633,4251.3,1097.5
52633,4501.3,846.45
52633,4751.3,597.45
52633,5001.3,349.45
52633,4251.3,1100.5
52633,4501.3,848.45
52633,4751.3,597.45
52633,5001.3,348.45
52633,4501.3,852.45
52633,4751.3,600.45
52633,5001.3,349.45
52633,3751.3,1600.5
52633,4001.3,1348.5
52633,4251.3,1097.5
52633,4501.3,848.45
52633,4751.3,600.45
52633,4001.3,1348.5
52633,4251.3,1096.5
52633,4501.3,845.45
52633,4751.3,596.45
52633,5001.3,348.45
52633,4251.3,1097.5
52633,4501.3,845.45
52633,4751.3,594.45
52633,5001.3,345.45
52633,4501.3,848.45
52633,4751.3,596.45
52633,5001.3,345.45
52633,4751.3,600.45
52633,5001.3,348.45
52633,4001.3,1349.5
52633,4251.3,1097.5
52633,4501.3,846.45
52633,4751.3,597.45
52633,5001.3,349.45
52633,4251.3,1097.5
52633,4501.3,845.45
52633,4751.3,594.45
52633,5001.3,345.45
52633,4501.3,846.45
52633,4751.3,594.45
52633,5001.3,343.45
52633,4751.3,597.45
52633,5001.3,345.45
52633,5001.3,349.45
52633,4251.3,1100.5
52633,4501.3,848.45
52633,4751.3,597.45
52633,5001.3,348.45
52633,4501.3,848.45
52633,4751.3,596.45
52633,5001.3,345.45
52633,4751.3,597.45
52633,5001.3,345.45
52633,5001.3,348.45
52633,4501.3,852.45
52633,4751.3,600.45
52633,5001.3,349.45
52633,4751.3,600.45
52633,5001.3,348.45
52633,5001.3,349.45
52633,3751.3,1600.5
52633,4001.3,1348.5
52633,4251.3,1097.5
52633,4501.3,848.45
52633,4751.3,600.45
52633,4001.3,1348.5
52633,4251.3,1096.5
52633,4501.3,845.45
52633,4751.3,596.45
52633,5001.3,348.45
52633,4251.3,1097.5
52633,4501.3,845.45
52633,4751.3,594.45
52633,5001.3,345.45
52633,4501.3,848.45
52633,4751.3,596.45
52633,5001.3,345.45
52633,4751.3,600.45
52633,5001.3,348.45
52633,4001.3,1348.5
52633,4251.3,1096.5
52633,4501.3,845.45
52633,4751.3,596.45
52633,5001.3,348.45
52633,4251.3,1096.5
52633,4501.3,844.45
52633,4751.3,593.45
52633,5001.3,344.45
52633,4501.3,845.45
52633,4751.3,593.45
52633,5001.3,342.45
52633,4751.3,596.45
52633,5001.3,344.45
52633,5001.3,348.45
52633,4251.3,1097.5
52633,4501.3,845.45
52633,4751.3,594.45
52633,5001.3,345.45
52633,4501.3,845.45
52633,4751.3,593.45
52633,5001.3,342.45
52633,4751.3,594.45
52633,5001.3,342.45
52633,5001.3,345.45
52633,4501.3,848.45
52633,4751.3,596.45
52633,5001.3,345.45
52633,4751.3,596.45
52633,5001.3,344.45
52633,5001.3,345.45
52633,4751.3,600.45
52633,5001.3,348.45
52633,5001.3,348.45
52633,4001.3,1349.5
52633,4251.3,1097.5
52633,4501.3,846.45
52633,4751.3,597.45
52633,5001.3,349.45
52633,4251.3,1097.5
52633,4501.3,845.45
52633,4751.3,594.45
52633,5001.3,345.45
52633,4501.3,846.45
52633,4751.3,594.45
52633,5001.3,343.45
52633,4751.3,597.45
52633,5001.3,345.45
52633,5001.3,349.45
52633,4251.3,1097.5
52633,4501.3,845.45
52633,4751.3,594.45
52633,5001.3,345.45
52633,4501.3,845.45
52633,4751.3,593.45
52633,5001.3,342.45
52633,4751.3,594.45
52633,5001.3,342.45
52633,5001.3,345.45
52633,4501.3,846.45
52633,4751.3,594.45
52633,5001.3,343.45
52633,4751.3,594.45
52633,5001.3,342.45
52633,5001.3,343.45
52633,4751.3,597.45
52633,5001.3,345.45
52633,5001.3,345.45
52633,5001.3,349.45
52633,4251.3,1100.5
52633,4501.3,848.45
52633,4751.3,597.45
52633,5001.3,348.45
52633,4501.3,848.45
52633,4751.3,596.45
52633,5001.3,345.45
52633,4751.3,597.45
52633,5001.3,345.45
52633,5001.3,348.45
52633,4501.3,848.45
52633,4751.3,596.45
52633,5001.3,345.45
52633,4751.3,596.45
52633,5001.3,344.45
52633,5001.3,345.45
52633,4751.3,597.45
52633,5001.3,345.45
52633,5001.3,345.45
52633,5001.3,348.45
52633,3751.3,1604.5
52633,4001.3,1352.5
52633,4251.3,1101.5
52633,4501.3,852.45
52633,4751.3,604.45
52633,4001.3,1352.5
52633,4251.3,1100.5
52633,4501.3,849.45
52633,4751.3,600.45
52633,5001.3,352.45
52633,4251.3,1101.5
52633,4501.3,849.45
52633,4751.3,598.45
52633,5001.3,349.45
52633,4501.3,852.45
52633,4751.3,600.45
52633,5001.3,349.45
52633,4751.3,604.45
52633,5001.3,352.45
52633,4001.3,1352.5
52633,4251.3,1100.5
52633,4501.3,849.45
52633,4751.3,600.45
52633,5001.3,352.45
52633,4251.3,1100.5
52633,4501.3,848.45
52633,4751.3,597.45
52633,5001.3,348.45
52633,4501.3,849.45
52633,4751.3,597.45
52633,5001.3,346.45
52633,4751.3,600.45
52633,5001.3,348.45
52633,5001.3,352.45
52633,4251.3,1101.5
52633,4501.3,849.45
52633,4751.3,598.45
52633,5001.3,349.45
52633,4501.3,849.45
52633,4751.3,597.45
52633,5001.3,346.45
52633,4751.3,598.45
52633,5001.3,346.45
52633,5001.3,349.45
52633,4501.3,852.45
52633,4751.3,600.45
52633,5001.3,349.45
52633,4751.3,600.45
52633,5001.3,348.45
52633,5001.3,349.45
52633,4751.3,604.45
52633,5001.3,352.45
52633,5001.3,352.45
52633,4001.3,1352.5
52633,4251.3,1100.5
52633,4501.3,849.45
52633,4751.3,600.45
52633,5001.3,352.45
52633,4251.3,1100.5
52633,4501.3,848.45
52633,4751.3,597.45
52633,5001.3,348.45
52633,4501.3,849.45
52633,4751.3,597.45
52633,5001.3,346.45
52633,4751.3,600.45
52633,5001.3,348.45
52633,5001.3,352.45
52633,4251.3,1100.5
52633,4501.3,848.45
52633,4751.3,597.45
52633,5001.3,348.45
52633,4501.3,848.45
52633,4751.3,596.45
52633,5001.3,345.45
52633,4751.3,597.45
52633,5001.3,345.45
52633,5001.3,348.45
52633,4501.3,849.45
52633,4751.3,597.45
52633,5001.3,346.45
52633,4751.3,597.45
52633,5001.3,345.45
52633,5001.3,346.45
52633,4751.3,600.45
52633,5001.3,348.45
52633,5001.3,348.45
52633,5001.3,352.45
52633,4251.3,1101.5
52633,4501.3,849.45
52633,4751.3,598.45
52633,5001.3,349.45
52633,4501.3,849.45
52633,4751.3,597.45
52633,5001.3,346.45
52633,4751.3,598.45
52633,5001.3,346.45
52633,5001.3,349.45
52633,4501.3,849.45
52633,4751.3,597.45
52633,5001.3,346.45
52633,4751.3,597.45
52633,5001.3,345.45
52633,5001.3,346.45
52633,4751.3,598.45
52633,5001.3,346.45
52633,5001.3,346.45
52633,5001.3,349.45
53269,2501.3,2855.5
53269,2751.3,2603.5
53269,3001.3,2352.5
53269,3251.3,2103.5
53269,3501.3,1855.5
53269,2751.3,2603.5
53269,3001.3,2351.5
53269,3251.3,2100.5
53269,3501.3,1851.5
53269,3751.3,1603.5
53269,3001.3,2352.5
53269,3251.3,2100.5
53269,3501.3,1849.5
53269,3751.3,1600.5
53269,4001.3,1352.5
53269,3251.3,2103.5
53269,3501.3,1851.5
53269,3751.3,1600.5
53269,4001.3,1351.5
53269,4251.3,1103.5
53269,3501.3,1855.5
53269,3751.3,1603.5
53269,4001.3,1352.5
53269,4251.3,1103.5
53269,4501.3,855.45
53269,2751.3,2603.5
53269,3001.3,2351.5
53269,3251.3,2100.5
53269,3501.3,1851.5
53269,3751.3,1603.5
53269,3001.3,2351.5
53269,3251.3,2099.5
53269,3501.3,1848.5
53269,3751.3,1599.5
53269,4001.3,1351.5
53269,3251.3,2100.5
53269,3501.3,1848.5
53269,3751.3,1597.5
53269,4001.3,1348.5
53269,4251.3,1100.5
53269,3501.3,1851.5
53269,3751.3,1599.5
53269,4001.3,1348.5
53269,4251.3,1099.5
53269,4501.3,851.45
53269,3751.3,1603.5
53269,4001.3,1351.5
53269,4251.3,1100.5
53269,4501.3,851.45
53269,3001.3,2352.5
53269,3251.3,2100.5
53269,3501.3,1849.5
53269,3751.3,1600.5
53269,4001.3,1352.5
53269,3251.3,2100.5
53269,3501.3,1848.5
53269,3751.3,1597.5
53269,4001.3,1348.5
53269,4251.3,1100.5
53269,3501.3,1849.5
53269,3751.3,1597.5
53269,4001.3,1346.5
53269,4251.3,1097.5
53269,4501.3,849.45
53269,3751.3,1600.5
53269,4001.3,1348.5
53269,4251.3,1097.5
53269,4501.3,848.45
53269,4001.3,1352.5
53269,4251.3,1100.5
53269,4501.3,849.45
53269,3251.3,2103.5
53269,3501.3,1851.5
53269,3751.3,1600.5
53269,4001.3,1351.5
53269,4251.3,1103.5
53269,3501.3,1851.5
53269,3751.3,1599.5
53269,4001.3,1348.5
53269,4251.3,1099.5
53269,4501.3,851.45
53269,3751.3,1600.5
53269,4001.3,1348.5
53269,4251.3,1097.5
53269,4501.3,848.45
53269,4001.3,1351.5
53269,4251.3,1099.5
53269,4501.3,848.45
53269,4251.3,1103.5
53269,4501.3,851.45
53269,3501.3,1855.5
53269,3751.3,1603.5
53269,4001.3,1352.5
53269,4251.3,1103.5
53269,4501.3,855.45
53269,3751.3,1603.5
53269,4001.3,1351.5
53269,4251.3,1100.5
53269,4501.3,851.45
53269,4001.3,1352.5
53269,4251.3,1100.5
53269,4501.3,849.45
53269,4251.3,1103.5
53269,4501.3,851.45
53269,4501.3,855.45
53269,2751.3,2603.5
53269,3001.3,2351.5
53269,3251.3,2100.5
53269,3501.3,1851.5
53269,3751.3,1603.5
53269,3001.3,2351.5
53269,3251.3,2099.5
53269,3501.3,1848.5
53269,3751.3,1599.5
53269,4001.3,1351.5
53269,3251.3,2100.5
53269,3501.3,1848.5
53269,3751.3,1597.5
53269,4001.3,1348.5
53269,4251.3,1100.5
53269,3501.3,1851.5
53269,3751.3,1599.5
53269,4001.3,1348.5
53269,4251.3,1099.5
53269,4501.3,851.45
53269,3751.3,1603.5
53269,4001.3,1351.5
53269,4251.3,1100.5
53269,4501.3,851.45
53269,3001.3,2351.5
53269,3251.3,2099.5
53269,3501.3,1848.5
53269,3751.3,1599.5
53269,4001.3,1351.5
53269,3251.3,2099.5
53269,3501.3,1847.5
53269,3751.3,1596.5
53269,4001.3,1347.5
53269,4251.3,1099.5
53269,3501.3,1848.5
53269,3751.3,1596.5
53269,4001.3,1345.5
53269,4251.3,1096.5
53269,4501.3,848.45
53269,3751.3,1599.5
53269,4001.3,1347.5
53269,4251.3,1096.5
53269,4501.3,847.45
53269,4001.3,1351.5
53269,4251.3,1099.5
53269,4501.3,848.45
53269,3251.3,2100.5
53269,3501.3,1848.5
53269,3751.3,1597.5
53269,4001.3,1348.5
53269,4251.3,1100.5
53269,3501.3,1848.5
53269,3751.3,1596.5
53269,4001.3,1345.5
53269,4251.3,1096.5
53269,4501.3,848.45
53269,3751.3,1597.5
53269,4001.3,1345.5
53269,4251.3,1094.5
53269,4501.3,845.45
53269,4001.3,1348.5
53269,4251.3,1096.5
53269,4501.3,845.45
53269,4251.3,1100.5
53269,4501.3,848.45
53269,3501.3,1851.5
53269,3751.3,1599.5
53269,4001.3,1348.5
53269,4251.3,1099.5
53269,4501.3,851.45
53269,3751.3,1599.5
53269,4001.3,1347.5
53269,4251.3,1096.5
53269,4501.3,847.45
53269,4001.3,1348.5
53269,4251.3,1096.5
53269,4501.3,845.45
53269,4251.3,1099.5
53269,4501.3,847.45
53269,4501.3,851.45
53269,3751.3,1603.5
53269,4001.3,1351.5
53269,4251.3,1100.5
53269,4501.3,851.45
53269,4001.3,1351.5
53269,4251.3,1099.5
53269,4501.3,848.45
53269,4251.3,1100.5
53269,4501.3,848.45
53269,4501.3,851.45
53269,3001.3,2352.5
53269,3251.3,2100.5
53269,3501.3,1849.5
53269,3751.3,1600.5
53269,4001.3,1352.5
53269,3251.3,2100.5
53269,3501.3,1848.5
53269,3751.3,1597.5
53269,4001.3,1348.5
53269,4251.3,1100.5
53269,3501.3,1849.5
53269,3751.3,1597.5
53269,4001.3,1346.5
53269,4251.3,1097.5
53269,4501.3,849.45
53269,3751.3,1600.5
53269,4001.3,1348.5
53269,4251.3,1097.5
53269,4501.3,848.45
53269,4001.3,1352.5
53269,4251.3,1100.5
53269,4501.3,849.45
53269,3251.3,2100.5
53269,3501.3,1848.5
53269,3751.3,1597.5
53269,4001.3,1348.5
53269,4251.3,1100.5
53269,3501.3,1848.5
53269,3751.3,1596.5
53269,4001.3,1345.5
53269,4251.3,1096.5
53269,4501.3,848.45
53269,3751.3,1597.5
53269,4001.3,1345.5
53269,4251.3,1094.5
53269,4501.3,845.45
53269,4001.3,1348.5
53269,4251.3,1096.5
53269,4501.3,845.45
53269,4251.3,1100.5
53269,4501.3,848.45
53269,3501.3,1849.5
53269,3751.3,1597.5
53269,4001.3,1346.5
53269,4251.3,1097.5
53269,4501.3,849.45
53269,3751.3,1597.5
53269,4001.3,1345.5
53269,4251.3,1094.5
53269,4501.3,845.45
53269,4001.3,1346.5
53269,4251.3,1094.5
53269,4501.3,843.45
53269,4251.3,1097.5
53269,4501.3,845.45
53269,4501.3,849.45
53269,3751.3,1600.5
53269,4001.3,1348.5
53269,4251.3,1097.5
53269,4501.3,848.45
53269,4001.3,1348.5
53269,4251.3,1096.5
53269,4501.3,845.45
53269,4251.3,1097.5
53269,4501.3,845.45
53269,4501.3,848.45
53269,4001.3,1352.5
53269,4251.3,1100.5
53269,4501.3,849.45
53269,4251.3,1100.5
53269,4501.3,848.45
53269,4501.3,849.45
53269,3251.3,2103.5
53269,3501.3,1851.5
53269,3751.3,1600.5
53269,4001.3,1351.5
53269,4251.3,1103.5
53269,3501.3,1851.5
53269,3751.3,1599.5
53269,4001.3,1348.5
53269,4251.3,1099.5
53269,4501.3,851.45
53269,3751.3,1600.5
53269,4001.3,1348.5
53269,4251.3,1097.5
53269,4501.3,848.45
53269,4001.3,1351.5
53269,4251.3,1099.5
53269,4501.3,848.45
53269,4251.3,1103.5
53269,4501.3,851.45
53269,3501.3,1851.5
53269,3751.3,1599.5
53269,4001.3,1348.5
53269,4251.3,1099.5
53269,4501.3,851.45
53269,3751.3,1599.5
53269,4001.3,1347.5
53269,4251.3,1096.5
53269,4501.3,847.45
53269,4001.3,1348.5
53269,4251.3,1096.5
53269,4501.3,845.45
53269,4251.3,1099.5
53269,4501.3,847.45
53269,4501.3,851.45
53269,3751.3,1600.5
53269,4001.3,1348.5
53269,4251.3,1097.5
53269,4501.3,848.45
53269,4001.3,1348.5
53269,4251.3,1096.5
53269,4501.3,845.45
53269,4251.3,1097.5
53269,4501.3,845.45
53269,4501.3,848.45
53269,4001.3,1351.5
53269,4251.3,1099.5
53269,4501.3,848.45
53269,4251.3,1099.5
53269,4501.3,847.45
53269,4501.3,848.45
53269,4251.3,1103.5
53269,4501.3,851.45
53269,4501.3,851.45
53269,3501.3,1855.5
53269,3751.3,1603.5
53269,4001.3,1352.5
53269,4251.3,1103.5
53269,4501.3,855.45
53269,3751.3,1603.5
53269,4001.3,1351.5
53269,4251.3,1100.5
53269,4501.3,851.45
53269,4001.3,1352.5
53269,4251.3,1100.5
53269,4501.3,849.45
53269,4251.3,1103.5
53269,4501.3,851.45
53269,4501.3,855.45
53269,3751.3,1603.5
53269,4001.3,1351.5
53269,4251.3,1100.5
53269,4501.3,851.45
53269,4001.3,1351.5
53269,4251.3,1099.5
53269,4501.3,848.45
53269,4251.3,1100.5
53269,4501.3,848.45
53269,4501.3,851.45
53269,4001.3,1352.5
53269,4251.3,1100.5
53269,4501.3,849.45
53269,4251.3,1100.5
53269,4501.3,848.45
53269,4501.3,849.45
53269,4251.3,1103.5
53269,4501.3,851.45
53269,4501.3,851.45
53269,4501.3,855.45
53269,2751.3,2603.5
53269,3001.3,2351.5
53269,3251.3,2100.5
53269,3501.3,1851.5
53269,3751.3,1603.5
53269,3001.3,2351.5
53269,3251.3,2099.5
53269,3501.3,1848.5
53269,3751.3,1599.5
53269,4001.3,1351.5
53269,3251.3,2100.5
53269,3501.3,1848.5
53269,3751.3,1597.5
53269,4001.3,1348.5
53269,4251.3,1100.5
53269,3501.3,1851.5
53269,3751.3,1599.5
53269,4001.3,1348.5
53269,4251.3,1099.5
53269,4501.3,851.45
53269,3751.3,1603.5
53269,4001.3,1351.5
53269,4251.3,1100.5
53269,4501.3,851.45
53269,3001.3,2351.5
53269,3251.3,2099.5
53269,3501.3,1848.5
53269,3751.3,1599.5
53269,4001.3,1351.5
53269,3251.3,2099.5
53269,3501.3,1847.5
53269,3751.3,1596.5
53269,4001.3,1347.5
53269,4251.3,1099.5
53269,3501.3,1848.5
53269,3751.3,1596.5
53269,4001.3,1345.5
53269,4251.3,1096.5
53269,4501.3,848.45
53269,3751.3,1599.5
53269,4001.3,1347.5
53269,4251.3,1096.5
53269,4501.3,847.45
53269,4001.3,1351.5
53269,4251.3,1099.5
53269,4501.3,848.45
53269,3251.3,2100.5
53269,3501.3,1848.5
53269,3751.3,1597.5
53269,4001.3,1348.5
53269,4251.3,1100.5
53269,3501.3,1848.5
53269,3751.3,1596.5
53269,4001.3,1345.5
53269,4251.3,1096.5
53269,4501.3,848.45
53269,3751.3,1597.5
53269,4001.3,1345.5
53269,4251.3,1094.5
53269,4501.3,845.45
53269,4001.3,1348.5
53269,4251.3,1096.5
53269,4501.3,845.45
53269,4251.3,1100.5
53269,4501.3,848.45
53269,3501.3,1851.5
53269,3751.3,1599.5
53269,4001.3,1348.5
53269,4251.3,1099.5
53269,4501.3,851.45
53269,3751.3,1599.5
53269,4001.3,1347.5
53269,4251.3,1096.5
53269,4501.3,847.45
53269,4001.3,1348.5
53269,4251.3,1096.5
53269,4501.3,845.45
53269,4251.3,1099.5
53269,4501.3,847.45
53269,4501.3,851.45
53269,3751.3,1603.5
53269,4001.3,1351.5
53269,4251.3,1100.5
53269,4501.3,851.45
53269,4001.3,1351.5
53269,4251.3,1099.5
53269,4501.3,848.45
53269,4251.3,1100.5
53269,4501.3,848.45
53269,4501.3,851.45
53269,3001.3,2351.5
53269,3251.3,2099.5
53269,3501.3,1848.5
53269,3751.3,1599.5
53269,4001.3,1351.5
53269,3251.3,2099.5
53269,3501.3,1847.5
53269,3751.3,1596.5
53269,4001.3,1347.5
53269,4251.3,1099.5
53269,3501.3,1848.5
53269,3751.3,1596.5
53269,4001.3,1345.5
53269,4251.3,1096.5
53269,4501.3,848.45
53269,3751.3,1599.5
53269,4001.3,1347.5
53269,4251.3,1096.5
53269,4501.3,847.45
53269,4001.3,1351.5
53269,4251.3,1099.5
53269,4501.3,848.45
53269,3251.3,2099.5
53269,3501.3,1847.5
53269,3751.3,1596.5
53269,4001.3,1347.5
53269,4251.3,1099.5
53269,3501.3,1847.5
53269,3751.3,1595.5
53269,4001.3,1344.5
53269,4251.3,1095.5
53269,4501.3,847.45
53269,3751.3,1596.5
53269,4001.3,1344.5
53269,4251.3,1093.5
53269,4501.3,844.45
53269,4001.3,1347.5
53269,4251.3,1095.5
53269,4501.3,844.45
53269,4251.3,1099.5
53269,4501.3,847.45
53269,3501.3,1848.5
53269,3751.3,1596.5
53269,4001.3,1345.5
53269,4251.3,1096.5
53269,4501.3,848.45
53269,3751.3,1596.5
53269,4001.3,1344.5
53269,4251.3,1093.5
53269,4501.3,844.45
53269,4001.3,1345.5
53269,4251.3,1093.5
53269,4501.3,842.45
53269,4251.3,1096.5
53269,4501.3,844.45
53269,4501.3,848.45
53269,3751.3,1599.5
53269,4001.3,1347.5
53269,4251.3,1096.5
53269,4501.3,847.45
53269,4001.3,1347.5
53269,4251.3,1095.5
53269,4501.3,844.45
53269,4251.3,1096.5
53269,4501.3,844.45
53269,4501.3,847.45
53269,4001.3,1351.5
53269,4251.3,1099.5
53269,4501.3,848.45
53269,4251.3,1099.5
53269,4501.3,847.45
53269,4501.3,848.45
53269,3251.3,2100.5
53269,3501.3,1848.5
53269,3751.3,1597.5
53269,4001.3,1348.5
53269,4251.3,1100.5
53269,3501.3,1848.5
53269,3751.3,1596.5
53269,4001.3,1345.5
53269,4251.3,1096.5
53269,4501.3,848.45
53269,3751.3,1597.5
53269,4001.3,1345.5
53269,4251.3,1094.5
53269,4501.3,845.45
53269,4001.3,1348.5
53269,4251.3,1096.5
53269,4501.3,845.45
53269,4251.3,1100.5
53269,4501.3,848.45
53269,3501.3,1848.5
53269,3751.3,1596.5
53269,4001.3,1345.5
53269,4251.3,1096.5
53269,4501.3,848.45
53269,3751.3,1596.5
53269,4001.3,1344.5
53269,4251.3,1093.5
53269,4501.3,844.45
53269,4001.3,1345.5
53269,4251.3,1093.5
53269,4501.3,842.45
53269,4251.3,1096.5
53269,4501.3,844.45
53269,4501.3,848.45
53269,3751.3,1597.5
53269,4001.3,1345.5
53269,4251.3,1094.5
53269,4501.3,845.45
53269,4001.3,1345.5
53269,4251.3,1093.5
53269,4501.3,842.45
53269,4251.3,1094.5
53269,4501.3,842.45
53269,4501.3,845.45
53269,4001.3,1348.5
53269,4251.3,1096.5
53269,4501.3,845.45
53269,4251.3,1096.5
53269,4501.3,844.45
53269,4501.3,845.45
53269,4251.3,1100.5
53269,4501.3,848.45
53269,4501.3,848.45
53269,3501.3,1851.5
53269,3751.3,1599.5
53269,4001.3,1348.5
53269,4251.3,1099.5
53269,4501.3,851.45
53269,3751.3,1599.5
53269,4001.3,1347.5
53269,4251.3,1096.5
53269,4501.3,847.45
53269,4001.3,1348.5
53269,4251.3,1096.5
53269,4501.3,845.45
53269,4251.3,1099.5
53269,4501.3,847.45
53269,4501.3,851.45
53269,3751.3,1599.5
53269,4001.3,1347.5
53269,4251.3,1096.5
53269,4501.3,847.45
53269,4001.3,1347.5
53269,4251.3,1095.5
53269,4501.3,844.45
53269,4251.3,1096.5
53269,4501.3,844.45
53269,4501.3,847.45
53269,4001.3,1348.5
53269,4251.3,1096.5
53269,4501.3,845.45
53269,4251.3,1096.5
53269,4501.3,844.45
53269,4501.3,845.45
53269,4251.3,1099.5
53269,4501.3,847.45
53269,4501.3,847.45
53269,4501.3,851.45
53269,3751.3,1603.5
53269,4001.3,1351.5
53269,4251.3,1100.5
53269,4501.3,851.45
53269,4001.3,1351.5
53269,4251.3,1099.5
53269,4501.3,848.45
53269,4251.3,1100.5
53269,4501.3,848.45
53269,4501.3,851.45
53269,4001.3,1351.5
53269,4251.3,1099.5
53269,4501.3,848.45
53269,4251.3,1099.5
53269,4501.3,847.45
53269,4501.3,848.45
53269,4251.3,1100.5
53269,4501.3,848.45
53269,4501.3,848.45
53269,4501.3,851.45
53269,3001.3,2352.5
53269,3251.3,2100.5
53269,3501.3,1849.5
53269,3751.3,1600.5
53269,4001.3,1352.5
53269,3251.3,2100.5
53269,3501.3,1848.5
53269,3751.3,1597.5
53269,4001.3,1348.5
53269,4251.3,1100.5
53269,3501.3,1849.5
53269,3751.3,1597.5
53269,4001.3,1346.5
53269,4251.3,1097.5
53269,4501.3,849.45
53269,3751.3,1600.5
53269,4001.3,1348.5
53269,4251.3,1097.5
53269,4501.3,848.45
53269,4001.3,1352.5
53269,4251.3,1100.5
53269,4501.3,849.45
53269,3251.3,2100.5
53269,3501.3,1848.5
53269,3751.3,1597.5
53269,4001.3,1348.5
53269,4251.3,1100.5
53269,3501.3,1848.5
53269,3751.3,1596.5
53269,4001.3,1345.5
53269,4251.3,1096.5
53269,4501.3,848.45
53269,3751.3,1597.5
53269,4001.3,1345.5
53269,4251.3,1094.5
53269,4501.3,845.45
53269,4001.3,1348.5
53269,4251.3,1096.5
53269,4501.3,845.45
53269,4251.3,1100.5
53269,4501.3,848.45
53269,3501.3,1849.5
53269,3751.3,1597.5
53269,4001.3,1346.5
53269,4251.3,1097.5
53269,4501.3,849.45
53269,3751.3,1597.5
53269,4001.3,1345.5
53269,4251.3,1094.5
53269,4501.3,845.45
53269,4001.3,1346.5
53269,4251.3,1094.5
53269,4501.3,843.45
53269,4251.3,1097.5
53269,4501.3,845.45
53269,4501.3,849.45
53269,3751.3,1600.5
53269,4001.3,1348.5
53269,4251.3,1097.5
53269,4501.3,848.45
53269,4001.3,1348.5
53269,4251.3,1096.5
53269,4501.3,845.45
53269,4251.3,1097.5
53269,4501.3,845.45
53269,4501.3,848.45
53269,4001.3,1352.5
53269,4251.3,1100.5
53269,4501.3,849.45
53269,4251.3,1100.5
53269,4501.3,848.45
53269,4501.3,849.45
53269,3251.3,2100.5
53269,3501.3,1848.5
53269,3751.3,1597.5
53269,4001.3,1348.5
53269,4251.3,1100.5
53269,3501.3,1848.5
53269,3751.3,1596.5
53269,4001.3,1345.5
53269,4251.3,1096.5
53269,4501.3,848.45
53269,3751.3,1597.5
53269,4001.3,1345.5
53269,4251.3,1094.5
53269,4501.3,845.45
53269,4001.3,1348.5
53269,4251.3,1096.5
53269,4501.3,845.45
53269,4251.3,1100.5
53269,4501.3,848.45
53269,3501.3,1848.5
53269,3751.3,1596.5
53269,4001.3,1345.5
53269,4251.3,1096.5
53269,4501.3,848.45
53269,3751.3,1596.5
53269,4001.3,1344.5
53269,4251.3,1093.5
53269,4501.3,844.45
53269,4001.3,1345.5
53269,4251.3,1093.5
53269,4501.3,842.45
53269,4251.3,1096.5
53269,4501.3,844.45
53269,4501.3,848.45
53269,3751.3,1597.5
53269,4001.3,1345.5
53269,4251.3,1094.5
53269,4501.3,845.45
53269,4001.3,1345.5
53269,4251.3,1093.5
53269,4501.3,842.45
53269,4251.3,1094.5
53269,4501.3,842.45
53269,4501.3,845.45
53269,4001.3,1348.5
53269,4251.3,1096.5
53269,4501.3,845.45
53269,4251.3,1096.5
53269,4501.3,844.45
53269,4501.3,845.45
53269,4251.3,1100.5
53269,4501.3,848.45
53269,4501.3,848.45
53269,3501.3,1849.5
53269,3751.3,1597.5
53269,4001.3,1346.5
53269,4251.3,1097.5
53269,4501.3,849.45
53269,3751.3,1597.5
53269,4001.3,1345.5
53269,4251.3,1094.5
53269,4501.3,845.45
53269,4001.3,1346.5
53269,4251.3,1094.5
53269,4501.3,843.45
53269,4251.3,1097.5
53269,4501.3,845.45
53269,4501.3,849.45
53269,3751.3,1597.5
53269,4001.3,1345.5
53269,4251.3,1094.5
53269,4501.3,845.45
53269,4001.3,1345.5
53269,4251.3,1093.5
53269,4501.3,842.45
53269,4251.3,1094.5
53269,4501.3,842.45
53269,4501.3,845.45
53269,4001.3,1346.5
53269,4251.3,1094.5
53269,4501.3,843.45
53269,4251.3,1094.5
53269,4501.3,842.45
53269,4501.3,843.45
53269,4251.3,1097.5
53269,4501.3,845.45
53269,4501.3,845.45
53269,4501.3,849.45
53269,3751.3,1600.5
53269,4001.3,1348.5
53269,4251.3,1097.5
53269,4501.3,848.45
53269,4001.3,1348.5
53269,4251.3,1096.5
53269,4501.3,845.45
53269,4251.3,1097.5
53269,4501.3,845.45
53269,4501.3,848.45
53269,4001.3,1348.5
53269,4251.3,1096.5
53269,4501.3,845.45
53269,4251.3,1096.5
53269,4501.3,844.45
53269,4501.3,845.45
53269,4251.3,1097.5
53269,4501.3,845.45
53269,4501.3,845.45
53269,4501.3,848.45
53269,4001.3,1352.5
53269,4251.3,1100.5
53269,4501.3,849.45
53269,4251.3,1100.5
53269,4501.3,848.45
53269,4501.3,849.45
53269,4251.3,1100.5
53269,4501.3,848.45
53269,4501.3,848.45
53269,4501.3,849.45
53269,3251.3,2103.5
53269,3501.3,1851.5
53269,3751.3,1600.5
53269,4001.3,1351.5
53269,4251.3,1103.5
53269,3501.3,1851.5
53269,3751.3,1599.5
53269,4001.3,1348.5
53269,4251.3,1099.5
53269,4501.3,851.45
53269,3751.3,1600.5
53269,4001.3,1348.5
53269,4251.3,1097.5
53269,4501.3,848.45
53269,4001.3,1351.5
53269,4251.3,1099.5
53269,4501.3,848.45
53269,4251.3,1103.5
53269,4501.3,851.45
53269,3501.3,1851.5
53269,3751.3,1599.5
53269,4001.3,1348.5
53269,4251.3,1099.5
53269,4501.3,851.45
53269,3751.3,1599.5
53269,4001.3,1347.5
53269,4251.3,1096.5
53269,4501.3,847.45
53269,4001.3,1348.5
53269,4251.3,1096.5
53269,4501.3,845.45
53269,4251.3,1099.5
53269,4501.3,847.45
53269,4501.3,851.45
53269,3751.3,1600.5
53269,4001.3,1348.5
53269,4251.3,1097.5
53269,4501.3,848.45
53269,4001.3,1348.5
53269,4251.3,1096.5
53269,4501.3,845.45
53269,4251.3,1097.5
53269,4501.3,845.45
53269,4501.3,848.45
53269,4001.3,1351.5
53269,4251.3,1099.5
53269,4501.3,848.45
53269,4251.3,1099.5
53269,4501.3,847.45
53269,4501.3,848.45
53269,4251.3,1103.5
53269,4501.3,851.45
53269,4501.3,851.45
53269,3501.3,1851.5
53269,3751.3,1599.5
53269,4001.3,1348.5
53269,4251.3,1099.5
53269,4501.3,851.45
53269,3751.3,1599.5
53269,4001.3,1347.5
53269,4251.3,1096.5
53269,4501.3,847.45
53269,4001.3,1348.5
53269,4251.3,1096.5
53269,4501.3,845.45
53269,4251.3,1099.5
53269,4501.3,847.45
53269,4501.3,851.45
53269,3751.3,1599.5
53269,4001.3,1347.5
53269,4251.3,1096.5
53269,4501.3,847.45
53269,4001.3,1347.5
53269,4251.3,1095.5
53269,4501.3,844.45
53269,4251.3,1096.5
53269,4501.3,844.45
53269,4501.3,847.45
53269,4001.3,1348.5
53269,4251.3,1096.5
53269,4501.3,845.45
53269,4251.3,1096.5
53269,4501.3,844.45
53269,4501.3,845.45
53269,4251.3,1099.5
53269,4501.3,847.45
53269,4501.3,847.45
53269,4501.3,851.45
53269,3751.3,1600.5
53269,4001.3,1348.5
53269,4251.3,1097.5
53269,4501.3,848.45
53269,4001.3,1348.5
53269,4251.3,1096.5
53269,4501.3,845.45
53269,4251.3,1097.5
53269,4501.3,845.45
53269,4501.3,848.45
53269,4001.3,1348.5
53269,4251.3,1096.5
53269,4501.3,845.45
53269,4251.3,1096.5
53269,4501.3,844.45
53269,4501.3,845.45
53269,4251.3,1097.5
53269,4501.3,845.45
53269,4501.3,845.45
53269,4501.3,848.45
53269,4001.3,1351.5
53269,4251.3,1099.5
53269,4501.3,848.45
53269,4251.3,1099.5
53269,4501.3,847.45
53269,4501.3,848.45
53269,4251.3,1099.5
53269,4501.3,847.45
53269,4501.3,847.45
53269,4501.3,848.45
53269,4251.3,1103.5
53269,4501.3,851.45
53269,4501.3,851.45
53269,4501.3,851.45
53269,3501.3,1855.5
53269,3751.3,1603.5
53269,4001.3,1352.5
53269,4251.3,1103.5
53269,4501.3,855.45
53269,3751.3,1603.5
53269,4001.3,1351.5
53269,4251.3,1100.5
53269,4501.3,851.45
53269,4001.3,1352.5
53269,4251.3,1100.5
53269,4501.3,849.45
53269,4251.3,1103.5
53269,4501.3,851.45
53269,4501.3,855.45
53269,3751.3,1603.5
53269,4001.3,1351.5
53269,4251.3,1100.5
53269,4501.3,851.45
53269,4001.3,1351.5
53269,4251.3,1099.5
53269,4501.3,848.45
53269,4251.3,1100.5
53269,4501.3,848.45
53269,4501.3,851.45
53269,4001.3,1352.5
53269,4251.3,1100.5
53269,4501.3,849.45
53269,4251.3,1100.5
53269,4501.3,848.45
53269,4501.3,849.45
53269,4251.3,1103.5
53269,4501.3,851.45
53269,4501.3,851.45
53269,4501.3,855.45
53269,3751.3,1603.5
53269,4001.3,1351.5
53269,4251.3,1100.5
53269,4501.3,851.45
53269,4001.3,1351.5
53269,4251.3,1099.5
53269,4501.3,848.45
53269,4251.3,1100.5
53269,4501.3,848.45
53269,4501.3,851.45
53269,4001.3,1351.5
53269,4251.3,1099.5
53269,4501.3,848.45
53269,4251.3,1099.5
53269,4501.3,847.45
53269,4501.3,848.45
53269,4251.3,1100.5
53269,4501.3,848.45
53269,4501.3,848.45
53269,4501.3,851.45
53269,4001.3,1352.5
53269,4251.3,1100.5
53269,4501.3,849.45
53269,4251.3,1100.5
53269,4501.3,848.45
53269,4501.3,849.45
53269,4251.3,1100.5
53269,4501.3,848.45
53269,4501.3,848.45
53269,4501.3,849.45
53269,4251.3,1103.5
53269,4501.3,851.45
53269,4501.3,851.45
53269,4501.3,851.45
53269,4501.3,855.45
53269,2751.3,2604.5
53269,3001.3,2352.5
53269,3251.3,2101.5
53269,3501.3,1852.5
53269,3751.3,1604.5
53269,3001.3,2352.5
53269,3251.3,2100.5
53269,3501.3,1849.5
53269,3751.3,1600.5
53269,4001.3,1352.5
53269,3251.3,2101.5
53269,3501.3,1849.5
53269,3751.3,1598.5
53269,4001.3,1349.5
53269,4251.3,1101.5
53269,3501.3,1852.5
53269,3751.3,1600.5
53269,4001.3,1349.5
53269,4251.3,1100.5
53269,4501.3,852.45
53269,3751.3,1604.5
53269,4001.3,1352.5
53269,4251.3,1101.5
53269,4501.3,852.45
53269,3001.3,2352.5
53269,3251.3,2100.5
53269,3501.3,1849.5
53269,3751.3,1600.5
53269,4001.3,1352.5
53269,3251.3,2100.5
53269,3501.3,1848.5
53269,3751.3,1597.5
53269,4001.3,1348.5
53269,4251.3,1100.5
53269,3501.3,1849.5
53269,3751.3,1597.5
53269,4001.3,1346.5
53269,4251.3,1097.5
53269,4501.3,849.45
53269,3751.3,1600.5
53269,4001.3,1348.5
53269,4251.3,1097.5
53269,4501.3,848.45
53269,4001.3,1352.5
53269,4251.3,1100.5
53269,4501.3,849.45
53269,3251.3,2101.5
53269,3501.3,1849.5
53269,3751.3,1598.5
53269,4001.3,1349.5
53269,4251.3,1101.5
53269,3501.3,1849.5
53269,3751.3,1597.5
53269,4001.3,1346.5
53269,4251.3,1097.5
53269,4501.3,849.45
53269,3751.3,1598.5
53269,4001.3,1346.5
53269,4251.3,1095.5
53269,4501.3,846.45
53269,4001.3,1349.5
53269,4251.3,1097.5
53269,4501.3,846.45
53269,4251.3,1101.5
53269,4501.3,849.45
53269,3501.3,1852.5
53269,3751.3,1600.5
53269,4001.3,1349.5
53269,4251.3,1100.5
53269,4501.3,852.45
53269,3751.3,1600.5
53269,4001.3,1348.5
53269,4251.3,1097.5
53269,4501.3,848.45
53269,4001.3,1349.5
53269,4251.3,1097.5
53269,4501.3,846.45
53269,4251.3,1100.5
53269,4501.3,848.45
53269,4501.3,852.45
53269,3751.3,1604.5
53269,4001.3,1352.5
53269,4251.3,1101.5
53269,4501.3,852.45
53269,4001.3,1352.5
53269,4251.3,1100.5
53269,4501.3,849.45
53269,4251.3,1101.5
53269,4501.3,849.45
53269,4501.3,852.45
53269,3001.3,2352.5
53269,3251.3,2100.5
53269,3501.3,1849.5
53269,3751.3,1600.5
53269,4001.3,1352.5
53269,3251.3,2100.5
53269,3501.3,1848.5
53269,3751.3,1597.5
53269,4001.3,1348.5
53269,4251.3,1100.5
53269,3501.3,1849.5
53269,3751.3,1597.5
53269,4001.3,1346.5
53269,4251.3,1097.5
53269,4501.3,849.45
53269,3751.3,1600.5
53269,4001.3,1348.5
53269,4251.3,1097.5
53269,4501.3,848.45
53269,4001.3,1352.5
53269,4251.3,1100.5
53269,4501.3,849.45
53269,3251.3,2100.5
53269,3501.3,1848.5
53269,3751.3,1597.5
53269,4001.3,1348.5
53269,4251.3,1100.5
53269,3501.3,1848.5
53269,3751.3,1596.5
53269,4001.3,1345.5
53269,4251.3,1096.5
53269,4501.3,848.45
53269,3751.3,1597.5
53269,4001.3,1345.5
53269,4251.3,1094.5
53269,4501.3,845.45
53269,4001.3,1348.5
53269,4251.3,1096.5
53269,4501.3,845.45
53269,4251.3,1100.5
53269,4501.3,848.45
53269,3501.3,1849.5
53269,3751.3,1597.5
53269,4001.3,1346.5
53269,4251.3,1097.5
53269,4501.3,849.45
53269,3751.3,1597.5
53269,4001.3,1345.5
53269,4251.3,1094.5
53269,4501.3,845.45
53269,4001.3,1346.5
53269,4251.3,1094.5
53269,4501.3,843.45
53269,4251.3,1097.5
53269,4501.3,845.45
53269,4501.3,849.45
53269,3751.3,1600.5
53269,4001.3,1348.5
53269,4251.3,1097.5
53269,4501.3,848.45
53269,4001.3,1348.5
53269,4251.3,1096.5
53269,4501.3,845.45
53269,4251.3,1097.5
53269,4501.3,845.45
53269,4501.3,848.45
53269,4001.3,1352.5
53269,4251.3,1100.5
53269,4501.3,849.45
53269,4251.3,1100.5
53269,4501.3,848.45
53269,4501.3,849.45
53269,3251.3,2101.5
53269,3501.3,1849.5
53269,3751.3,1598.5
53269,4001.3,1349.5
53269,4251.3,1101.5
53269,3501.3,1849.5
53269,3751.3,1597.5
53269,4001.3,1346.5
53269,4251.3,1097.5
53269,4501.3,849.45
53269,3751.3,1598.5
53269,4001.3,1346.5
53269,4251.3,1095.5
53269,4501.3,846.45
53269,4001.3,1349.5
53269,4251.3,1097.5
53269,4501.3,846.45
53269,4251.3,1101.5
53269,4501.3,849.45
53269,3501.3,1849.5
53269,3751.3,1597.5
53269,4001.3,1346.5
53269,4251.3,1097.5
53269,4501.3,849.45
53269,3751.3,1597.5
53269,4001.3,1345.5
53269,4251.3,1094.5
53269,4501.3,845.45
53269,4001.3,1346.5
53269,4251.3,1094.5
53269,4501.3,843.45
53269,4251.3,1097.5
53269,4501.3,845.45
53269,4501.3,849.45
53269,3751.3,1598.5
53269,4001.3,1346.5
53269,4251.3,1095.5
53269,4501.3,846.45
53269,4001.3,1346.5
53269,4251.3,1094.5
53269,4501.3,843.45
53269,4251.3,1095.5
53269,4501.3,843.45
53269,4501.3,846.45
53269,4001.3,1349.5
53269,4251.3,1097.5
53269,4501.3,846.45
53269,4251.3,1097.5
53269,4501.3,845.45
53269,4501.3,846.45
53269,4251.3,1101.5
53269,4501.3,849.45
53269,4501.3,849.45
53269,3501.3,1852.5
53269,3751.3,1600.5
53269,4001.3,1349.5
53269,4251.3,1100.5
53269,4501.3,852.45
53269,3751.3,1600.5
53269,4001.3,1348.5
53269,4251.3,1097.5
53269,4501.3,848.45
53269,4001.3,1349.5
53269,4251.3,1097.5
53269,4501.3,846.45
53269,4251.3,1100.5
53269,4501.3,848.45
53269,4501.3,852.45
53269,3751.3,1600.5
53269,4001.3,1348.5
53269,4251.3,1097.5
53269,4501.3,848.45
53269,4001.3,1348.5
53269,4251.3,1096.5
53269,4501.3,845.45
53269,4251.3,1097.5
53269,4501.3,845.45
53269,4501.3,848.45
53269,4001.3,1349.5
53269,4251.3,1097.5
53269,4501.3,846.45
53269,4251.3,1097.5
53269,4501.3,845.45
53269,4501.3,846.45
53269,4251.3,1100.5
53269,4501.3,848.45
53269,4501.3,848.45
53269,4501.3,852.45
53269,3751.3,1604.5
53269,4001.3,1352.5
53269,4251.3,1101.5
53269,4501.3,852.45
53269,4001.3,1352.5
53269,4251.3,1100.5
53269,4501.3,849.45
53269,4251.3,1101.5
53269,4501.3,849.45
53269,4501.3,852.45
53269,4001.3,1352.5
53269,4251.3,1100.5
53269,4501.3,849.45
53269,4251.3,1100.5
53269,4501.3,848.45
53269,4501.3,849.45
53269,4251.3,1101.5
53269,4501.3,849.45
53269,4501.3,849.45
53269,4501.3,852.45
53269,3001.3,2352.5
53269,3251.3,2100.5
53269,3501.3,1849.5
53269,3751.3,1600.5
53269,4001.3,1352.5
53269,3251.3,2100.5
53269,3501.3,1848.5
53269,3751.3,1597.5
53269,4001.3,1348.5
53269,4251.3,1100.5
53269,3501.3,1849.5
53269,3751.3,1597.5
53269,4001.3,1346.5
53269,4251.3,1097.5
53269,4501.3,849.45
53269,3751.3,1600.5
53269,4001.3,1348.5
53269,4251.3,1097.5
53269,4501.3,848.45
53269,4001.3,1352.5
53269,4251.3,1100.5
53269,4501.3,849.45
53269,3251.3,2100.5
53269,3501.3,1848.5
53269,3751.3,1597.5
53269,4001.3,1348.5
53269,4251.3,1100.5
53269,3501.3,1848.5
53269,3751.3,1596.5
53269,4001.3,1345.5
53269,4251.3,1096.5
53269,4501.3,848.45
53269,3751.3,1597.5
53269,4001.3,1345.5
53269,4251.3,1094.5
53269,4501.3,845.45
53269,4001.3,1348.5
53269,4251.3,1096.5
53269,4501.3,845.45
53269,4251.3,1100.5
53269,4501.3,848.45
53269,3501.3,1849.5
53269,3751.3,1597.5
53269,4001.3,1346.5
53269,4251.3,1097.5
53269,4501.3,849.45
53269,3751.3,1597.5
53269,4001.3,1345.5
53269,4251.3,1094.5
53269,4501.3,845.45
53269,4001.3,1346.5
53269,4251.3,1094.5
53269,4501.3,843.45
53269,4251.3,1097.5
53269,4501.3,845.45
53269,4501.3,849.45
53269,3751.3,1600.5
53269,4001.3,1348.5
53269,4251.3,1097.5
53269,4501.3,848.45
53269,4001.3,1348.5
53269,4251.3,1096.5
53269,4501.3,845.45
53269,4251.3,1097.5
53269,4501.3,845.45
53269,4501.3,848.45
53269,4001.3,1352.5
53269,4251.3,1100.5
53269,4501.3,849.45
53269,4251.3,1100.5
53269,4501.3,848.45
53269,4501.3,849.45
53269,3251.3,2100.5
53269,3501.3,1848.5
53269,3751.3,1597.5
53269,4001.3,1348.5
53269,4251.3,1100.5
53269,3501.3,1848.5
53269,3751.3,1596.5
53269,4001.3,1345.5
53269,4251.3,1096.5
53269,4501.3,848.45
53269,3751.3,1597.5
53269,4001.3,1345.5
53269,4251.3,1094.5
53269,4501.3,845.45
53269,4001.3,1348.5
53269,4251.3,1096.5
53269,4501.3,845.45
53269,4251.3,1100.5
53269,4501.3,848.45
53269,3501.3,1848.5
53269,3751.3,1596.5
53269,4001.3,1345.5
53269,4251.3,1096.5
53269,4501.3,848.45
53269,3751.3,1596.5
53269,4001.3,1344.5
53269,4251.3,1093.5
53269,4501.3,844.45
53269,4001.3,1345.5
53269,4251.3,1093.5
53269,4501.3,842.45
53269,4251.3,1096.5
53269,4501.3,844.45
53269,4501.3,848.45
53269,3751.3,1597.5
53269,4001.3,1345.5
53269,4251.3,1094.5
53269,4501.3,845.45
53269,4001.3,1345.5
53269,4251.3,1093.5
53269,4501.3,842.45
53269,4251.3,1094.5
53269,4501.3,842.45
53269,4501.3,845.45
53269,4001.3,1348.5
53269,4251.3,1096.5
53269,4501.3,845.45
53269,4251.3,1096.5
53269,4501.3,844.45
53269,4501.3,845.45
53269,4251.3,1100.5
53269,4501.3,848.45
53269,4501.3,848.45
53269,3501.3,1849.5
53269,3751.3,1597.5
53269,4001.3,1346.5
53269,4251.3,1097.5
53269,4501.3,849.45
53269,3751.3,1597.5
53269,4001.3,1345.5
53269,4251.3,1094.5
53269,4501.3,845.45
53269,4001.3,1346.5
53269,4251.3,1094.5
53269,4501.3,843.45
53269,4251.3,1097.5
53269,4501.3,845.45
53269,4501.3,849.45
53269,3751.3,1597.5
53269,4001.3,1345.5
53269,4251.3,1094.5
53269,4501.3,845.45
53269,4001.3,1345.5
53269,4251.3,1093.5
53269,4501.3,842.45
53269,4251.3,1094.5
53269,4501.3,842.45
53269,4501.3,845.45
53269,4001.3,1346.5
53269,4251.3,1094.5
53269,4501.3,843.45
53269,4251.3,1094.5
53269,4501.3,842.45
53269,4501.3,843.45
53269,4251.3,1097.5
53269,4501.3,845.45
53269,4501.3,845.45
53269,4501.3,849.45
53269,3751.3,1600.5
53269,4001.3,1348.5
53269,4251.3,1097.5
53269,4501.3,848.45
53269,4001.3,1348.5
53269,4251.3,1096.5
53269,4501.3,845.45
53269,4251.3,1097.5
53269,4501.3,845.45
53269,4501.3,848.45
53269,4001.3,1348.5
53269,4251.3,1096.5
53269,4501.3,845.45
53269,4251.3,1096.5
53269,4501.3,844.45
53269,4501.3,845.45
53269,4251.3,1097.5
53269,4501.3,845.45
53269,4501.3,845.45
53269,4501.3,848.45
53269,4001.3,1352.5
53269,4251.3,1100.5
53269,4501.3,849.45
53269,4251.3,1100.5
53269,4501.3,848.45
53269,4501.3,849.45
53269,4251.3,1100.5
53269,4501.3,848.45
53269,4501.3,848.45
53269,4501.3,849.45
53269,3251.3,2101.5
53269,3501.3,1849.5
53269,3751.3,1598.5
53269,4001.3,1349.5
53269,4251.3,1101.5
53269,3501.3,1849.5
53269,3751.3,1597.5
53269,4001.3,1346.5
53269,4251.3,1097.5
53269,4501.3,849.45
53269,3751.3,1598.5
53269,4001.3,1346.5
53269,4251.3,1095.5
53269,4501.3,846.45
53269,4001.3,1349.5
53269,4251.3,1097.5
53269,4501.3,846.45
53269,4251.3,1101.5
53269,4501.3,849.45
53269,3501.3,1849.5
53269,3751.3,1597.5
53269,4001.3,1346.5
53269,4251.3,1097.5
53269,4501.3,849.45
53269,3751.3,1597.5
53269,4001.3,1345.5
53269,4251.3,1094.5
53269,4501.3,845.45
53269,4001.3,1346.5
53269,4251.3,1094.5
53269,4501.3,843.45
53269,4251.3,1097.5
53269,4501.3,845.45
53269,4501.3,849.45
53269,3751.3,1598.5
53269,4001.3,1346.5
53269,4251.3,1095.5
53269,4501.3,846.45
53269,4001.3,1346.5
53269,4251.3,1094.5
53269,4501.3,843.45
53269,4251.3,1095.5
53269,4501.3,843.45
53269,4501.3,846.45
53269,4001.3,1349.5
53269,4251.3,1097.5
53269,4501.3,846.45
53269,4251.3,1097.5
53269,4501.3,845.45
53269,4501.3,846.45
53269,4251.3,1101.5
53269,4501.3,849.45
53269,4501.3,849.45
53269,3501.3,1849.5
53269,3751.3,1597.5
53269,4001.3,1346.5
53269,4251.3,1097.5
53269,4501.3,849.45
53269,3751.3,1597.5
53269,4001.3,1345.5
53269,4251.3,1094.5
53269,4501.3,845.45
53269,4001.3,1346.5
53269,4251.3,1094.5
53269,4501.3,843.45
53269,4251.3,1097.5
53269,4501.3,845.45
53269,4501.3,849.45
53269,3751.3,1597.5
53269,4001.3,1345.5
53269,4251.3,1094.5
53269,4501.3,845.45
53269,4001.3,1345.5
53269,4251.3,1093.5
53269,4501.3,842.45
53269,4251.3,1094.5
53269,4501.3,842.45
53269,4501.3,845.45
53269,4001.3,1346.5
53269,4251.3,1094.5
53269,4501.3,843.45
53269,4251.3,1094.5
53269,4501.3,842.45
53269,4501.3,843.45
53269,4251.3,1097.5
53269,4501.3,845.45
53269,4501.3,845.45
53269,4501.3,849.45
53269,3751.3,1598.5
53269,4001.3,1346.5
53269,4251.3,1095.5
53269,4501.3,846.45
53269,4001.3,1346.5
53269,4251.3,1094.5
53269,4501.3,843.45
53269,4251.3,1095.5
53269,4501.3,843.45
53269,4501.3,846.45
53269,4001.3,1346.5
53269,4251.3,1094.5
53269,4501.3,843.45
53269,4251.3,1094.5
53269,4501.3,842.45
53269,4501.3,843.45
53269,4251.3,1095.5
53269,4501.3,843.45
53269,4501.3,843.45
53269,4501.3,846.45
53269,4001.3,1349.5
53269,4251.3,1097.5
53269,4501.3,846.45
53269,4251.3,1097.5
53269,4501.3,845.45
53269,4501.3,846.45
53269,4251.3,1097.5
53269,4501.3,845.45
53269,4501.3,845.45
53269,4501.3,846.45
53269,4251.3,1101.5
53269,4501.3,849.45
53269,4501.3,849.45
53269,4501.3,849.45
53269,3501.3,1852.5
53269,3751.3,1600.5
53269,4001.3,1349.5
53269,4251.3,1100.5
53269,4501.3,852.45
53269,3751.3,1600.5
53269,4001.3,1348.5
53269,4251.3,1097.5
53269,4501.3,848.45
53269,4001.3,1349.5
53269,4251.3,1097.5
53269,4501.3,846.45
53269,4251.3,1100.5
53269,4501.3,848.45
53269,4501.3,852.45
53269,3751.3,1600.5
53269,4001.3,1348.5
53269,4251.3,1097.5
53269,4501.3,848.45
53269,4001.3,1348.5
53269,4251.3,1096.5
53269,4501.3,845.45
53269,4251.3,1097.5
53269,4501.3,845.45
53269,4501.3,848.45
53269,4001.3,1349.5
53269,4251.3,1097.5
53269,4501.3,846.45
53269,4251.3,1097.5
53269,4501.3,845.45
53269,4501.3,846.45
53269,4251.3,1100.5
53269,4501.3,848.45
53269,4501.3,848.45
53269,4501.3,852.45
53269,3751.3,1600.5
53269,4001.3,1348.5
53269,4251.3,1097.5
53269,4501.3,848.45
53269,4001.3,1348.5
53269,4251.3,1096.5
53269,4501.3,845.45
53269,4251.3,1097.5
53269,4501.3,845.45
53269,4501.3,848.45
53269,4001.3,1348.5
53269,4251.3,1096.5
53269,4501.3,845.45
53269,4251.3,1096.5
53269,4501.3,844.45
53269,4501.3,845.45
53269,4251.3,1097.5
53269,4501.3,845.45
53269,4501.3,845.45
53269,4501.3,848.45
53269,4001.3,1349.5
53269,4251.3,1097.5
53269,4501.3,846.45
53269,4251.3,1097.5
53269,4501.3,845.45
53269,4501.3,846.45
53269,4251.3,1097.5
53269,4501.3,845.45
53269,4501.3,845.45
53269,4501.3,846.45
53269,4251.3,1100.5
53269,4501.3,848.45
53269,4501.3,848.45
53269,4501.3,848.45
53269,4501.3,852.45
53269,3751.3,1604.5
53269,4001.3,1352.5
53269,4251.3,1101.5
53269,4501.3,852.45
53269,4001.3,1352.5
53269,4251.3,1100.5
53269,4501.3,849.45
53269,4251.3,1101.5
53269,4501.3,849.45
53269,4501.3,852.45
53269,4001.3,1352.5
53269,4251.3,1100.5
53269,4501.3,849.45
53269,4251.3,1100.5
53269,4501.3,848.45
53269,4501.3,849.45
53269,4251.3,1101.5
53269,4501.3,849.45
53269,4501.3,849.45
53269,4501.3,852.45
53269,4001.3,1352.5
53269,4251.3,1100.5
53269,4501.3,849.45
53269,4251.3,1100.5
53269,4501.3,848.45
53269,4501.3,849.45
53269,4251.3,1100.5
53269,4501.3,848.45
53269,4501.3,848.45
53269,4501.3,849.45
53269,4251.3,1101.5
53269,4501.3,849.45
53269,4501.3,849.45
53269,4501.3,849.45
53269,4501.3,852.45
53269,3001.3,2355.5
53269,3251.3,2103.5
53269,3501.3,1852.5
53269,3751.3,1603.5
53269,4001.3,1355.5
53269,3251.3,2103.5
53269,3501.3,1851.5
53269,3751.3,1600.5
53269,4001.3,1351.5
53269,4251.3,1103.5
53269,3501.3,1852.5
53269,3751.3,1600.5
53269,4001.3,1349.5
53269,4251.3,1100.5
53269,4501.3,852.45
53269,3751.3,1603.5
53269,4001.3,1351.5
53269,4251.3,1100.5
53269,4501.3,851.45
53269,4001.3,1355.5
53269,4251.3,1103.5
53269,4501.3,852.45
53269,3251.3,2103.5
53269,3501.3,1851.5
53269,3751.3,1600.5
53269,4001.3,1351.5
53269,4251.3,1103.5
53269,3501.3,1851.5
53269,3751.3,1599.5
53269,4001.3,1348.5
53269,4251.3,1099.5
53269,4501.3,851.45
53269,3751.3,1600.5
53269,4001.3,1348.5
53269,4251.3,1097.5
53269,4501.3,848.45
53269,4001.3,1351.5
53269,4251.3,1099.5
53269,4501.3,848.45
53269,4251.3,1103.5
53269,4501.3,851.45
53269,3501.3,1852.5
53269,3751.3,1600.5
53269,4001.3,1349.5
53269,4251.3,1100.5
53269,4501.3,852.45
53269,3751.3,1600.5
53269,4001.3,1348.5
53269,4251.3,1097.5
53269,4501.3,848.45
53269,4001.3,1349.5
53269,4251.3,1097.5
53269,4501.3,846.45
53269,4251.3,1100.5
53269,4501.3,848.45
53269,4501.3,852.45
53269,3751.3,1603.5
53269,4001.3,1351.5
53269,4251.3,1100.5
53269,4501.3,851.45
53269,4001.3,1351.5
53269,4251.3,1099.5
53269,4501.3,848.45
53269,4251.3,1100.5
53269,4501.3,848.45
53269,4501.3,851.45
53269,4001.3,1355.5
53269,4251.3,1103.5
53269,4501.3,852.45
53269,4251.3,1103.5
53269,4501.3,851.45
53269,4501.3,852.45
53269,3251.3,2103.5
53269,3501.3,1851.5
53269,3751.3,1600.5
53269,4001.3,1351.5
53269,4251.3,1103.5
53269,3501.3,1851.5
53269,3751.3,1599.5
53269,4001.3,1348.5
53269,4251.3,1099.5
53269,4501.3,851.45
53269,3751.3,1600.5
53269,4001.3,1348.5
53269,4251.3,1097.5
53269,4501.3,848.45
53269,4001.3,1351.5
53269,4251.3,1099.5
53269,4501.3,848.45
53269,4251.3,1103.5
53269,4501.3,851.45
53269,3501.3,1851.5
53269,3751.3,1599.5
53269,4001.3,1348.5
53269,4251.3,1099.5
53269,4501.3,851.45
53269,3751.3,1599.5
53269,4001.3,1347.5
53269,4251.3,1096.5
53269,4501.3,847.45
53269,4001.3,1348.5
53269,4251.3,1096.5
53269,4501.3,845.45
53269,4251.3,1099.5
53269,4501.3,847.45
53269,4501.3,851.45
53269,3751.3,1600.5
53269,4001.3,1348.5
53269,4251.3,1097.5
53269,4501.3,848.45
53269,4001.3,1348.5
53269,4251.3,1096.5
53269,4501.3,845.45
53269,4251.3,1097.5
53269,4501.3,845.45
53269,4501.3,848.45
53269,4001.3,1351.5
53269,4251.3,1099.5
53269,4501.3,848.45
53269,4251.3,1099.5
53269,4501.3,847.45
53269,4501.3,848.45
53269,4251.3,1103.5
53269,4501.3,851.45
53269,4501.3,851.45
53269,3501.3,1852.5
53269,3751.3,1600.5
53269,4001.3,1349.5
53269,4251.3,1100.5
53269,4501.3,852.45
53269,3751.3,1600.5
53269,4001.3,1348.5
53269,4251.3,1097.5
53269,4501.3,848.45
53269,4001.3,1349.5
53269,4251.3,1097.5
53269,4501.3,846.45
53269,4251.3,1100.5
53269,4501.3,848.45
53269,4501.3,852.45
53269,3751.3,1600.5
53269,4001.3,1348.5
53269,4251.3,1097.5
53269,4501.3,848.45
53269,4001.3,1348.5
53269,4251.3,1096.5
53269,4501.3,845.45
53269,4251.3,1097.5
53269,4501.3,845.45
53269,4501.3,848.45
53269,4001.3,1349.5
53269,4251.3,1097.5
53269,4501.3,846.45
53269,4251.3,1097.5
53269,4501.3,845.45
53269,4501.3,846.45
53269,4251.3,1100.5
53269,4501.3,848.45
53269,4501.3,848.45
53269,4501.3,852.45
53269,3751.3,1603.5
53269,4001.3,1351.5
53269,4251.3,1100.5
53269,4501.3,851.45
53269,4001.3,1351.5
53269,4251.3,1099.5
53269,4501.3,848.45
53269,4251.3,1100.5
53269,4501.3,848.45
53269,4501.3,851.45
53269,4001.3,1351.5
53269,4251.3,1099.5
53269,4501.3,848.45
53269,4251.3,1099.5
53269,4501.3,847.45
53269,4501.3,848.45
53269,4251.3,1100.5
53269,4501.3,848.45
53269,4501.3,848.45
53269,4501.3,851.45
53269,4001.3,1355.5
53269,4251.3,1103.5
53269,4501.3,852.45
53269,4251.3,1103.5
53269,4501.3,851.45
53269,4501.3,852.45
53269,4251.3,1103.5
53269,4501.3,851.45
53269,4501.3,851.45
53269,4501.3,852.45
53269,3251.3,2103.5
53269,3501.3,1851.5
53269,3751.3,1600.5
53269,4001.3,1351.5
53269,4251.3,1103.5
53269,3501.3,1851.5
53269,3751.3,1599.5
53269,4001.3,1348.5
53269,4251.3,1099.5
53269,4501.3,851.45
53269,3751.3,1600.5
53269,4001.3,1348.5
53269,4251.3,1097.5
53269,4501.3,848.45
53269,4001.3,1351.5
53269,4251.3,1099.5
53269,4501.3,848.45
53269,4251.3,1103.5
53269,4501.3,851.45
53269,3501.3,1851.5
53269,3751.3,1599.5
53269,4001.3,1348.5
53269,4251.3,1099.5
53269,4501.3,851.45
53269,3751.3,1599.5
53269,4001.3,1347.5
53269,4251.3,1096.5
53269,4501.3,847.45
53269,4001.3,1348.5
53269,4251.3,1096.5
53269,4501.3,845.45
53269,4251.3,1099.5
53269,4501.3,847.45
53269,4501.3,851.45
53269,3751.3,1600.5
53269,4001.3,1348.5
53269,4251.3,1097.5
53269,4501.3,848.45
53269,4001.3,1348.5
53269,4251.3,1096.5
53269,4501.3,845.45
53269,4251.3,1097.5
53269,4501.3,845.45
53269,4501.3,848.45
53269,4001.3,1351.5
53269,4251.3,1099.5
53269,4501.3,848.45
53269,4251.3,1099.5
53269,4501.3,847.45
53269,4501.3,848.45
53269,4251.3,1103.5
53269,4501.3,851.45
53269,4501.3,851.45
53269,3501.3,1851.5
53269,3751.3,1599.5
53269,4001.3,1348.5
53269,4251.3,1099.5
53269,4501.3,851.45
53269,3751.3,1599.5
53269,4001.3,1347.5
53269,4251.3,1096.5
53269,4501.3,847.45
53269,4001.3,1348.5
53269,4251.3,1096.5
53269,4501.3,845.45
53269,4251.3,1099.5
53269,4501.3,847.45
53269,4501.3,851.45
53269,3751.3,1599.5
53269,4001.3,1347.5
53269,4251.3,1096.5
53269,4501.3,847.45
53269,4001.3,1347.5
53269,4251.3,1095.5
53269,4501.3,844.45
53269,4251.3,1096.5
53269,4501.3,844.45
53269,4501.3,847.45
53269,4001.3,1348.5
53269,4251.3,1096.5
53269,4501.3,845.45
53269,4251.3,1096.5
53269,4501.3,844.45
53269,4501.3,845.45
53269,4251.3,1099.5
53269,4501.3,847.45
53269,4501.3,847.45
53269,4501.3,851.45
53269,3751.3,1600.5
53269,4001.3,1348.5
53269,4251.3,1097.5
53269,4501.3,848.45
53269,4001.3,1348.5
53269,4251.3,1096.5
53269,4501.3,845.45
53269,4251.3,1097.5
53269,4501.3,845.45
53269,4501.3,848.45
53269,4001.3,1348.5
53269,4251.3,1096.5
53269,4501.3,845.45
53269,4251.3,1096.5
53269,4501.3,844.45
53269,4501.3,845.45
53269,4251.3,1097.5
53269,4501.3,845.45
53269,4501.3,845.45
53269,4501.3,848.45
53269,4001.3,1351.5
53269,4251.3,1099.5
53269,4501.3,848.45
53269,4251.3,1099.5
53269,4501.3,847.45
53269,4501.3,848.45
53269,4251.3,1099.5
53269,4501.3,847.45
53269,4501.3,847.45
53269,4501.3,848.45
53269,4251.3,1103.5
53269,4501.3,851.45
53269,4501.3,851.45
53269,4501.3,851.45
53269,3501.3,1852.5
53269,3751.3,1600.5
53269,4001.3,1349.5
53269,4251.3,1100.5
53269,4501.3,852.45
53269,3751.3,1600.5
53269,4001.3,1348.5
53269,4251.3,1097.5
53269,4501.3,848.45
53269,4001.3,1349.5
53269,4251.3,1097.5
53269,4501.3,846.45
53269,4251.3,1100.5
53269,4501.3,848.45
53269,4501.3,852.45
53269,3751.3,1600.5
53269,4001.3,1348.5
53269,4251.3,1097.5
53269,4501.3,848.45
53269,4001.3,1348.5
53269,4251.3,1096.5
53269,4501.3,845.45
53269,4251.3,1097.5
53269,4501.3,845.45
53269,4501.3,848.45
53269,4001.3,1349.5
53269,4251.3,1097.5
53269,4501.3,846.45
53269,4251.3,1097.5
53269,4501.3,845.45
53269,4501.3,846.45
53269,4251.3,1100.5
53269,4501.3,848.45
53269,4501.3,848.45
53269,4501.3,852.45
53269,3751.3,1600.5
53269,4001.3,1348.5
53269,4251.3,1097.5
53269,4501.3,848.45
53269,4001.3,1348.5
53269,4251.3,1096.5
53269,4501.3,845.45
53269,4251.3,1097.5
53269,4501.3,845.45
53269,4501.3,848.45
53269,4001.3,1348.5
53269,4251.3,1096.5
53269,4501.3,845.45
53269,4251.3,1096.5
53269,4501.3,844.45
53269,4501.3,845.45
53269,4251.3,1097.5
53269,4501.3,845.45
53269,4501.3,845.45
53269,4501.3,848.45
53269,4001.3,1349.5
53269,4251.3,1097.5
53269,4501.3,846.45
53269,4251.3,1097.5
53269,4501.3,845.45
53269,4501.3,846.45
53269,4251.3,1097.5
53269,4501.3,845.45
53269,4501.3,845.45
53269,4501.3,846.45
53269,4251.3,1100.5
53269,4501.3,848.45
53269,4501.3,848.45
53269,4501.3,848.45
53269,4501.3,852.45
53269,3751.3,1603.5
53269,4001.3,1351.5
53269,4251.3,1100.5
53269,4501.3,851.45
53269,4001.3,1351.5
53269,4251.3,1099.5
53269,4501.3,848.45
53269,4251.3,1100.5
53269,4501.3,848.45
53269,4501.3,851.45
53269,4001.3,1351.5
53269,4251.3,1099.5
53269,4501.3,848.45
53269,4251.3,1099.5
53269,4501.3,847.45
53269,4501.3,848.45
53269,4251.3,1100.5
53269,4501.3,848.45
53269,4501.3,848.45
53269,4501.3,851.45
53269,4001.3,1351.5
53269,4251.3,1099.5
53269,4501.3,848.45
53269,4251.3,1099.5
53269,4501.3,847.45
53269,4501.3,848.45
53269,4251.3,1099.5
53269,4501.3,847.45
53269,4501.3,847.45
53269,4501.3,848.45
53269,4251.3,1100.5
53269,4501.3,848.45
53269,4501.3,848.45
53269,4501.3,848.45
53269,4501.3,851.45
53269,3251.3,2107.5
53269,3501.3,1855.5
53269,3751.3,1604.5
53269,4001.3,1355.5
53269,4251.3,1107.5
53269,3501.3,1855.5
53269,3751.3,1603.5
53269,4001.3,1352.5
53269,4251.3,1103.5
53269,4501.3,855.45
53269,3751.3,1604.5
53269,4001.3,1352.5
53269,4251.3,1101.5
53269,4501.3,852.45
53269,4001.3,1355.5
53269,4251.3,1103.5
53269,4501.3,852.45
53269,4251.3,1107.5
53269,4501.3,855.45
53269,3501.3,1855.5
53269,3751.3,1603.5
53269,4001.3,1352.5
53269,4251.3,1103.5
53269,4501.3,855.45
53269,3751.3,1603.5
53269,4001.3,1351.5
53269,4251.3,1100.5
53269,4501.3,851.45
53269,4001.3,1352.5
53269,4251.3,1100.5
53269,4501.3,849.45
53269,4251.3,1103.5
53269,4501.3,851.45
53269,4501.3,855.45
53269,3751.3,1604.5
53269,4001.3,1352.5
53269,4251.3,1101.5
53269,4501.3,852.45
53269,4001.3,1352.5
53269,4251.3,1100.5
53269,4501.3,849.45
53269,4251.3,1101.5
53269,4501.3,849.45
53269,4501.3,852.45
53269,4001.3,1355.5
53269,4251.3,1103.5
53269,4501.3,852.45
53269,4251.3,1103.5
53269,4501.3,851.45
53269,4501.3,852.45
53269,4251.3,1107.5
53269,4501.3,855.45
53269,4501.3,855.45
53269,3501.3,1855.5
53269,3751.3,1603.5
53269,4001.3,1352.5
53269,4251.3,1103.5
53269,4501.3,855.45
53269,3751.3,1603.5
53269,4001.3,1351.5
53269,4251.3,1100.5
53269,4501.3,851.45
53269,4001.3,1352.5
53269,4251.3,1100.5
53269,4501.3,849.45
53269,4251.3,1103.5
53269,4501.3,851.45
53269,4501.3,855.45
53269,3751.3,1603.5
53269,4001.3,1351.5
53269,4251.3,1100.5
53269,4501.3,851.45
53269,4001.3,1351.5
53269,4251.3,1099.5
53269,4501.3,848.45
53269,4251.3,1100.5
53269,4501.3,848.45
53269,4501.3,851.45
53269,4001.3,1352.5
53269,4251.3,1100.5
53269,4501.3,849.45
53269,4251.3,1100.5
53269,4501.3,848.45
53269,4501.3,849.45
53269,4251.3,1103.5
53269,4501.3,851.45
53269,4501.3,851.45
53269,4501.3,855.45
53269,3751.3,1604.5
53269,4001.3,1352.5
53269,4251.3,1101.5
53269,4501.3,852.45
53269,4001.3,1352.5
53269,4251.3,1100.5
53269,4501.3,849.45
53269,4251.3,1101.5
53269,4501.3,849.45
53269,4501.3,852.45
53269,4001.3,1352.5
53269,4251.3,1100.5
53269,4501.3,849.45
53269,4251.3,1100.5
53269,4501.3,848.45
53269,4501.3,849.45
53269,4251.3,1101.5
53269,4501.3,849.45
53269,4501.3,849.45
53269,4501.3,852.45
53269,4001.3,1355.5
53269,4251.3,1103.5
53269,4501.3,852.45
53269,4251.3,1103.5
53269,4501.3,851.45
53269,4501.3,852.45
53269,4251.3,1103.5
53269,4501.3,851.45
53269,4501.3,851.45
53269,4501.3,852.45
53269,4251.3,1107.5
53269,4501.3,855.45
53269,4501.3,855.45
53269,4501.3,855.45
53269,3501.3,1855.5
53269,3751.3,1603.5
53269,4001.3,1352.5
53269,4251.3,1103.5
53269,4501.3,855.45
53269,3751.3,1603.5
53269,4001.3,1351.5
53269,4251.3,1100.5
53269,4501.3,851.45
53269,4001.3,1352.5
53269,4251.3,1100.5
53269,4501.3,849.45
53269,4251.3,1103.5
53269,4501.3,851.45
53269,4501.3,855.45
53269,3751.3,1603.5
53269,4001.3,1351.5
53269,4251.3,1100.5
53269,4501.3,851.45
53269,4001.3,1351.5
53269,4251.3,1099.5
53269,4501.3,848.45
53269,4251.3,1100.5
53269,4501.3,848.45
53269,4501.3,851.45
53269,4001.3,1352.5
53269,4251.3,1100.5
53269,4501.3,849.45
53269,4251.3,1100.5
53269,4501.3,848.45
53269,4501.3,849.45
53269,4251.3,1103.5
53269,4501.3,851.45
53269,4501.3,851.45
53269,4501.3,855.45
53269,3751.3,1603.5
53269,4001.3,1351.5
53269,4251.3,1100.5
53269,4501.3,851.45
53269,4001.3,1351.5
53269,4251.3,1099.5
53269,4501.3,848.45
53269,4251.3,1100.5
53269,4501.3,848.45
53269,4501.3,851.45
53269,4001.3,1351.5
53269,4251.3,1099.5
53269,4501.3,848.45
53269,4251.3,1099.5
53269,4501.3,847.45
53269,4501.3,848.45
53269,4251.3,1100.5
53269,4501.3,848.45
53269,4501.3,848.45
53269,4501.3,851.45
53269,4001.3,1352.5
53269,4251.3,1100.5
53269,4501.3,849.45
53269,4251.3,1100.5
53269,4501.3,848.45
53269,4501.3,849.45
53269,4251.3,1100.5
53269,4501.3,848.45
53269,4501.3,848.45
53269,4501.3,849.45
53269,4251.3,1103.5
53269,4501.3,851.45
53269,4501.3,851.45
53269,4501.3,851.45
53269,4501.3,855.45
53269,3751.3,1604.5
53269,4001.3,1352.5
53269,4251.3,1101.5
53269,4501.3,852.45
53269,4001.3,1352.5
53269,4251.3,1100.5
53269,4501.3,849.45
53269,4251.3,1101.5
53269,4501.3,849.45
53269,4501.3,852.45
53269,4001.3,1352.5
53269,4251.3,1100.5
53269,4501.3,849.45
53269,4251.3,1100.5
53269,4501.3,848.45
53269,4501.3,849.45
53269,4251.3,1101.5
53269,4501.3,849.45
53269,4501.3,849.45
53269,4501.3,852.45
53269,4001.3,1352.5
53269,4251.3,1100.5
53269,4501.3,849.45
53269,4251.3,1100.5
53269,4501.3,848.45
53269,4501.3,849.45
53269,4251.3,1100.5
53269,4501.3,848.45
53269,4501.3,848.45
53269,4501.3,849.45
53269,4251.3,1101.5
53269,4501.3,849.45
53269,4501.3,849.45
53269,4501.3,849.45
53269,4501.3,852.45
