53070,6637.2,113.89
52422,7137.2,389.11
51774,7387.2,640.11
51774,7637.2,892.11
51126,7637.2,891.11
51126,7887.2,1143.1
51126,7637.2,892.11
51126,7887.2,1143.1
51126,8137.2,1395.1
50478,7887.2,1142.1
50478,8137.2,1394.1
50478,7887.2,1143.1
50478,8137.2,1394.1
50478,8387.2,1646.1
50478,7887.2,1143.1
50478,8137.2,1395.1
50478,7887.2,1143.1
50478,8137.2,1394.1
50478,8387.2,1646.1
50478,7887.2,1146.1
50478,8137.2,1395.1
50478,8387.2,1646.1
50478,8637.2,1898.1
49830,7887.2,1142.1
49830,8137.2,1393.1
49830,8387.2,1645.1
49830,7887.2,1145.1
49830,8137.2,1394.1
49830,8387.2,1645.1
49830,8637.2,1897.1
49830,7887.2,1143.1
49830,8137.2,1394.1
49830,8387.2,1646.1
49830,7887.2,1145.1
49830,8137.2,1394.1
49830,8387.2,1645.1
49830,8637.2,1897.1
49830,7887.2,1149.1
49830,8137.2,1397.1
49830,8387.2,1646.1
49830,8637.2,1897.1
49830,8887.2,2149.1
49830,7887.2,1143.1
49830,8137.2,1394.1
49830,8387.2,1646.1
49830,7887.2,1146.1
49830,8137.2,1395.1
49830,8387.2,1646.1
49830,8637.2,1898.1
49830,7887.2,1143.1
49830,8137.2,1394.1
49830,8387.2,1646.1
49830,7887.2,1145.1
49830,8137.2,1394.1
49830,8387.2,1645.1
49830,8637.2,1897.1
49830,7887.2,1149.1
49830,8137.2,1397.1
49830,8387.2,1646.1
49830,8637.2,1897.1
49830,8887.2,2149.1
49830,7887.2,1146.1
49830,8137.2,1397.1
49830,8387.2,1649.1
49830,7887.2,1146.1
49830,8137.2,1395.1
49830,8387.2,1646.1
49830,8637.2,1898.1
49830,7887.2,1149.1
49830,8137.2,1397.1
49830,8387.2,1646.1
49830,8637.2,1897.1
49830,8887.2,2149.1
49830,8137.2,1401.1
49830,8387.2,1649.1
49830,8637.2,1898.1
49830,8887.2,2149.1
49830,9137.2,2401.1
49182,8387.2,1645.1
49182,8387.2,1644.1
49182,8637.2,1896.1
49182,8387.2,1645.1
49182,8637.2,1896.1
49182,8887.2,2148.1
49182,8387.2,1648.1
49182,8387.2,1645.1
49182,8637.2,1897.1
49182,8387.2,1645.1
49182,8637.2,1896.1
49182,8887.2,2148.1
49182,8387.2,1648.1
49182,8637.2,1897.1
49182,8887.2,2148.1
49182,9137.2,2400.1
49182,8387.2,1646.1
49182,8387.2,1645.1
49182,8637.2,1897.1
49182,8387.2,1646.1
49182,8637.2,1897.1
49182,8887.2,2149.1
49182,8387.2,1648.1
49182,8387.2,1645.1
49182,8637.2,1897.1
49182,8387.2,1645.1
49182,8637.2,1896.1
49182,8887.2,2148.1
49182,8387.2,1648.1
49182,8637.2,1897.1
49182,8887.2,2148.1
49182,9137.2,2400.1
49182,8387.2,1652.1
49182,8387.2,1648.1
49182,8637.2,1900.1
49182,8387.2,1646.1
49182,8637.2,1897.1
49182,8887.2,2149.1
49182,8387.2,1648.1
49182,8637.2,1897.1
49182,8887.2,2148.1
49182,9137.2,2400.1
49182,8387.2,1652.1
49182,8637.2,1900.1
49182,8887.2,2149.1
49182,9137.2,2400.1
49182,9387.2,2652.1
49182,8387.2,1646.1
49182,8387.2,1645.1
49182,8637.2,1897.1
49182,8387.2,1646.1
49182,8637.2,1897.1
49182,8887.2,2149.1
49182,8387.2,1649.1
49182,8387.2,1646.1
49182,8637.2,1898.1
49182,8387.2,1646.1
49182,8637.2,1897.1
49182,8887.2,2149.1
49182,8387.2,1649.1
49182,8637.2,1898.1
49182,8887.2,2149.1
49182,9137.2,2401.1
49182,8387.2,1646.1
49182,8387.2,1645.1
49182,8637.2,1897.1
49182,8387.2,1646.1
49182,8637.2,1897.1
49182,8887.2,2149.1
49182,8387.2,1648.1
49182,8387.2,1645.1
49182,8637.2,1897.1
49182,8387.2,1645.1
49182,8637.2,1896.1
49182,8887.2,2148.1
49182,8387.2,1648.1
49182,8637.2,1897.1
49182,8887.2,2148.1
49182,9137.2,2400.1
49182,8387.2,1652.1
49182,8387.2,1648.1
49182,8637.2,1900.1
49182,8387.2,1646.1
49182,8637.2,1897.1
49182,8887.2,2149.1
49182,8387.2,1648.1
49182,8637.2,1897.1
49182,8887.2,2148.1
49182,9137.2,2400.1
49182,8387.2,1652.1
49182,8637.2,1900.1
49182,8887.2,2149.1
49182,9137.2,2400.1
49182,9387.2,2652.1
49182,8387.2,1649.1
49182,8387.2,1648.1
49182,8637.2,1900.1
49182,8387.2,1649.1
49182,8637.2,1900.1
49182,8887.2,2152.1
49182,8387.2,1649.1
49182,8387.2,1646.1
49182,8637.2,1898.1
49182,8387.2,1646.1
49182,8637.2,1897.1
49182,8887.2,2149.1
49182,8387.2,1649.1
49182,8637.2,1898.1
49182,8887.2,2149.1
49182,9137.2,2401.1
49182,8387.2,1652.1
49182,8387.2,1648.1
49182,8637.2,1900.1
49182,8387.2,1646.1
49182,8637.2,1897.1
49182,8887.2,2149.1
49182,8387.2,1648.1
49182,8637.2,1897.1
49182,8887.2,2148.1
49182,9137.2,2400.1
49182,8387.2,1652.1
49182,8637.2,1900.1
49182,8887.2,2149.1
49182,9137.2,2400.1
49182,9387.2,2652.1
49182,8387.2,1652.1
49182,8637.2,1904.1
49182,8387.2,1649.1
49182,8637.2,1900.1
49182,8887.2,2152.1
49182,8387.2,1649.1
49182,8637.2,1898.1
49182,8887.2,2149.1
49182,9137.2,2401.1
49182,8387.2,1652.1
49182,8637.2,1900.1
49182,8887.2,2149.1
49182,9137.2,2400.1
49182,9387.2,2652.1
49182,8637.2,1904.1
49182,8887.2,2152.1
49182,9137.2,2401.1
49182,9387.2,2652.1
49182,9637.2,2904.1
