36995,5199.1,455.55
37863,4699.1,47.448
37863,4949.1,206.55
37863,5199.1,455.55
37863,5449.1,706.55
37863,5699.1,958.55
38731,4199.1,550.45
38731,4449.1,298.45
38731,4699.1,47.448
38731,4949.1,209.55
38731,5199.1,461.55
38731,4449.1,298.45
38731,4699.1,46.448
38731,4949.1,206.55
38731,5199.1,457.55
38731,5449.1,709.55
38731,4699.1,47.448
38731,4949.1,206.55
38731,5199.1,455.55
38731,5449.1,706.55
38731,5699.1,958.55
38731,4949.1,209.55
38731,5199.1,457.55
38731,5449.1,706.55
38731,5699.1,957.55
38731,5949.1,1209.6
38731,5199.1,461.55
38731,5449.1,709.55
38731,5699.1,958.55
38731,5949.1,1209.6
39599,3699.1,1053.4
39599,3949.1,801.45
39599,4199.1,550.45
39599,4449.1,301.45
39599,3949.1,801.45
39599,4199.1,549.45
39599,4449.1,298.45
39599,4199.1,550.45
39599,4449.1,298.45
39599,4449.1,301.45
39599,3949.1,801.45
39599,4199.1,549.45
39599,4449.1,298.45
39599,4199.1,549.45
39599,4449.1,297.45
39599,4449.1,298.45
39599,5949.1,1212.6
39599,4199.1,550.45
39599,4449.1,298.45
39599,4449.1,298.45
39599,5949.1,1209.6
39599,5949.1,1209.6
39599,6199.1,1461.6
39599,4449.1,301.45
39599,5949.1,1209.6
39599,5949.1,1208.6
39599,6199.1,1460.6
39599,5949.1,1209.6
39599,6199.1,1460.6
39599,6449.1,1712.6
39599,5949.1,1212.6
39599,5949.1,1209.6
39599,6199.1,1461.6
39599,5949.1,1209.6
39599,6199.1,1460.6
39599,6449.1,1712.6
40467,3199.1,1556.4
40467,3449.1,1304.4
40467,3699.1,1053.4
40467,3949.1,804.45
40467,4199.1,556.45
40467,3449.1,1304.4
40467,3699.1,1052.4
40467,3949.1,801.45
40467,4199.1,552.45
40467,4449.1,304.45
40467,3699.1,1053.4
40467,3949.1,801.45
40467,4199.1,550.45
40467,4449.1,301.45
40467,3949.1,804.45
40467,4199.1,552.45
40467,4449.1,301.45
40467,3449.1,1304.4
40467,3699.1,1052.4
40467,3949.1,801.45
40467,4199.1,552.45
40467,4449.1,304.45
40467,3699.1,1052.4
40467,3949.1,800.45
40467,4199.1,549.45
40467,4449.1,300.45
40467,3949.1,801.45
40467,4199.1,549.45
40467,4449.1,298.45
40467,3699.1,1053.4
40467,3949.1,801.45
40467,4199.1,550.45
40467,4449.1,301.45
40467,3949.1,801.45
40467,4199.1,549.45
40467,4449.1,298.45
40467,3949.1,804.45
40467,4199.1,552.45
40467,4449.1,301.45
40467,3449.1,1304.4
40467,3699.1,1052.4
40467,3949.1,801.45
40467,4199.1,552.45
40467,4449.1,304.45
40467,3699.1,1052.4
40467,3949.1,800.45
40467,4199.1,549.45
40467,4449.1,300.45
40467,3949.1,801.45
40467,4199.1,549.45
40467,4449.1,298.45
40467,3699.1,1052.4
40467,3949.1,800.45
40467,4199.1,549.45
40467,4449.1,300.45
40467,3949.1,800.45
40467,4199.1,548.45
40467,4449.1,297.45
40467,3949.1,801.45
40467,4199.1,549.45
40467,4449.1,298.45
40467,5949.1,1212.6
40467,3699.1,1053.4
40467,3949.1,801.45
40467,4199.1,550.45
40467,4449.1,301.45
40467,3949.1,801.45
40467,4199.1,549.45
40467,4449.1,298.45
40467,3949.1,801.45
40467,4199.1,549.45
40467,4449.1,298.45
40467,5949.1,1209.6
40467,5949.1,1209.6
40467,5949.1,1212.6
40467,3949.1,804.45
40467,4199.1,552.45
40467,4449.1,301.45
40467,5949.1,1209.6
40467,5949.1,1208.6
40467,5949.1,1211.6
40467,5949.1,1209.6
40467,5949.1,1211.6
40467,5949.1,1215.6
40467,5949.1,1212.6
40467,5949.1,1209.6
40467,5949.1,1212.6
40467,5949.1,1209.6
40467,5949.1,1211.6
40467,5949.1,1215.6
41335,2699.1,2059.4
41335,2949.1,1807.4
41335,3199.1,1556.4
41335,3449.1,1307.4
41335,3699.1,1059.4
41335,2949.1,1807.4
41335,3199.1,1555.4
41335,3449.1,1304.4
41335,3699.1,1055.4
41335,3949.1,807.45
41335,3199.1,1556.4
41335,3449.1,1304.4
41335,3699.1,1053.4
41335,3949.1,804.45
41335,4199.1,556.45
41335,3449.1,1307.4
41335,3699.1,1055.4
41335,3949.1,804.45
41335,4199.1,555.45
41335,4449.1,307.45
41335,3699.1,1059.4
41335,3949.1,807.45
41335,4199.1,556.45
41335,4449.1,307.45
41335,2949.1,1807.4
41335,3199.1,1555.4
41335,3449.1,1304.4
41335,3699.1,1055.4
41335,3949.1,807.45
41335,3199.1,1555.4
41335,3449.1,1303.4
41335,3699.1,1052.4
41335,3949.1,803.45
41335,4199.1,555.45
41335,3449.1,1304.4
41335,3699.1,1052.4
41335,3949.1,801.45
41335,4199.1,552.45
41335,4449.1,304.45
41335,3699.1,1055.4
41335,3949.1,803.45
41335,4199.1,552.45
41335,4449.1,303.45
41335,3949.1,807.45
41335,4199.1,555.45
41335,4449.1,304.45
41335,3199.1,1556.4
41335,3449.1,1304.4
41335,3699.1,1053.4
41335,3949.1,804.45
41335,4199.1,556.45
41335,3449.1,1304.4
41335,3699.1,1052.4
41335,3949.1,801.45
41335,4199.1,552.45
41335,4449.1,304.45
41335,3699.1,1053.4
41335,3949.1,801.45
41335,4199.1,550.45
41335,4449.1,301.45
41335,3949.1,804.45
41335,4199.1,552.45
41335,4449.1,301.45
41335,3449.1,1307.4
41335,3699.1,1055.4
41335,3949.1,804.45
41335,4199.1,555.45
41335,4449.1,307.45
41335,3699.1,1055.4
41335,3949.1,803.45
41335,4199.1,552.45
41335,4449.1,303.45
41335,3949.1,804.45
41335,4199.1,552.45
41335,4449.1,301.45
41335,2949.1,1807.4
41335,3199.1,1555.4
41335,3449.1,1304.4
41335,3699.1,1055.4
41335,3949.1,807.45
41335,3199.1,1555.4
41335,3449.1,1303.4
41335,3699.1,1052.4
41335,3949.1,803.45
41335,4199.1,555.45
41335,3449.1,1304.4
41335,3699.1,1052.4
41335,3949.1,801.45
41335,4199.1,552.45
41335,4449.1,304.45
41335,3699.1,1055.4
41335,3949.1,803.45
41335,4199.1,552.45
41335,4449.1,303.45
41335,3949.1,807.45
41335,4199.1,555.45
41335,4449.1,304.45
41335,3199.1,1555.4
41335,3449.1,1303.4
41335,3699.1,1052.4
41335,3949.1,803.45
41335,4199.1,555.45
41335,3449.1,1303.4
41335,3699.1,1051.4
41335,3949.1,800.45
41335,4199.1,551.45
41335,4449.1,303.45
41335,3699.1,1052.4
41335,3949.1,800.45
41335,4199.1,549.45
41335,4449.1,300.45
41335,3949.1,803.45
41335,4199.1,551.45
41335,4449.1,300.45
41335,3449.1,1304.4
41335,3699.1,1052.4
41335,3949.1,801.45
41335,4199.1,552.45
41335,4449.1,304.45
41335,3699.1,1052.4
41335,3949.1,800.45
41335,4199.1,549.45
41335,4449.1,300.45
41335,3949.1,801.45
41335,4199.1,549.45
41335,4449.1,298.45
41335,3199.1,1556.4
41335,3449.1,1304.4
41335,3699.1,1053.4
41335,3949.1,804.45
41335,4199.1,556.45
41335,3449.1,1304.4
41335,3699.1,1052.4
41335,3949.1,801.45
41335,4199.1,552.45
41335,4449.1,304.45
41335,3699.1,1053.4
41335,3949.1,801.45
41335,4199.1,550.45
41335,4449.1,301.45
41335,3949.1,804.45
41335,4199.1,552.45
41335,4449.1,301.45
41335,3449.1,1304.4
41335,3699.1,1052.4
41335,3949.1,801.45
41335,4199.1,552.45
41335,4449.1,304.45
41335,3699.1,1052.4
41335,3949.1,800.45
41335,4199.1,549.45
41335,4449.1,300.45
41335,3949.1,801.45
41335,4199.1,549.45
41335,4449.1,298.45
41335,3449.1,1307.4
41335,3699.1,1055.4
41335,3949.1,804.45
41335,4199.1,555.45
41335,4449.1,307.45
41335,3699.1,1055.4
41335,3949.1,803.45
41335,4199.1,552.45
41335,4449.1,303.45
41335,3949.1,804.45
41335,4199.1,552.45
41335,4449.1,301.45
41335,2949.1,1807.4
41335,3199.1,1555.4
41335,3449.1,1304.4
41335,3699.1,1055.4
41335,3949.1,807.45
41335,3199.1,1555.4
41335,3449.1,1303.4
41335,3699.1,1052.4
41335,3949.1,803.45
41335,4199.1,555.45
41335,3449.1,1304.4
41335,3699.1,1052.4
41335,3949.1,801.45
41335,4199.1,552.45
41335,4449.1,304.45
41335,3699.1,1055.4
41335,3949.1,803.45
41335,4199.1,552.45
41335,4449.1,303.45
41335,3949.1,807.45
41335,4199.1,555.45
41335,4449.1,304.45
41335,3199.1,1555.4
41335,3449.1,1303.4
41335,3699.1,1052.4
41335,3949.1,803.45
41335,4199.1,555.45
41335,3449.1,1303.4
41335,3699.1,1051.4
41335,3949.1,800.45
41335,4199.1,551.45
41335,4449.1,303.45
41335,3699.1,1052.4
41335,3949.1,800.45
41335,4199.1,549.45
41335,4449.1,300.45
41335,3949.1,803.45
41335,4199.1,551.45
41335,4449.1,300.45
41335,3449.1,1304.4
41335,3699.1,1052.4
41335,3949.1,801.45
41335,4199.1,552.45
41335,4449.1,304.45
41335,3699.1,1052.4
41335,3949.1,800.45
41335,4199.1,549.45
41335,4449.1,300.45
41335,3949.1,801.45
41335,4199.1,549.45
41335,4449.1,298.45
41335,3199.1,1555.4
41335,3449.1,1303.4
41335,3699.1,1052.4
41335,3949.1,803.45
41335,4199.1,555.45
41335,3449.1,1303.4
41335,3699.1,1051.4
41335,3949.1,800.45
41335,4199.1,551.45
41335,4449.1,303.45
41335,3699.1,1052.4
41335,3949.1,800.45
41335,4199.1,549.45
41335,4449.1,300.45
41335,3949.1,803.45
41335,4199.1,551.45
41335,4449.1,300.45
41335,3449.1,1303.4
41335,3699.1,1051.4
41335,3949.1,800.45
41335,4199.1,551.45
41335,4449.1,303.45
41335,3699.1,1051.4
41335,3949.1,799.45
41335,4199.1,548.45
41335,4449.1,299.45
41335,3949.1,800.45
41335,4199.1,548.45
41335,4449.1,297.45
41335,3449.1,1304.4
41335,3699.1,1052.4
41335,3949.1,801.45
41335,4199.1,552.45
41335,4449.1,304.45
41335,3699.1,1052.4
41335,3949.1,800.45
41335,4199.1,549.45
41335,4449.1,300.45
41335,3949.1,801.45
41335,4199.1,549.45
41335,4449.1,298.45
41335,5949.1,1212.6
41335,6199.1,1463.6
41335,6449.1,1715.6
41335,3199.1,1556.4
41335,3449.1,1304.4
41335,3699.1,1053.4
41335,3949.1,804.45
41335,4199.1,556.45
41335,3449.1,1304.4
41335,3699.1,1052.4
41335,3949.1,801.45
41335,4199.1,552.45
41335,4449.1,304.45
41335,3699.1,1053.4
41335,3949.1,801.45
41335,4199.1,550.45
41335,4449.1,301.45
41335,3949.1,804.45
41335,4199.1,552.45
41335,4449.1,301.45
41335,3449.1,1304.4
41335,3699.1,1052.4
41335,3949.1,801.45
41335,4199.1,552.45
41335,4449.1,304.45
41335,3699.1,1052.4
41335,3949.1,800.45
41335,4199.1,549.45
41335,4449.1,300.45
41335,3949.1,801.45
41335,4199.1,549.45
41335,4449.1,298.45
41335,3449.1,1304.4
41335,3699.1,1052.4
41335,3949.1,801.45
41335,4199.1,552.45
41335,4449.1,304.45
41335,3699.1,1052.4
41335,3949.1,800.45
41335,4199.1,549.45
41335,4449.1,300.45
41335,3949.1,801.45
41335,4199.1,549.45
41335,4449.1,298.45
41335,5949.1,1209.6
41335,6199.1,1460.6
41335,6449.1,1712.6
41335,5949.1,1209.6
41335,6199.1,1460.6
41335,6449.1,1712.6
41335,5949.1,1212.6
41335,6199.1,1463.6
41335,6449.1,1715.6
41335,3449.1,1307.4
41335,3699.1,1055.4
41335,3949.1,804.45
41335,4199.1,555.45
41335,4449.1,307.45
41335,3699.1,1055.4
41335,3949.1,803.45
41335,4199.1,552.45
41335,4449.1,303.45
41335,3949.1,804.45
41335,4199.1,552.45
41335,4449.1,301.45
41335,5949.1,1209.6
41335,6199.1,1460.6
41335,6449.1,1712.6
41335,5949.1,1208.6
41335,6199.1,1459.6
41335,6449.1,1711.6
41335,5949.1,1211.6
41335,6199.1,1462.6
41335,6449.1,1714.6
41335,5949.1,1209.6
41335,6199.1,1460.6
41335,6449.1,1712.6
41335,5949.1,1211.6
41335,6199.1,1462.6
41335,6449.1,1714.6
41335,5949.1,1215.6
41335,6199.1,1466.6
41335,6449.1,1718.6
41335,5949.1,1212.6
41335,6199.1,1463.6
41335,6449.1,1715.6
41335,5949.1,1209.6
41335,6199.1,1460.6
41335,6449.1,1712.6
41335,5949.1,1212.6
41335,6199.1,1463.6
41335,6449.1,1715.6
41335,5949.1,1209.6
41335,6199.1,1460.6
41335,6449.1,1712.6
41335,5949.1,1211.6
41335,6199.1,1462.6
41335,6449.1,1714.6
41335,5949.1,1215.6
41335,6199.1,1466.6
41335,6449.1,1718.6
42203,2199.1,2562.4
42203,2449.1,2310.4
42203,2699.1,2059.4
42203,2949.1,1810.4
42203,3199.1,1562.4
42203,2449.1,2310.4
42203,2699.1,2058.4
42203,2949.1,1807.4
42203,3199.1,1558.4
42203,3449.1,1310.4
42203,2699.1,2059.4
42203,2949.1,1807.4
42203,3199.1,1556.4
42203,3449.1,1307.4
42203,3699.1,1059.4
42203,2949.1,1810.4
42203,3199.1,1558.4
42203,3449.1,1307.4
42203,3699.1,1058.4
42203,3949.1,810.45
42203,3199.1,1562.4
42203,3449.1,1310.4
42203,3699.1,1059.4
42203,3949.1,810.45
42203,4199.1,562.45
42203,2449.1,2310.4
42203,2699.1,2058.4
42203,2949.1,1807.4
42203,3199.1,1558.4
42203,3449.1,1310.4
42203,2699.1,2058.4
42203,2949.1,1806.4
42203,3199.1,1555.4
42203,3449.1,1306.4
42203,3699.1,1058.4
42203,2949.1,1807.4
42203,3199.1,1555.4
42203,3449.1,1304.4
42203,3699.1,1055.4
42203,3949.1,807.45
42203,3199.1,1558.4
42203,3449.1,1306.4
42203,3699.1,1055.4
42203,3949.1,806.45
42203,4199.1,558.45
42203,3449.1,1310.4
42203,3699.1,1058.4
42203,3949.1,807.45
42203,4199.1,558.45
42203,4449.1,310.45
42203,2699.1,2059.4
42203,2949.1,1807.4
42203,3199.1,1556.4
42203,3449.1,1307.4
42203,3699.1,1059.4
42203,2949.1,1807.4
42203,3199.1,1555.4
42203,3449.1,1304.4
42203,3699.1,1055.4
42203,3949.1,807.45
42203,3199.1,1556.4
42203,3449.1,1304.4
42203,3699.1,1053.4
42203,3949.1,804.45
42203,4199.1,556.45
42203,3449.1,1307.4
42203,3699.1,1055.4
42203,3949.1,804.45
42203,4199.1,555.45
42203,4449.1,307.45
42203,3699.1,1059.4
42203,3949.1,807.45
42203,4199.1,556.45
42203,4449.1,307.45
42203,2949.1,1810.4
42203,3199.1,1558.4
42203,3449.1,1307.4
42203,3699.1,1058.4
42203,3949.1,810.45
42203,3199.1,1558.4
42203,3449.1,1306.4
42203,3699.1,1055.4
42203,3949.1,806.45
42203,4199.1,558.45
42203,3449.1,1307.4
42203,3699.1,1055.4
42203,3949.1,804.45
42203,4199.1,555.45
42203,4449.1,307.45
42203,3699.1,1058.4
42203,3949.1,806.45
42203,4199.1,555.45
42203,4449.1,306.45
42203,3949.1,810.45
42203,4199.1,558.45
42203,4449.1,307.45
42203,3199.1,1562.4
42203,3449.1,1310.4
42203,3699.1,1059.4
42203,3949.1,810.45
42203,4199.1,562.45
42203,3449.1,1310.4
42203,3699.1,1058.4
42203,3949.1,807.45
42203,4199.1,558.45
42203,4449.1,310.45
42203,3699.1,1059.4
42203,3949.1,807.45
42203,4199.1,556.45
42203,4449.1,307.45
42203,3949.1,810.45
42203,4199.1,558.45
42203,4449.1,307.45
42203,2449.1,2310.4
42203,2699.1,2058.4
42203,2949.1,1807.4
42203,3199.1,1558.4
42203,3449.1,1310.4
42203,2699.1,2058.4
42203,2949.1,1806.4
42203,3199.1,1555.4
42203,3449.1,1306.4
42203,3699.1,1058.4
42203,2949.1,1807.4
42203,3199.1,1555.4
42203,3449.1,1304.4
42203,3699.1,1055.4
42203,3949.1,807.45
42203,3199.1,1558.4
42203,3449.1,1306.4
42203,3699.1,1055.4
42203,3949.1,806.45
42203,4199.1,558.45
42203,3449.1,1310.4
42203,3699.1,1058.4
42203,3949.1,807.45
42203,4199.1,558.45
42203,4449.1,310.45
42203,2699.1,2058.4
42203,2949.1,1806.4
42203,3199.1,1555.4
42203,3449.1,1306.4
42203,3699.1,1058.4
42203,2949.1,1806.4
42203,3199.1,1554.4
42203,3449.1,1303.4
42203,3699.1,1054.4
42203,3949.1,806.45
42203,3199.1,1555.4
42203,3449.1,1303.4
42203,3699.1,1052.4
42203,3949.1,803.45
42203,4199.1,555.45
42203,3449.1,1306.4
42203,3699.1,1054.4
42203,3949.1,803.45
42203,4199.1,554.45
42203,4449.1,306.45
42203,3699.1,1058.4
42203,3949.1,806.45
42203,4199.1,555.45
42203,4449.1,306.45
42203,2949.1,1807.4
42203,3199.1,1555.4
42203,3449.1,1304.4
42203,3699.1,1055.4
42203,3949.1,807.45
42203,3199.1,1555.4
42203,3449.1,1303.4
42203,3699.1,1052.4
42203,3949.1,803.45
42203,4199.1,555.45
42203,3449.1,1304.4
42203,3699.1,1052.4
42203,3949.1,801.45
42203,4199.1,552.45
42203,4449.1,304.45
42203,3699.1,1055.4
42203,3949.1,803.45
42203,4199.1,552.45
42203,4449.1,303.45
42203,3949.1,807.45
42203,4199.1,555.45
42203,4449.1,304.45
42203,3199.1,1558.4
42203,3449.1,1306.4
42203,3699.1,1055.4
42203,3949.1,806.45
42203,4199.1,558.45
42203,3449.1,1306.4
42203,3699.1,1054.4
42203,3949.1,803.45
42203,4199.1,554.45
42203,4449.1,306.45
42203,3699.1,1055.4
42203,3949.1,803.45
42203,4199.1,552.45
42203,4449.1,303.45
42203,3949.1,806.45
42203,4199.1,554.45
42203,4449.1,303.45
42203,3449.1,1310.4
42203,3699.1,1058.4
42203,3949.1,807.45
42203,4199.1,558.45
42203,4449.1,310.45
42203,3699.1,1058.4
42203,3949.1,806.45
42203,4199.1,555.45
42203,4449.1,306.45
42203,3949.1,807.45
42203,4199.1,555.45
42203,4449.1,304.45
42203,2699.1,2059.4
42203,2949.1,1807.4
42203,3199.1,1556.4
42203,3449.1,1307.4
42203,3699.1,1059.4
42203,2949.1,1807.4
42203,3199.1,1555.4
42203,3449.1,1304.4
42203,3699.1,1055.4
42203,3949.1,807.45
42203,3199.1,1556.4
42203,3449.1,1304.4
42203,3699.1,1053.4
42203,3949.1,804.45
42203,4199.1,556.45
42203,3449.1,1307.4
42203,3699.1,1055.4
42203,3949.1,804.45
42203,4199.1,555.45
42203,4449.1,307.45
42203,3699.1,1059.4
42203,3949.1,807.45
42203,4199.1,556.45
42203,4449.1,307.45
42203,2949.1,1807.4
42203,3199.1,1555.4
42203,3449.1,1304.4
42203,3699.1,1055.4
42203,3949.1,807.45
42203,3199.1,1555.4
42203,3449.1,1303.4
42203,3699.1,1052.4
42203,3949.1,803.45
42203,4199.1,555.45
42203,3449.1,1304.4
42203,3699.1,1052.4
42203,3949.1,801.45
42203,4199.1,552.45
42203,4449.1,304.45
42203,3699.1,1055.4
42203,3949.1,803.45
42203,4199.1,552.45
42203,4449.1,303.45
42203,3949.1,807.45
42203,4199.1,555.45
42203,4449.1,304.45
42203,3199.1,1556.4
42203,3449.1,1304.4
42203,3699.1,1053.4
42203,3949.1,804.45
42203,4199.1,556.45
42203,3449.1,1304.4
42203,3699.1,1052.4
42203,3949.1,801.45
42203,4199.1,552.45
42203,4449.1,304.45
42203,3699.1,1053.4
42203,3949.1,801.45
42203,4199.1,550.45
42203,4449.1,301.45
42203,3949.1,804.45
42203,4199.1,552.45
42203,4449.1,301.45
42203,3449.1,1307.4
42203,3699.1,1055.4
42203,3949.1,804.45
42203,4199.1,555.45
42203,4449.1,307.45
42203,3699.1,1055.4
42203,3949.1,803.45
42203,4199.1,552.45
42203,4449.1,303.45
42203,3949.1,804.45
42203,4199.1,552.45
42203,4449.1,301.45
42203,2949.1,1810.4
42203,3199.1,1558.4
42203,3449.1,1307.4
42203,3699.1,1058.4
42203,3949.1,810.45
42203,3199.1,1558.4
42203,3449.1,1306.4
42203,3699.1,1055.4
42203,3949.1,806.45
42203,4199.1,558.45
42203,3449.1,1307.4
42203,3699.1,1055.4
42203,3949.1,804.45
42203,4199.1,555.45
42203,4449.1,307.45
42203,3699.1,1058.4
42203,3949.1,806.45
42203,4199.1,555.45
42203,4449.1,306.45
42203,3949.1,810.45
42203,4199.1,558.45
42203,4449.1,307.45
42203,3199.1,1558.4
42203,3449.1,1306.4
42203,3699.1,1055.4
42203,3949.1,806.45
42203,4199.1,558.45
42203,3449.1,1306.4
42203,3699.1,1054.4
42203,3949.1,803.45
42203,4199.1,554.45
42203,4449.1,306.45
42203,3699.1,1055.4
42203,3949.1,803.45
42203,4199.1,552.45
42203,4449.1,303.45
42203,3949.1,806.45
42203,4199.1,554.45
42203,4449.1,303.45
42203,3449.1,1307.4
42203,3699.1,1055.4
42203,3949.1,804.45
42203,4199.1,555.45
42203,4449.1,307.45
42203,3699.1,1055.4
42203,3949.1,803.45
42203,4199.1,552.45
42203,4449.1,303.45
42203,3949.1,804.45
42203,4199.1,552.45
42203,4449.1,301.45
42203,2449.1,2310.4
42203,2699.1,2058.4
42203,2949.1,1807.4
42203,3199.1,1558.4
42203,3449.1,1310.4
42203,2699.1,2058.4
42203,2949.1,1806.4
42203,3199.1,1555.4
42203,3449.1,1306.4
42203,3699.1,1058.4
42203,2949.1,1807.4
42203,3199.1,1555.4
42203,3449.1,1304.4
42203,3699.1,1055.4
42203,3949.1,807.45
42203,3199.1,1558.4
42203,3449.1,1306.4
42203,3699.1,1055.4
42203,3949.1,806.45
42203,4199.1,558.45
42203,3449.1,1310.4
42203,3699.1,1058.4
42203,3949.1,807.45
42203,4199.1,558.45
42203,4449.1,310.45
42203,2699.1,2058.4
42203,2949.1,1806.4
42203,3199.1,1555.4
42203,3449.1,1306.4
42203,3699.1,1058.4
42203,2949.1,1806.4
42203,3199.1,1554.4
42203,3449.1,1303.4
42203,3699.1,1054.4
42203,3949.1,806.45
42203,3199.1,1555.4
42203,3449.1,1303.4
42203,3699.1,1052.4
42203,3949.1,803.45
42203,4199.1,555.45
42203,3449.1,1306.4
42203,3699.1,1054.4
42203,3949.1,803.45
42203,4199.1,554.45
42203,4449.1,306.45
42203,3699.1,1058.4
42203,3949.1,806.45
42203,4199.1,555.45
42203,4449.1,306.45
42203,2949.1,1807.4
42203,3199.1,1555.4
42203,3449.1,1304.4
42203,3699.1,1055.4
42203,3949.1,807.45
42203,3199.1,1555.4
42203,3449.1,1303.4
42203,3699.1,1052.4
42203,3949.1,803.45
42203,4199.1,555.45
42203,3449.1,1304.4
42203,3699.1,1052.4
42203,3949.1,801.45
42203,4199.1,552.45
42203,4449.1,304.45
42203,3699.1,1055.4
42203,3949.1,803.45
42203,4199.1,552.45
42203,4449.1,303.45
42203,3949.1,807.45
42203,4199.1,555.45
42203,4449.1,304.45
42203,3199.1,1558.4
42203,3449.1,1306.4
42203,3699.1,1055.4
42203,3949.1,806.45
42203,4199.1,558.45
42203,3449.1,1306.4
42203,3699.1,1054.4
42203,3949.1,803.45
42203,4199.1,554.45
42203,4449.1,306.45
42203,3699.1,1055.4
42203,3949.1,803.45
42203,4199.1,552.45
42203,4449.1,303.45
42203,3949.1,806.45
42203,4199.1,554.45
42203,4449.1,303.45
42203,3449.1,1310.4
42203,3699.1,1058.4
42203,3949.1,807.45
42203,4199.1,558.45
42203,4449.1,310.45
42203,3699.1,1058.4
42203,3949.1,806.45
42203,4199.1,555.45
42203,4449.1,306.45
42203,3949.1,807.45
42203,4199.1,555.45
42203,4449.1,304.45
42203,2699.1,2058.4
42203,2949.1,1806.4
42203,3199.1,1555.4
42203,3449.1,1306.4
42203,3699.1,1058.4
42203,2949.1,1806.4
42203,3199.1,1554.4
42203,3449.1,1303.4
42203,3699.1,1054.4
42203,3949.1,806.45
42203,3199.1,1555.4
42203,3449.1,1303.4
42203,3699.1,1052.4
42203,3949.1,803.45
42203,4199.1,555.45
42203,3449.1,1306.4
42203,3699.1,1054.4
42203,3949.1,803.45
42203,4199.1,554.45
42203,4449.1,306.45
42203,3699.1,1058.4
42203,3949.1,806.45
42203,4199.1,555.45
42203,4449.1,306.45
42203,2949.1,1806.4
42203,3199.1,1554.4
42203,3449.1,1303.4
42203,3699.1,1054.4
42203,3949.1,806.45
42203,3199.1,1554.4
42203,3449.1,1302.4
42203,3699.1,1051.4
42203,3949.1,802.45
42203,4199.1,554.45
42203,3449.1,1303.4
42203,3699.1,1051.4
42203,3949.1,800.45
42203,4199.1,551.45
42203,4449.1,303.45
42203,3699.1,1054.4
42203,3949.1,802.45
42203,4199.1,551.45
42203,4449.1,302.45
42203,3949.1,806.45
42203,4199.1,554.45
42203,4449.1,303.45
42203,3199.1,1555.4
42203,3449.1,1303.4
42203,3699.1,1052.4
42203,3949.1,803.45
42203,4199.1,555.45
42203,3449.1,1303.4
42203,3699.1,1051.4
42203,3949.1,800.45
42203,4199.1,551.45
42203,4449.1,303.45
42203,3699.1,1052.4
42203,3949.1,800.45
42203,4199.1,549.45
42203,4449.1,300.45
42203,3949.1,803.45
42203,4199.1,551.45
42203,4449.1,300.45
42203,3449.1,1306.4
42203,3699.1,1054.4
42203,3949.1,803.45
42203,4199.1,554.45
42203,4449.1,306.45
42203,3699.1,1054.4
42203,3949.1,802.45
42203,4199.1,551.45
42203,4449.1,302.45
42203,3949.1,803.45
42203,4199.1,551.45
42203,4449.1,300.45
42203,2949.1,1807.4
42203,3199.1,1555.4
42203,3449.1,1304.4
42203,3699.1,1055.4
42203,3949.1,807.45
42203,3199.1,1555.4
42203,3449.1,1303.4
42203,3699.1,1052.4
42203,3949.1,803.45
42203,4199.1,555.45
42203,3449.1,1304.4
42203,3699.1,1052.4
42203,3949.1,801.45
42203,4199.1,552.45
42203,4449.1,304.45
42203,3699.1,1055.4
42203,3949.1,803.45
42203,4199.1,552.45
42203,4449.1,303.45
42203,3949.1,807.45
42203,4199.1,555.45
42203,4449.1,304.45
42203,3199.1,1555.4
42203,3449.1,1303.4
42203,3699.1,1052.4
42203,3949.1,803.45
42203,4199.1,555.45
42203,3449.1,1303.4
42203,3699.1,1051.4
42203,3949.1,800.45
42203,4199.1,551.45
42203,4449.1,303.45
42203,3699.1,1052.4
42203,3949.1,800.45
42203,4199.1,549.45
42203,4449.1,300.45
42203,3949.1,803.45
42203,4199.1,551.45
42203,4449.1,300.45
42203,3449.1,1304.4
42203,3699.1,1052.4
42203,3949.1,801.45
42203,4199.1,552.45
42203,4449.1,304.45
42203,3699.1,1052.4
42203,3949.1,800.45
42203,4199.1,549.45
42203,4449.1,300.45
42203,3949.1,801.45
42203,4199.1,549.45
42203,4449.1,298.45
42203,2699.1,2059.4
42203,2949.1,1807.4
42203,3199.1,1556.4
42203,3449.1,1307.4
42203,3699.1,1059.4
42203,2949.1,1807.4
42203,3199.1,1555.4
42203,3449.1,1304.4
42203,3699.1,1055.4
42203,3949.1,807.45
42203,3199.1,1556.4
42203,3449.1,1304.4
42203,3699.1,1053.4
42203,3949.1,804.45
42203,4199.1,556.45
42203,3449.1,1307.4
42203,3699.1,1055.4
42203,3949.1,804.45
42203,4199.1,555.45
42203,4449.1,307.45
42203,3699.1,1059.4
42203,3949.1,807.45
42203,4199.1,556.45
42203,4449.1,307.45
42203,2949.1,1807.4
42203,3199.1,1555.4
42203,3449.1,1304.4
42203,3699.1,1055.4
42203,3949.1,807.45
42203,3199.1,1555.4
42203,3449.1,1303.4
42203,3699.1,1052.4
42203,3949.1,803.45
42203,4199.1,555.45
42203,3449.1,1304.4
42203,3699.1,1052.4
42203,3949.1,801.45
42203,4199.1,552.45
42203,4449.1,304.45
42203,3699.1,1055.4
42203,3949.1,803.45
42203,4199.1,552.45
42203,4449.1,303.45
42203,3949.1,807.45
42203,4199.1,555.45
42203,4449.1,304.45
42203,3199.1,1556.4
42203,3449.1,1304.4
42203,3699.1,1053.4
42203,3949.1,804.45
42203,4199.1,556.45
42203,3449.1,1304.4
42203,3699.1,1052.4
42203,3949.1,801.45
42203,4199.1,552.45
42203,4449.1,304.45
42203,3699.1,1053.4
42203,3949.1,801.45
42203,4199.1,550.45
42203,4449.1,301.45
42203,3949.1,804.45
42203,4199.1,552.45
42203,4449.1,301.45
42203,3449.1,1307.4
42203,3699.1,1055.4
42203,3949.1,804.45
42203,4199.1,555.45
42203,4449.1,307.45
42203,3699.1,1055.4
42203,3949.1,803.45
42203,4199.1,552.45
42203,4449.1,303.45
42203,3949.1,804.45
42203,4199.1,552.45
42203,4449.1,301.45
42203,2949.1,1807.4
42203,3199.1,1555.4
42203,3449.1,1304.4
42203,3699.1,1055.4
42203,3949.1,807.45
42203,3199.1,1555.4
42203,3449.1,1303.4
42203,3699.1,1052.4
42203,3949.1,803.45
42203,4199.1,555.45
42203,3449.1,1304.4
42203,3699.1,1052.4
42203,3949.1,801.45
42203,4199.1,552.45
42203,4449.1,304.45
42203,3699.1,1055.4
42203,3949.1,803.45
42203,4199.1,552.45
42203,4449.1,303.45
42203,3949.1,807.45
42203,4199.1,555.45
42203,4449.1,304.45
42203,3199.1,1555.4
42203,3449.1,1303.4
42203,3699.1,1052.4
42203,3949.1,803.45
42203,4199.1,555.45
42203,3449.1,1303.4
42203,3699.1,1051.4
42203,3949.1,800.45
42203,4199.1,551.45
42203,4449.1,303.45
42203,3699.1,1052.4
42203,3949.1,800.45
42203,4199.1,549.45
42203,4449.1,300.45
42203,3949.1,803.45
42203,4199.1,551.45
42203,4449.1,300.45
42203,3449.1,1304.4
42203,3699.1,1052.4
42203,3949.1,801.45
42203,4199.1,552.45
42203,4449.1,304.45
42203,3699.1,1052.4
42203,3949.1,800.45
42203,4199.1,549.45
42203,4449.1,300.45
42203,3949.1,801.45
42203,4199.1,549.45
42203,4449.1,298.45
42203,2949.1,1810.4
42203,3199.1,1558.4
42203,3449.1,1307.4
42203,3699.1,1058.4
42203,3949.1,810.45
42203,3199.1,1558.4
42203,3449.1,1306.4
42203,3699.1,1055.4
42203,3949.1,806.45
42203,4199.1,558.45
42203,3449.1,1307.4
42203,3699.1,1055.4
42203,3949.1,804.45
42203,4199.1,555.45
42203,4449.1,307.45
42203,3699.1,1058.4
42203,3949.1,806.45
42203,4199.1,555.45
42203,4449.1,306.45
42203,3949.1,810.45
42203,4199.1,558.45
42203,4449.1,307.45
42203,3199.1,1558.4
42203,3449.1,1306.4
42203,3699.1,1055.4
42203,3949.1,806.45
42203,4199.1,558.45
42203,3449.1,1306.4
42203,3699.1,1054.4
42203,3949.1,803.45
42203,4199.1,554.45
42203,4449.1,306.45
42203,3699.1,1055.4
42203,3949.1,803.45
42203,4199.1,552.45
42203,4449.1,303.45
42203,3949.1,806.45
42203,4199.1,554.45
42203,4449.1,303.45
42203,3449.1,1307.4
42203,3699.1,1055.4
42203,3949.1,804.45
42203,4199.1,555.45
42203,4449.1,307.45
42203,3699.1,1055.4
42203,3949.1,803.45
42203,4199.1,552.45
42203,4449.1,303.45
42203,3949.1,804.45
42203,4199.1,552.45
42203,4449.1,301.45
42203,2449.1,2310.4
42203,2699.1,2058.4
42203,2949.1,1807.4
42203,3199.1,1558.4
42203,3449.1,1310.4
42203,2699.1,2058.4
42203,2949.1,1806.4
42203,3199.1,1555.4
42203,3449.1,1306.4
42203,3699.1,1058.4
42203,2949.1,1807.4
42203,3199.1,1555.4
42203,3449.1,1304.4
42203,3699.1,1055.4
42203,3949.1,807.45
42203,3199.1,1558.4
42203,3449.1,1306.4
42203,3699.1,1055.4
42203,3949.1,806.45
42203,4199.1,558.45
42203,3449.1,1310.4
42203,3699.1,1058.4
42203,3949.1,807.45
42203,4199.1,558.45
42203,4449.1,310.45
42203,2699.1,2058.4
42203,2949.1,1806.4
42203,3199.1,1555.4
42203,3449.1,1306.4
42203,3699.1,1058.4
42203,2949.1,1806.4
42203,3199.1,1554.4
42203,3449.1,1303.4
42203,3699.1,1054.4
42203,3949.1,806.45
42203,3199.1,1555.4
42203,3449.1,1303.4
42203,3699.1,1052.4
42203,3949.1,803.45
42203,4199.1,555.45
42203,3449.1,1306.4
42203,3699.1,1054.4
42203,3949.1,803.45
42203,4199.1,554.45
42203,4449.1,306.45
42203,3699.1,1058.4
42203,3949.1,806.45
42203,4199.1,555.45
42203,4449.1,306.45
42203,2949.1,1807.4
42203,3199.1,1555.4
42203,3449.1,1304.4
42203,3699.1,1055.4
42203,3949.1,807.45
42203,3199.1,1555.4
42203,3449.1,1303.4
42203,3699.1,1052.4
42203,3949.1,803.45
42203,4199.1,555.45
42203,3449.1,1304.4
42203,3699.1,1052.4
42203,3949.1,801.45
42203,4199.1,552.45
42203,4449.1,304.45
42203,3699.1,1055.4
42203,3949.1,803.45
42203,4199.1,552.45
42203,4449.1,303.45
42203,3949.1,807.45
42203,4199.1,555.45
42203,4449.1,304.45
42203,3199.1,1558.4
42203,3449.1,1306.4
42203,3699.1,1055.4
42203,3949.1,806.45
42203,4199.1,558.45
42203,3449.1,1306.4
42203,3699.1,1054.4
42203,3949.1,803.45
42203,4199.1,554.45
42203,4449.1,306.45
42203,3699.1,1055.4
42203,3949.1,803.45
42203,4199.1,552.45
42203,4449.1,303.45
42203,3949.1,806.45
42203,4199.1,554.45
42203,4449.1,303.45
42203,3449.1,1310.4
42203,3699.1,1058.4
42203,3949.1,807.45
42203,4199.1,558.45
42203,4449.1,310.45
42203,3699.1,1058.4
42203,3949.1,806.45
42203,4199.1,555.45
42203,4449.1,306.45
42203,3949.1,807.45
42203,4199.1,555.45
42203,4449.1,304.45
42203,2699.1,2058.4
42203,2949.1,1806.4
42203,3199.1,1555.4
42203,3449.1,1306.4
42203,3699.1,1058.4
42203,2949.1,1806.4
42203,3199.1,1554.4
42203,3449.1,1303.4
42203,3699.1,1054.4
42203,3949.1,806.45
42203,3199.1,1555.4
42203,3449.1,1303.4
42203,3699.1,1052.4
42203,3949.1,803.45
42203,4199.1,555.45
42203,3449.1,1306.4
42203,3699.1,1054.4
42203,3949.1,803.45
42203,4199.1,554.45
42203,4449.1,306.45
42203,3699.1,1058.4
42203,3949.1,806.45
42203,4199.1,555.45
42203,4449.1,306.45
42203,2949.1,1806.4
42203,3199.1,1554.4
42203,3449.1,1303.4
42203,3699.1,1054.4
42203,3949.1,806.45
42203,3199.1,1554.4
42203,3449.1,1302.4
42203,3699.1,1051.4
42203,3949.1,802.45
42203,4199.1,554.45
42203,3449.1,1303.4
42203,3699.1,1051.4
42203,3949.1,800.45
42203,4199.1,551.45
42203,4449.1,303.45
42203,3699.1,1054.4
42203,3949.1,802.45
42203,4199.1,551.45
42203,4449.1,302.45
42203,3949.1,806.45
42203,4199.1,554.45
42203,4449.1,303.45
42203,3199.1,1555.4
42203,3449.1,1303.4
42203,3699.1,1052.4
42203,3949.1,803.45
42203,4199.1,555.45
42203,3449.1,1303.4
42203,3699.1,1051.4
42203,3949.1,800.45
42203,4199.1,551.45
42203,4449.1,303.45
42203,3699.1,1052.4
42203,3949.1,800.45
42203,4199.1,549.45
42203,4449.1,300.45
42203,3949.1,803.45
42203,4199.1,551.45
42203,4449.1,300.45
42203,3449.1,1306.4
42203,3699.1,1054.4
42203,3949.1,803.45
42203,4199.1,554.45
42203,4449.1,306.45
42203,3699.1,1054.4
42203,3949.1,802.45
42203,4199.1,551.45
42203,4449.1,302.45
42203,3949.1,803.45
42203,4199.1,551.45
42203,4449.1,300.45
42203,2949.1,1807.4
42203,3199.1,1555.4
42203,3449.1,1304.4
42203,3699.1,1055.4
42203,3949.1,807.45
42203,3199.1,1555.4
42203,3449.1,1303.4
42203,3699.1,1052.4
42203,3949.1,803.45
42203,4199.1,555.45
42203,3449.1,1304.4
42203,3699.1,1052.4
42203,3949.1,801.45
42203,4199.1,552.45
42203,4449.1,304.45
42203,3699.1,1055.4
42203,3949.1,803.45
42203,4199.1,552.45
42203,4449.1,303.45
42203,3949.1,807.45
42203,4199.1,555.45
42203,4449.1,304.45
42203,3199.1,1555.4
42203,3449.1,1303.4
42203,3699.1,1052.4
42203,3949.1,803.45
42203,4199.1,555.45
42203,3449.1,1303.4
42203,3699.1,1051.4
42203,3949.1,800.45
42203,4199.1,551.45
42203,4449.1,303.45
42203,3699.1,1052.4
42203,3949.1,800.45
42203,4199.1,549.45
42203,4449.1,300.45
42203,3949.1,803.45
42203,4199.1,551.45
42203,4449.1,300.45
42203,3449.1,1304.4
42203,3699.1,1052.4
42203,3949.1,801.45
42203,4199.1,552.45
42203,4449.1,304.45
42203,3699.1,1052.4
42203,3949.1,800.45
42203,4199.1,549.45
42203,4449.1,300.45
42203,3949.1,801.45
42203,4199.1,549.45
42203,4449.1,298.45
42203,2699.1,2058.4
42203,2949.1,1806.4
42203,3199.1,1555.4
42203,3449.1,1306.4
42203,3699.1,1058.4
42203,2949.1,1806.4
42203,3199.1,1554.4
42203,3449.1,1303.4
42203,3699.1,1054.4
42203,3949.1,806.45
42203,3199.1,1555.4
42203,3449.1,1303.4
42203,3699.1,1052.4
42203,3949.1,803.45
42203,4199.1,555.45
42203,3449.1,1306.4
42203,3699.1,1054.4
42203,3949.1,803.45
42203,4199.1,554.45
42203,4449.1,306.45
42203,3699.1,1058.4
42203,3949.1,806.45
42203,4199.1,555.45
42203,4449.1,306.45
42203,2949.1,1806.4
42203,3199.1,1554.4
42203,3449.1,1303.4
42203,3699.1,1054.4
42203,3949.1,806.45
42203,3199.1,1554.4
42203,3449.1,1302.4
42203,3699.1,1051.4
42203,3949.1,802.45
42203,4199.1,554.45
42203,3449.1,1303.4
42203,3699.1,1051.4
42203,3949.1,800.45
42203,4199.1,551.45
42203,4449.1,303.45
42203,3699.1,1054.4
42203,3949.1,802.45
42203,4199.1,551.45
42203,4449.1,302.45
42203,3949.1,806.45
42203,4199.1,554.45
42203,4449.1,303.45
42203,3199.1,1555.4
42203,3449.1,1303.4
42203,3699.1,1052.4
42203,3949.1,803.45
42203,4199.1,555.45
42203,3449.1,1303.4
42203,3699.1,1051.4
42203,3949.1,800.45
42203,4199.1,551.45
42203,4449.1,303.45
42203,3699.1,1052.4
42203,3949.1,800.45
42203,4199.1,549.45
42203,4449.1,300.45
42203,3949.1,803.45
42203,4199.1,551.45
42203,4449.1,300.45
42203,3449.1,1306.4
42203,3699.1,1054.4
42203,3949.1,803.45
42203,4199.1,554.45
42203,4449.1,306.45
42203,3699.1,1054.4
42203,3949.1,802.45
42203,4199.1,551.45
42203,4449.1,302.45
42203,3949.1,803.45
42203,4199.1,551.45
42203,4449.1,300.45
42203,2949.1,1806.4
42203,3199.1,1554.4
42203,3449.1,1303.4
42203,3699.1,1054.4
42203,3949.1,806.45
42203,3199.1,1554.4
42203,3449.1,1302.4
42203,3699.1,1051.4
42203,3949.1,802.45
42203,4199.1,554.45
42203,3449.1,1303.4
42203,3699.1,1051.4
42203,3949.1,800.45
42203,4199.1,551.45
42203,4449.1,303.45
42203,3699.1,1054.4
42203,3949.1,802.45
42203,4199.1,551.45
42203,4449.1,302.45
42203,3949.1,806.45
42203,4199.1,554.45
42203,4449.1,303.45
42203,3199.1,1554.4
42203,3449.1,1302.4
42203,3699.1,1051.4
42203,3949.1,802.45
42203,4199.1,554.45
42203,3449.1,1302.4
42203,3699.1,1050.4
42203,3949.1,799.45
42203,4199.1,550.45
42203,4449.1,302.45
42203,3699.1,1051.4
42203,3949.1,799.45
42203,4199.1,548.45
42203,4449.1,299.45
42203,3949.1,802.45
42203,4199.1,550.45
42203,4449.1,299.45
42203,3449.1,1303.4
42203,3699.1,1051.4
42203,3949.1,800.45
42203,4199.1,551.45
42203,4449.1,303.45
42203,3699.1,1051.4
42203,3949.1,799.45
42203,4199.1,548.45
42203,4449.1,299.45
42203,3949.1,800.45
42203,4199.1,548.45
42203,4449.1,297.45
42203,2949.1,1807.4
42203,3199.1,1555.4
42203,3449.1,1304.4
42203,3699.1,1055.4
42203,3949.1,807.45
42203,3199.1,1555.4
42203,3449.1,1303.4
42203,3699.1,1052.4
42203,3949.1,803.45
42203,4199.1,555.45
42203,3449.1,1304.4
42203,3699.1,1052.4
42203,3949.1,801.45
42203,4199.1,552.45
42203,4449.1,304.45
42203,3699.1,1055.4
42203,3949.1,803.45
42203,4199.1,552.45
42203,4449.1,303.45
42203,3949.1,807.45
42203,4199.1,555.45
42203,4449.1,304.45
42203,3199.1,1555.4
42203,3449.1,1303.4
42203,3699.1,1052.4
42203,3949.1,803.45
42203,4199.1,555.45
42203,3449.1,1303.4
42203,3699.1,1051.4
42203,3949.1,800.45
42203,4199.1,551.45
42203,4449.1,303.45
42203,3699.1,1052.4
42203,3949.1,800.45
42203,4199.1,549.45
42203,4449.1,300.45
42203,3949.1,803.45
42203,4199.1,551.45
42203,4449.1,300.45
42203,3449.1,1304.4
42203,3699.1,1052.4
42203,3949.1,801.45
42203,4199.1,552.45
42203,4449.1,304.45
42203,3699.1,1052.4
42203,3949.1,800.45
42203,4199.1,549.45
42203,4449.1,300.45
42203,3949.1,801.45
42203,4199.1,549.45
42203,4449.1,298.45
42203,5949.1,1212.6
42203,5949.1,1214.6
42203,5949.1,1218.6
42203,2699.1,2059.4
42203,2949.1,1807.4
42203,3199.1,1556.4
42203,3449.1,1307.4
42203,3699.1,1059.4
42203,2949.1,1807.4
42203,3199.1,1555.4
42203,3449.1,1304.4
42203,3699.1,1055.4
42203,3949.1,807.45
42203,3199.1,1556.4
42203,3449.1,1304.4
42203,3699.1,1053.4
42203,3949.1,804.45
42203,4199.1,556.45
42203,3449.1,1307.4
42203,3699.1,1055.4
42203,3949.1,804.45
42203,4199.1,555.45
42203,4449.1,307.45
42203,3699.1,1059.4
42203,3949.1,807.45
42203,4199.1,556.45
42203,4449.1,307.45
42203,2949.1,1807.4
42203,3199.1,1555.4
42203,3449.1,1304.4
42203,3699.1,1055.4
42203,3949.1,807.45
42203,3199.1,1555.4
42203,3449.1,1303.4
42203,3699.1,1052.4
42203,3949.1,803.45
42203,4199.1,555.45
42203,3449.1,1304.4
42203,3699.1,1052.4
42203,3949.1,801.45
42203,4199.1,552.45
42203,4449.1,304.45
42203,3699.1,1055.4
42203,3949.1,803.45
42203,4199.1,552.45
42203,4449.1,303.45
42203,3949.1,807.45
42203,4199.1,555.45
42203,4449.1,304.45
42203,3199.1,1556.4
42203,3449.1,1304.4
42203,3699.1,1053.4
42203,3949.1,804.45
42203,4199.1,556.45
42203,3449.1,1304.4
42203,3699.1,1052.4
42203,3949.1,801.45
42203,4199.1,552.45
42203,4449.1,304.45
42203,3699.1,1053.4
42203,3949.1,801.45
42203,4199.1,550.45
42203,4449.1,301.45
42203,3949.1,804.45
42203,4199.1,552.45
42203,4449.1,301.45
42203,3449.1,1307.4
42203,3699.1,1055.4
42203,3949.1,804.45
42203,4199.1,555.45
42203,4449.1,307.45
42203,3699.1,1055.4
42203,3949.1,803.45
42203,4199.1,552.45
42203,4449.1,303.45
42203,3949.1,804.45
42203,4199.1,552.45
42203,4449.1,301.45
42203,2949.1,1807.4
42203,3199.1,1555.4
42203,3449.1,1304.4
42203,3699.1,1055.4
42203,3949.1,807.45
42203,3199.1,1555.4
42203,3449.1,1303.4
42203,3699.1,1052.4
42203,3949.1,803.45
42203,4199.1,555.45
42203,3449.1,1304.4
42203,3699.1,1052.4
42203,3949.1,801.45
42203,4199.1,552.45
42203,4449.1,304.45
42203,3699.1,1055.4
42203,3949.1,803.45
42203,4199.1,552.45
42203,4449.1,303.45
42203,3949.1,807.45
42203,4199.1,555.45
42203,4449.1,304.45
42203,3199.1,1555.4
42203,3449.1,1303.4
42203,3699.1,1052.4
42203,3949.1,803.45
42203,4199.1,555.45
42203,3449.1,1303.4
42203,3699.1,1051.4
42203,3949.1,800.45
42203,4199.1,551.45
42203,4449.1,303.45
42203,3699.1,1052.4
42203,3949.1,800.45
42203,4199.1,549.45
42203,4449.1,300.45
42203,3949.1,803.45
42203,4199.1,551.45
42203,4449.1,300.45
42203,3449.1,1304.4
42203,3699.1,1052.4
42203,3949.1,801.45
42203,4199.1,552.45
42203,4449.1,304.45
42203,3699.1,1052.4
42203,3949.1,800.45
42203,4199.1,549.45
42203,4449.1,300.45
42203,3949.1,801.45
42203,4199.1,549.45
42203,4449.1,298.45
42203,2949.1,1807.4
42203,3199.1,1555.4
42203,3449.1,1304.4
42203,3699.1,1055.4
42203,3949.1,807.45
42203,3199.1,1555.4
42203,3449.1,1303.4
42203,3699.1,1052.4
42203,3949.1,803.45
42203,4199.1,555.45
42203,3449.1,1304.4
42203,3699.1,1052.4
42203,3949.1,801.45
42203,4199.1,552.45
42203,4449.1,304.45
42203,3699.1,1055.4
42203,3949.1,803.45
42203,4199.1,552.45
42203,4449.1,303.45
42203,3949.1,807.45
42203,4199.1,555.45
42203,4449.1,304.45
42203,3199.1,1555.4
42203,3449.1,1303.4
42203,3699.1,1052.4
42203,3949.1,803.45
42203,4199.1,555.45
42203,3449.1,1303.4
42203,3699.1,1051.4
42203,3949.1,800.45
42203,4199.1,551.45
42203,4449.1,303.45
42203,3699.1,1052.4
42203,3949.1,800.45
42203,4199.1,549.45
42203,4449.1,300.45
42203,3949.1,803.45
42203,4199.1,551.45
42203,4449.1,300.45
42203,3449.1,1304.4
42203,3699.1,1052.4
42203,3949.1,801.45
42203,4199.1,552.45
42203,4449.1,304.45
42203,3699.1,1052.4
42203,3949.1,800.45
42203,4199.1,549.45
42203,4449.1,300.45
42203,3949.1,801.45
42203,4199.1,549.45
42203,4449.1,298.45
42203,5949.1,1209.6
42203,5949.1,1211.6
42203,5949.1,1215.6
42203,5949.1,1209.6
42203,5949.1,1211.6
42203,5949.1,1215.6
42203,5949.1,1212.6
42203,5949.1,1214.6
42203,5949.1,1218.6
42203,2949.1,1810.4
42203,3199.1,1558.4
42203,3449.1,1307.4
42203,3699.1,1058.4
42203,3949.1,810.45
42203,3199.1,1558.4
42203,3449.1,1306.4
42203,3699.1,1055.4
42203,3949.1,806.45
42203,4199.1,558.45
42203,3449.1,1307.4
42203,3699.1,1055.4
42203,3949.1,804.45
42203,4199.1,555.45
42203,4449.1,307.45
42203,3699.1,1058.4
42203,3949.1,806.45
42203,4199.1,555.45
42203,4449.1,306.45
42203,3949.1,810.45
42203,4199.1,558.45
42203,4449.1,307.45
42203,3199.1,1558.4
42203,3449.1,1306.4
42203,3699.1,1055.4
42203,3949.1,806.45
42203,4199.1,558.45
42203,3449.1,1306.4
42203,3699.1,1054.4
42203,3949.1,803.45
42203,4199.1,554.45
42203,4449.1,306.45
42203,3699.1,1055.4
42203,3949.1,803.45
42203,4199.1,552.45
42203,4449.1,303.45
42203,3949.1,806.45
42203,4199.1,554.45
42203,4449.1,303.45
42203,3449.1,1307.4
42203,3699.1,1055.4
42203,3949.1,804.45
42203,4199.1,555.45
42203,4449.1,307.45
42203,3699.1,1055.4
42203,3949.1,803.45
42203,4199.1,552.45
42203,4449.1,303.45
42203,3949.1,804.45
42203,4199.1,552.45
42203,4449.1,301.45
42203,5949.1,1209.6
42203,5949.1,1211.6
42203,5949.1,1215.6
42203,5949.1,1208.6
42203,5949.1,1210.6
42203,5949.1,1214.6
42203,5949.1,1211.6
42203,5949.1,1213.6
42203,5949.1,1217.6
42203,5949.1,1209.6
42203,5949.1,1211.6
42203,5949.1,1215.6
42203,5949.1,1211.6
42203,5949.1,1213.6
42203,5949.1,1217.6
42203,5949.1,1215.6
42203,5949.1,1217.6
42203,5949.1,1221.6
42203,5949.1,1212.6
42203,5949.1,1214.6
42203,5949.1,1218.6
42203,5949.1,1209.6
42203,5949.1,1211.6
42203,5949.1,1215.6
42203,5949.1,1212.6
42203,5949.1,1214.6
42203,5949.1,1218.6
42203,5949.1,1209.6
42203,5949.1,1211.6
42203,5949.1,1215.6
42203,5949.1,1211.6
42203,5949.1,1213.6
42203,5949.1,1217.6
42203,5949.1,1215.6
42203,5949.1,1217.6
42203,5949.1,1221.6
