54880,5251.3,89.45
55516,4751.3,592.45
55516,5001.3,340.45
55516,5251.3,89.45
55516,5501.3,161.55
55516,5751.3,413.55
56152,4251.3,1095.5
56152,4501.3,843.45
56152,4751.3,592.45
56152,5001.3,343.45
56152,5251.3,95.45
56152,4501.3,843.45
56152,4751.3,591.45
56152,5001.3,340.45
56152,5251.3,91.45
56152,5501.3,164.55
56152,4751.3,592.45
56152,5001.3,340.45
56152,5251.3,89.45
56152,5501.3,161.55
56152,5751.3,413.55
56152,5001.3,343.45
56152,5251.3,91.45
56152,5501.3,161.55
56152,5751.3,412.55
56152,6001.3,664.55
56152,5251.3,95.45
56152,5501.3,164.55
56152,5751.3,413.55
56152,6001.3,664.55
56789,3751.3,1598.5
56789,4001.3,1346.5
56789,4251.3,1095.5
56789,4501.3,846.45
56789,4751.3,598.45
56789,4001.3,1346.5
56789,4251.3,1094.5
56789,4501.3,843.45
56789,4751.3,594.45
56789,5001.3,346.45
56789,4251.3,1095.5
56789,4501.3,843.45
56789,4751.3,592.45
56789,5001.3,343.45
56789,5251.3,95.45
56789,4501.3,846.45
56789,4751.3,594.45
56789,5001.3,343.45
56789,5251.3,94.45
56789,5501.3,167.55
56789,4751.3,598.45
56789,5001.3,346.45
56789,5251.3,95.45
56789,5501.3,167.55
56789,5751.3,419.55
56789,4001.3,1346.5
56789,4251.3,1094.5
56789,4501.3,843.45
56789,4751.3,594.45
56789,5001.3,346.45
56789,4251.3,1094.5
56789,4501.3,842.45
56789,4751.3,591.45
56789,5001.3,342.45
56789,5251.3,94.45
56789,4501.3,843.45
56789,4751.3,591.45
56789,5001.3,340.45
56789,5251.3,91.45
56789,5501.3,164.55
56789,4751.3,594.45
56789,5001.3,342.45
56789,5251.3,91.45
56789,5501.3,163.55
56789,5751.3,415.55
56789,5001.3,346.45
56789,5251.3,94.45
56789,5501.3,164.55
56789,5751.3,415.55
56789,6001.3,667.55
56789,4251.3,1095.5
56789,4501.3,843.45
56789,4751.3,592.45
56789,5001.3,343.45
56789,5251.3,95.45
56789,4501.3,843.45
56789,4751.3,591.45
56789,5001.3,340.45
56789,5251.3,91.45
56789,5501.3,164.55
56789,4751.3,592.45
56789,5001.3,340.45
56789,5251.3,89.45
56789,5501.3,161.55
56789,5751.3,413.55
56789,5001.3,343.45
56789,5251.3,91.45
56789,5501.3,161.55
56789,5751.3,412.55
56789,6001.3,664.55
56789,5251.3,95.45
56789,5501.3,164.55
56789,5751.3,413.55
56789,6001.3,664.55
56789,6251.3,916.55
56789,4501.3,846.45
56789,4751.3,594.45
56789,5001.3,343.45
56789,5251.3,94.45
56789,5501.3,167.55
56789,4751.3,594.45
56789,5001.3,342.45
56789,5251.3,91.45
56789,5501.3,163.55
56789,5751.3,415.55
56789,5001.3,343.45
56789,5251.3,91.45
56789,5501.3,161.55
56789,5751.3,412.55
56789,6001.3,664.55
56789,5251.3,94.45
56789,5501.3,163.55
56789,5751.3,412.55
56789,6001.3,663.55
56789,6251.3,915.55
56789,5501.3,167.55
56789,5751.3,415.55
56789,6001.3,664.55
56789,6251.3,915.55
56789,6501.3,1167.5
56789,4751.3,598.45
56789,5001.3,346.45
56789,5251.3,95.45
56789,5501.3,167.55
56789,5751.3,419.55
56789,5001.3,346.45
56789,5251.3,94.45
56789,5501.3,164.55
56789,5751.3,415.55
56789,6001.3,667.55
56789,5251.3,95.45
56789,5501.3,164.55
56789,5751.3,413.55
56789,6001.3,664.55
56789,6251.3,916.55
56789,5501.3,167.55
56789,5751.3,415.55
56789,6001.3,664.55
56789,6251.3,915.55
56789,6501.3,1167.5
57425,3251.3,2101.5
57425,3501.3,1849.5
57425,3751.3,1598.5
57425,4001.3,1349.5
57425,4251.3,1101.5
57425,3501.3,1849.5
57425,3751.3,1597.5
57425,4001.3,1346.5
57425,4251.3,1097.5
57425,3751.3,1598.5
57425,4001.3,1346.5
57425,4251.3,1095.5
57425,4001.3,1349.5
57425,4251.3,1097.5
57425,4251.3,1101.5
57425,3501.3,1849.5
57425,3751.3,1597.5
57425,4001.3,1346.5
57425,4251.3,1097.5
57425,3751.3,1597.5
57425,4001.3,1345.5
57425,4251.3,1094.5
57425,4001.3,1346.5
57425,4251.3,1094.5
57425,4251.3,1097.5
57425,3751.3,1598.5
57425,4001.3,1346.5
57425,4251.3,1095.5
57425,4001.3,1346.5
57425,4251.3,1094.5
57425,4251.3,1095.5
57425,5751.3,419.55
57425,4001.3,1349.5
57425,4251.3,1097.5
57425,4251.3,1097.5
57425,5751.3,418.55
57425,5751.3,418.55
57425,6001.3,670.55
57425,4251.3,1101.5
57425,5751.3,419.55
57425,5751.3,418.55
57425,6001.3,670.55
57425,5751.3,419.55
57425,6001.3,670.55
57425,3501.3,1849.5
57425,3751.3,1597.5
57425,4001.3,1346.5
57425,4251.3,1097.5
57425,3751.3,1597.5
57425,4001.3,1345.5
57425,4251.3,1094.5
57425,4001.3,1346.5
57425,4251.3,1094.5
57425,4251.3,1097.5
57425,3751.3,1597.5
57425,4001.3,1345.5
57425,4251.3,1094.5
57425,4001.3,1345.5
57425,4251.3,1093.5
57425,4251.3,1094.5
57425,5751.3,418.55
57425,4001.3,1346.5
57425,4251.3,1094.5
57425,4251.3,1094.5
57425,5751.3,415.55
57425,5751.3,415.55
57425,6001.3,667.55
57425,4251.3,1097.5
57425,5751.3,415.55
57425,5751.3,414.55
57425,6001.3,666.55
57425,5751.3,415.55
57425,6001.3,666.55
57425,5751.3,418.55
57425,5751.3,415.55
57425,6001.3,667.55
57425,5751.3,415.55
57425,6001.3,666.55
57425,5751.3,418.55
57425,6001.3,667.55
57425,3751.3,1598.5
57425,4001.3,1346.5
57425,4251.3,1095.5
57425,4001.3,1346.5
57425,4251.3,1094.5
57425,4251.3,1095.5
57425,5751.3,419.55
57425,4001.3,1346.5
57425,4251.3,1094.5
57425,4251.3,1094.5
57425,5751.3,415.55
57425,5751.3,415.55
57425,6001.3,667.55
57425,4251.3,1095.5
57425,5751.3,413.55
57425,5751.3,412.55
57425,6001.3,664.55
57425,5751.3,413.55
57425,6001.3,664.55
57425,5751.3,415.55
57425,5751.3,412.55
57425,6001.3,664.55
57425,5751.3,412.55
57425,6001.3,663.55
57425,5751.3,415.55
57425,6001.3,664.55
57425,5751.3,419.55
57425,5751.3,415.55
57425,6001.3,667.55
57425,5751.3,413.55
57425,6001.3,664.55
57425,5751.3,415.55
57425,6001.3,664.55
57425,5751.3,419.55
57425,6001.3,667.55
57425,4001.3,1349.5
57425,4251.3,1097.5
57425,4251.3,1097.5
57425,5751.3,418.55
57425,5751.3,418.55
57425,6001.3,670.55
57425,4251.3,1097.5
57425,5751.3,415.55
57425,5751.3,414.55
57425,6001.3,666.55
57425,5751.3,415.55
57425,6001.3,666.55
57425,5751.3,415.55
57425,5751.3,412.55
57425,6001.3,664.55
57425,5751.3,412.55
57425,6001.3,663.55
57425,5751.3,415.55
57425,6001.3,664.55
57425,5751.3,418.55
57425,5751.3,414.55
57425,6001.3,666.55
57425,5751.3,412.55
57425,6001.3,663.55
57425,5751.3,414.55
57425,6001.3,663.55
57425,5751.3,418.55
57425,6001.3,666.55
57425,5751.3,418.55
57425,6001.3,670.55
57425,5751.3,415.55
57425,6001.3,666.55
57425,5751.3,415.55
57425,6001.3,664.55
57425,5751.3,418.55
57425,6001.3,666.55
57425,6001.3,670.55
57425,4251.3,1101.5
57425,5751.3,419.55
57425,5751.3,418.55
57425,6001.3,670.55
57425,5751.3,419.55
57425,6001.3,670.55
57425,5751.3,418.55
57425,5751.3,415.55
57425,6001.3,667.55
57425,5751.3,415.55
57425,6001.3,666.55
57425,5751.3,418.55
57425,6001.3,667.55
57425,5751.3,419.55
57425,5751.3,415.55
57425,6001.3,667.55
57425,5751.3,413.55
57425,6001.3,664.55
57425,5751.3,415.55
57425,6001.3,664.55
57425,5751.3,419.55
57425,6001.3,667.55
57425,5751.3,418.55
57425,6001.3,670.55
57425,5751.3,415.55
57425,6001.3,666.55
57425,5751.3,415.55
57425,6001.3,664.55
57425,5751.3,418.55
57425,6001.3,666.55
57425,6001.3,670.55
58061,2751.3,2604.5
58061,3001.3,2352.5
58061,3251.3,2101.5
58061,3501.3,1852.5
58061,3751.3,1604.5
58061,3001.3,2352.5
58061,3251.3,2100.5
58061,3501.3,1849.5
58061,3751.3,1600.5
58061,4001.3,1352.5
58061,3251.3,2101.5
58061,3501.3,1849.5
58061,3751.3,1598.5
58061,4001.3,1349.5
58061,4251.3,1101.5
58061,3501.3,1852.5
58061,3751.3,1600.5
58061,4001.3,1349.5
58061,4251.3,1100.5
58061,4501.3,852.45
58061,3751.3,1604.5
58061,4001.3,1352.5
58061,4251.3,1101.5
58061,4501.3,852.45
58061,4751.3,604.45
58061,3001.3,2352.5
58061,3251.3,2100.5
58061,3501.3,1849.5
58061,3751.3,1600.5
58061,4001.3,1352.5
58061,3251.3,2100.5
58061,3501.3,1848.5
58061,3751.3,1597.5
58061,4001.3,1348.5
58061,4251.3,1100.5
58061,3501.3,1849.5
58061,3751.3,1597.5
58061,4001.3,1346.5
58061,4251.3,1097.5
58061,4501.3,849.45
58061,3751.3,1600.5
58061,4001.3,1348.5
58061,4251.3,1097.5
58061,4501.3,848.45
58061,4751.3,600.45
58061,3251.3,2101.5
58061,3501.3,1849.5
58061,3751.3,1598.5
58061,4001.3,1349.5
58061,4251.3,1101.5
58061,3501.3,1849.5
58061,3751.3,1597.5
58061,4001.3,1346.5
58061,4251.3,1097.5
58061,4501.3,849.45
58061,3751.3,1598.5
58061,4001.3,1346.5
58061,4251.3,1095.5
58061,4501.3,846.45
58061,4751.3,598.45
58061,3501.3,1852.5
58061,3751.3,1600.5
58061,4001.3,1349.5
58061,4251.3,1100.5
58061,4501.3,852.45
58061,3751.3,1600.5
58061,4001.3,1348.5
58061,4251.3,1097.5
58061,4501.3,848.45
58061,4751.3,600.45
58061,3751.3,1604.5
58061,4001.3,1352.5
58061,4251.3,1101.5
58061,4501.3,852.45
58061,4751.3,604.45
58061,3001.3,2352.5
58061,3251.3,2100.5
58061,3501.3,1849.5
58061,3751.3,1600.5
58061,4001.3,1352.5
58061,3251.3,2100.5
58061,3501.3,1848.5
58061,3751.3,1597.5
58061,4001.3,1348.5
58061,4251.3,1100.5
58061,3501.3,1849.5
58061,3751.3,1597.5
58061,4001.3,1346.5
58061,4251.3,1097.5
58061,4501.3,849.45
58061,3751.3,1600.5
58061,4001.3,1348.5
58061,4251.3,1097.5
58061,4501.3,848.45
58061,4751.3,600.45
58061,3251.3,2100.5
58061,3501.3,1848.5
58061,3751.3,1597.5
58061,4001.3,1348.5
58061,4251.3,1100.5
58061,3501.3,1848.5
58061,3751.3,1596.5
58061,4001.3,1345.5
58061,4251.3,1096.5
58061,4501.3,848.45
58061,3751.3,1597.5
58061,4001.3,1345.5
58061,4251.3,1094.5
58061,4501.3,845.45
58061,4751.3,597.45
58061,3501.3,1849.5
58061,3751.3,1597.5
58061,4001.3,1346.5
58061,4251.3,1097.5
58061,4501.3,849.45
58061,3751.3,1597.5
58061,4001.3,1345.5
58061,4251.3,1094.5
58061,4501.3,845.45
58061,4751.3,597.45
58061,3751.3,1600.5
58061,4001.3,1348.5
58061,4251.3,1097.5
58061,4501.3,848.45
58061,4751.3,600.45
58061,3251.3,2101.5
58061,3501.3,1849.5
58061,3751.3,1598.5
58061,4001.3,1349.5
58061,4251.3,1101.5
58061,3501.3,1849.5
58061,3751.3,1597.5
58061,4001.3,1346.5
58061,4251.3,1097.5
58061,4501.3,849.45
58061,3751.3,1598.5
58061,4001.3,1346.5
58061,4251.3,1095.5
58061,4501.3,846.45
58061,4751.3,598.45
58061,3501.3,1849.5
58061,3751.3,1597.5
58061,4001.3,1346.5
58061,4251.3,1097.5
58061,4501.3,849.45
58061,3751.3,1597.5
58061,4001.3,1345.5
58061,4251.3,1094.5
58061,4501.3,845.45
58061,4751.3,597.45
58061,3751.3,1598.5
58061,4001.3,1346.5
58061,4251.3,1095.5
58061,4501.3,846.45
58061,4751.3,598.45
58061,6251.3,922.55
58061,3501.3,1852.5
58061,3751.3,1600.5
58061,4001.3,1349.5
58061,4251.3,1100.5
58061,4501.3,852.45
58061,3751.3,1600.5
58061,4001.3,1348.5
58061,4251.3,1097.5
58061,4501.3,848.45
58061,4751.3,600.45
58061,3751.3,1600.5
58061,4001.3,1348.5
58061,4251.3,1097.5
58061,4501.3,848.45
58061,4751.3,600.45
58061,6251.3,921.55
58061,6251.3,921.55
58061,6251.3,921.55
58061,6501.3,1173.5
58061,3751.3,1604.5
58061,4001.3,1352.5
58061,4251.3,1101.5
58061,4501.3,852.45
58061,4751.3,604.45
58061,6251.3,922.55
58061,6251.3,921.55
58061,6251.3,921.55
58061,6501.3,1173.5
58061,6251.3,922.55
58061,6251.3,921.55
58061,6501.3,1173.5
58061,3001.3,2352.5
58061,3251.3,2100.5
58061,3501.3,1849.5
58061,3751.3,1600.5
58061,4001.3,1352.5
58061,3251.3,2100.5
58061,3501.3,1848.5
58061,3751.3,1597.5
58061,4001.3,1348.5
58061,4251.3,1100.5
58061,3501.3,1849.5
58061,3751.3,1597.5
58061,4001.3,1346.5
58061,4251.3,1097.5
58061,4501.3,849.45
58061,3751.3,1600.5
58061,4001.3,1348.5
58061,4251.3,1097.5
58061,4501.3,848.45
58061,4751.3,600.45
58061,3251.3,2100.5
58061,3501.3,1848.5
58061,3751.3,1597.5
58061,4001.3,1348.5
58061,4251.3,1100.5
58061,3501.3,1848.5
58061,3751.3,1596.5
58061,4001.3,1345.5
58061,4251.3,1096.5
58061,4501.3,848.45
58061,3751.3,1597.5
58061,4001.3,1345.5
58061,4251.3,1094.5
58061,4501.3,845.45
58061,4751.3,597.45
58061,3501.3,1849.5
58061,3751.3,1597.5
58061,4001.3,1346.5
58061,4251.3,1097.5
58061,4501.3,849.45
58061,3751.3,1597.5
58061,4001.3,1345.5
58061,4251.3,1094.5
58061,4501.3,845.45
58061,4751.3,597.45
58061,3751.3,1600.5
58061,4001.3,1348.5
58061,4251.3,1097.5
58061,4501.3,848.45
58061,4751.3,600.45
58061,3251.3,2100.5
58061,3501.3,1848.5
58061,3751.3,1597.5
58061,4001.3,1348.5
58061,4251.3,1100.5
58061,3501.3,1848.5
58061,3751.3,1596.5
58061,4001.3,1345.5
58061,4251.3,1096.5
58061,4501.3,848.45
58061,3751.3,1597.5
58061,4001.3,1345.5
58061,4251.3,1094.5
58061,4501.3,845.45
58061,4751.3,597.45
58061,3501.3,1848.5
58061,3751.3,1596.5
58061,4001.3,1345.5
58061,4251.3,1096.5
58061,4501.3,848.45
58061,3751.3,1596.5
58061,4001.3,1344.5
58061,4251.3,1093.5
58061,4501.3,844.45
58061,4751.3,596.45
58061,3751.3,1597.5
58061,4001.3,1345.5
58061,4251.3,1094.5
58061,4501.3,845.45
58061,4751.3,597.45
58061,6251.3,921.55
58061,3501.3,1849.5
58061,3751.3,1597.5
58061,4001.3,1346.5
58061,4251.3,1097.5
58061,4501.3,849.45
58061,3751.3,1597.5
58061,4001.3,1345.5
58061,4251.3,1094.5
58061,4501.3,845.45
58061,4751.3,597.45
58061,3751.3,1597.5
58061,4001.3,1345.5
58061,4251.3,1094.5
58061,4501.3,845.45
58061,4751.3,597.45
58061,6251.3,918.55
58061,6251.3,918.55
58061,6251.3,918.55
58061,6501.3,1170.5
58061,3751.3,1600.5
58061,4001.3,1348.5
58061,4251.3,1097.5
58061,4501.3,848.45
58061,4751.3,600.45
58061,6251.3,918.55
58061,6251.3,917.55
58061,6251.3,917.55
58061,6501.3,1169.5
58061,6251.3,918.55
58061,6251.3,917.55
58061,6501.3,1169.5
58061,6251.3,921.55
58061,6251.3,918.55
58061,6251.3,918.55
58061,6501.3,1170.5
58061,6251.3,918.55
58061,6251.3,917.55
58061,6501.3,1169.5
58061,6251.3,921.55
58061,6251.3,918.55
58061,6501.3,1170.5
58061,3251.3,2101.5
58061,3501.3,1849.5
58061,3751.3,1598.5
58061,4001.3,1349.5
58061,4251.3,1101.5
58061,3501.3,1849.5
58061,3751.3,1597.5
58061,4001.3,1346.5
58061,4251.3,1097.5
58061,4501.3,849.45
58061,3751.3,1598.5
58061,4001.3,1346.5
58061,4251.3,1095.5
58061,4501.3,846.45
58061,4751.3,598.45
58061,3501.3,1849.5
58061,3751.3,1597.5
58061,4001.3,1346.5
58061,4251.3,1097.5
58061,4501.3,849.45
58061,3751.3,1597.5
58061,4001.3,1345.5
58061,4251.3,1094.5
58061,4501.3,845.45
58061,4751.3,597.45
58061,3751.3,1598.5
58061,4001.3,1346.5
58061,4251.3,1095.5
58061,4501.3,846.45
58061,4751.3,598.45
58061,6251.3,922.55
58061,3501.3,1849.5
58061,3751.3,1597.5
58061,4001.3,1346.5
58061,4251.3,1097.5
58061,4501.3,849.45
58061,3751.3,1597.5
58061,4001.3,1345.5
58061,4251.3,1094.5
58061,4501.3,845.45
58061,4751.3,597.45
58061,3751.3,1597.5
58061,4001.3,1345.5
58061,4251.3,1094.5
58061,4501.3,845.45
58061,4751.3,597.45
58061,6251.3,918.55
58061,6251.3,918.55
58061,6251.3,918.55
58061,6501.3,1170.5
58061,3751.3,1598.5
58061,4001.3,1346.5
58061,4251.3,1095.5
58061,4501.3,846.45
58061,4751.3,598.45
58061,6251.3,916.55
58061,6251.3,915.55
58061,6251.3,915.55
58061,6501.3,1167.5
58061,6251.3,916.55
58061,6251.3,915.55
58061,6501.3,1167.5
58061,6251.3,918.55
58061,6251.3,915.55
58061,6251.3,915.55
58061,6501.3,1167.5
58061,6251.3,915.55
58061,6251.3,914.55
58061,6501.3,1166.5
58061,6251.3,918.55
58061,6251.3,915.55
58061,6501.3,1167.5
58061,6251.3,922.55
58061,6251.3,918.55
58061,6251.3,918.55
58061,6501.3,1170.5
58061,6251.3,916.55
58061,6251.3,915.55
58061,6501.3,1167.5
58061,6251.3,918.55
58061,6251.3,915.55
58061,6501.3,1167.5
58061,6251.3,922.55
58061,6251.3,918.55
58061,6501.3,1170.5
58061,3501.3,1852.5
58061,3751.3,1600.5
58061,4001.3,1349.5
58061,4251.3,1100.5
58061,4501.3,852.45
58061,3751.3,1600.5
58061,4001.3,1348.5
58061,4251.3,1097.5
58061,4501.3,848.45
58061,4751.3,600.45
58061,3751.3,1600.5
58061,4001.3,1348.5
58061,4251.3,1097.5
58061,4501.3,848.45
58061,4751.3,600.45
58061,6251.3,921.55
58061,6251.3,921.55
58061,6251.3,921.55
58061,6501.3,1173.5
58061,3751.3,1600.5
58061,4001.3,1348.5
58061,4251.3,1097.5
58061,4501.3,848.45
58061,4751.3,600.45
58061,6251.3,918.55
58061,6251.3,917.55
58061,6251.3,917.55
58061,6501.3,1169.5
58061,6251.3,918.55
58061,6251.3,917.55
58061,6501.3,1169.5
58061,6251.3,918.55
58061,6251.3,915.55
58061,6251.3,915.55
58061,6501.3,1167.5
58061,6251.3,915.55
58061,6251.3,914.55
58061,6501.3,1166.5
58061,6251.3,918.55
58061,6251.3,915.55
58061,6501.3,1167.5
58061,6251.3,921.55
58061,6251.3,917.55
58061,6251.3,917.55
58061,6501.3,1169.5
58061,6251.3,915.55
58061,6251.3,914.55
58061,6501.3,1166.5
58061,6251.3,917.55
58061,6251.3,914.55
58061,6501.3,1166.5
58061,6251.3,921.55
58061,6251.3,917.55
58061,6501.3,1169.5
58061,6251.3,921.55
58061,6251.3,921.55
58061,6501.3,1173.5
58061,6251.3,918.55
58061,6251.3,917.55
58061,6501.3,1169.5
58061,6251.3,918.55
58061,6251.3,915.55
58061,6501.3,1167.5
58061,6251.3,921.55
58061,6251.3,917.55
58061,6501.3,1169.5
58061,6251.3,921.55
58061,6501.3,1173.5
58061,3751.3,1604.5
58061,4001.3,1352.5
58061,4251.3,1101.5
58061,4501.3,852.45
58061,4751.3,604.45
58061,6251.3,922.55
58061,6251.3,921.55
58061,6251.3,921.55
58061,6501.3,1173.5
58061,6251.3,922.55
58061,6251.3,921.55
58061,6501.3,1173.5
58061,6251.3,921.55
58061,6251.3,918.55
58061,6251.3,918.55
58061,6501.3,1170.5
58061,6251.3,918.55
58061,6251.3,917.55
58061,6501.3,1169.5
58061,6251.3,921.55
58061,6251.3,918.55
58061,6501.3,1170.5
58061,6251.3,922.55
58061,6251.3,918.55
58061,6251.3,918.55
58061,6501.3,1170.5
58061,6251.3,916.55
58061,6251.3,915.55
58061,6501.3,1167.5
58061,6251.3,918.55
58061,6251.3,915.55
58061,6501.3,1167.5
58061,6251.3,922.55
58061,6251.3,918.55
58061,6501.3,1170.5
58061,6251.3,921.55
58061,6251.3,921.55
58061,6501.3,1173.5
58061,6251.3,918.55
58061,6251.3,917.55
58061,6501.3,1169.5
58061,6251.3,918.55
58061,6251.3,915.55
58061,6501.3,1167.5
58061,6251.3,921.55
58061,6251.3,917.55
58061,6501.3,1169.5
58061,6251.3,921.55
58061,6501.3,1173.5
58697,2251.3,3107.5
58697,2501.3,2855.5
58697,2751.3,2604.5
58697,3001.3,2355.5
58697,3251.3,2107.5
58697,2501.3,2855.5
58697,2751.3,2603.5
58697,3001.3,2352.5
58697,3251.3,2103.5
58697,3501.3,1855.5
58697,2751.3,2604.5
58697,3001.3,2352.5
58697,3251.3,2101.5
58697,3501.3,1852.5
58697,3751.3,1604.5
58697,3001.3,2355.5
58697,3251.3,2103.5
58697,3501.3,1852.5
58697,3751.3,1603.5
58697,4001.3,1355.5
58697,3251.3,2107.5
58697,3501.3,1855.5
58697,3751.3,1604.5
58697,4001.3,1355.5
58697,4251.3,1107.5
58697,2501.3,2855.5
58697,2751.3,2603.5
58697,3001.3,2352.5
58697,3251.3,2103.5
58697,3501.3,1855.5
58697,2751.3,2603.5
58697,3001.3,2351.5
58697,3251.3,2100.5
58697,3501.3,1851.5
58697,3751.3,1603.5
58697,3001.3,2352.5
58697,3251.3,2100.5
58697,3501.3,1849.5
58697,3751.3,1600.5
58697,4001.3,1352.5
58697,3251.3,2103.5
58697,3501.3,1851.5
58697,3751.3,1600.5
58697,4001.3,1351.5
58697,4251.3,1103.5
58697,3501.3,1855.5
58697,3751.3,1603.5
58697,4001.3,1352.5
58697,4251.3,1103.5
58697,4501.3,855.45
58697,2751.3,2604.5
58697,3001.3,2352.5
58697,3251.3,2101.5
58697,3501.3,1852.5
58697,3751.3,1604.5
58697,3001.3,2352.5
58697,3251.3,2100.5
58697,3501.3,1849.5
58697,3751.3,1600.5
58697,4001.3,1352.5
58697,3251.3,2101.5
58697,3501.3,1849.5
58697,3751.3,1598.5
58697,4001.3,1349.5
58697,4251.3,1101.5
58697,3501.3,1852.5
58697,3751.3,1600.5
58697,4001.3,1349.5
58697,4251.3,1100.5
58697,4501.3,852.45
58697,3751.3,1604.5
58697,4001.3,1352.5
58697,4251.3,1101.5
58697,4501.3,852.45
58697,4751.3,604.45
58697,3001.3,2355.5
58697,3251.3,2103.5
58697,3501.3,1852.5
58697,3751.3,1603.5
58697,4001.3,1355.5
58697,3251.3,2103.5
58697,3501.3,1851.5
58697,3751.3,1600.5
58697,4001.3,1351.5
58697,4251.3,1103.5
58697,3501.3,1852.5
58697,3751.3,1600.5
58697,4001.3,1349.5
58697,4251.3,1100.5
58697,4501.3,852.45
58697,3751.3,1603.5
58697,4001.3,1351.5
58697,4251.3,1100.5
58697,4501.3,851.45
58697,4751.3,603.45
58697,4001.3,1355.5
58697,4251.3,1103.5
58697,4501.3,852.45
58697,4751.3,603.45
58697,5001.3,355.45
58697,3251.3,2107.5
58697,3501.3,1855.5
58697,3751.3,1604.5
58697,4001.3,1355.5
58697,4251.3,1107.5
58697,3501.3,1855.5
58697,3751.3,1603.5
58697,4001.3,1352.5
58697,4251.3,1103.5
58697,4501.3,855.45
58697,3751.3,1604.5
58697,4001.3,1352.5
58697,4251.3,1101.5
58697,4501.3,852.45
58697,4751.3,604.45
58697,4001.3,1355.5
58697,4251.3,1103.5
58697,4501.3,852.45
58697,4751.3,603.45
58697,5001.3,355.45
58697,4251.3,1107.5
58697,4501.3,855.45
58697,4751.3,604.45
58697,5001.3,355.45
58697,5251.3,107.45
58697,2501.3,2855.5
58697,2751.3,2603.5
58697,3001.3,2352.5
58697,3251.3,2103.5
58697,3501.3,1855.5
58697,2751.3,2603.5
58697,3001.3,2351.5
58697,3251.3,2100.5
58697,3501.3,1851.5
58697,3751.3,1603.5
58697,3001.3,2352.5
58697,3251.3,2100.5
58697,3501.3,1849.5
58697,3751.3,1600.5
58697,4001.3,1352.5
58697,3251.3,2103.5
58697,3501.3,1851.5
58697,3751.3,1600.5
58697,4001.3,1351.5
58697,4251.3,1103.5
58697,3501.3,1855.5
58697,3751.3,1603.5
58697,4001.3,1352.5
58697,4251.3,1103.5
58697,4501.3,855.45
58697,2751.3,2603.5
58697,3001.3,2351.5
58697,3251.3,2100.5
58697,3501.3,1851.5
58697,3751.3,1603.5
58697,3001.3,2351.5
58697,3251.3,2099.5
58697,3501.3,1848.5
58697,3751.3,1599.5
58697,4001.3,1351.5
58697,3251.3,2100.5
58697,3501.3,1848.5
58697,3751.3,1597.5
58697,4001.3,1348.5
58697,4251.3,1100.5
58697,3501.3,1851.5
58697,3751.3,1599.5
58697,4001.3,1348.5
58697,4251.3,1099.5
58697,4501.3,851.45
58697,3751.3,1603.5
58697,4001.3,1351.5
58697,4251.3,1100.5
58697,4501.3,851.45
58697,4751.3,603.45
58697,3001.3,2352.5
58697,3251.3,2100.5
58697,3501.3,1849.5
58697,3751.3,1600.5
58697,4001.3,1352.5
58697,3251.3,2100.5
58697,3501.3,1848.5
58697,3751.3,1597.5
58697,4001.3,1348.5
58697,4251.3,1100.5
58697,3501.3,1849.5
58697,3751.3,1597.5
58697,4001.3,1346.5
58697,4251.3,1097.5
58697,4501.3,849.45
58697,3751.3,1600.5
58697,4001.3,1348.5
58697,4251.3,1097.5
58697,4501.3,848.45
58697,4751.3,600.45
58697,4001.3,1352.5
58697,4251.3,1100.5
58697,4501.3,849.45
58697,4751.3,600.45
58697,5001.3,352.45
58697,3251.3,2103.5
58697,3501.3,1851.5
58697,3751.3,1600.5
58697,4001.3,1351.5
58697,4251.3,1103.5
58697,3501.3,1851.5
58697,3751.3,1599.5
58697,4001.3,1348.5
58697,4251.3,1099.5
58697,4501.3,851.45
58697,3751.3,1600.5
58697,4001.3,1348.5
58697,4251.3,1097.5
58697,4501.3,848.45
58697,4751.3,600.45
58697,4001.3,1351.5
58697,4251.3,1099.5
58697,4501.3,848.45
58697,4751.3,599.45
58697,5001.3,351.45
58697,4251.3,1103.5
58697,4501.3,851.45
58697,4751.3,600.45
58697,5001.3,351.45
58697,5251.3,103.45
58697,2751.3,2604.5
58697,3001.3,2352.5
58697,3251.3,2101.5
58697,3501.3,1852.5
58697,3751.3,1604.5
58697,3001.3,2352.5
58697,3251.3,2100.5
58697,3501.3,1849.5
58697,3751.3,1600.5
58697,4001.3,1352.5
58697,3251.3,2101.5
58697,3501.3,1849.5
58697,3751.3,1598.5
58697,4001.3,1349.5
58697,4251.3,1101.5
58697,3501.3,1852.5
58697,3751.3,1600.5
58697,4001.3,1349.5
58697,4251.3,1100.5
58697,4501.3,852.45
58697,3751.3,1604.5
58697,4001.3,1352.5
58697,4251.3,1101.5
58697,4501.3,852.45
58697,4751.3,604.45
58697,3001.3,2352.5
58697,3251.3,2100.5
58697,3501.3,1849.5
58697,3751.3,1600.5
58697,4001.3,1352.5
58697,3251.3,2100.5
58697,3501.3,1848.5
58697,3751.3,1597.5
58697,4001.3,1348.5
58697,4251.3,1100.5
58697,3501.3,1849.5
58697,3751.3,1597.5
58697,4001.3,1346.5
58697,4251.3,1097.5
58697,4501.3,849.45
58697,3751.3,1600.5
58697,4001.3,1348.5
58697,4251.3,1097.5
58697,4501.3,848.45
58697,4751.3,600.45
58697,4001.3,1352.5
58697,4251.3,1100.5
58697,4501.3,849.45
58697,4751.3,600.45
58697,5001.3,352.45
58697,3251.3,2101.5
58697,3501.3,1849.5
58697,3751.3,1598.5
58697,4001.3,1349.5
58697,4251.3,1101.5
58697,3501.3,1849.5
58697,3751.3,1597.5
58697,4001.3,1346.5
58697,4251.3,1097.5
58697,4501.3,849.45
58697,3751.3,1598.5
58697,4001.3,1346.5
58697,4251.3,1095.5
58697,4501.3,846.45
58697,4751.3,598.45
58697,4001.3,1349.5
58697,4251.3,1097.5
58697,4501.3,846.45
58697,4751.3,597.45
58697,5001.3,349.45
58697,4251.3,1101.5
58697,4501.3,849.45
58697,4751.3,598.45
58697,5001.3,349.45
58697,5251.3,101.45
58697,3001.3,2355.5
58697,3251.3,2103.5
58697,3501.3,1852.5
58697,3751.3,1603.5
58697,4001.3,1355.5
58697,3251.3,2103.5
58697,3501.3,1851.5
58697,3751.3,1600.5
58697,4001.3,1351.5
58697,4251.3,1103.5
58697,3501.3,1852.5
58697,3751.3,1600.5
58697,4001.3,1349.5
58697,4251.3,1100.5
58697,4501.3,852.45
58697,3751.3,1603.5
58697,4001.3,1351.5
58697,4251.3,1100.5
58697,4501.3,851.45
58697,4751.3,603.45
58697,4001.3,1355.5
58697,4251.3,1103.5
58697,4501.3,852.45
58697,4751.3,603.45
58697,5001.3,355.45
58697,3251.3,2103.5
58697,3501.3,1851.5
58697,3751.3,1600.5
58697,4001.3,1351.5
58697,4251.3,1103.5
58697,3501.3,1851.5
58697,3751.3,1599.5
58697,4001.3,1348.5
58697,4251.3,1099.5
58697,4501.3,851.45
58697,3751.3,1600.5
58697,4001.3,1348.5
58697,4251.3,1097.5
58697,4501.3,848.45
58697,4751.3,600.45
58697,4001.3,1351.5
58697,4251.3,1099.5
58697,4501.3,848.45
58697,4751.3,599.45
58697,5001.3,351.45
58697,4251.3,1103.5
58697,4501.3,851.45
58697,4751.3,600.45
58697,5001.3,351.45
58697,5251.3,103.45
58697,3251.3,2107.5
58697,3501.3,1855.5
58697,3751.3,1604.5
58697,4001.3,1355.5
58697,4251.3,1107.5
58697,3501.3,1855.5
58697,3751.3,1603.5
58697,4001.3,1352.5
58697,4251.3,1103.5
58697,4501.3,855.45
58697,3751.3,1604.5
58697,4001.3,1352.5
58697,4251.3,1101.5
58697,4501.3,852.45
58697,4751.3,604.45
58697,4001.3,1355.5
58697,4251.3,1103.5
58697,4501.3,852.45
58697,4751.3,603.45
58697,5001.3,355.45
58697,4251.3,1107.5
58697,4501.3,855.45
58697,4751.3,604.45
58697,5001.3,355.45
58697,5251.3,107.45
58697,2501.3,2855.5
58697,2751.3,2603.5
58697,3001.3,2352.5
58697,3251.3,2103.5
58697,3501.3,1855.5
58697,2751.3,2603.5
58697,3001.3,2351.5
58697,3251.3,2100.5
58697,3501.3,1851.5
58697,3751.3,1603.5
58697,3001.3,2352.5
58697,3251.3,2100.5
58697,3501.3,1849.5
58697,3751.3,1600.5
58697,4001.3,1352.5
58697,3251.3,2103.5
58697,3501.3,1851.5
58697,3751.3,1600.5
58697,4001.3,1351.5
58697,4251.3,1103.5
58697,3501.3,1855.5
58697,3751.3,1603.5
58697,4001.3,1352.5
58697,4251.3,1103.5
58697,4501.3,855.45
58697,2751.3,2603.5
58697,3001.3,2351.5
58697,3251.3,2100.5
58697,3501.3,1851.5
58697,3751.3,1603.5
58697,3001.3,2351.5
58697,3251.3,2099.5
58697,3501.3,1848.5
58697,3751.3,1599.5
58697,4001.3,1351.5
58697,3251.3,2100.5
58697,3501.3,1848.5
58697,3751.3,1597.5
58697,4001.3,1348.5
58697,4251.3,1100.5
58697,3501.3,1851.5
58697,3751.3,1599.5
58697,4001.3,1348.5
58697,4251.3,1099.5
58697,4501.3,851.45
58697,3751.3,1603.5
58697,4001.3,1351.5
58697,4251.3,1100.5
58697,4501.3,851.45
58697,4751.3,603.45
58697,3001.3,2352.5
58697,3251.3,2100.5
58697,3501.3,1849.5
58697,3751.3,1600.5
58697,4001.3,1352.5
58697,3251.3,2100.5
58697,3501.3,1848.5
58697,3751.3,1597.5
58697,4001.3,1348.5
58697,4251.3,1100.5
58697,3501.3,1849.5
58697,3751.3,1597.5
58697,4001.3,1346.5
58697,4251.3,1097.5
58697,4501.3,849.45
58697,3751.3,1600.5
58697,4001.3,1348.5
58697,4251.3,1097.5
58697,4501.3,848.45
58697,4751.3,600.45
58697,4001.3,1352.5
58697,4251.3,1100.5
58697,4501.3,849.45
58697,4751.3,600.45
58697,5001.3,352.45
58697,3251.3,2103.5
58697,3501.3,1851.5
58697,3751.3,1600.5
58697,4001.3,1351.5
58697,4251.3,1103.5
58697,3501.3,1851.5
58697,3751.3,1599.5
58697,4001.3,1348.5
58697,4251.3,1099.5
58697,4501.3,851.45
58697,3751.3,1600.5
58697,4001.3,1348.5
58697,4251.3,1097.5
58697,4501.3,848.45
58697,4751.3,600.45
58697,4001.3,1351.5
58697,4251.3,1099.5
58697,4501.3,848.45
58697,4751.3,599.45
58697,5001.3,351.45
58697,4251.3,1103.5
58697,4501.3,851.45
58697,4751.3,600.45
58697,5001.3,351.45
58697,5251.3,103.45
58697,2751.3,2603.5
58697,3001.3,2351.5
58697,3251.3,2100.5
58697,3501.3,1851.5
58697,3751.3,1603.5
58697,3001.3,2351.5
58697,3251.3,2099.5
58697,3501.3,1848.5
58697,3751.3,1599.5
58697,4001.3,1351.5
58697,3251.3,2100.5
58697,3501.3,1848.5
58697,3751.3,1597.5
58697,4001.3,1348.5
58697,4251.3,1100.5
58697,3501.3,1851.5
58697,3751.3,1599.5
58697,4001.3,1348.5
58697,4251.3,1099.5
58697,4501.3,851.45
58697,3751.3,1603.5
58697,4001.3,1351.5
58697,4251.3,1100.5
58697,4501.3,851.45
58697,4751.3,603.45
58697,3001.3,2351.5
58697,3251.3,2099.5
58697,3501.3,1848.5
58697,3751.3,1599.5
58697,4001.3,1351.5
58697,3251.3,2099.5
58697,3501.3,1847.5
58697,3751.3,1596.5
58697,4001.3,1347.5
58697,4251.3,1099.5
58697,3501.3,1848.5
58697,3751.3,1596.5
58697,4001.3,1345.5
58697,4251.3,1096.5
58697,4501.3,848.45
58697,3751.3,1599.5
58697,4001.3,1347.5
58697,4251.3,1096.5
58697,4501.3,847.45
58697,4751.3,599.45
58697,4001.3,1351.5
58697,4251.3,1099.5
58697,4501.3,848.45
58697,4751.3,599.45
58697,5001.3,351.45
58697,3251.3,2100.5
58697,3501.3,1848.5
58697,3751.3,1597.5
58697,4001.3,1348.5
58697,4251.3,1100.5
58697,3501.3,1848.5
58697,3751.3,1596.5
58697,4001.3,1345.5
58697,4251.3,1096.5
58697,4501.3,848.45
58697,3751.3,1597.5
58697,4001.3,1345.5
58697,4251.3,1094.5
58697,4501.3,845.45
58697,4751.3,597.45
58697,4001.3,1348.5
58697,4251.3,1096.5
58697,4501.3,845.45
58697,4751.3,596.45
58697,5001.3,348.45
58697,4251.3,1100.5
58697,4501.3,848.45
58697,4751.3,597.45
58697,5001.3,348.45
58697,5251.3,100.45
58697,3001.3,2352.5
58697,3251.3,2100.5
58697,3501.3,1849.5
58697,3751.3,1600.5
58697,4001.3,1352.5
58697,3251.3,2100.5
58697,3501.3,1848.5
58697,3751.3,1597.5
58697,4001.3,1348.5
58697,4251.3,1100.5
58697,3501.3,1849.5
58697,3751.3,1597.5
58697,4001.3,1346.5
58697,4251.3,1097.5
58697,4501.3,849.45
58697,3751.3,1600.5
58697,4001.3,1348.5
58697,4251.3,1097.5
58697,4501.3,848.45
58697,4751.3,600.45
58697,4001.3,1352.5
58697,4251.3,1100.5
58697,4501.3,849.45
58697,4751.3,600.45
58697,5001.3,352.45
58697,3251.3,2100.5
58697,3501.3,1848.5
58697,3751.3,1597.5
58697,4001.3,1348.5
58697,4251.3,1100.5
58697,3501.3,1848.5
58697,3751.3,1596.5
58697,4001.3,1345.5
58697,4251.3,1096.5
58697,4501.3,848.45
58697,3751.3,1597.5
58697,4001.3,1345.5
58697,4251.3,1094.5
58697,4501.3,845.45
58697,4751.3,597.45
58697,4001.3,1348.5
58697,4251.3,1096.5
58697,4501.3,845.45
58697,4751.3,596.45
58697,5001.3,348.45
58697,4251.3,1100.5
58697,4501.3,848.45
58697,4751.3,597.45
58697,5001.3,348.45
58697,5251.3,100.45
58697,3251.3,2103.5
58697,3501.3,1851.5
58697,3751.3,1600.5
58697,4001.3,1351.5
58697,4251.3,1103.5
58697,3501.3,1851.5
58697,3751.3,1599.5
58697,4001.3,1348.5
58697,4251.3,1099.5
58697,4501.3,851.45
58697,3751.3,1600.5
58697,4001.3,1348.5
58697,4251.3,1097.5
58697,4501.3,848.45
58697,4751.3,600.45
58697,4001.3,1351.5
58697,4251.3,1099.5
58697,4501.3,848.45
58697,4751.3,599.45
58697,5001.3,351.45
58697,4251.3,1103.5
58697,4501.3,851.45
58697,4751.3,600.45
58697,5001.3,351.45
58697,5251.3,103.45
58697,2751.3,2604.5
58697,3001.3,2352.5
58697,3251.3,2101.5
58697,3501.3,1852.5
58697,3751.3,1604.5
58697,3001.3,2352.5
58697,3251.3,2100.5
58697,3501.3,1849.5
58697,3751.3,1600.5
58697,4001.3,1352.5
58697,3251.3,2101.5
58697,3501.3,1849.5
58697,3751.3,1598.5
58697,4001.3,1349.5
58697,4251.3,1101.5
58697,3501.3,1852.5
58697,3751.3,1600.5
58697,4001.3,1349.5
58697,4251.3,1100.5
58697,4501.3,852.45
58697,3751.3,1604.5
58697,4001.3,1352.5
58697,4251.3,1101.5
58697,4501.3,852.45
58697,4751.3,604.45
58697,3001.3,2352.5
58697,3251.3,2100.5
58697,3501.3,1849.5
58697,3751.3,1600.5
58697,4001.3,1352.5
58697,3251.3,2100.5
58697,3501.3,1848.5
58697,3751.3,1597.5
58697,4001.3,1348.5
58697,4251.3,1100.5
58697,3501.3,1849.5
58697,3751.3,1597.5
58697,4001.3,1346.5
58697,4251.3,1097.5
58697,4501.3,849.45
58697,3751.3,1600.5
58697,4001.3,1348.5
58697,4251.3,1097.5
58697,4501.3,848.45
58697,4751.3,600.45
58697,4001.3,1352.5
58697,4251.3,1100.5
58697,4501.3,849.45
58697,4751.3,600.45
58697,5001.3,352.45
58697,3251.3,2101.5
58697,3501.3,1849.5
58697,3751.3,1598.5
58697,4001.3,1349.5
58697,4251.3,1101.5
58697,3501.3,1849.5
58697,3751.3,1597.5
58697,4001.3,1346.5
58697,4251.3,1097.5
58697,4501.3,849.45
58697,3751.3,1598.5
58697,4001.3,1346.5
58697,4251.3,1095.5
58697,4501.3,846.45
58697,4751.3,598.45
58697,4001.3,1349.5
58697,4251.3,1097.5
58697,4501.3,846.45
58697,4751.3,597.45
58697,5001.3,349.45
58697,4251.3,1101.5
58697,4501.3,849.45
58697,4751.3,598.45
58697,5001.3,349.45
58697,5251.3,101.45
58697,3001.3,2352.5
58697,3251.3,2100.5
58697,3501.3,1849.5
58697,3751.3,1600.5
58697,4001.3,1352.5
58697,3251.3,2100.5
58697,3501.3,1848.5
58697,3751.3,1597.5
58697,4001.3,1348.5
58697,4251.3,1100.5
58697,3501.3,1849.5
58697,3751.3,1597.5
58697,4001.3,1346.5
58697,4251.3,1097.5
58697,4501.3,849.45
58697,3751.3,1600.5
58697,4001.3,1348.5
58697,4251.3,1097.5
58697,4501.3,848.45
58697,4751.3,600.45
58697,4001.3,1352.5
58697,4251.3,1100.5
58697,4501.3,849.45
58697,4751.3,600.45
58697,5001.3,352.45
58697,3251.3,2100.5
58697,3501.3,1848.5
58697,3751.3,1597.5
58697,4001.3,1348.5
58697,4251.3,1100.5
58697,3501.3,1848.5
58697,3751.3,1596.5
58697,4001.3,1345.5
58697,4251.3,1096.5
58697,4501.3,848.45
58697,3751.3,1597.5
58697,4001.3,1345.5
58697,4251.3,1094.5
58697,4501.3,845.45
58697,4751.3,597.45
58697,4001.3,1348.5
58697,4251.3,1096.5
58697,4501.3,845.45
58697,4751.3,596.45
58697,5001.3,348.45
58697,4251.3,1100.5
58697,4501.3,848.45
58697,4751.3,597.45
58697,5001.3,348.45
58697,5251.3,100.45
58697,3251.3,2101.5
58697,3501.3,1849.5
58697,3751.3,1598.5
58697,4001.3,1349.5
58697,4251.3,1101.5
58697,3501.3,1849.5
58697,3751.3,1597.5
58697,4001.3,1346.5
58697,4251.3,1097.5
58697,4501.3,849.45
58697,3751.3,1598.5
58697,4001.3,1346.5
58697,4251.3,1095.5
58697,4501.3,846.45
58697,4751.3,598.45
58697,4001.3,1349.5
58697,4251.3,1097.5
58697,4501.3,846.45
58697,4751.3,597.45
58697,5001.3,349.45
58697,4251.3,1101.5
58697,4501.3,849.45
58697,4751.3,598.45
58697,5001.3,349.45
58697,5251.3,101.45
58697,5751.3,425.55
58697,6001.3,673.55
58697,3001.3,2355.5
58697,3251.3,2103.5
58697,3501.3,1852.5
58697,3751.3,1603.5
58697,4001.3,1355.5
58697,3251.3,2103.5
58697,3501.3,1851.5
58697,3751.3,1600.5
58697,4001.3,1351.5
58697,4251.3,1103.5
58697,3501.3,1852.5
58697,3751.3,1600.5
58697,4001.3,1349.5
58697,4251.3,1100.5
58697,4501.3,852.45
58697,3751.3,1603.5
58697,4001.3,1351.5
58697,4251.3,1100.5
58697,4501.3,851.45
58697,4751.3,603.45
58697,4001.3,1355.5
58697,4251.3,1103.5
58697,4501.3,852.45
58697,4751.3,603.45
58697,5001.3,355.45
58697,3251.3,2103.5
58697,3501.3,1851.5
58697,3751.3,1600.5
58697,4001.3,1351.5
58697,4251.3,1103.5
58697,3501.3,1851.5
58697,3751.3,1599.5
58697,4001.3,1348.5
58697,4251.3,1099.5
58697,4501.3,851.45
58697,3751.3,1600.5
58697,4001.3,1348.5
58697,4251.3,1097.5
58697,4501.3,848.45
58697,4751.3,600.45
58697,4001.3,1351.5
58697,4251.3,1099.5
58697,4501.3,848.45
58697,4751.3,599.45
58697,5001.3,351.45
58697,4251.3,1103.5
58697,4501.3,851.45
58697,4751.3,600.45
58697,5001.3,351.45
58697,5251.3,103.45
58697,3251.3,2103.5
58697,3501.3,1851.5
58697,3751.3,1600.5
58697,4001.3,1351.5
58697,4251.3,1103.5
58697,3501.3,1851.5
58697,3751.3,1599.5
58697,4001.3,1348.5
58697,4251.3,1099.5
58697,4501.3,851.45
58697,3751.3,1600.5
58697,4001.3,1348.5
58697,4251.3,1097.5
58697,4501.3,848.45
58697,4751.3,600.45
58697,4001.3,1351.5
58697,4251.3,1099.5
58697,4501.3,848.45
58697,4751.3,599.45
58697,5001.3,351.45
58697,4251.3,1103.5
58697,4501.3,851.45
58697,4751.3,600.45
58697,5001.3,351.45
58697,5251.3,103.45
58697,5751.3,424.55
58697,6001.3,672.55
58697,5751.3,424.55
58697,6001.3,672.55
58697,5751.3,424.55
58697,6001.3,672.55
58697,6001.3,676.55
58697,3251.3,2107.5
58697,3501.3,1855.5
58697,3751.3,1604.5
58697,4001.3,1355.5
58697,4251.3,1107.5
58697,3501.3,1855.5
58697,3751.3,1603.5
58697,4001.3,1352.5
58697,4251.3,1103.5
58697,4501.3,855.45
58697,3751.3,1604.5
58697,4001.3,1352.5
58697,4251.3,1101.5
58697,4501.3,852.45
58697,4751.3,604.45
58697,4001.3,1355.5
58697,4251.3,1103.5
58697,4501.3,852.45
58697,4751.3,603.45
58697,5001.3,355.45
58697,4251.3,1107.5
58697,4501.3,855.45
58697,4751.3,604.45
58697,5001.3,355.45
58697,5251.3,107.45
58697,5751.3,425.55
58697,6001.3,673.55
58697,5751.3,424.55
58697,6001.3,672.55
58697,5751.3,424.55
58697,6001.3,672.55
58697,6001.3,676.55
58697,5751.3,425.55
58697,6001.3,673.55
58697,5751.3,424.55
58697,6001.3,672.55
58697,6001.3,676.55
58697,2501.3,2855.5
58697,2751.3,2603.5
58697,3001.3,2352.5
58697,3251.3,2103.5
58697,3501.3,1855.5
58697,2751.3,2603.5
58697,3001.3,2351.5
58697,3251.3,2100.5
58697,3501.3,1851.5
58697,3751.3,1603.5
58697,3001.3,2352.5
58697,3251.3,2100.5
58697,3501.3,1849.5
58697,3751.3,1600.5
58697,4001.3,1352.5
58697,3251.3,2103.5
58697,3501.3,1851.5
58697,3751.3,1600.5
58697,4001.3,1351.5
58697,4251.3,1103.5
58697,3501.3,1855.5
58697,3751.3,1603.5
58697,4001.3,1352.5
58697,4251.3,1103.5
58697,4501.3,855.45
58697,2751.3,2603.5
58697,3001.3,2351.5
58697,3251.3,2100.5
58697,3501.3,1851.5
58697,3751.3,1603.5
58697,3001.3,2351.5
58697,3251.3,2099.5
58697,3501.3,1848.5
58697,3751.3,1599.5
58697,4001.3,1351.5
58697,3251.3,2100.5
58697,3501.3,1848.5
58697,3751.3,1597.5
58697,4001.3,1348.5
58697,4251.3,1100.5
58697,3501.3,1851.5
58697,3751.3,1599.5
58697,4001.3,1348.5
58697,4251.3,1099.5
58697,4501.3,851.45
58697,3751.3,1603.5
58697,4001.3,1351.5
58697,4251.3,1100.5
58697,4501.3,851.45
58697,4751.3,603.45
58697,3001.3,2352.5
58697,3251.3,2100.5
58697,3501.3,1849.5
58697,3751.3,1600.5
58697,4001.3,1352.5
58697,3251.3,2100.5
58697,3501.3,1848.5
58697,3751.3,1597.5
58697,4001.3,1348.5
58697,4251.3,1100.5
58697,3501.3,1849.5
58697,3751.3,1597.5
58697,4001.3,1346.5
58697,4251.3,1097.5
58697,4501.3,849.45
58697,3751.3,1600.5
58697,4001.3,1348.5
58697,4251.3,1097.5
58697,4501.3,848.45
58697,4751.3,600.45
58697,4001.3,1352.5
58697,4251.3,1100.5
58697,4501.3,849.45
58697,4751.3,600.45
58697,5001.3,352.45
58697,3251.3,2103.5
58697,3501.3,1851.5
58697,3751.3,1600.5
58697,4001.3,1351.5
58697,4251.3,1103.5
58697,3501.3,1851.5
58697,3751.3,1599.5
58697,4001.3,1348.5
58697,4251.3,1099.5
58697,4501.3,851.45
58697,3751.3,1600.5
58697,4001.3,1348.5
58697,4251.3,1097.5
58697,4501.3,848.45
58697,4751.3,600.45
58697,4001.3,1351.5
58697,4251.3,1099.5
58697,4501.3,848.45
58697,4751.3,599.45
58697,5001.3,351.45
58697,4251.3,1103.5
58697,4501.3,851.45
58697,4751.3,600.45
58697,5001.3,351.45
58697,5251.3,103.45
58697,2751.3,2603.5
58697,3001.3,2351.5
58697,3251.3,2100.5
58697,3501.3,1851.5
58697,3751.3,1603.5
58697,3001.3,2351.5
58697,3251.3,2099.5
58697,3501.3,1848.5
58697,3751.3,1599.5
58697,4001.3,1351.5
58697,3251.3,2100.5
58697,3501.3,1848.5
58697,3751.3,1597.5
58697,4001.3,1348.5
58697,4251.3,1100.5
58697,3501.3,1851.5
58697,3751.3,1599.5
58697,4001.3,1348.5
58697,4251.3,1099.5
58697,4501.3,851.45
58697,3751.3,1603.5
58697,4001.3,1351.5
58697,4251.3,1100.5
58697,4501.3,851.45
58697,4751.3,603.45
58697,3001.3,2351.5
58697,3251.3,2099.5
58697,3501.3,1848.5
58697,3751.3,1599.5
58697,4001.3,1351.5
58697,3251.3,2099.5
58697,3501.3,1847.5
58697,3751.3,1596.5
58697,4001.3,1347.5
58697,4251.3,1099.5
58697,3501.3,1848.5
58697,3751.3,1596.5
58697,4001.3,1345.5
58697,4251.3,1096.5
58697,4501.3,848.45
58697,3751.3,1599.5
58697,4001.3,1347.5
58697,4251.3,1096.5
58697,4501.3,847.45
58697,4751.3,599.45
58697,4001.3,1351.5
58697,4251.3,1099.5
58697,4501.3,848.45
58697,4751.3,599.45
58697,5001.3,351.45
58697,3251.3,2100.5
58697,3501.3,1848.5
58697,3751.3,1597.5
58697,4001.3,1348.5
58697,4251.3,1100.5
58697,3501.3,1848.5
58697,3751.3,1596.5
58697,4001.3,1345.5
58697,4251.3,1096.5
58697,4501.3,848.45
58697,3751.3,1597.5
58697,4001.3,1345.5
58697,4251.3,1094.5
58697,4501.3,845.45
58697,4751.3,597.45
58697,4001.3,1348.5
58697,4251.3,1096.5
58697,4501.3,845.45
58697,4751.3,596.45
58697,5001.3,348.45
58697,4251.3,1100.5
58697,4501.3,848.45
58697,4751.3,597.45
58697,5001.3,348.45
58697,5251.3,100.45
58697,3001.3,2352.5
58697,3251.3,2100.5
58697,3501.3,1849.5
58697,3751.3,1600.5
58697,4001.3,1352.5
58697,3251.3,2100.5
58697,3501.3,1848.5
58697,3751.3,1597.5
58697,4001.3,1348.5
58697,4251.3,1100.5
58697,3501.3,1849.5
58697,3751.3,1597.5
58697,4001.3,1346.5
58697,4251.3,1097.5
58697,4501.3,849.45
58697,3751.3,1600.5
58697,4001.3,1348.5
58697,4251.3,1097.5
58697,4501.3,848.45
58697,4751.3,600.45
58697,4001.3,1352.5
58697,4251.3,1100.5
58697,4501.3,849.45
58697,4751.3,600.45
58697,5001.3,352.45
58697,3251.3,2100.5
58697,3501.3,1848.5
58697,3751.3,1597.5
58697,4001.3,1348.5
58697,4251.3,1100.5
58697,3501.3,1848.5
58697,3751.3,1596.5
58697,4001.3,1345.5
58697,4251.3,1096.5
58697,4501.3,848.45
58697,3751.3,1597.5
58697,4001.3,1345.5
58697,4251.3,1094.5
58697,4501.3,845.45
58697,4751.3,597.45
58697,4001.3,1348.5
58697,4251.3,1096.5
58697,4501.3,845.45
58697,4751.3,596.45
58697,5001.3,348.45
58697,4251.3,1100.5
58697,4501.3,848.45
58697,4751.3,597.45
58697,5001.3,348.45
58697,5251.3,100.45
58697,3251.3,2103.5
58697,3501.3,1851.5
58697,3751.3,1600.5
58697,4001.3,1351.5
58697,4251.3,1103.5
58697,3501.3,1851.5
58697,3751.3,1599.5
58697,4001.3,1348.5
58697,4251.3,1099.5
58697,4501.3,851.45
58697,3751.3,1600.5
58697,4001.3,1348.5
58697,4251.3,1097.5
58697,4501.3,848.45
58697,4751.3,600.45
58697,4001.3,1351.5
58697,4251.3,1099.5
58697,4501.3,848.45
58697,4751.3,599.45
58697,5001.3,351.45
58697,4251.3,1103.5
58697,4501.3,851.45
58697,4751.3,600.45
58697,5001.3,351.45
58697,5251.3,103.45
58697,2751.3,2603.5
58697,3001.3,2351.5
58697,3251.3,2100.5
58697,3501.3,1851.5
58697,3751.3,1603.5
58697,3001.3,2351.5
58697,3251.3,2099.5
58697,3501.3,1848.5
58697,3751.3,1599.5
58697,4001.3,1351.5
58697,3251.3,2100.5
58697,3501.3,1848.5
58697,3751.3,1597.5
58697,4001.3,1348.5
58697,4251.3,1100.5
58697,3501.3,1851.5
58697,3751.3,1599.5
58697,4001.3,1348.5
58697,4251.3,1099.5
58697,4501.3,851.45
58697,3751.3,1603.5
58697,4001.3,1351.5
58697,4251.3,1100.5
58697,4501.3,851.45
58697,4751.3,603.45
58697,3001.3,2351.5
58697,3251.3,2099.5
58697,3501.3,1848.5
58697,3751.3,1599.5
58697,4001.3,1351.5
58697,3251.3,2099.5
58697,3501.3,1847.5
58697,3751.3,1596.5
58697,4001.3,1347.5
58697,4251.3,1099.5
58697,3501.3,1848.5
58697,3751.3,1596.5
58697,4001.3,1345.5
58697,4251.3,1096.5
58697,4501.3,848.45
58697,3751.3,1599.5
58697,4001.3,1347.5
58697,4251.3,1096.5
58697,4501.3,847.45
58697,4751.3,599.45
58697,4001.3,1351.5
58697,4251.3,1099.5
58697,4501.3,848.45
58697,4751.3,599.45
58697,5001.3,351.45
58697,3251.3,2100.5
58697,3501.3,1848.5
58697,3751.3,1597.5
58697,4001.3,1348.5
58697,4251.3,1100.5
58697,3501.3,1848.5
58697,3751.3,1596.5
58697,4001.3,1345.5
58697,4251.3,1096.5
58697,4501.3,848.45
58697,3751.3,1597.5
58697,4001.3,1345.5
58697,4251.3,1094.5
58697,4501.3,845.45
58697,4751.3,597.45
58697,4001.3,1348.5
58697,4251.3,1096.5
58697,4501.3,845.45
58697,4751.3,596.45
58697,5001.3,348.45
58697,4251.3,1100.5
58697,4501.3,848.45
58697,4751.3,597.45
58697,5001.3,348.45
58697,5251.3,100.45
58697,3001.3,2351.5
58697,3251.3,2099.5
58697,3501.3,1848.5
58697,3751.3,1599.5
58697,4001.3,1351.5
58697,3251.3,2099.5
58697,3501.3,1847.5
58697,3751.3,1596.5
58697,4001.3,1347.5
58697,4251.3,1099.5
58697,3501.3,1848.5
58697,3751.3,1596.5
58697,4001.3,1345.5
58697,4251.3,1096.5
58697,4501.3,848.45
58697,3751.3,1599.5
58697,4001.3,1347.5
58697,4251.3,1096.5
58697,4501.3,847.45
58697,4751.3,599.45
58697,4001.3,1351.5
58697,4251.3,1099.5
58697,4501.3,848.45
58697,4751.3,599.45
58697,5001.3,351.45
58697,3251.3,2099.5
58697,3501.3,1847.5
58697,3751.3,1596.5
58697,4001.3,1347.5
58697,4251.3,1099.5
58697,3501.3,1847.5
58697,3751.3,1595.5
58697,4001.3,1344.5
58697,4251.3,1095.5
58697,4501.3,847.45
58697,3751.3,1596.5
58697,4001.3,1344.5
58697,4251.3,1093.5
58697,4501.3,844.45
58697,4751.3,596.45
58697,4001.3,1347.5
58697,4251.3,1095.5
58697,4501.3,844.45
58697,4751.3,595.45
58697,5001.3,347.45
58697,4251.3,1099.5
58697,4501.3,847.45
58697,4751.3,596.45
58697,5001.3,347.45
58697,5251.3,99.45
58697,3251.3,2100.5
58697,3501.3,1848.5
58697,3751.3,1597.5
58697,4001.3,1348.5
58697,4251.3,1100.5
58697,3501.3,1848.5
58697,3751.3,1596.5
58697,4001.3,1345.5
58697,4251.3,1096.5
58697,4501.3,848.45
58697,3751.3,1597.5
58697,4001.3,1345.5
58697,4251.3,1094.5
58697,4501.3,845.45
58697,4751.3,597.45
58697,4001.3,1348.5
58697,4251.3,1096.5
58697,4501.3,845.45
58697,4751.3,596.45
58697,5001.3,348.45
58697,4251.3,1100.5
58697,4501.3,848.45
58697,4751.3,597.45
58697,5001.3,348.45
58697,5251.3,100.45
58697,5751.3,424.55
58697,6001.3,672.55
58697,3001.3,2352.5
58697,3251.3,2100.5
58697,3501.3,1849.5
58697,3751.3,1600.5
58697,4001.3,1352.5
58697,3251.3,2100.5
58697,3501.3,1848.5
58697,3751.3,1597.5
58697,4001.3,1348.5
58697,4251.3,1100.5
58697,3501.3,1849.5
58697,3751.3,1597.5
58697,4001.3,1346.5
58697,4251.3,1097.5
58697,4501.3,849.45
58697,3751.3,1600.5
58697,4001.3,1348.5
58697,4251.3,1097.5
58697,4501.3,848.45
58697,4751.3,600.45
58697,4001.3,1352.5
58697,4251.3,1100.5
58697,4501.3,849.45
58697,4751.3,600.45
58697,5001.3,352.45
58697,3251.3,2100.5
58697,3501.3,1848.5
58697,3751.3,1597.5
58697,4001.3,1348.5
58697,4251.3,1100.5
58697,3501.3,1848.5
58697,3751.3,1596.5
58697,4001.3,1345.5
58697,4251.3,1096.5
58697,4501.3,848.45
58697,3751.3,1597.5
58697,4001.3,1345.5
58697,4251.3,1094.5
58697,4501.3,845.45
58697,4751.3,597.45
58697,4001.3,1348.5
58697,4251.3,1096.5
58697,4501.3,845.45
58697,4751.3,596.45
58697,5001.3,348.45
58697,4251.3,1100.5
58697,4501.3,848.45
58697,4751.3,597.45
58697,5001.3,348.45
58697,5251.3,100.45
58697,3251.3,2100.5
58697,3501.3,1848.5
58697,3751.3,1597.5
58697,4001.3,1348.5
58697,4251.3,1100.5
58697,3501.3,1848.5
58697,3751.3,1596.5
58697,4001.3,1345.5
58697,4251.3,1096.5
58697,4501.3,848.45
58697,3751.3,1597.5
58697,4001.3,1345.5
58697,4251.3,1094.5
58697,4501.3,845.45
58697,4751.3,597.45
58697,4001.3,1348.5
58697,4251.3,1096.5
58697,4501.3,845.45
58697,4751.3,596.45
58697,5001.3,348.45
58697,4251.3,1100.5
58697,4501.3,848.45
58697,4751.3,597.45
58697,5001.3,348.45
58697,5251.3,100.45
58697,5751.3,421.55
58697,6001.3,669.55
58697,5751.3,421.55
58697,6001.3,669.55
58697,5751.3,421.55
58697,6001.3,669.55
58697,6001.3,673.55
58697,3251.3,2103.5
58697,3501.3,1851.5
58697,3751.3,1600.5
58697,4001.3,1351.5
58697,4251.3,1103.5
58697,3501.3,1851.5
58697,3751.3,1599.5
58697,4001.3,1348.5
58697,4251.3,1099.5
58697,4501.3,851.45
58697,3751.3,1600.5
58697,4001.3,1348.5
58697,4251.3,1097.5
58697,4501.3,848.45
58697,4751.3,600.45
58697,4001.3,1351.5
58697,4251.3,1099.5
58697,4501.3,848.45
58697,4751.3,599.45
58697,5001.3,351.45
58697,4251.3,1103.5
58697,4501.3,851.45
58697,4751.3,600.45
58697,5001.3,351.45
58697,5251.3,103.45
58697,5751.3,421.55
58697,6001.3,669.55
58697,5751.3,420.55
58697,6001.3,668.55
58697,5751.3,420.55
58697,6001.3,668.55
58697,6001.3,672.55
58697,5751.3,421.55
58697,6001.3,669.55
58697,5751.3,420.55
58697,6001.3,668.55
58697,6001.3,672.55
58697,5751.3,424.55
58697,6001.3,672.55
58697,5751.3,421.55
58697,6001.3,669.55
58697,5751.3,421.55
58697,6001.3,669.55
58697,6001.3,673.55
58697,5751.3,421.55
58697,6001.3,669.55
58697,5751.3,420.55
58697,6001.3,668.55
58697,6001.3,672.55
58697,5751.3,424.55
58697,6001.3,672.55
58697,5751.3,421.55
58697,6001.3,669.55
58697,6001.3,673.55
58697,2751.3,2604.5
58697,3001.3,2352.5
58697,3251.3,2101.5
58697,3501.3,1852.5
58697,3751.3,1604.5
58697,3001.3,2352.5
58697,3251.3,2100.5
58697,3501.3,1849.5
58697,3751.3,1600.5
58697,4001.3,1352.5
58697,3251.3,2101.5
58697,3501.3,1849.5
58697,3751.3,1598.5
58697,4001.3,1349.5
58697,4251.3,1101.5
58697,3501.3,1852.5
58697,3751.3,1600.5
58697,4001.3,1349.5
58697,4251.3,1100.5
58697,4501.3,852.45
58697,3751.3,1604.5
58697,4001.3,1352.5
58697,4251.3,1101.5
58697,4501.3,852.45
58697,4751.3,604.45
58697,3001.3,2352.5
58697,3251.3,2100.5
58697,3501.3,1849.5
58697,3751.3,1600.5
58697,4001.3,1352.5
58697,3251.3,2100.5
58697,3501.3,1848.5
58697,3751.3,1597.5
58697,4001.3,1348.5
58697,4251.3,1100.5
58697,3501.3,1849.5
58697,3751.3,1597.5
58697,4001.3,1346.5
58697,4251.3,1097.5
58697,4501.3,849.45
58697,3751.3,1600.5
58697,4001.3,1348.5
58697,4251.3,1097.5
58697,4501.3,848.45
58697,4751.3,600.45
58697,4001.3,1352.5
58697,4251.3,1100.5
58697,4501.3,849.45
58697,4751.3,600.45
58697,5001.3,352.45
58697,3251.3,2101.5
58697,3501.3,1849.5
58697,3751.3,1598.5
58697,4001.3,1349.5
58697,4251.3,1101.5
58697,3501.3,1849.5
58697,3751.3,1597.5
58697,4001.3,1346.5
58697,4251.3,1097.5
58697,4501.3,849.45
58697,3751.3,1598.5
58697,4001.3,1346.5
58697,4251.3,1095.5
58697,4501.3,846.45
58697,4751.3,598.45
58697,4001.3,1349.5
58697,4251.3,1097.5
58697,4501.3,846.45
58697,4751.3,597.45
58697,5001.3,349.45
58697,4251.3,1101.5
58697,4501.3,849.45
58697,4751.3,598.45
58697,5001.3,349.45
58697,5251.3,101.45
58697,3001.3,2352.5
58697,3251.3,2100.5
58697,3501.3,1849.5
58697,3751.3,1600.5
58697,4001.3,1352.5
58697,3251.3,2100.5
58697,3501.3,1848.5
58697,3751.3,1597.5
58697,4001.3,1348.5
58697,4251.3,1100.5
58697,3501.3,1849.5
58697,3751.3,1597.5
58697,4001.3,1346.5
58697,4251.3,1097.5
58697,4501.3,849.45
58697,3751.3,1600.5
58697,4001.3,1348.5
58697,4251.3,1097.5
58697,4501.3,848.45
58697,4751.3,600.45
58697,4001.3,1352.5
58697,4251.3,1100.5
58697,4501.3,849.45
58697,4751.3,600.45
58697,5001.3,352.45
58697,3251.3,2100.5
58697,3501.3,1848.5
58697,3751.3,1597.5
58697,4001.3,1348.5
58697,4251.3,1100.5
58697,3501.3,1848.5
58697,3751.3,1596.5
58697,4001.3,1345.5
58697,4251.3,1096.5
58697,4501.3,848.45
58697,3751.3,1597.5
58697,4001.3,1345.5
58697,4251.3,1094.5
58697,4501.3,845.45
58697,4751.3,597.45
58697,4001.3,1348.5
58697,4251.3,1096.5
58697,4501.3,845.45
58697,4751.3,596.45
58697,5001.3,348.45
58697,4251.3,1100.5
58697,4501.3,848.45
58697,4751.3,597.45
58697,5001.3,348.45
58697,5251.3,100.45
58697,3251.3,2101.5
58697,3501.3,1849.5
58697,3751.3,1598.5
58697,4001.3,1349.5
58697,4251.3,1101.5
58697,3501.3,1849.5
58697,3751.3,1597.5
58697,4001.3,1346.5
58697,4251.3,1097.5
58697,4501.3,849.45
58697,3751.3,1598.5
58697,4001.3,1346.5
58697,4251.3,1095.5
58697,4501.3,846.45
58697,4751.3,598.45
58697,4001.3,1349.5
58697,4251.3,1097.5
58697,4501.3,846.45
58697,4751.3,597.45
58697,5001.3,349.45
58697,4251.3,1101.5
58697,4501.3,849.45
58697,4751.3,598.45
58697,5001.3,349.45
58697,5251.3,101.45
58697,5751.3,425.55
58697,6001.3,673.55
58697,3001.3,2352.5
58697,3251.3,2100.5
58697,3501.3,1849.5
58697,3751.3,1600.5
58697,4001.3,1352.5
58697,3251.3,2100.5
58697,3501.3,1848.5
58697,3751.3,1597.5
58697,4001.3,1348.5
58697,4251.3,1100.5
58697,3501.3,1849.5
58697,3751.3,1597.5
58697,4001.3,1346.5
58697,4251.3,1097.5
58697,4501.3,849.45
58697,3751.3,1600.5
58697,4001.3,1348.5
58697,4251.3,1097.5
58697,4501.3,848.45
58697,4751.3,600.45
58697,4001.3,1352.5
58697,4251.3,1100.5
58697,4501.3,849.45
58697,4751.3,600.45
58697,5001.3,352.45
58697,3251.3,2100.5
58697,3501.3,1848.5
58697,3751.3,1597.5
58697,4001.3,1348.5
58697,4251.3,1100.5
58697,3501.3,1848.5
58697,3751.3,1596.5
58697,4001.3,1345.5
58697,4251.3,1096.5
58697,4501.3,848.45
58697,3751.3,1597.5
58697,4001.3,1345.5
58697,4251.3,1094.5
58697,4501.3,845.45
58697,4751.3,597.45
58697,4001.3,1348.5
58697,4251.3,1096.5
58697,4501.3,845.45
58697,4751.3,596.45
58697,5001.3,348.45
58697,4251.3,1100.5
58697,4501.3,848.45
58697,4751.3,597.45
58697,5001.3,348.45
58697,5251.3,100.45
58697,3251.3,2100.5
58697,3501.3,1848.5
58697,3751.3,1597.5
58697,4001.3,1348.5
58697,4251.3,1100.5
58697,3501.3,1848.5
58697,3751.3,1596.5
58697,4001.3,1345.5
58697,4251.3,1096.5
58697,4501.3,848.45
58697,3751.3,1597.5
58697,4001.3,1345.5
58697,4251.3,1094.5
58697,4501.3,845.45
58697,4751.3,597.45
58697,4001.3,1348.5
58697,4251.3,1096.5
58697,4501.3,845.45
58697,4751.3,596.45
58697,5001.3,348.45
58697,4251.3,1100.5
58697,4501.3,848.45
58697,4751.3,597.45
58697,5001.3,348.45
58697,5251.3,100.45
58697,5751.3,421.55
58697,6001.3,669.55
58697,5751.3,421.55
58697,6001.3,669.55
58697,5751.3,421.55
58697,6001.3,669.55
58697,6001.3,673.55
58697,3251.3,2101.5
58697,3501.3,1849.5
58697,3751.3,1598.5
58697,4001.3,1349.5
58697,4251.3,1101.5
58697,3501.3,1849.5
58697,3751.3,1597.5
58697,4001.3,1346.5
58697,4251.3,1097.5
58697,4501.3,849.45
58697,3751.3,1598.5
58697,4001.3,1346.5
58697,4251.3,1095.5
58697,4501.3,846.45
58697,4751.3,598.45
58697,4001.3,1349.5
58697,4251.3,1097.5
58697,4501.3,846.45
58697,4751.3,597.45
58697,5001.3,349.45
58697,4251.3,1101.5
58697,4501.3,849.45
58697,4751.3,598.45
58697,5001.3,349.45
58697,5251.3,101.45
58697,5751.3,419.55
58697,6001.3,667.55
58697,5751.3,418.55
58697,6001.3,666.55
58697,5751.3,418.55
58697,6001.3,666.55
58697,6001.3,670.55
58697,5751.3,419.55
58697,6001.3,667.55
58697,5751.3,418.55
58697,6001.3,666.55
58697,6001.3,670.55
58697,5751.3,421.55
58697,6001.3,669.55
58697,5751.3,418.55
58697,6001.3,666.55
58697,5751.3,418.55
58697,6001.3,666.55
58697,6001.3,670.55
58697,5751.3,418.55
58697,6001.3,666.55
58697,5751.3,417.55
58697,6001.3,665.55
58697,6001.3,669.55
58697,5751.3,421.55
58697,6001.3,669.55
58697,5751.3,418.55
58697,6001.3,666.55
58697,6001.3,670.55
58697,5751.3,425.55
58697,6001.3,673.55
58697,5751.3,421.55
58697,6001.3,669.55
58697,5751.3,421.55
58697,6001.3,669.55
58697,6001.3,673.55
58697,5751.3,419.55
58697,6001.3,667.55
58697,5751.3,418.55
58697,6001.3,666.55
58697,6001.3,670.55
58697,5751.3,421.55
58697,6001.3,669.55
58697,5751.3,418.55
58697,6001.3,666.55
58697,6001.3,670.55
58697,5751.3,425.55
58697,6001.3,673.55
58697,5751.3,421.55
58697,6001.3,669.55
58697,6001.3,673.55
58697,3001.3,2355.5
58697,3251.3,2103.5
58697,3501.3,1852.5
58697,3751.3,1603.5
58697,4001.3,1355.5
58697,3251.3,2103.5
58697,3501.3,1851.5
58697,3751.3,1600.5
58697,4001.3,1351.5
58697,4251.3,1103.5
58697,3501.3,1852.5
58697,3751.3,1600.5
58697,4001.3,1349.5
58697,4251.3,1100.5
58697,4501.3,852.45
58697,3751.3,1603.5
58697,4001.3,1351.5
58697,4251.3,1100.5
58697,4501.3,851.45
58697,4751.3,603.45
58697,4001.3,1355.5
58697,4251.3,1103.5
58697,4501.3,852.45
58697,4751.3,603.45
58697,5001.3,355.45
58697,3251.3,2103.5
58697,3501.3,1851.5
58697,3751.3,1600.5
58697,4001.3,1351.5
58697,4251.3,1103.5
58697,3501.3,1851.5
58697,3751.3,1599.5
58697,4001.3,1348.5
58697,4251.3,1099.5
58697,4501.3,851.45
58697,3751.3,1600.5
58697,4001.3,1348.5
58697,4251.3,1097.5
58697,4501.3,848.45
58697,4751.3,600.45
58697,4001.3,1351.5
58697,4251.3,1099.5
58697,4501.3,848.45
58697,4751.3,599.45
58697,5001.3,351.45
58697,4251.3,1103.5
58697,4501.3,851.45
58697,4751.3,600.45
58697,5001.3,351.45
58697,5251.3,103.45
58697,3251.3,2103.5
58697,3501.3,1851.5
58697,3751.3,1600.5
58697,4001.3,1351.5
58697,4251.3,1103.5
58697,3501.3,1851.5
58697,3751.3,1599.5
58697,4001.3,1348.5
58697,4251.3,1099.5
58697,4501.3,851.45
58697,3751.3,1600.5
58697,4001.3,1348.5
58697,4251.3,1097.5
58697,4501.3,848.45
58697,4751.3,600.45
58697,4001.3,1351.5
58697,4251.3,1099.5
58697,4501.3,848.45
58697,4751.3,599.45
58697,5001.3,351.45
58697,4251.3,1103.5
58697,4501.3,851.45
58697,4751.3,600.45
58697,5001.3,351.45
58697,5251.3,103.45
58697,5751.3,424.55
58697,6001.3,672.55
58697,5751.3,424.55
58697,6001.3,672.55
58697,5751.3,424.55
58697,6001.3,672.55
58697,6001.3,676.55
58697,3251.3,2103.5
58697,3501.3,1851.5
58697,3751.3,1600.5
58697,4001.3,1351.5
58697,4251.3,1103.5
58697,3501.3,1851.5
58697,3751.3,1599.5
58697,4001.3,1348.5
58697,4251.3,1099.5
58697,4501.3,851.45
58697,3751.3,1600.5
58697,4001.3,1348.5
58697,4251.3,1097.5
58697,4501.3,848.45
58697,4751.3,600.45
58697,4001.3,1351.5
58697,4251.3,1099.5
58697,4501.3,848.45
58697,4751.3,599.45
58697,5001.3,351.45
58697,4251.3,1103.5
58697,4501.3,851.45
58697,4751.3,600.45
58697,5001.3,351.45
58697,5251.3,103.45
58697,5751.3,421.55
58697,6001.3,669.55
58697,5751.3,420.55
58697,6001.3,668.55
58697,5751.3,420.55
58697,6001.3,668.55
58697,6001.3,672.55
58697,5751.3,421.55
58697,6001.3,669.55
58697,5751.3,420.55
58697,6001.3,668.55
58697,6001.3,672.55
58697,5751.3,421.55
58697,6001.3,669.55
58697,5751.3,418.55
58697,6001.3,666.55
58697,5751.3,418.55
58697,6001.3,666.55
58697,6001.3,670.55
58697,5751.3,418.55
58697,6001.3,666.55
58697,5751.3,417.55
58697,6001.3,665.55
58697,6001.3,669.55
58697,5751.3,421.55
58697,6001.3,669.55
58697,5751.3,418.55
58697,6001.3,666.55
58697,6001.3,670.55
58697,5751.3,424.55
58697,6001.3,672.55
58697,5751.3,420.55
58697,6001.3,668.55
58697,5751.3,420.55
58697,6001.3,668.55
58697,6001.3,672.55
58697,5751.3,418.55
58697,6001.3,666.55
58697,5751.3,417.55
58697,6001.3,665.55
58697,6001.3,669.55
58697,5751.3,420.55
58697,6001.3,668.55
58697,5751.3,417.55
58697,6001.3,665.55
58697,6001.3,669.55
58697,5751.3,424.55
58697,6001.3,672.55
58697,5751.3,420.55
58697,6001.3,668.55
58697,6001.3,672.55
58697,5751.3,424.55
58697,6001.3,672.55
58697,5751.3,424.55
58697,6001.3,672.55
58697,6001.3,676.55
58697,5751.3,421.55
58697,6001.3,669.55
58697,5751.3,420.55
58697,6001.3,668.55
58697,6001.3,672.55
58697,5751.3,421.55
58697,6001.3,669.55
58697,5751.3,418.55
58697,6001.3,666.55
58697,6001.3,670.55
58697,5751.3,424.55
58697,6001.3,672.55
58697,5751.3,420.55
58697,6001.3,668.55
58697,6001.3,672.55
58697,5751.3,424.55
58697,6001.3,672.55
58697,6001.3,676.55
58697,3251.3,2107.5
58697,3501.3,1855.5
58697,3751.3,1604.5
58697,4001.3,1355.5
58697,4251.3,1107.5
58697,3501.3,1855.5
58697,3751.3,1603.5
58697,4001.3,1352.5
58697,4251.3,1103.5
58697,4501.3,855.45
58697,3751.3,1604.5
58697,4001.3,1352.5
58697,4251.3,1101.5
58697,4501.3,852.45
58697,4751.3,604.45
58697,4001.3,1355.5
58697,4251.3,1103.5
58697,4501.3,852.45
58697,4751.3,603.45
58697,5001.3,355.45
58697,4251.3,1107.5
58697,4501.3,855.45
58697,4751.3,604.45
58697,5001.3,355.45
58697,5251.3,107.45
58697,5751.3,425.55
58697,6001.3,673.55
58697,5751.3,424.55
58697,6001.3,672.55
58697,5751.3,424.55
58697,6001.3,672.55
58697,6001.3,676.55
58697,5751.3,425.55
58697,6001.3,673.55
58697,5751.3,424.55
58697,6001.3,672.55
58697,6001.3,676.55
58697,5751.3,424.55
58697,6001.3,672.55
58697,5751.3,421.55
58697,6001.3,669.55
58697,5751.3,421.55
58697,6001.3,669.55
58697,6001.3,673.55
58697,5751.3,421.55
58697,6001.3,669.55
58697,5751.3,420.55
58697,6001.3,668.55
58697,6001.3,672.55
58697,5751.3,424.55
58697,6001.3,672.55
58697,5751.3,421.55
58697,6001.3,669.55
58697,6001.3,673.55
58697,5751.3,425.55
58697,6001.3,673.55
58697,5751.3,421.55
58697,6001.3,669.55
58697,5751.3,421.55
58697,6001.3,669.55
58697,6001.3,673.55
58697,5751.3,419.55
58697,6001.3,667.55
58697,5751.3,418.55
58697,6001.3,666.55
58697,6001.3,670.55
58697,5751.3,421.55
58697,6001.3,669.55
58697,5751.3,418.55
58697,6001.3,666.55
58697,6001.3,670.55
58697,5751.3,425.55
58697,6001.3,673.55
58697,5751.3,421.55
58697,6001.3,669.55
58697,6001.3,673.55
58697,5751.3,424.55
58697,6001.3,672.55
58697,5751.3,424.55
58697,6001.3,672.55
58697,6001.3,676.55
58697,5751.3,421.55
58697,6001.3,669.55
58697,5751.3,420.55
58697,6001.3,668.55
58697,6001.3,672.55
58697,5751.3,421.55
58697,6001.3,669.55
58697,5751.3,418.55
58697,6001.3,666.55
58697,6001.3,670.55
58697,5751.3,424.55
58697,6001.3,672.55
58697,5751.3,420.55
58697,6001.3,668.55
58697,6001.3,672.55
58697,5751.3,424.55
58697,6001.3,672.55
58697,6001.3,676.55
