27703,6638.6,112.46
27055,6138.6,615.46
27055,6388.6,363.46
27055,6638.6,112.46
27055,6888.6,138.54
27055,7138.6,390.54
26407,5638.6,1118.5
26407,5888.6,866.46
26407,6138.6,615.46
26407,6388.6,366.46
26407,6638.6,118.46
26407,5888.6,866.46
26407,6138.6,614.46
26407,6388.6,363.46
26407,6638.6,114.46
26407,6888.6,141.54
26407,6138.6,615.46
26407,6388.6,363.46
26407,6638.6,112.46
26407,6888.6,138.54
26407,7138.6,390.54
26407,6388.6,366.46
26407,6638.6,114.46
26407,6888.6,138.54
26407,7138.6,389.54
26407,7388.6,641.54
26407,6638.6,118.46
26407,6888.6,141.54
26407,7138.6,390.54
26407,7388.6,641.54
26407,7638.6,893.54
25759,5138.6,1621.5
25759,5388.6,1369.5
25759,5638.6,1118.5
25759,5888.6,869.46
25759,6138.6,621.46
25759,5388.6,1369.5
25759,5638.6,1117.5
25759,5888.6,866.46
25759,6138.6,617.46
25759,6388.6,369.46
25759,5638.6,1118.5
25759,5888.6,866.46
25759,6138.6,615.46
25759,6388.6,366.46
25759,6638.6,118.46
25759,5888.6,869.46
25759,6138.6,617.46
25759,6388.6,366.46
25759,6638.6,117.46
25759,6888.6,144.54
25759,6138.6,621.46
25759,6388.6,369.46
25759,6638.6,118.46
25759,6888.6,144.54
25759,7138.6,396.54
25759,5388.6,1369.5
25759,5638.6,1117.5
25759,5888.6,866.46
25759,6138.6,617.46
25759,6388.6,369.46
25759,5638.6,1117.5
25759,5888.6,865.46
25759,6138.6,614.46
25759,6388.6,365.46
25759,6638.6,117.46
25759,5888.6,866.46
25759,6138.6,614.46
25759,6388.6,363.46
25759,6638.6,114.46
25759,6888.6,141.54
25759,6138.6,617.46
25759,6388.6,365.46
25759,6638.6,114.46
25759,6888.6,140.54
25759,7138.6,392.54
25759,6388.6,369.46
25759,6638.6,117.46
25759,6888.6,141.54
25759,7138.6,392.54
25759,7388.6,644.54
25759,5638.6,1118.5
25759,5888.6,866.46
25759,6138.6,615.46
25759,6388.6,366.46
25759,6638.6,118.46
25759,5888.6,866.46
25759,6138.6,614.46
25759,6388.6,363.46
25759,6638.6,114.46
25759,6888.6,141.54
25759,6138.6,615.46
25759,6388.6,363.46
25759,6638.6,112.46
25759,6888.6,138.54
25759,7138.6,390.54
25759,6388.6,366.46
25759,6638.6,114.46
25759,6888.6,138.54
25759,7138.6,389.54
25759,7388.6,641.54
25759,6638.6,118.46
25759,6888.6,141.54
25759,7138.6,390.54
25759,7388.6,641.54
25759,7638.6,893.54
25759,5888.6,869.46
25759,6138.6,617.46
25759,6388.6,366.46
25759,6638.6,117.46
25759,6888.6,144.54
25759,6138.6,617.46
25759,6388.6,365.46
25759,6638.6,114.46
25759,6888.6,140.54
25759,7138.6,392.54
25759,6388.6,366.46
25759,6638.6,114.46
25759,6888.6,138.54
25759,7138.6,389.54
25759,7388.6,641.54
25759,6638.6,117.46
25759,6888.6,140.54
25759,7138.6,389.54
25759,7388.6,640.54
25759,7638.6,892.54
25759,6888.6,144.54
25759,7138.6,392.54
25759,7388.6,641.54
25759,7638.6,892.54
25759,7888.6,1144.5
25759,6138.6,621.46
25759,6388.6,369.46
25759,6638.6,118.46
25759,6888.6,144.54
25759,7138.6,396.54
25759,6388.6,369.46
25759,6638.6,117.46
25759,6888.6,141.54
25759,7138.6,392.54
25759,7388.6,644.54
25759,6638.6,118.46
25759,6888.6,141.54
25759,7138.6,390.54
25759,7388.6,641.54
25759,7638.6,893.54
25759,6888.6,144.54
25759,7138.6,392.54
25759,7388.6,641.54
25759,7638.6,892.54
25759,7888.6,1144.5
25759,7138.6,396.54
25759,7388.6,644.54
25759,7638.6,893.54
25759,7888.6,1144.5
25759,8138.6,1396.5
25111,4638.6,2124.5
25111,4888.6,1872.5
25111,5138.6,1621.5
25111,5388.6,1372.5
25111,5638.6,1124.5
25111,4888.6,1872.5
25111,5138.6,1620.5
25111,5388.6,1369.5
25111,5638.6,1120.5
25111,5888.6,872.46
25111,5138.6,1621.5
25111,5388.6,1369.5
25111,5638.6,1118.5
25111,5888.6,869.46
25111,5388.6,1372.5
25111,5638.6,1120.5
25111,5888.6,869.46
25111,5638.6,1124.5
25111,5888.6,872.46
25111,4888.6,1872.5
25111,5138.6,1620.5
25111,5388.6,1369.5
25111,5638.6,1120.5
25111,5888.6,872.46
25111,5138.6,1620.5
25111,5388.6,1368.5
25111,5638.6,1117.5
25111,5888.6,868.46
25111,5388.6,1369.5
25111,5638.6,1117.5
25111,5888.6,866.46
25111,5638.6,1120.5
25111,5888.6,868.46
25111,5888.6,872.46
25111,5138.6,1621.5
25111,5388.6,1369.5
25111,5638.6,1118.5
25111,5888.6,869.46
25111,5388.6,1369.5
25111,5638.6,1117.5
25111,5888.6,866.46
25111,5638.6,1118.5
25111,5888.6,866.46
25111,5888.6,869.46
25111,5388.6,1372.5
25111,5638.6,1120.5
25111,5888.6,869.46
25111,5638.6,1120.5
25111,5888.6,868.46
25111,5888.6,869.46
25111,7388.6,647.54
25111,5638.6,1124.5
25111,5888.6,872.46
25111,5888.6,872.46
25111,7388.6,647.54
25111,7388.6,647.54
25111,7638.6,899.54
25111,4888.6,1872.5
25111,5138.6,1620.5
25111,5388.6,1369.5
25111,5638.6,1120.5
25111,5888.6,872.46
25111,5138.6,1620.5
25111,5388.6,1368.5
25111,5638.6,1117.5
25111,5888.6,868.46
25111,5388.6,1369.5
25111,5638.6,1117.5
25111,5888.6,866.46
25111,5638.6,1120.5
25111,5888.6,868.46
25111,5888.6,872.46
25111,5138.6,1620.5
25111,5388.6,1368.5
25111,5638.6,1117.5
25111,5888.6,868.46
25111,5388.6,1368.5
25111,5638.6,1116.5
25111,5888.6,865.46
25111,5638.6,1117.5
25111,5888.6,865.46
25111,5888.6,868.46
25111,5388.6,1369.5
25111,5638.6,1117.5
25111,5888.6,866.46
25111,5638.6,1117.5
25111,5888.6,865.46
25111,5888.6,866.46
25111,7388.6,644.54
25111,5638.6,1120.5
25111,5888.6,868.46
25111,5888.6,868.46
25111,7388.6,643.54
25111,7388.6,643.54
25111,7638.6,895.54
25111,5888.6,872.46
25111,7388.6,644.54
25111,7388.6,643.54
25111,7638.6,895.54
25111,7388.6,644.54
25111,7638.6,895.54
25111,7888.6,1147.5
25111,5138.6,1621.5
25111,5388.6,1369.5
25111,5638.6,1118.5
25111,5888.6,869.46
25111,5388.6,1369.5
25111,5638.6,1117.5
25111,5888.6,866.46
25111,5638.6,1118.5
25111,5888.6,866.46
25111,5888.6,869.46
25111,5388.6,1369.5
25111,5638.6,1117.5
25111,5888.6,866.46
25111,5638.6,1117.5
25111,5888.6,865.46
25111,5888.6,866.46
25111,7388.6,644.54
25111,5638.6,1118.5
25111,5888.6,866.46
25111,5888.6,866.46
25111,7388.6,641.54
25111,7388.6,641.54
25111,7638.6,893.54
25111,5888.6,869.46
25111,7388.6,641.54
25111,7388.6,640.54
25111,7638.6,892.54
25111,7388.6,641.54
25111,7638.6,892.54
25111,7888.6,1144.5
25111,7388.6,644.54
25111,7388.6,641.54
25111,7638.6,893.54
25111,7388.6,641.54
25111,7638.6,892.54
25111,7888.6,1144.5
25111,7388.6,644.54
25111,7638.6,893.54
25111,7888.6,1144.5
25111,8138.6,1396.5
25111,5388.6,1372.5
25111,5638.6,1120.5
25111,5888.6,869.46
25111,5638.6,1120.5
25111,5888.6,868.46
25111,5888.6,869.46
25111,7388.6,647.54
25111,5638.6,1120.5
25111,5888.6,868.46
25111,5888.6,868.46
25111,7388.6,643.54
25111,7388.6,643.54
25111,7638.6,895.54
25111,5888.6,869.46
25111,7388.6,641.54
25111,7388.6,640.54
25111,7638.6,892.54
25111,7388.6,641.54
25111,7638.6,892.54
25111,7888.6,1144.5
25111,7388.6,643.54
25111,7388.6,640.54
25111,7638.6,892.54
25111,7388.6,640.54
25111,7638.6,891.54
25111,7888.6,1143.5
25111,7388.6,643.54
25111,7638.6,892.54
25111,7888.6,1143.5
25111,8138.6,1395.5
25111,7388.6,647.54
25111,7388.6,643.54
25111,7638.6,895.54
25111,7388.6,641.54
25111,7638.6,892.54
25111,7888.6,1144.5
25111,7388.6,643.54
25111,7638.6,892.54
25111,7888.6,1143.5
25111,8138.6,1395.5
25111,7388.6,647.54
25111,7638.6,895.54
25111,7888.6,1144.5
25111,8138.6,1395.5
25111,8388.6,1647.5
25111,5638.6,1124.5
25111,5888.6,872.46
25111,5888.6,872.46
25111,7388.6,647.54
25111,7388.6,647.54
25111,7638.6,899.54
25111,5888.6,872.46
25111,7388.6,644.54
25111,7388.6,643.54
25111,7638.6,895.54
25111,7388.6,644.54
25111,7638.6,895.54
25111,7888.6,1147.5
25111,7388.6,644.54
25111,7388.6,641.54
25111,7638.6,893.54
25111,7388.6,641.54
25111,7638.6,892.54
25111,7888.6,1144.5
25111,7388.6,644.54
25111,7638.6,893.54
25111,7888.6,1144.5
25111,8138.6,1396.5
25111,7388.6,647.54
25111,7388.6,643.54
25111,7638.6,895.54
25111,7388.6,641.54
25111,7638.6,892.54
25111,7888.6,1144.5
25111,7388.6,643.54
25111,7638.6,892.54
25111,7888.6,1143.5
25111,8138.6,1395.5
25111,7388.6,647.54
25111,7638.6,895.54
25111,7888.6,1144.5
25111,8138.6,1395.5
25111,8388.6,1647.5
25111,7388.6,647.54
25111,7638.6,899.54
25111,7388.6,644.54
25111,7638.6,895.54
25111,7888.6,1147.5
25111,7388.6,644.54
25111,7638.6,893.54
25111,7888.6,1144.5
25111,8138.6,1396.5
25111,7388.6,647.54
25111,7638.6,895.54
25111,7888.6,1144.5
25111,8138.6,1395.5
25111,8388.6,1647.5
25111,7638.6,899.54
25111,7888.6,1147.5
25111,8138.6,1396.5
25111,8388.6,1647.5
25111,8638.6,1899.5
24463,4138.6,2627.5
24463,4388.6,2375.5
24463,4388.6,2375.5
24463,6138.6,627.46
24463,4388.6,2375.5
24463,6138.6,623.46
24463,6138.6,623.46
24463,6388.6,375.46
24463,6138.6,621.46
24463,6138.6,620.46
24463,6388.6,372.46
24463,6138.6,623.46
24463,6138.6,620.46
24463,6388.6,372.46
24463,6138.6,627.46
24463,6138.6,623.46
24463,6388.6,375.46
24463,4388.6,2375.5
24463,6138.6,623.46
24463,6138.6,623.46
24463,6388.6,375.46
24463,6138.6,620.46
24463,6138.6,619.46
24463,6388.6,371.46
24463,6138.6,620.46
24463,6138.6,617.46
24463,6388.6,369.46
24463,6138.6,623.46
24463,6138.6,619.46
24463,6388.6,371.46
24463,6138.6,623.46
24463,6388.6,375.46
24463,6138.6,621.46
24463,6138.6,620.46
24463,6388.6,372.46
24463,6138.6,620.46
24463,6138.6,617.46
24463,6388.6,369.46
24463,6138.6,621.46
24463,6138.6,617.46
24463,6388.6,369.46
24463,6138.6,620.46
24463,6388.6,372.46
24463,6138.6,623.46
24463,6138.6,620.46
24463,6388.6,372.46
24463,6138.6,623.46
24463,6138.6,619.46
24463,6388.6,371.46
24463,6138.6,620.46
24463,6388.6,372.46
24463,7888.6,1150.5
24463,6138.6,627.46
24463,6138.6,623.46
24463,6388.6,375.46
24463,6138.6,623.46
24463,6388.6,375.46
24463,7888.6,1150.5
24463,7888.6,1150.5
24463,7888.6,1150.5
24463,8138.6,1402.5
24463,4388.6,2375.5
24463,6138.6,623.46
24463,6138.6,623.46
24463,6388.6,375.46
24463,6138.6,620.46
24463,6138.6,619.46
24463,6388.6,371.46
24463,6138.6,620.46
24463,6138.6,617.46
24463,6388.6,369.46
24463,6138.6,623.46
24463,6138.6,619.46
24463,6388.6,371.46
24463,6138.6,623.46
24463,6388.6,375.46
24463,6138.6,620.46
24463,6138.6,619.46
24463,6388.6,371.46
24463,6138.6,619.46
24463,6138.6,616.46
24463,6388.6,368.46
24463,6138.6,620.46
24463,6138.6,616.46
24463,6388.6,368.46
24463,6138.6,619.46
24463,6388.6,371.46
24463,6138.6,620.46
24463,6138.6,617.46
24463,6388.6,369.46
24463,6138.6,620.46
24463,6138.6,616.46
24463,6388.6,368.46
24463,6138.6,617.46
24463,6388.6,369.46
24463,7888.6,1147.5
24463,6138.6,623.46
24463,6138.6,619.46
24463,6388.6,371.46
24463,6138.6,619.46
24463,6388.6,371.46
24463,7888.6,1146.5
24463,7888.6,1146.5
24463,7888.6,1146.5
24463,8138.6,1398.5
24463,6138.6,623.46
24463,6388.6,375.46
24463,7888.6,1147.5
24463,7888.6,1146.5
24463,7888.6,1146.5
24463,8138.6,1398.5
24463,7888.6,1147.5
24463,7888.6,1146.5
24463,8138.6,1398.5
24463,7888.6,1147.5
24463,8138.6,1398.5
24463,8388.6,1650.5
24463,6138.6,621.46
24463,6138.6,620.46
24463,6388.6,372.46
24463,6138.6,620.46
24463,6138.6,617.46
24463,6388.6,369.46
24463,6138.6,621.46
24463,6138.6,617.46
24463,6388.6,369.46
24463,6138.6,620.46
24463,6388.6,372.46
24463,6138.6,620.46
24463,6138.6,617.46
24463,6388.6,369.46
24463,6138.6,620.46
24463,6138.6,616.46
24463,6388.6,368.46
24463,6138.6,617.46
24463,6388.6,369.46
24463,7888.6,1147.5
24463,6138.6,621.46
24463,6138.6,617.46
24463,6388.6,369.46
24463,6138.6,617.46
24463,6388.6,369.46
24463,7888.6,1144.5
24463,7888.6,1144.5
24463,7888.6,1144.5
24463,8138.6,1396.5
24463,6138.6,620.46
24463,6388.6,372.46
24463,7888.6,1144.5
24463,7888.6,1143.5
24463,7888.6,1143.5
24463,8138.6,1395.5
24463,7888.6,1144.5
24463,7888.6,1143.5
24463,8138.6,1395.5
24463,7888.6,1144.5
24463,8138.6,1395.5
24463,8388.6,1647.5
24463,7888.6,1147.5
24463,7888.6,1144.5
24463,7888.6,1144.5
24463,8138.6,1396.5
24463,7888.6,1144.5
24463,7888.6,1143.5
24463,8138.6,1395.5
24463,7888.6,1144.5
24463,8138.6,1395.5
24463,8388.6,1647.5
24463,7888.6,1147.5
24463,7888.6,1144.5
24463,8138.6,1396.5
24463,7888.6,1144.5
24463,8138.6,1395.5
24463,8388.6,1647.5
24463,7888.6,1147.5
24463,8138.6,1396.5
24463,8388.6,1647.5
24463,8638.6,1899.5
24463,6138.6,623.46
24463,6138.6,620.46
24463,6388.6,372.46
24463,6138.6,623.46
24463,6138.6,619.46
24463,6388.6,371.46
24463,6138.6,620.46
24463,6388.6,372.46
24463,7888.6,1150.5
24463,6138.6,623.46
24463,6138.6,619.46
24463,6388.6,371.46
24463,6138.6,619.46
24463,6388.6,371.46
24463,7888.6,1146.5
24463,7888.6,1146.5
24463,7888.6,1146.5
24463,8138.6,1398.5
24463,6138.6,620.46
24463,6388.6,372.46
24463,7888.6,1144.5
24463,7888.6,1143.5
24463,7888.6,1143.5
24463,8138.6,1395.5
24463,7888.6,1144.5
24463,7888.6,1143.5
24463,8138.6,1395.5
24463,7888.6,1144.5
24463,8138.6,1395.5
24463,8388.6,1647.5
24463,7888.6,1146.5
24463,7888.6,1143.5
24463,7888.6,1143.5
24463,8138.6,1395.5
24463,7888.6,1143.5
24463,7888.6,1142.5
24463,8138.6,1394.5
24463,7888.6,1143.5
24463,8138.6,1394.5
24463,8388.6,1646.5
24463,7888.6,1146.5
24463,7888.6,1143.5
24463,8138.6,1395.5
24463,7888.6,1143.5
24463,8138.6,1394.5
24463,8388.6,1646.5
24463,7888.6,1146.5
24463,8138.6,1395.5
24463,8388.6,1646.5
24463,8638.6,1898.5
24463,7888.6,1150.5
24463,7888.6,1146.5
24463,7888.6,1146.5
24463,8138.6,1398.5
24463,7888.6,1144.5
24463,7888.6,1143.5
24463,8138.6,1395.5
24463,7888.6,1144.5
24463,8138.6,1395.5
24463,8388.6,1647.5
24463,7888.6,1146.5
24463,7888.6,1143.5
24463,8138.6,1395.5
24463,7888.6,1143.5
24463,8138.6,1394.5
24463,8388.6,1646.5
24463,7888.6,1146.5
24463,8138.6,1395.5
24463,8388.6,1646.5
24463,8638.6,1898.5
24463,7888.6,1150.5
24463,7888.6,1146.5
24463,8138.6,1398.5
24463,7888.6,1144.5
24463,8138.6,1395.5
24463,8388.6,1647.5
24463,7888.6,1146.5
24463,8138.6,1395.5
24463,8388.6,1646.5
24463,8638.6,1898.5
24463,7888.6,1150.5
24463,8138.6,1398.5
24463,8388.6,1647.5
24463,8638.6,1898.5
24463,8888.6,2150.5
24463,6138.6,627.46
24463,6138.6,623.46
24463,6388.6,375.46
24463,6138.6,623.46
24463,6388.6,375.46
24463,7888.6,1150.5
24463,7888.6,1150.5
24463,7888.6,1150.5
24463,8138.6,1402.5
24463,6138.6,623.46
24463,6388.6,375.46
24463,7888.6,1147.5
24463,7888.6,1146.5
24463,7888.6,1146.5
24463,8138.6,1398.5
24463,7888.6,1147.5
24463,7888.6,1146.5
24463,8138.6,1398.5
24463,7888.6,1147.5
24463,8138.6,1398.5
24463,8388.6,1650.5
24463,7888.6,1147.5
24463,7888.6,1144.5
24463,7888.6,1144.5
24463,8138.6,1396.5
24463,7888.6,1144.5
24463,7888.6,1143.5
24463,8138.6,1395.5
24463,7888.6,1144.5
24463,8138.6,1395.5
24463,8388.6,1647.5
24463,7888.6,1147.5
24463,7888.6,1144.5
24463,8138.6,1396.5
24463,7888.6,1144.5
24463,8138.6,1395.5
24463,8388.6,1647.5
24463,7888.6,1147.5
24463,8138.6,1396.5
24463,8388.6,1647.5
24463,8638.6,1899.5
24463,7888.6,1150.5
24463,7888.6,1146.5
24463,7888.6,1146.5
24463,8138.6,1398.5
24463,7888.6,1144.5
24463,7888.6,1143.5
24463,8138.6,1395.5
24463,7888.6,1144.5
24463,8138.6,1395.5
24463,8388.6,1647.5
24463,7888.6,1146.5
24463,7888.6,1143.5
24463,8138.6,1395.5
24463,7888.6,1143.5
24463,8138.6,1394.5
24463,8388.6,1646.5
24463,7888.6,1146.5
24463,8138.6,1395.5
24463,8388.6,1646.5
24463,8638.6,1898.5
24463,7888.6,1150.5
24463,7888.6,1146.5
24463,8138.6,1398.5
24463,7888.6,1144.5
24463,8138.6,1395.5
24463,8388.6,1647.5
24463,7888.6,1146.5
24463,8138.6,1395.5
24463,8388.6,1646.5
24463,8638.6,1898.5
24463,7888.6,1150.5
24463,8138.6,1398.5
24463,8388.6,1647.5
24463,8638.6,1898.5
24463,8888.6,2150.5
24463,7888.6,1150.5
24463,7888.6,1150.5
24463,8138.6,1402.5
24463,7888.6,1147.5
24463,7888.6,1146.5
24463,8138.6,1398.5
24463,7888.6,1147.5
24463,8138.6,1398.5
24463,8388.6,1650.5
24463,7888.6,1147.5
24463,7888.6,1144.5
24463,8138.6,1396.5
24463,7888.6,1144.5
24463,8138.6,1395.5
24463,8388.6,1647.5
24463,7888.6,1147.5
24463,8138.6,1396.5
24463,8388.6,1647.5
24463,8638.6,1899.5
24463,7888.6,1150.5
24463,7888.6,1146.5
24463,8138.6,1398.5
24463,7888.6,1144.5
24463,8138.6,1395.5
24463,8388.6,1647.5
24463,7888.6,1146.5
24463,8138.6,1395.5
24463,8388.6,1646.5
24463,8638.6,1898.5
24463,7888.6,1150.5
24463,8138.6,1398.5
24463,8388.6,1647.5
24463,8638.6,1898.5
24463,8888.6,2150.5
24463,7888.6,1150.5
24463,8138.6,1402.5
24463,7888.6,1147.5
24463,8138.6,1398.5
24463,8388.6,1650.5
24463,7888.6,1147.5
24463,8138.6,1396.5
24463,8388.6,1647.5
24463,8638.6,1899.5
24463,7888.6,1150.5
24463,8138.6,1398.5
24463,8388.6,1647.5
24463,8638.6,1898.5
24463,8888.6,2150.5
24463,8138.6,1402.5
24463,8388.6,1650.5
24463,8638.6,1899.5
24463,8888.6,2150.5
24463,9138.6,2402.5
23815,3638.6,3130.5
23815,3888.6,2878.5
23815,4138.6,2627.5
23815,4388.6,2378.5
23815,4638.6,2130.5
23815,3888.6,2878.5
23815,4138.6,2626.5
23815,4388.6,2375.5
23815,4638.6,2126.5
23815,4888.6,1878.5
23815,3888.6,2878.5
23815,4138.6,2626.5
23815,4388.6,2375.5
23815,4638.6,2126.5
23815,4888.6,1878.5
23815,6638.6,130.46
23815,3888.6,2878.5
23815,4138.6,2626.5
23815,4388.6,2375.5
23815,4638.6,2126.5
23815,4888.6,1878.5
23815,6638.6,126.46
23815,6638.6,126.46
23815,6638.6,126.46
23815,6888.6,153.54
23815,6638.6,124.46
23815,6638.6,123.46
23815,6638.6,123.46
23815,6888.6,150.54
23815,6638.6,126.46
23815,6638.6,123.46
23815,6638.6,123.46
23815,6888.6,150.54
23815,6638.6,130.46
23815,6638.6,126.46
23815,6638.6,126.46
23815,6888.6,153.54
23815,3888.6,2878.5
23815,4138.6,2626.5
23815,4388.6,2375.5
23815,4638.6,2126.5
23815,4888.6,1878.5
23815,6638.6,126.46
23815,6638.6,126.46
23815,6638.6,126.46
23815,6888.6,153.54
23815,6638.6,123.46
23815,6638.6,122.46
23815,6638.6,122.46
23815,6888.6,149.54
23815,6638.6,123.46
23815,6638.6,120.46
23815,6638.6,120.46
23815,6888.6,147.54
23815,6638.6,126.46
23815,6638.6,122.46
23815,6638.6,122.46
23815,6888.6,149.54
23815,6638.6,126.46
23815,6638.6,126.46
23815,6888.6,153.54
23815,6638.6,124.46
23815,6638.6,123.46
23815,6638.6,123.46
23815,6888.6,150.54
23815,6638.6,123.46
23815,6638.6,120.46
23815,6638.6,120.46
23815,6888.6,147.54
23815,6638.6,124.46
23815,6638.6,120.46
23815,6638.6,120.46
23815,6888.6,147.54
23815,6638.6,123.46
23815,6638.6,123.46
23815,6888.6,150.54
23815,6638.6,126.46
23815,6638.6,123.46
23815,6638.6,123.46
23815,6888.6,150.54
23815,6638.6,126.46
23815,6638.6,122.46
23815,6638.6,122.46
23815,6888.6,149.54
23815,6638.6,123.46
23815,6638.6,123.46
23815,6888.6,150.54
23815,7388.6,653.54
23815,7638.6,901.54
23815,7888.6,1150.5
23815,8138.6,1401.5
23815,8388.6,1653.5
23815,6638.6,130.46
23815,6638.6,126.46
23815,6638.6,126.46
23815,6888.6,153.54
23815,6638.6,126.46
23815,6638.6,126.46
23815,6888.6,153.54
23815,7388.6,653.54
23815,7638.6,901.54
23815,7888.6,1150.5
23815,8138.6,1401.5
23815,8388.6,1653.5
23815,7388.6,653.54
23815,7638.6,901.54
23815,7888.6,1150.5
23815,8138.6,1401.5
23815,8388.6,1653.5
23815,7388.6,653.54
23815,7638.6,901.54
23815,7888.6,1150.5
23815,8138.6,1401.5
23815,8388.6,1653.5
23815,7638.6,905.54
23815,7888.6,1153.5
23815,8138.6,1402.5
23815,8388.6,1653.5
23815,8638.6,1905.5
23815,3888.6,2878.5
23815,4138.6,2626.5
23815,4388.6,2375.5
23815,4638.6,2126.5
23815,4888.6,1878.5
23815,6638.6,126.46
23815,6638.6,126.46
23815,6638.6,126.46
23815,6888.6,153.54
23815,6638.6,123.46
23815,6638.6,122.46
23815,6638.6,122.46
23815,6888.6,149.54
23815,6638.6,123.46
23815,6638.6,120.46
23815,6638.6,120.46
23815,6888.6,147.54
23815,6638.6,126.46
23815,6638.6,122.46
23815,6638.6,122.46
23815,6888.6,149.54
23815,6638.6,126.46
23815,6638.6,126.46
23815,6888.6,153.54
23815,6638.6,123.46
23815,6638.6,122.46
23815,6638.6,122.46
23815,6888.6,149.54
23815,6638.6,122.46
23815,6638.6,119.46
23815,6638.6,119.46
23815,6888.6,146.54
23815,6638.6,123.46
23815,6638.6,119.46
23815,6638.6,119.46
23815,6888.6,146.54
23815,6638.6,122.46
23815,6638.6,122.46
23815,6888.6,149.54
23815,6638.6,123.46
23815,6638.6,120.46
23815,6638.6,120.46
23815,6888.6,147.54
23815,6638.6,123.46
23815,6638.6,119.46
23815,6638.6,119.46
23815,6888.6,146.54
23815,6638.6,120.46
23815,6638.6,120.46
23815,6888.6,147.54
23815,7388.6,650.54
23815,7638.6,898.54
23815,7888.6,1147.5
23815,8138.6,1398.5
23815,8388.6,1650.5
23815,6638.6,126.46
23815,6638.6,122.46
23815,6638.6,122.46
23815,6888.6,149.54
23815,6638.6,122.46
23815,6638.6,122.46
23815,6888.6,149.54
23815,7388.6,649.54
23815,7638.6,897.54
23815,7888.6,1146.5
23815,8138.6,1397.5
23815,8388.6,1649.5
23815,7388.6,649.54
23815,7638.6,897.54
23815,7888.6,1146.5
23815,8138.6,1397.5
23815,8388.6,1649.5
23815,7388.6,649.54
23815,7638.6,897.54
23815,7888.6,1146.5
23815,8138.6,1397.5
23815,8388.6,1649.5
23815,7638.6,901.54
23815,7888.6,1149.5
23815,8138.6,1398.5
23815,8388.6,1649.5
23815,8638.6,1901.5
23815,6638.6,126.46
23815,6638.6,126.46
23815,6888.6,153.54
23815,7388.6,650.54
23815,7638.6,898.54
23815,7888.6,1147.5
23815,8138.6,1398.5
23815,8388.6,1650.5
23815,7388.6,649.54
23815,7638.6,897.54
23815,7888.6,1146.5
23815,8138.6,1397.5
23815,8388.6,1649.5
23815,7388.6,649.54
23815,7638.6,897.54
23815,7888.6,1146.5
23815,8138.6,1397.5
23815,8388.6,1649.5
23815,7638.6,901.54
23815,7888.6,1149.5
23815,8138.6,1398.5
23815,8388.6,1649.5
23815,8638.6,1901.5
23815,7388.6,650.54
23815,7638.6,898.54
23815,7888.6,1147.5
23815,8138.6,1398.5
23815,8388.6,1650.5
23815,7388.6,649.54
23815,7638.6,897.54
23815,7888.6,1146.5
23815,8138.6,1397.5
23815,8388.6,1649.5
23815,7638.6,901.54
23815,7888.6,1149.5
23815,8138.6,1398.5
23815,8388.6,1649.5
23815,8638.6,1901.5
23815,7388.6,650.54
23815,7638.6,898.54
23815,7888.6,1147.5
23815,8138.6,1398.5
23815,8388.6,1650.5
23815,7638.6,901.54
23815,7888.6,1149.5
23815,8138.6,1398.5
23815,8388.6,1649.5
23815,8638.6,1901.5
23815,7888.6,1153.5
23815,8138.6,1401.5
23815,8388.6,1650.5
23815,8638.6,1901.5
23815,8888.6,2153.5
23815,6638.6,124.46
23815,6638.6,123.46
23815,6638.6,123.46
23815,6888.6,150.54
23815,6638.6,123.46
23815,6638.6,120.46
23815,6638.6,120.46
23815,6888.6,147.54
23815,6638.6,124.46
23815,6638.6,120.46
23815,6638.6,120.46
23815,6888.6,147.54
23815,6638.6,123.46
23815,6638.6,123.46
23815,6888.6,150.54
23815,6638.6,123.46
23815,6638.6,120.46
23815,6638.6,120.46
23815,6888.6,147.54
23815,6638.6,123.46
23815,6638.6,119.46
23815,6638.6,119.46
23815,6888.6,146.54
23815,6638.6,120.46
23815,6638.6,120.46
23815,6888.6,147.54
23815,7388.6,650.54
23815,7638.6,898.54
23815,7888.6,1147.5
23815,8138.6,1398.5
23815,8388.6,1650.5
23815,6638.6,124.46
23815,6638.6,120.46
23815,6638.6,120.46
23815,6888.6,147.54
23815,6638.6,120.46
23815,6638.6,120.46
23815,6888.6,147.54
23815,7388.6,647.54
23815,7638.6,895.54
23815,7888.6,1144.5
23815,8138.6,1395.5
23815,8388.6,1647.5
23815,7388.6,647.54
23815,7638.6,895.54
23815,7888.6,1144.5
23815,8138.6,1395.5
23815,8388.6,1647.5
23815,7388.6,647.54
23815,7638.6,895.54
23815,7888.6,1144.5
23815,8138.6,1395.5
23815,8388.6,1647.5
23815,7638.6,899.54
23815,7888.6,1147.5
23815,8138.6,1396.5
23815,8388.6,1647.5
23815,8638.6,1899.5
23815,6638.6,123.46
23815,6638.6,123.46
23815,6888.6,150.54
23815,7388.6,647.54
23815,7638.6,895.54
23815,7888.6,1144.5
23815,8138.6,1395.5
23815,8388.6,1647.5
23815,7388.6,646.54
23815,7638.6,894.54
23815,7888.6,1143.5
23815,8138.6,1394.5
23815,8388.6,1646.5
23815,7388.6,646.54
23815,7638.6,894.54
23815,7888.6,1143.5
23815,8138.6,1394.5
23815,8388.6,1646.5
23815,7638.6,898.54
23815,7888.6,1146.5
23815,8138.6,1395.5
23815,8388.6,1646.5
23815,8638.6,1898.5
23815,7388.6,647.54
23815,7638.6,895.54
23815,7888.6,1144.5
23815,8138.6,1395.5
23815,8388.6,1647.5
23815,7388.6,646.54
23815,7638.6,894.54
23815,7888.6,1143.5
23815,8138.6,1394.5
23815,8388.6,1646.5
23815,7638.6,898.54
23815,7888.6,1146.5
23815,8138.6,1395.5
23815,8388.6,1646.5
23815,8638.6,1898.5
23815,7388.6,647.54
23815,7638.6,895.54
23815,7888.6,1144.5
23815,8138.6,1395.5
23815,8388.6,1647.5
23815,7638.6,898.54
23815,7888.6,1146.5
23815,8138.6,1395.5
23815,8388.6,1646.5
23815,8638.6,1898.5
23815,7888.6,1150.5
23815,8138.6,1398.5
23815,8388.6,1647.5
23815,8638.6,1898.5
23815,8888.6,2150.5
23815,7388.6,650.54
23815,7638.6,898.54
23815,7888.6,1147.5
23815,8138.6,1398.5
23815,8388.6,1650.5
23815,7388.6,647.54
23815,7638.6,895.54
23815,7888.6,1144.5
23815,8138.6,1395.5
23815,8388.6,1647.5
23815,7388.6,647.54
23815,7638.6,895.54
23815,7888.6,1144.5
23815,8138.6,1395.5
23815,8388.6,1647.5
23815,7638.6,899.54
23815,7888.6,1147.5
23815,8138.6,1396.5
23815,8388.6,1647.5
23815,8638.6,1899.5
23815,7388.6,647.54
23815,7638.6,895.54
23815,7888.6,1144.5
23815,8138.6,1395.5
23815,8388.6,1647.5
23815,7388.6,646.54
23815,7638.6,894.54
23815,7888.6,1143.5
23815,8138.6,1394.5
23815,8388.6,1646.5
23815,7638.6,898.54
23815,7888.6,1146.5
23815,8138.6,1395.5
23815,8388.6,1646.5
23815,8638.6,1898.5
23815,7388.6,647.54
23815,7638.6,895.54
23815,7888.6,1144.5
23815,8138.6,1395.5
23815,8388.6,1647.5
23815,7638.6,898.54
23815,7888.6,1146.5
23815,8138.6,1395.5
23815,8388.6,1646.5
23815,8638.6,1898.5
23815,7888.6,1150.5
23815,8138.6,1398.5
23815,8388.6,1647.5
23815,8638.6,1898.5
23815,8888.6,2150.5
23815,7388.6,650.54
23815,7638.6,898.54
23815,7888.6,1147.5
23815,8138.6,1398.5
23815,8388.6,1650.5
23815,7388.6,647.54
23815,7638.6,895.54
23815,7888.6,1144.5
23815,8138.6,1395.5
23815,8388.6,1647.5
23815,7638.6,899.54
23815,7888.6,1147.5
23815,8138.6,1396.5
23815,8388.6,1647.5
23815,8638.6,1899.5
23815,7388.6,647.54
23815,7638.6,895.54
23815,7888.6,1144.5
23815,8138.6,1395.5
23815,8388.6,1647.5
23815,7638.6,898.54
23815,7888.6,1146.5
23815,8138.6,1395.5
23815,8388.6,1646.5
23815,8638.6,1898.5
23815,7888.6,1150.5
23815,8138.6,1398.5
23815,8388.6,1647.5
23815,8638.6,1898.5
23815,8888.6,2150.5
23815,7388.6,650.54
23815,7638.6,898.54
23815,7888.6,1147.5
23815,8138.6,1398.5
23815,8388.6,1650.5
23815,7638.6,899.54
23815,7888.6,1147.5
23815,8138.6,1396.5
23815,8388.6,1647.5
23815,8638.6,1899.5
23815,7888.6,1150.5
23815,8138.6,1398.5
23815,8388.6,1647.5
23815,8638.6,1898.5
23815,8888.6,2150.5
23815,8138.6,1402.5
23815,8388.6,1650.5
23815,8638.6,1899.5
23815,8888.6,2150.5
23815,9138.6,2402.5
23815,6638.6,126.46
23815,6638.6,123.46
23815,6638.6,123.46
23815,6888.6,150.54
23815,6638.6,126.46
23815,6638.6,122.46
23815,6638.6,122.46
23815,6888.6,149.54
23815,6638.6,123.46
23815,6638.6,123.46
23815,6888.6,150.54
23815,7388.6,653.54
23815,7638.6,901.54
23815,7888.6,1150.5
23815,8138.6,1401.5
23815,8388.6,1653.5
23815,6638.6,126.46
23815,6638.6,122.46
23815,6638.6,122.46
23815,6888.6,149.54
23815,6638.6,122.46
23815,6638.6,122.46
23815,6888.6,149.54
23815,7388.6,649.54
23815,7638.6,897.54
23815,7888.6,1146.5
23815,8138.6,1397.5
23815,8388.6,1649.5
23815,7388.6,649.54
23815,7638.6,897.54
23815,7888.6,1146.5
23815,8138.6,1397.5
23815,8388.6,1649.5
23815,7388.6,649.54
23815,7638.6,897.54
23815,7888.6,1146.5
23815,8138.6,1397.5
23815,8388.6,1649.5
23815,7638.6,901.54
23815,7888.6,1149.5
23815,8138.6,1398.5
23815,8388.6,1649.5
23815,8638.6,1901.5
23815,6638.6,123.46
23815,6638.6,123.46
23815,6888.6,150.54
23815,7388.6,647.54
23815,7638.6,895.54
23815,7888.6,1144.5
23815,8138.6,1395.5
23815,8388.6,1647.5
23815,7388.6,646.54
23815,7638.6,894.54
23815,7888.6,1143.5
23815,8138.6,1394.5
23815,8388.6,1646.5
23815,7388.6,646.54
23815,7638.6,894.54
23815,7888.6,1143.5
23815,8138.6,1394.5
23815,8388.6,1646.5
23815,7638.6,898.54
23815,7888.6,1146.5
23815,8138.6,1395.5
23815,8388.6,1646.5
23815,8638.6,1898.5
23815,7388.6,647.54
23815,7638.6,895.54
23815,7888.6,1144.5
23815,8138.6,1395.5
23815,8388.6,1647.5
23815,7388.6,646.54
23815,7638.6,894.54
23815,7888.6,1143.5
23815,8138.6,1394.5
23815,8388.6,1646.5
23815,7638.6,898.54
23815,7888.6,1146.5
23815,8138.6,1395.5
23815,8388.6,1646.5
23815,8638.6,1898.5
23815,7388.6,647.54
23815,7638.6,895.54
23815,7888.6,1144.5
23815,8138.6,1395.5
23815,8388.6,1647.5
23815,7638.6,898.54
23815,7888.6,1146.5
23815,8138.6,1395.5
23815,8388.6,1646.5
23815,8638.6,1898.5
23815,7888.6,1150.5
23815,8138.6,1398.5
23815,8388.6,1647.5
23815,8638.6,1898.5
23815,8888.6,2150.5
23815,7388.6,649.54
23815,7638.6,897.54
23815,7888.6,1146.5
23815,8138.6,1397.5
23815,8388.6,1649.5
23815,7388.6,646.54
23815,7638.6,894.54
23815,7888.6,1143.5
23815,8138.6,1394.5
23815,8388.6,1646.5
23815,7388.6,646.54
23815,7638.6,894.54
23815,7888.6,1143.5
23815,8138.6,1394.5
23815,8388.6,1646.5
23815,7638.6,898.54
23815,7888.6,1146.5
23815,8138.6,1395.5
23815,8388.6,1646.5
23815,8638.6,1898.5
23815,7388.6,646.54
23815,7638.6,894.54
23815,7888.6,1143.5
23815,8138.6,1394.5
23815,8388.6,1646.5
23815,7388.6,645.54
23815,7638.6,893.54
23815,7888.6,1142.5
23815,8138.6,1393.5
23815,8388.6,1645.5
23815,7638.6,897.54
23815,7888.6,1145.5
23815,8138.6,1394.5
23815,8388.6,1645.5
23815,8638.6,1897.5
23815,7388.6,646.54
23815,7638.6,894.54
23815,7888.6,1143.5
23815,8138.6,1394.5
23815,8388.6,1646.5
23815,7638.6,897.54
23815,7888.6,1145.5
23815,8138.6,1394.5
23815,8388.6,1645.5
23815,8638.6,1897.5
23815,7888.6,1149.5
23815,8138.6,1397.5
23815,8388.6,1646.5
23815,8638.6,1897.5
23815,8888.6,2149.5
23815,7388.6,649.54
23815,7638.6,897.54
23815,7888.6,1146.5
23815,8138.6,1397.5
23815,8388.6,1649.5
23815,7388.6,646.54
23815,7638.6,894.54
23815,7888.6,1143.5
23815,8138.6,1394.5
23815,8388.6,1646.5
23815,7638.6,898.54
23815,7888.6,1146.5
23815,8138.6,1395.5
23815,8388.6,1646.5
23815,8638.6,1898.5
23815,7388.6,646.54
23815,7638.6,894.54
23815,7888.6,1143.5
23815,8138.6,1394.5
23815,8388.6,1646.5
23815,7638.6,897.54
23815,7888.6,1145.5
23815,8138.6,1394.5
23815,8388.6,1645.5
23815,8638.6,1897.5
23815,7888.6,1149.5
23815,8138.6,1397.5
23815,8388.6,1646.5
23815,8638.6,1897.5
23815,8888.6,2149.5
23815,7388.6,649.54
23815,7638.6,897.54
23815,7888.6,1146.5
23815,8138.6,1397.5
23815,8388.6,1649.5
23815,7638.6,898.54
23815,7888.6,1146.5
23815,8138.6,1395.5
23815,8388.6,1646.5
23815,8638.6,1898.5
23815,7888.6,1149.5
23815,8138.6,1397.5
23815,8388.6,1646.5
23815,8638.6,1897.5
23815,8888.6,2149.5
23815,8138.6,1401.5
23815,8388.6,1649.5
23815,8638.6,1898.5
23815,8888.6,2149.5
23815,9138.6,2401.5
23815,7388.6,653.54
23815,7638.6,901.54
23815,7888.6,1150.5
23815,8138.6,1401.5
23815,8388.6,1653.5
23815,7388.6,649.54
23815,7638.6,897.54
23815,7888.6,1146.5
23815,8138.6,1397.5
23815,8388.6,1649.5
23815,7388.6,649.54
23815,7638.6,897.54
23815,7888.6,1146.5
23815,8138.6,1397.5
23815,8388.6,1649.5
23815,7638.6,901.54
23815,7888.6,1149.5
23815,8138.6,1398.5
23815,8388.6,1649.5
23815,8638.6,1901.5
23815,7388.6,647.54
23815,7638.6,895.54
23815,7888.6,1144.5
23815,8138.6,1395.5
23815,8388.6,1647.5
23815,7388.6,646.54
23815,7638.6,894.54
23815,7888.6,1143.5
23815,8138.6,1394.5
23815,8388.6,1646.5
23815,7638.6,898.54
23815,7888.6,1146.5
23815,8138.6,1395.5
23815,8388.6,1646.5
23815,8638.6,1898.5
23815,7388.6,647.54
23815,7638.6,895.54
23815,7888.6,1144.5
23815,8138.6,1395.5
23815,8388.6,1647.5
23815,7638.6,898.54
23815,7888.6,1146.5
23815,8138.6,1395.5
23815,8388.6,1646.5
23815,8638.6,1898.5
23815,7888.6,1150.5
23815,8138.6,1398.5
23815,8388.6,1647.5
23815,8638.6,1898.5
23815,8888.6,2150.5
23815,7388.6,649.54
23815,7638.6,897.54
23815,7888.6,1146.5
23815,8138.6,1397.5
23815,8388.6,1649.5
23815,7388.6,646.54
23815,7638.6,894.54
23815,7888.6,1143.5
23815,8138.6,1394.5
23815,8388.6,1646.5
23815,7638.6,898.54
23815,7888.6,1146.5
23815,8138.6,1395.5
23815,8388.6,1646.5
23815,8638.6,1898.5
23815,7388.6,646.54
23815,7638.6,894.54
23815,7888.6,1143.5
23815,8138.6,1394.5
23815,8388.6,1646.5
23815,7638.6,897.54
23815,7888.6,1145.5
23815,8138.6,1394.5
23815,8388.6,1645.5
23815,8638.6,1897.5
23815,7888.6,1149.5
23815,8138.6,1397.5
23815,8388.6,1646.5
23815,8638.6,1897.5
23815,8888.6,2149.5
23815,7388.6,649.54
23815,7638.6,897.54
23815,7888.6,1146.5
23815,8138.6,1397.5
23815,8388.6,1649.5
23815,7638.6,898.54
23815,7888.6,1146.5
23815,8138.6,1395.5
23815,8388.6,1646.5
23815,8638.6,1898.5
23815,7888.6,1149.5
23815,8138.6,1397.5
23815,8388.6,1646.5
23815,8638.6,1897.5
23815,8888.6,2149.5
23815,8138.6,1401.5
23815,8388.6,1649.5
23815,8638.6,1898.5
23815,8888.6,2149.5
23815,9138.6,2401.5
23815,7388.6,653.54
23815,7638.6,901.54
23815,7888.6,1150.5
23815,8138.6,1401.5
23815,8388.6,1653.5
23815,7388.6,649.54
23815,7638.6,897.54
23815,7888.6,1146.5
23815,8138.6,1397.5
23815,8388.6,1649.5
23815,7638.6,901.54
23815,7888.6,1149.5
23815,8138.6,1398.5
23815,8388.6,1649.5
23815,8638.6,1901.5
23815,7388.6,647.54
23815,7638.6,895.54
23815,7888.6,1144.5
23815,8138.6,1395.5
23815,8388.6,1647.5
23815,7638.6,898.54
23815,7888.6,1146.5
23815,8138.6,1395.5
23815,8388.6,1646.5
23815,8638.6,1898.5
23815,7888.6,1150.5
23815,8138.6,1398.5
23815,8388.6,1647.5
23815,8638.6,1898.5
23815,8888.6,2150.5
23815,7388.6,649.54
23815,7638.6,897.54
23815,7888.6,1146.5
23815,8138.6,1397.5
23815,8388.6,1649.5
23815,7638.6,898.54
23815,7888.6,1146.5
23815,8138.6,1395.5
23815,8388.6,1646.5
23815,8638.6,1898.5
23815,7888.6,1149.5
23815,8138.6,1397.5
23815,8388.6,1646.5
23815,8638.6,1897.5
23815,8888.6,2149.5
23815,8138.6,1401.5
23815,8388.6,1649.5
23815,8638.6,1898.5
23815,8888.6,2149.5
23815,9138.6,2401.5
23815,7388.6,653.54
23815,7638.6,901.54
23815,7888.6,1150.5
23815,8138.6,1401.5
23815,8388.6,1653.5
23815,7638.6,901.54
23815,7888.6,1149.5
23815,8138.6,1398.5
23815,8388.6,1649.5
23815,8638.6,1901.5
23815,7888.6,1150.5
23815,8138.6,1398.5
23815,8388.6,1647.5
23815,8638.6,1898.5
23815,8888.6,2150.5
23815,8138.6,1401.5
23815,8388.6,1649.5
23815,8638.6,1898.5
23815,8888.6,2149.5
23815,9138.6,2401.5
23815,8388.6,1653.5
23815,8638.6,1901.5
23815,8888.6,2150.5
23815,9138.6,2401.5
23815,9388.6,2653.5
23815,6638.6,130.46
23815,6638.6,126.46
23815,6638.6,126.46
23815,6888.6,153.54
23815,6638.6,126.46
23815,6638.6,126.46
23815,6888.6,153.54
23815,7388.6,653.54
23815,7638.6,901.54
23815,7888.6,1150.5
23815,8138.6,1401.5
23815,8388.6,1653.5
23815,7388.6,653.54
23815,7638.6,901.54
23815,7888.6,1150.5
23815,8138.6,1401.5
23815,8388.6,1653.5
23815,7388.6,653.54
23815,7638.6,901.54
23815,7888.6,1150.5
23815,8138.6,1401.5
23815,8388.6,1653.5
23815,7638.6,905.54
23815,7888.6,1153.5
23815,8138.6,1402.5
23815,8388.6,1653.5
23815,8638.6,1905.5
23815,6638.6,126.46
23815,6638.6,126.46
23815,6888.6,153.54
23815,7388.6,650.54
23815,7638.6,898.54
23815,7888.6,1147.5
23815,8138.6,1398.5
23815,8388.6,1650.5
23815,7388.6,649.54
23815,7638.6,897.54
23815,7888.6,1146.5
23815,8138.6,1397.5
23815,8388.6,1649.5
23815,7388.6,649.54
23815,7638.6,897.54
23815,7888.6,1146.5
23815,8138.6,1397.5
23815,8388.6,1649.5
23815,7638.6,901.54
23815,7888.6,1149.5
23815,8138.6,1398.5
23815,8388.6,1649.5
23815,8638.6,1901.5
23815,7388.6,650.54
23815,7638.6,898.54
23815,7888.6,1147.5
23815,8138.6,1398.5
23815,8388.6,1650.5
23815,7388.6,649.54
23815,7638.6,897.54
23815,7888.6,1146.5
23815,8138.6,1397.5
23815,8388.6,1649.5
23815,7638.6,901.54
23815,7888.6,1149.5
23815,8138.6,1398.5
23815,8388.6,1649.5
23815,8638.6,1901.5
23815,7388.6,650.54
23815,7638.6,898.54
23815,7888.6,1147.5
23815,8138.6,1398.5
23815,8388.6,1650.5
23815,7638.6,901.54
23815,7888.6,1149.5
23815,8138.6,1398.5
23815,8388.6,1649.5
23815,8638.6,1901.5
23815,7888.6,1153.5
23815,8138.6,1401.5
23815,8388.6,1650.5
23815,8638.6,1901.5
23815,8888.6,2153.5
23815,7388.6,650.54
23815,7638.6,898.54
23815,7888.6,1147.5
23815,8138.6,1398.5
23815,8388.6,1650.5
23815,7388.6,647.54
23815,7638.6,895.54
23815,7888.6,1144.5
23815,8138.6,1395.5
23815,8388.6,1647.5
23815,7388.6,647.54
23815,7638.6,895.54
23815,7888.6,1144.5
23815,8138.6,1395.5
23815,8388.6,1647.5
23815,7638.6,899.54
23815,7888.6,1147.5
23815,8138.6,1396.5
23815,8388.6,1647.5
23815,8638.6,1899.5
23815,7388.6,647.54
23815,7638.6,895.54
23815,7888.6,1144.5
23815,8138.6,1395.5
23815,8388.6,1647.5
23815,7388.6,646.54
23815,7638.6,894.54
23815,7888.6,1143.5
23815,8138.6,1394.5
23815,8388.6,1646.5
23815,7638.6,898.54
23815,7888.6,1146.5
23815,8138.6,1395.5
23815,8388.6,1646.5
23815,8638.6,1898.5
23815,7388.6,647.54
23815,7638.6,895.54
23815,7888.6,1144.5
23815,8138.6,1395.5
23815,8388.6,1647.5
23815,7638.6,898.54
23815,7888.6,1146.5
23815,8138.6,1395.5
23815,8388.6,1646.5
23815,8638.6,1898.5
23815,7888.6,1150.5
23815,8138.6,1398.5
23815,8388.6,1647.5
23815,8638.6,1898.5
23815,8888.6,2150.5
23815,7388.6,650.54
23815,7638.6,898.54
23815,7888.6,1147.5
23815,8138.6,1398.5
23815,8388.6,1650.5
23815,7388.6,647.54
23815,7638.6,895.54
23815,7888.6,1144.5
23815,8138.6,1395.5
23815,8388.6,1647.5
23815,7638.6,899.54
23815,7888.6,1147.5
23815,8138.6,1396.5
23815,8388.6,1647.5
23815,8638.6,1899.5
23815,7388.6,647.54
23815,7638.6,895.54
23815,7888.6,1144.5
23815,8138.6,1395.5
23815,8388.6,1647.5
23815,7638.6,898.54
23815,7888.6,1146.5
23815,8138.6,1395.5
23815,8388.6,1646.5
23815,8638.6,1898.5
23815,7888.6,1150.5
23815,8138.6,1398.5
23815,8388.6,1647.5
23815,8638.6,1898.5
23815,8888.6,2150.5
23815,7388.6,650.54
23815,7638.6,898.54
23815,7888.6,1147.5
23815,8138.6,1398.5
23815,8388.6,1650.5
23815,7638.6,899.54
23815,7888.6,1147.5
23815,8138.6,1396.5
23815,8388.6,1647.5
23815,8638.6,1899.5
23815,7888.6,1150.5
23815,8138.6,1398.5
23815,8388.6,1647.5
23815,8638.6,1898.5
23815,8888.6,2150.5
23815,8138.6,1402.5
23815,8388.6,1650.5
23815,8638.6,1899.5
23815,8888.6,2150.5
23815,9138.6,2402.5
23815,7388.6,653.54
23815,7638.6,901.54
23815,7888.6,1150.5
23815,8138.6,1401.5
23815,8388.6,1653.5
23815,7388.6,649.54
23815,7638.6,897.54
23815,7888.6,1146.5
23815,8138.6,1397.5
23815,8388.6,1649.5
23815,7388.6,649.54
23815,7638.6,897.54
23815,7888.6,1146.5
23815,8138.6,1397.5
23815,8388.6,1649.5
23815,7638.6,901.54
23815,7888.6,1149.5
23815,8138.6,1398.5
23815,8388.6,1649.5
23815,8638.6,1901.5
23815,7388.6,647.54
23815,7638.6,895.54
23815,7888.6,1144.5
23815,8138.6,1395.5
23815,8388.6,1647.5
23815,7388.6,646.54
23815,7638.6,894.54
23815,7888.6,1143.5
23815,8138.6,1394.5
23815,8388.6,1646.5
23815,7638.6,898.54
23815,7888.6,1146.5
23815,8138.6,1395.5
23815,8388.6,1646.5
23815,8638.6,1898.5
23815,7388.6,647.54
23815,7638.6,895.54
23815,7888.6,1144.5
23815,8138.6,1395.5
23815,8388.6,1647.5
23815,7638.6,898.54
23815,7888.6,1146.5
23815,8138.6,1395.5
23815,8388.6,1646.5
23815,8638.6,1898.5
23815,7888.6,1150.5
23815,8138.6,1398.5
23815,8388.6,1647.5
23815,8638.6,1898.5
23815,8888.6,2150.5
23815,7388.6,649.54
23815,7638.6,897.54
23815,7888.6,1146.5
23815,8138.6,1397.5
23815,8388.6,1649.5
23815,7388.6,646.54
23815,7638.6,894.54
23815,7888.6,1143.5
23815,8138.6,1394.5
23815,8388.6,1646.5
23815,7638.6,898.54
23815,7888.6,1146.5
23815,8138.6,1395.5
23815,8388.6,1646.5
23815,8638.6,1898.5
23815,7388.6,646.54
23815,7638.6,894.54
23815,7888.6,1143.5
23815,8138.6,1394.5
23815,8388.6,1646.5
23815,7638.6,897.54
23815,7888.6,1145.5
23815,8138.6,1394.5
23815,8388.6,1645.5
23815,8638.6,1897.5
23815,7888.6,1149.5
23815,8138.6,1397.5
23815,8388.6,1646.5
23815,8638.6,1897.5
23815,8888.6,2149.5
23815,7388.6,649.54
23815,7638.6,897.54
23815,7888.6,1146.5
23815,8138.6,1397.5
23815,8388.6,1649.5
23815,7638.6,898.54
23815,7888.6,1146.5
23815,8138.6,1395.5
23815,8388.6,1646.5
23815,8638.6,1898.5
23815,7888.6,1149.5
23815,8138.6,1397.5
23815,8388.6,1646.5
23815,8638.6,1897.5
23815,8888.6,2149.5
23815,8138.6,1401.5
23815,8388.6,1649.5
23815,8638.6,1898.5
23815,8888.6,2149.5
23815,9138.6,2401.5
23815,7388.6,653.54
23815,7638.6,901.54
23815,7888.6,1150.5
23815,8138.6,1401.5
23815,8388.6,1653.5
23815,7388.6,649.54
23815,7638.6,897.54
23815,7888.6,1146.5
23815,8138.6,1397.5
23815,8388.6,1649.5
23815,7638.6,901.54
23815,7888.6,1149.5
23815,8138.6,1398.5
23815,8388.6,1649.5
23815,8638.6,1901.5
23815,7388.6,647.54
23815,7638.6,895.54
23815,7888.6,1144.5
23815,8138.6,1395.5
23815,8388.6,1647.5
23815,7638.6,898.54
23815,7888.6,1146.5
23815,8138.6,1395.5
23815,8388.6,1646.5
23815,8638.6,1898.5
23815,7888.6,1150.5
23815,8138.6,1398.5
23815,8388.6,1647.5
23815,8638.6,1898.5
23815,8888.6,2150.5
23815,7388.6,649.54
23815,7638.6,897.54
23815,7888.6,1146.5
23815,8138.6,1397.5
23815,8388.6,1649.5
23815,7638.6,898.54
23815,7888.6,1146.5
23815,8138.6,1395.5
23815,8388.6,1646.5
23815,8638.6,1898.5
23815,7888.6,1149.5
23815,8138.6,1397.5
23815,8388.6,1646.5
23815,8638.6,1897.5
23815,8888.6,2149.5
23815,8138.6,1401.5
23815,8388.6,1649.5
23815,8638.6,1898.5
23815,8888.6,2149.5
23815,9138.6,2401.5
23815,7388.6,653.54
23815,7638.6,901.54
23815,7888.6,1150.5
23815,8138.6,1401.5
23815,8388.6,1653.5
23815,7638.6,901.54
23815,7888.6,1149.5
23815,8138.6,1398.5
23815,8388.6,1649.5
23815,8638.6,1901.5
23815,7888.6,1150.5
23815,8138.6,1398.5
23815,8388.6,1647.5
23815,8638.6,1898.5
23815,8888.6,2150.5
23815,8138.6,1401.5
23815,8388.6,1649.5
23815,8638.6,1898.5
23815,8888.6,2149.5
23815,9138.6,2401.5
23815,8388.6,1653.5
23815,8638.6,1901.5
23815,8888.6,2150.5
23815,9138.6,2401.5
23815,9388.6,2653.5
23815,7388.6,653.54
23815,7638.6,901.54
23815,7888.6,1150.5
23815,8138.6,1401.5
23815,8388.6,1653.5
23815,7388.6,653.54
23815,7638.6,901.54
23815,7888.6,1150.5
23815,8138.6,1401.5
23815,8388.6,1653.5
23815,7638.6,905.54
23815,7888.6,1153.5
23815,8138.6,1402.5
23815,8388.6,1653.5
23815,8638.6,1905.5
23815,7388.6,650.54
23815,7638.6,898.54
23815,7888.6,1147.5
23815,8138.6,1398.5
23815,8388.6,1650.5
23815,7388.6,649.54
23815,7638.6,897.54
23815,7888.6,1146.5
23815,8138.6,1397.5
23815,8388.6,1649.5
23815,7638.6,901.54
23815,7888.6,1149.5
23815,8138.6,1398.5
23815,8388.6,1649.5
23815,8638.6,1901.5
23815,7388.6,650.54
23815,7638.6,898.54
23815,7888.6,1147.5
23815,8138.6,1398.5
23815,8388.6,1650.5
23815,7638.6,901.54
23815,7888.6,1149.5
23815,8138.6,1398.5
23815,8388.6,1649.5
23815,8638.6,1901.5
23815,7888.6,1153.5
23815,8138.6,1401.5
23815,8388.6,1650.5
23815,8638.6,1901.5
23815,8888.6,2153.5
23815,7388.6,650.54
23815,7638.6,898.54
23815,7888.6,1147.5
23815,8138.6,1398.5
23815,8388.6,1650.5
23815,7388.6,647.54
23815,7638.6,895.54
23815,7888.6,1144.5
23815,8138.6,1395.5
23815,8388.6,1647.5
23815,7638.6,899.54
23815,7888.6,1147.5
23815,8138.6,1396.5
23815,8388.6,1647.5
23815,8638.6,1899.5
23815,7388.6,647.54
23815,7638.6,895.54
23815,7888.6,1144.5
23815,8138.6,1395.5
23815,8388.6,1647.5
23815,7638.6,898.54
23815,7888.6,1146.5
23815,8138.6,1395.5
23815,8388.6,1646.5
23815,8638.6,1898.5
23815,7888.6,1150.5
23815,8138.6,1398.5
23815,8388.6,1647.5
23815,8638.6,1898.5
23815,8888.6,2150.5
23815,7388.6,650.54
23815,7638.6,898.54
23815,7888.6,1147.5
23815,8138.6,1398.5
23815,8388.6,1650.5
23815,7638.6,899.54
23815,7888.6,1147.5
23815,8138.6,1396.5
23815,8388.6,1647.5
23815,8638.6,1899.5
23815,7888.6,1150.5
23815,8138.6,1398.5
23815,8388.6,1647.5
23815,8638.6,1898.5
23815,8888.6,2150.5
23815,8138.6,1402.5
23815,8388.6,1650.5
23815,8638.6,1899.5
23815,8888.6,2150.5
23815,9138.6,2402.5
23815,7388.6,653.54
23815,7638.6,901.54
23815,7888.6,1150.5
23815,8138.6,1401.5
23815,8388.6,1653.5
23815,7388.6,649.54
23815,7638.6,897.54
23815,7888.6,1146.5
23815,8138.6,1397.5
23815,8388.6,1649.5
23815,7638.6,901.54
23815,7888.6,1149.5
23815,8138.6,1398.5
23815,8388.6,1649.5
23815,8638.6,1901.5
23815,7388.6,647.54
23815,7638.6,895.54
23815,7888.6,1144.5
23815,8138.6,1395.5
23815,8388.6,1647.5
23815,7638.6,898.54
23815,7888.6,1146.5
23815,8138.6,1395.5
23815,8388.6,1646.5
23815,8638.6,1898.5
23815,7888.6,1150.5
23815,8138.6,1398.5
23815,8388.6,1647.5
23815,8638.6,1898.5
23815,8888.6,2150.5
23815,7388.6,649.54
23815,7638.6,897.54
23815,7888.6,1146.5
23815,8138.6,1397.5
23815,8388.6,1649.5
23815,7638.6,898.54
23815,7888.6,1146.5
23815,8138.6,1395.5
23815,8388.6,1646.5
23815,8638.6,1898.5
23815,7888.6,1149.5
23815,8138.6,1397.5
23815,8388.6,1646.5
23815,8638.6,1897.5
23815,8888.6,2149.5
23815,8138.6,1401.5
23815,8388.6,1649.5
23815,8638.6,1898.5
23815,8888.6,2149.5
23815,9138.6,2401.5
23815,7388.6,653.54
23815,7638.6,901.54
23815,7888.6,1150.5
23815,8138.6,1401.5
23815,8388.6,1653.5
23815,7638.6,901.54
23815,7888.6,1149.5
23815,8138.6,1398.5
23815,8388.6,1649.5
23815,8638.6,1901.5
23815,7888.6,1150.5
23815,8138.6,1398.5
23815,8388.6,1647.5
23815,8638.6,1898.5
23815,8888.6,2150.5
23815,8138.6,1401.5
23815,8388.6,1649.5
23815,8638.6,1898.5
23815,8888.6,2149.5
23815,9138.6,2401.5
23815,8388.6,1653.5
23815,8638.6,1901.5
23815,8888.6,2150.5
23815,9138.6,2401.5
23815,9388.6,2653.5
23815,7388.6,653.54
23815,7638.6,901.54
23815,7888.6,1150.5
23815,8138.6,1401.5
23815,8388.6,1653.5
23815,7638.6,905.54
23815,7888.6,1153.5
23815,8138.6,1402.5
23815,8388.6,1653.5
23815,8638.6,1905.5
23815,7388.6,650.54
23815,7638.6,898.54
23815,7888.6,1147.5
23815,8138.6,1398.5
23815,8388.6,1650.5
23815,7638.6,901.54
23815,7888.6,1149.5
23815,8138.6,1398.5
23815,8388.6,1649.5
23815,8638.6,1901.5
23815,7888.6,1153.5
23815,8138.6,1401.5
23815,8388.6,1650.5
23815,8638.6,1901.5
23815,8888.6,2153.5
23815,7388.6,650.54
23815,7638.6,898.54
23815,7888.6,1147.5
23815,8138.6,1398.5
23815,8388.6,1650.5
23815,7638.6,899.54
23815,7888.6,1147.5
23815,8138.6,1396.5
23815,8388.6,1647.5
23815,8638.6,1899.5
23815,7888.6,1150.5
23815,8138.6,1398.5
23815,8388.6,1647.5
23815,8638.6,1898.5
23815,8888.6,2150.5
23815,8138.6,1402.5
23815,8388.6,1650.5
23815,8638.6,1899.5
23815,8888.6,2150.5
23815,9138.6,2402.5
23815,7388.6,653.54
23815,7638.6,901.54
23815,7888.6,1150.5
23815,8138.6,1401.5
23815,8388.6,1653.5
23815,7638.6,901.54
23815,7888.6,1149.5
23815,8138.6,1398.5
23815,8388.6,1649.5
23815,8638.6,1901.5
23815,7888.6,1150.5
23815,8138.6,1398.5
23815,8388.6,1647.5
23815,8638.6,1898.5
23815,8888.6,2150.5
23815,8138.6,1401.5
23815,8388.6,1649.5
23815,8638.6,1898.5
23815,8888.6,2149.5
23815,9138.6,2401.5
23815,8388.6,1653.5
23815,8638.6,1901.5
23815,8888.6,2150.5
23815,9138.6,2401.5
23815,9388.6,2653.5
23815,7638.6,905.54
23815,7888.6,1153.5
23815,8138.6,1402.5
23815,8388.6,1653.5
23815,8638.6,1905.5
23815,7888.6,1153.5
23815,8138.6,1401.5
23815,8388.6,1650.5
23815,8638.6,1901.5
23815,8888.6,2153.5
23815,8138.6,1402.5
23815,8388.6,1650.5
23815,8638.6,1899.5
23815,8888.6,2150.5
23815,9138.6,2402.5
23815,8388.6,1653.5
23815,8638.6,1901.5
23815,8888.6,2150.5
23815,9138.6,2401.5
23815,9388.6,2653.5
23815,8638.6,1905.5
23815,8888.6,2153.5
23815,9138.6,2402.5
23815,9388.6,2653.5
23815,9638.6,2905.5
