36425,7047.2,350.62
35624,6547.2,152.38
35624,6797.2,101.62
35624,7047.2,350.62
35624,7297.2,601.62
35624,7547.2,853.62
34823,6047.2,655.38
34823,6297.2,403.38
34823,6547.2,152.38
34823,6797.2,104.62
34823,7047.2,356.62
34823,6297.2,403.38
34823,6547.2,151.38
34823,6797.2,101.62
34823,7047.2,352.62
34823,7297.2,604.62
34823,6547.2,152.38
34823,6797.2,101.62
34823,7047.2,350.62
34823,7297.2,601.62
34823,7547.2,853.62
34823,6797.2,104.62
34823,7047.2,352.62
34823,7297.2,601.62
34823,7547.2,852.62
34823,7797.2,1104.6
34823,7047.2,356.62
34823,7297.2,604.62
34823,7547.2,853.62
34823,7797.2,1104.6
34823,8047.2,1356.6
34022,5547.2,1158.4
34022,5797.2,906.38
34022,6047.2,655.38
34022,6297.2,406.38
34022,5797.2,906.38
34022,6047.2,654.38
34022,6297.2,403.38
34022,6047.2,655.38
34022,6297.2,403.38
34022,6297.2,406.38
34022,5797.2,906.38
34022,6047.2,654.38
34022,6297.2,403.38
34022,6047.2,654.38
34022,6297.2,402.38
34022,6297.2,403.38
34022,6047.2,655.38
34022,6297.2,403.38
34022,6297.2,403.38
34022,8047.2,1356.6
34022,6297.2,406.38
34022,8047.2,1355.6
34022,8047.2,1355.6
34022,8297.2,1607.6
34022,8047.2,1356.6
34022,8047.2,1355.6
34022,8297.2,1607.6
34022,8047.2,1356.6
34022,8297.2,1607.6
34022,8547.2,1859.6
33221,7547.2,859.62
33221,7797.2,1107.6
33221,8047.2,1356.6
33221,8297.2,1607.6
33221,8547.2,1859.6
33221,7547.2,858.62
33221,7797.2,1106.6
33221,8047.2,1355.6
33221,8297.2,1606.6
33221,8547.2,1858.6
33221,7547.2,858.62
33221,7797.2,1106.6
33221,8047.2,1355.6
33221,8297.2,1606.6
33221,8547.2,1858.6
33221,7797.2,1110.6
33221,8047.2,1358.6
33221,8297.2,1607.6
33221,8547.2,1858.6
33221,8797.2,2110.6
33221,7547.2,859.62
33221,7797.2,1107.6
33221,8047.2,1356.6
33221,8297.2,1607.6
33221,8547.2,1859.6
33221,7547.2,858.62
33221,7797.2,1106.6
33221,8047.2,1355.6
33221,8297.2,1606.6
33221,8547.2,1858.6
33221,7797.2,1110.6
33221,8047.2,1358.6
33221,8297.2,1607.6
33221,8547.2,1858.6
33221,8797.2,2110.6
33221,7547.2,859.62
33221,7797.2,1107.6
33221,8047.2,1356.6
33221,8297.2,1607.6
33221,8547.2,1859.6
33221,7797.2,1110.6
33221,8047.2,1358.6
33221,8297.2,1607.6
33221,8547.2,1858.6
33221,8797.2,2110.6
33221,8047.2,1362.6
33221,8297.2,1610.6
33221,8547.2,1859.6
33221,8797.2,2110.6
33221,9047.2,2362.6
32420,8047.2,1362.6
32420,8047.2,1358.6
32420,8297.2,1610.6
32420,8047.2,1356.6
32420,8297.2,1607.6
32420,8547.2,1859.6
32420,8047.2,1358.6
32420,8297.2,1607.6
32420,8547.2,1858.6
32420,8797.2,2110.6
32420,8047.2,1362.6
32420,8297.2,1610.6
32420,8547.2,1859.6
32420,8797.2,2110.6
32420,9047.2,2362.6
32420,8047.2,1361.6
32420,8047.2,1357.6
32420,8297.2,1609.6
32420,8047.2,1355.6
32420,8297.2,1606.6
32420,8547.2,1858.6
32420,8047.2,1357.6
32420,8297.2,1606.6
32420,8547.2,1857.6
32420,8797.2,2109.6
32420,8047.2,1361.6
32420,8297.2,1609.6
32420,8547.2,1858.6
32420,8797.2,2109.6
32420,9047.2,2361.6
32420,8047.2,1361.6
32420,8047.2,1357.6
32420,8297.2,1609.6
32420,8047.2,1355.6
32420,8297.2,1606.6
32420,8547.2,1858.6
32420,8047.2,1357.6
32420,8297.2,1606.6
32420,8547.2,1857.6
32420,8797.2,2109.6
32420,8047.2,1361.6
32420,8297.2,1609.6
32420,8547.2,1858.6
32420,8797.2,2109.6
32420,9047.2,2361.6
32420,8047.2,1361.6
32420,8297.2,1613.6
32420,8047.2,1358.6
32420,8297.2,1609.6
32420,8547.2,1861.6
32420,8047.2,1358.6
32420,8297.2,1607.6
32420,8547.2,1858.6
32420,8797.2,2110.6
32420,8047.2,1361.6
32420,8297.2,1609.6
32420,8547.2,1858.6
32420,8797.2,2109.6
32420,9047.2,2361.6
32420,8297.2,1613.6
32420,8547.2,1861.6
32420,8797.2,2110.6
32420,9047.2,2361.6
32420,9297.2,2613.6
32420,8047.2,1362.6
32420,8047.2,1358.6
32420,8297.2,1610.6
32420,8047.2,1356.6
32420,8297.2,1607.6
32420,8547.2,1859.6
32420,8047.2,1358.6
32420,8297.2,1607.6
32420,8547.2,1858.6
32420,8797.2,2110.6
32420,8047.2,1362.6
32420,8297.2,1610.6
32420,8547.2,1859.6
32420,8797.2,2110.6
32420,9047.2,2362.6
32420,8047.2,1361.6
32420,8047.2,1357.6
32420,8297.2,1609.6
32420,8047.2,1355.6
32420,8297.2,1606.6
32420,8547.2,1858.6
32420,8047.2,1357.6
32420,8297.2,1606.6
32420,8547.2,1857.6
32420,8797.2,2109.6
32420,8047.2,1361.6
32420,8297.2,1609.6
32420,8547.2,1858.6
32420,8797.2,2109.6
32420,9047.2,2361.6
32420,8047.2,1361.6
32420,8297.2,1613.6
32420,8047.2,1358.6
32420,8297.2,1609.6
32420,8547.2,1861.6
32420,8047.2,1358.6
32420,8297.2,1607.6
32420,8547.2,1858.6
32420,8797.2,2110.6
32420,8047.2,1361.6
32420,8297.2,1609.6
32420,8547.2,1858.6
32420,8797.2,2109.6
32420,9047.2,2361.6
32420,8297.2,1613.6
32420,8547.2,1861.6
32420,8797.2,2110.6
32420,9047.2,2361.6
32420,9297.2,2613.6
32420,8047.2,1362.6
32420,8047.2,1358.6
32420,8297.2,1610.6
32420,8047.2,1356.6
32420,8297.2,1607.6
32420,8547.2,1859.6
32420,8047.2,1358.6
32420,8297.2,1607.6
32420,8547.2,1858.6
32420,8797.2,2110.6
32420,8047.2,1362.6
32420,8297.2,1610.6
32420,8547.2,1859.6
32420,8797.2,2110.6
32420,9047.2,2362.6
32420,8047.2,1361.6
32420,8297.2,1613.6
32420,8047.2,1358.6
32420,8297.2,1609.6
32420,8547.2,1861.6
32420,8047.2,1358.6
32420,8297.2,1607.6
32420,8547.2,1858.6
32420,8797.2,2110.6
32420,8047.2,1361.6
32420,8297.2,1609.6
32420,8547.2,1858.6
32420,8797.2,2109.6
32420,9047.2,2361.6
32420,8297.2,1613.6
32420,8547.2,1861.6
32420,8797.2,2110.6
32420,9047.2,2361.6
32420,9297.2,2613.6
32420,8047.2,1362.6
32420,8297.2,1613.6
32420,8547.2,1865.6
32420,8047.2,1361.6
32420,8297.2,1610.6
32420,8547.2,1861.6
32420,8797.2,2113.6
32420,8047.2,1362.6
32420,8297.2,1610.6
32420,8547.2,1859.6
32420,8797.2,2110.6
32420,9047.2,2362.6
32420,8297.2,1613.6
32420,8547.2,1861.6
32420,8797.2,2110.6
32420,9047.2,2361.6
32420,9297.2,2613.6
32420,8547.2,1865.6
32420,8797.2,2113.6
32420,9047.2,2362.6
32420,9297.2,2613.6
32420,9547.2,2865.6
31619,7547.2,865.62
31619,7797.2,1113.6
31619,8047.2,1362.6
31619,8297.2,1613.6
31619,8547.2,1865.6
31619,7547.2,861.62
31619,7797.2,1109.6
31619,8047.2,1358.6
31619,8297.2,1609.6
31619,8547.2,1861.6
31619,7797.2,1113.6
31619,8047.2,1361.6
31619,8297.2,1610.6
31619,8547.2,1861.6
31619,8797.2,2113.6
31619,7547.2,859.62
31619,7797.2,1107.6
31619,8047.2,1356.6
31619,8297.2,1607.6
31619,8547.2,1859.6
31619,7797.2,1110.6
31619,8047.2,1358.6
31619,8297.2,1607.6
31619,8547.2,1858.6
31619,8797.2,2110.6
31619,8047.2,1362.6
31619,8297.2,1610.6
31619,8547.2,1859.6
31619,8797.2,2110.6
31619,9047.2,2362.6
31619,7547.2,861.62
31619,7797.2,1109.6
31619,8047.2,1358.6
31619,8297.2,1609.6
31619,8547.2,1861.6
31619,7797.2,1110.6
31619,8047.2,1358.6
31619,8297.2,1607.6
31619,8547.2,1858.6
31619,8797.2,2110.6
31619,8047.2,1361.6
31619,8297.2,1609.6
31619,8547.2,1858.6
31619,8797.2,2109.6
31619,9047.2,2361.6
31619,8297.2,1613.6
31619,8547.2,1861.6
31619,8797.2,2110.6
31619,9047.2,2361.6
31619,9297.2,2613.6
31619,7547.2,865.62
31619,7797.2,1113.6
31619,8047.2,1362.6
31619,8297.2,1613.6
31619,8547.2,1865.6
31619,7797.2,1113.6
31619,8047.2,1361.6
31619,8297.2,1610.6
31619,8547.2,1861.6
31619,8797.2,2113.6
31619,8047.2,1362.6
31619,8297.2,1610.6
31619,8547.2,1859.6
31619,8797.2,2110.6
31619,9047.2,2362.6
31619,8297.2,1613.6
31619,8547.2,1861.6
31619,8797.2,2110.6
31619,9047.2,2361.6
31619,9297.2,2613.6
31619,8547.2,1865.6
31619,8797.2,2113.6
31619,9047.2,2362.6
31619,9297.2,2613.6
31619,9547.2,2865.6
31619,7547.2,864.62
31619,7797.2,1112.6
31619,8047.2,1361.6
31619,8297.2,1612.6
31619,8547.2,1864.6
31619,7547.2,860.62
31619,7797.2,1108.6
31619,8047.2,1357.6
31619,8297.2,1608.6
31619,8547.2,1860.6
31619,7797.2,1112.6
31619,8047.2,1360.6
31619,8297.2,1609.6
31619,8547.2,1860.6
31619,8797.2,2112.6
31619,7547.2,858.62
31619,7797.2,1106.6
31619,8047.2,1355.6
31619,8297.2,1606.6
31619,8547.2,1858.6
31619,7797.2,1109.6
31619,8047.2,1357.6
31619,8297.2,1606.6
31619,8547.2,1857.6
31619,8797.2,2109.6
31619,8047.2,1361.6
31619,8297.2,1609.6
31619,8547.2,1858.6
31619,8797.2,2109.6
31619,9047.2,2361.6
31619,7547.2,860.62
31619,7797.2,1108.6
31619,8047.2,1357.6
31619,8297.2,1608.6
31619,8547.2,1860.6
31619,7797.2,1109.6
31619,8047.2,1357.6
31619,8297.2,1606.6
31619,8547.2,1857.6
31619,8797.2,2109.6
31619,8047.2,1360.6
31619,8297.2,1608.6
31619,8547.2,1857.6
31619,8797.2,2108.6
31619,9047.2,2360.6
31619,8297.2,1612.6
31619,8547.2,1860.6
31619,8797.2,2109.6
31619,9047.2,2360.6
31619,9297.2,2612.6
31619,7547.2,864.62
31619,7797.2,1112.6
31619,8047.2,1361.6
31619,8297.2,1612.6
31619,8547.2,1864.6
31619,7797.2,1112.6
31619,8047.2,1360.6
31619,8297.2,1609.6
31619,8547.2,1860.6
31619,8797.2,2112.6
31619,8047.2,1361.6
31619,8297.2,1609.6
31619,8547.2,1858.6
31619,8797.2,2109.6
31619,9047.2,2361.6
31619,8297.2,1612.6
31619,8547.2,1860.6
31619,8797.2,2109.6
31619,9047.2,2360.6
31619,9297.2,2612.6
31619,8547.2,1864.6
31619,8797.2,2112.6
31619,9047.2,2361.6
31619,9297.2,2612.6
31619,9547.2,2864.6
31619,7547.2,864.62
31619,7797.2,1112.6
31619,8047.2,1361.6
31619,8297.2,1612.6
31619,8547.2,1864.6
31619,7547.2,860.62
31619,7797.2,1108.6
31619,8047.2,1357.6
31619,8297.2,1608.6
31619,8547.2,1860.6
31619,7797.2,1112.6
31619,8047.2,1360.6
31619,8297.2,1609.6
31619,8547.2,1860.6
31619,8797.2,2112.6
31619,7547.2,858.62
31619,7797.2,1106.6
31619,8047.2,1355.6
31619,8297.2,1606.6
31619,8547.2,1858.6
31619,7797.2,1109.6
31619,8047.2,1357.6
31619,8297.2,1606.6
31619,8547.2,1857.6
31619,8797.2,2109.6
31619,8047.2,1361.6
31619,8297.2,1609.6
31619,8547.2,1858.6
31619,8797.2,2109.6
31619,9047.2,2361.6
31619,7547.2,860.62
31619,7797.2,1108.6
31619,8047.2,1357.6
31619,8297.2,1608.6
31619,8547.2,1860.6
31619,7797.2,1109.6
31619,8047.2,1357.6
31619,8297.2,1606.6
31619,8547.2,1857.6
31619,8797.2,2109.6
31619,8047.2,1360.6
31619,8297.2,1608.6
31619,8547.2,1857.6
31619,8797.2,2108.6
31619,9047.2,2360.6
31619,8297.2,1612.6
31619,8547.2,1860.6
31619,8797.2,2109.6
31619,9047.2,2360.6
31619,9297.2,2612.6
31619,7547.2,864.62
31619,7797.2,1112.6
31619,8047.2,1361.6
31619,8297.2,1612.6
31619,8547.2,1864.6
31619,7797.2,1112.6
31619,8047.2,1360.6
31619,8297.2,1609.6
31619,8547.2,1860.6
31619,8797.2,2112.6
31619,8047.2,1361.6
31619,8297.2,1609.6
31619,8547.2,1858.6
31619,8797.2,2109.6
31619,9047.2,2361.6
31619,8297.2,1612.6
31619,8547.2,1860.6
31619,8797.2,2109.6
31619,9047.2,2360.6
31619,9297.2,2612.6
31619,8547.2,1864.6
31619,8797.2,2112.6
31619,9047.2,2361.6
31619,9297.2,2612.6
31619,9547.2,2864.6
31619,7547.2,864.62
31619,7797.2,1112.6
31619,8047.2,1361.6
31619,8297.2,1612.6
31619,8547.2,1864.6
31619,7797.2,1116.6
31619,8047.2,1364.6
31619,8297.2,1613.6
31619,8547.2,1864.6
31619,8797.2,2116.6
31619,7547.2,861.62
31619,7797.2,1109.6
31619,8047.2,1358.6
31619,8297.2,1609.6
31619,8547.2,1861.6
31619,7797.2,1112.6
31619,8047.2,1360.6
31619,8297.2,1609.6
31619,8547.2,1860.6
31619,8797.2,2112.6
31619,8047.2,1364.6
31619,8297.2,1612.6
31619,8547.2,1861.6
31619,8797.2,2112.6
31619,9047.2,2364.6
31619,7547.2,861.62
31619,7797.2,1109.6
31619,8047.2,1358.6
31619,8297.2,1609.6
31619,8547.2,1861.6
31619,7797.2,1110.6
31619,8047.2,1358.6
31619,8297.2,1607.6
31619,8547.2,1858.6
31619,8797.2,2110.6
31619,8047.2,1361.6
31619,8297.2,1609.6
31619,8547.2,1858.6
31619,8797.2,2109.6
31619,9047.2,2361.6
31619,8297.2,1613.6
31619,8547.2,1861.6
31619,8797.2,2110.6
31619,9047.2,2361.6
31619,9297.2,2613.6
31619,7547.2,864.62
31619,7797.2,1112.6
31619,8047.2,1361.6
31619,8297.2,1612.6
31619,8547.2,1864.6
31619,7797.2,1112.6
31619,8047.2,1360.6
31619,8297.2,1609.6
31619,8547.2,1860.6
31619,8797.2,2112.6
31619,8047.2,1361.6
31619,8297.2,1609.6
31619,8547.2,1858.6
31619,8797.2,2109.6
31619,9047.2,2361.6
31619,8297.2,1612.6
31619,8547.2,1860.6
31619,8797.2,2109.6
31619,9047.2,2360.6
31619,9297.2,2612.6
31619,8547.2,1864.6
31619,8797.2,2112.6
31619,9047.2,2361.6
31619,9297.2,2612.6
31619,9547.2,2864.6
31619,7797.2,1116.6
31619,8047.2,1364.6
31619,8297.2,1613.6
31619,8547.2,1864.6
31619,8797.2,2116.6
31619,8047.2,1364.6
31619,8297.2,1612.6
31619,8547.2,1861.6
31619,8797.2,2112.6
31619,9047.2,2364.6
31619,8297.2,1613.6
31619,8547.2,1861.6
31619,8797.2,2110.6
31619,9047.2,2361.6
31619,9297.2,2613.6
31619,8547.2,1864.6
31619,8797.2,2112.6
31619,9047.2,2361.6
31619,9297.2,2612.6
31619,9547.2,2864.6
31619,8797.2,2116.6
31619,9047.2,2364.6
31619,9297.2,2613.6
31619,9547.2,2864.6
31619,9797.2,3116.6
31619,7547.2,865.62
31619,7797.2,1113.6
31619,8047.2,1362.6
31619,8297.2,1613.6
31619,8547.2,1865.6
31619,7547.2,861.62
31619,7797.2,1109.6
31619,8047.2,1358.6
31619,8297.2,1609.6
31619,8547.2,1861.6
31619,7797.2,1113.6
31619,8047.2,1361.6
31619,8297.2,1610.6
31619,8547.2,1861.6
31619,8797.2,2113.6
31619,7547.2,859.62
31619,7797.2,1107.6
31619,8047.2,1356.6
31619,8297.2,1607.6
31619,8547.2,1859.6
31619,7797.2,1110.6
31619,8047.2,1358.6
31619,8297.2,1607.6
31619,8547.2,1858.6
31619,8797.2,2110.6
31619,8047.2,1362.6
31619,8297.2,1610.6
31619,8547.2,1859.6
31619,8797.2,2110.6
31619,9047.2,2362.6
31619,7547.2,861.62
31619,7797.2,1109.6
31619,8047.2,1358.6
31619,8297.2,1609.6
31619,8547.2,1861.6
31619,7797.2,1110.6
31619,8047.2,1358.6
31619,8297.2,1607.6
31619,8547.2,1858.6
31619,8797.2,2110.6
31619,8047.2,1361.6
31619,8297.2,1609.6
31619,8547.2,1858.6
31619,8797.2,2109.6
31619,9047.2,2361.6
31619,8297.2,1613.6
31619,8547.2,1861.6
31619,8797.2,2110.6
31619,9047.2,2361.6
31619,9297.2,2613.6
31619,7547.2,865.62
31619,7797.2,1113.6
31619,8047.2,1362.6
31619,8297.2,1613.6
31619,8547.2,1865.6
31619,7797.2,1113.6
31619,8047.2,1361.6
31619,8297.2,1610.6
31619,8547.2,1861.6
31619,8797.2,2113.6
31619,8047.2,1362.6
31619,8297.2,1610.6
31619,8547.2,1859.6
31619,8797.2,2110.6
31619,9047.2,2362.6
31619,8297.2,1613.6
31619,8547.2,1861.6
31619,8797.2,2110.6
31619,9047.2,2361.6
31619,9297.2,2613.6
31619,8547.2,1865.6
31619,8797.2,2113.6
31619,9047.2,2362.6
31619,9297.2,2613.6
31619,9547.2,2865.6
31619,7547.2,864.62
31619,7797.2,1112.6
31619,8047.2,1361.6
31619,8297.2,1612.6
31619,8547.2,1864.6
31619,7547.2,860.62
31619,7797.2,1108.6
31619,8047.2,1357.6
31619,8297.2,1608.6
31619,8547.2,1860.6
31619,7797.2,1112.6
31619,8047.2,1360.6
31619,8297.2,1609.6
31619,8547.2,1860.6
31619,8797.2,2112.6
31619,7547.2,858.62
31619,7797.2,1106.6
31619,8047.2,1355.6
31619,8297.2,1606.6
31619,8547.2,1858.6
31619,7797.2,1109.6
31619,8047.2,1357.6
31619,8297.2,1606.6
31619,8547.2,1857.6
31619,8797.2,2109.6
31619,8047.2,1361.6
31619,8297.2,1609.6
31619,8547.2,1858.6
31619,8797.2,2109.6
31619,9047.2,2361.6
31619,7547.2,860.62
31619,7797.2,1108.6
31619,8047.2,1357.6
31619,8297.2,1608.6
31619,8547.2,1860.6
31619,7797.2,1109.6
31619,8047.2,1357.6
31619,8297.2,1606.6
31619,8547.2,1857.6
31619,8797.2,2109.6
31619,8047.2,1360.6
31619,8297.2,1608.6
31619,8547.2,1857.6
31619,8797.2,2108.6
31619,9047.2,2360.6
31619,8297.2,1612.6
31619,8547.2,1860.6
31619,8797.2,2109.6
31619,9047.2,2360.6
31619,9297.2,2612.6
31619,7547.2,864.62
31619,7797.2,1112.6
31619,8047.2,1361.6
31619,8297.2,1612.6
31619,8547.2,1864.6
31619,7797.2,1112.6
31619,8047.2,1360.6
31619,8297.2,1609.6
31619,8547.2,1860.6
31619,8797.2,2112.6
31619,8047.2,1361.6
31619,8297.2,1609.6
31619,8547.2,1858.6
31619,8797.2,2109.6
31619,9047.2,2361.6
31619,8297.2,1612.6
31619,8547.2,1860.6
31619,8797.2,2109.6
31619,9047.2,2360.6
31619,9297.2,2612.6
31619,8547.2,1864.6
31619,8797.2,2112.6
31619,9047.2,2361.6
31619,9297.2,2612.6
31619,9547.2,2864.6
31619,7547.2,864.62
31619,7797.2,1112.6
31619,8047.2,1361.6
31619,8297.2,1612.6
31619,8547.2,1864.6
31619,7797.2,1116.6
31619,8047.2,1364.6
31619,8297.2,1613.6
31619,8547.2,1864.6
31619,8797.2,2116.6
31619,7547.2,861.62
31619,7797.2,1109.6
31619,8047.2,1358.6
31619,8297.2,1609.6
31619,8547.2,1861.6
31619,7797.2,1112.6
31619,8047.2,1360.6
31619,8297.2,1609.6
31619,8547.2,1860.6
31619,8797.2,2112.6
31619,8047.2,1364.6
31619,8297.2,1612.6
31619,8547.2,1861.6
31619,8797.2,2112.6
31619,9047.2,2364.6
31619,7547.2,861.62
31619,7797.2,1109.6
31619,8047.2,1358.6
31619,8297.2,1609.6
31619,8547.2,1861.6
31619,7797.2,1110.6
31619,8047.2,1358.6
31619,8297.2,1607.6
31619,8547.2,1858.6
31619,8797.2,2110.6
31619,8047.2,1361.6
31619,8297.2,1609.6
31619,8547.2,1858.6
31619,8797.2,2109.6
31619,9047.2,2361.6
31619,8297.2,1613.6
31619,8547.2,1861.6
31619,8797.2,2110.6
31619,9047.2,2361.6
31619,9297.2,2613.6
31619,7547.2,864.62
31619,7797.2,1112.6
31619,8047.2,1361.6
31619,8297.2,1612.6
31619,8547.2,1864.6
31619,7797.2,1112.6
31619,8047.2,1360.6
31619,8297.2,1609.6
31619,8547.2,1860.6
31619,8797.2,2112.6
31619,8047.2,1361.6
31619,8297.2,1609.6
31619,8547.2,1858.6
31619,8797.2,2109.6
31619,9047.2,2361.6
31619,8297.2,1612.6
31619,8547.2,1860.6
31619,8797.2,2109.6
31619,9047.2,2360.6
31619,9297.2,2612.6
31619,8547.2,1864.6
31619,8797.2,2112.6
31619,9047.2,2361.6
31619,9297.2,2612.6
31619,9547.2,2864.6
31619,7797.2,1116.6
31619,8047.2,1364.6
31619,8297.2,1613.6
31619,8547.2,1864.6
31619,8797.2,2116.6
31619,8047.2,1364.6
31619,8297.2,1612.6
31619,8547.2,1861.6
31619,8797.2,2112.6
31619,9047.2,2364.6
31619,8297.2,1613.6
31619,8547.2,1861.6
31619,8797.2,2110.6
31619,9047.2,2361.6
31619,9297.2,2613.6
31619,8547.2,1864.6
31619,8797.2,2112.6
31619,9047.2,2361.6
31619,9297.2,2612.6
31619,9547.2,2864.6
31619,8797.2,2116.6
31619,9047.2,2364.6
31619,9297.2,2613.6
31619,9547.2,2864.6
31619,9797.2,3116.6
31619,7547.2,865.62
31619,7797.2,1113.6
31619,8047.2,1362.6
31619,8297.2,1613.6
31619,8547.2,1865.6
31619,7547.2,861.62
31619,7797.2,1109.6
31619,8047.2,1358.6
31619,8297.2,1609.6
31619,8547.2,1861.6
31619,7797.2,1113.6
31619,8047.2,1361.6
31619,8297.2,1610.6
31619,8547.2,1861.6
31619,8797.2,2113.6
31619,7547.2,859.62
31619,7797.2,1107.6
31619,8047.2,1356.6
31619,8297.2,1607.6
31619,8547.2,1859.6
31619,7797.2,1110.6
31619,8047.2,1358.6
31619,8297.2,1607.6
31619,8547.2,1858.6
31619,8797.2,2110.6
31619,8047.2,1362.6
31619,8297.2,1610.6
31619,8547.2,1859.6
31619,8797.2,2110.6
31619,9047.2,2362.6
31619,7547.2,861.62
31619,7797.2,1109.6
31619,8047.2,1358.6
31619,8297.2,1609.6
31619,8547.2,1861.6
31619,7797.2,1110.6
31619,8047.2,1358.6
31619,8297.2,1607.6
31619,8547.2,1858.6
31619,8797.2,2110.6
31619,8047.2,1361.6
31619,8297.2,1609.6
31619,8547.2,1858.6
31619,8797.2,2109.6
31619,9047.2,2361.6
31619,8297.2,1613.6
31619,8547.2,1861.6
31619,8797.2,2110.6
31619,9047.2,2361.6
31619,9297.2,2613.6
31619,7547.2,865.62
31619,7797.2,1113.6
31619,8047.2,1362.6
31619,8297.2,1613.6
31619,8547.2,1865.6
31619,7797.2,1113.6
31619,8047.2,1361.6
31619,8297.2,1610.6
31619,8547.2,1861.6
31619,8797.2,2113.6
31619,8047.2,1362.6
31619,8297.2,1610.6
31619,8547.2,1859.6
31619,8797.2,2110.6
31619,9047.2,2362.6
31619,8297.2,1613.6
31619,8547.2,1861.6
31619,8797.2,2110.6
31619,9047.2,2361.6
31619,9297.2,2613.6
31619,8547.2,1865.6
31619,8797.2,2113.6
31619,9047.2,2362.6
31619,9297.2,2613.6
31619,9547.2,2865.6
31619,7547.2,864.62
31619,7797.2,1112.6
31619,8047.2,1361.6
31619,8297.2,1612.6
31619,8547.2,1864.6
31619,7797.2,1116.6
31619,8047.2,1364.6
31619,8297.2,1613.6
31619,8547.2,1864.6
31619,8797.2,2116.6
31619,7547.2,861.62
31619,7797.2,1109.6
31619,8047.2,1358.6
31619,8297.2,1609.6
31619,8547.2,1861.6
31619,7797.2,1112.6
31619,8047.2,1360.6
31619,8297.2,1609.6
31619,8547.2,1860.6
31619,8797.2,2112.6
31619,8047.2,1364.6
31619,8297.2,1612.6
31619,8547.2,1861.6
31619,8797.2,2112.6
31619,9047.2,2364.6
31619,7547.2,861.62
31619,7797.2,1109.6
31619,8047.2,1358.6
31619,8297.2,1609.6
31619,8547.2,1861.6
31619,7797.2,1110.6
31619,8047.2,1358.6
31619,8297.2,1607.6
31619,8547.2,1858.6
31619,8797.2,2110.6
31619,8047.2,1361.6
31619,8297.2,1609.6
31619,8547.2,1858.6
31619,8797.2,2109.6
31619,9047.2,2361.6
31619,8297.2,1613.6
31619,8547.2,1861.6
31619,8797.2,2110.6
31619,9047.2,2361.6
31619,9297.2,2613.6
31619,7547.2,864.62
31619,7797.2,1112.6
31619,8047.2,1361.6
31619,8297.2,1612.6
31619,8547.2,1864.6
31619,7797.2,1112.6
31619,8047.2,1360.6
31619,8297.2,1609.6
31619,8547.2,1860.6
31619,8797.2,2112.6
31619,8047.2,1361.6
31619,8297.2,1609.6
31619,8547.2,1858.6
31619,8797.2,2109.6
31619,9047.2,2361.6
31619,8297.2,1612.6
31619,8547.2,1860.6
31619,8797.2,2109.6
31619,9047.2,2360.6
31619,9297.2,2612.6
31619,8547.2,1864.6
31619,8797.2,2112.6
31619,9047.2,2361.6
31619,9297.2,2612.6
31619,9547.2,2864.6
31619,7797.2,1116.6
31619,8047.2,1364.6
31619,8297.2,1613.6
31619,8547.2,1864.6
31619,8797.2,2116.6
31619,8047.2,1364.6
31619,8297.2,1612.6
31619,8547.2,1861.6
31619,8797.2,2112.6
31619,9047.2,2364.6
31619,8297.2,1613.6
31619,8547.2,1861.6
31619,8797.2,2110.6
31619,9047.2,2361.6
31619,9297.2,2613.6
31619,8547.2,1864.6
31619,8797.2,2112.6
31619,9047.2,2361.6
31619,9297.2,2612.6
31619,9547.2,2864.6
31619,8797.2,2116.6
31619,9047.2,2364.6
31619,9297.2,2613.6
31619,9547.2,2864.6
31619,9797.2,3116.6
31619,7547.2,865.62
31619,7797.2,1113.6
31619,8047.2,1362.6
31619,8297.2,1613.6
31619,8547.2,1865.6
31619,7797.2,1116.6
31619,8047.2,1364.6
31619,8297.2,1613.6
31619,8547.2,1864.6
31619,8797.2,2116.6
31619,8047.2,1368.6
31619,8297.2,1616.6
31619,8547.2,1865.6
31619,8797.2,2116.6
31619,9047.2,2368.6
31619,7547.2,864.62
31619,7797.2,1112.6
31619,8047.2,1361.6
31619,8297.2,1612.6
31619,8547.2,1864.6
31619,7797.2,1113.6
31619,8047.2,1361.6
31619,8297.2,1610.6
31619,8547.2,1861.6
31619,8797.2,2113.6
31619,8047.2,1364.6
31619,8297.2,1612.6
31619,8547.2,1861.6
31619,8797.2,2112.6
31619,9047.2,2364.6
31619,8297.2,1616.6
31619,8547.2,1864.6
31619,8797.2,2113.6
31619,9047.2,2364.6
31619,9297.2,2616.6
31619,7547.2,865.62
31619,7797.2,1113.6
31619,8047.2,1362.6
31619,8297.2,1613.6
31619,8547.2,1865.6
31619,7797.2,1113.6
31619,8047.2,1361.6
31619,8297.2,1610.6
31619,8547.2,1861.6
31619,8797.2,2113.6
31619,8047.2,1362.6
31619,8297.2,1610.6
31619,8547.2,1859.6
31619,8797.2,2110.6
31619,9047.2,2362.6
31619,8297.2,1613.6
31619,8547.2,1861.6
31619,8797.2,2110.6
31619,9047.2,2361.6
31619,9297.2,2613.6
31619,8547.2,1865.6
31619,8797.2,2113.6
31619,9047.2,2362.6
31619,9297.2,2613.6
31619,9547.2,2865.6
31619,7797.2,1116.6
31619,8047.2,1364.6
31619,8297.2,1613.6
31619,8547.2,1864.6
31619,8797.2,2116.6
31619,8047.2,1364.6
31619,8297.2,1612.6
31619,8547.2,1861.6
31619,8797.2,2112.6
31619,9047.2,2364.6
31619,8297.2,1613.6
31619,8547.2,1861.6
31619,8797.2,2110.6
31619,9047.2,2361.6
31619,9297.2,2613.6
31619,8547.2,1864.6
31619,8797.2,2112.6
31619,9047.2,2361.6
31619,9297.2,2612.6
31619,9547.2,2864.6
31619,8797.2,2116.6
31619,9047.2,2364.6
31619,9297.2,2613.6
31619,9547.2,2864.6
31619,9797.2,3116.6
31619,8047.2,1368.6
31619,8297.2,1616.6
31619,8547.2,1865.6
31619,8797.2,2116.6
31619,9047.2,2368.6
31619,8297.2,1616.6
31619,8547.2,1864.6
31619,8797.2,2113.6
31619,9047.2,2364.6
31619,9297.2,2616.6
31619,8547.2,1865.6
31619,8797.2,2113.6
31619,9047.2,2362.6
31619,9297.2,2613.6
31619,9547.2,2865.6
31619,8797.2,2116.6
31619,9047.2,2364.6
31619,9297.2,2613.6
31619,9547.2,2864.6
31619,9797.2,3116.6
31619,9047.2,2368.6
31619,9297.2,2616.6
31619,9547.2,2865.6
31619,9797.2,3116.6
31619,10047,3368.6
