68770,5199.1,455.55
67902,4699.1,47.448
67902,4949.1,206.55
67902,5199.1,455.55
67902,5449.1,706.55
67902,5699.1,958.55
67034,4199.1,550.45
67034,4449.1,298.45
67034,4699.1,47.448
67034,4949.1,209.55
67034,5199.1,461.55
67034,4449.1,298.45
67034,4699.1,46.448
67034,4949.1,206.55
67034,5199.1,457.55
67034,5449.1,709.55
67034,4699.1,47.448
67034,4949.1,206.55
67034,5199.1,455.55
67034,5449.1,706.55
67034,5699.1,958.55
67034,4949.1,209.55
67034,5199.1,457.55
67034,5449.1,706.55
67034,5699.1,957.55
67034,5949.1,1209.6
67034,5199.1,461.55
67034,5449.1,709.55
67034,5699.1,958.55
67034,5949.1,1209.6
67034,6199.1,1461.6
66166,3699.1,1053.4
66166,3949.1,801.45
66166,4199.1,550.45
66166,4449.1,301.45
66166,4699.1,53.448
66166,3949.1,801.45
66166,4199.1,549.45
66166,4449.1,298.45
66166,4699.1,49.448
66166,4949.1,212.55
66166,4199.1,550.45
66166,4449.1,298.45
66166,4699.1,47.448
66166,4949.1,209.55
66166,4449.1,301.45
66166,4699.1,49.448
66166,4949.1,209.55
66166,4699.1,53.448
66166,4949.1,212.55
66166,3949.1,801.45
66166,4199.1,549.45
66166,4449.1,298.45
66166,4699.1,49.448
66166,4949.1,212.55
66166,4199.1,549.45
66166,4449.1,297.45
66166,4699.1,46.448
66166,4949.1,208.55
66166,4449.1,298.45
66166,4699.1,46.448
66166,4949.1,206.55
66166,4699.1,49.448
66166,4949.1,208.55
66166,4949.1,212.55
66166,4199.1,550.45
66166,4449.1,298.45
66166,4699.1,47.448
66166,4949.1,209.55
66166,4449.1,298.45
66166,4699.1,46.448
66166,4949.1,206.55
66166,4699.1,47.448
66166,4949.1,206.55
66166,4949.1,209.55
66166,4449.1,301.45
66166,4699.1,49.448
66166,4949.1,209.55
66166,4699.1,49.448
66166,4949.1,208.55
66166,4949.1,209.55
66166,6449.1,1712.6
66166,4699.1,53.448
66166,4949.1,212.55
66166,4949.1,212.55
66166,6449.1,1712.6
66166,6449.1,1712.6
66166,6699.1,1964.6
65298,3199.1,1556.4
65298,3449.1,1304.4
65298,3699.1,1053.4
65298,3949.1,804.45
65298,4199.1,556.45
65298,3449.1,1304.4
65298,3699.1,1052.4
65298,3949.1,801.45
65298,4199.1,552.45
65298,4449.1,304.45
65298,3699.1,1053.4
65298,3949.1,801.45
65298,4199.1,550.45
65298,4449.1,301.45
65298,3949.1,804.45
65298,4199.1,552.45
65298,4449.1,301.45
65298,4199.1,556.45
65298,4449.1,304.45
65298,3449.1,1304.4
65298,3699.1,1052.4
65298,3949.1,801.45
65298,4199.1,552.45
65298,4449.1,304.45
65298,3699.1,1052.4
65298,3949.1,800.45
65298,4199.1,549.45
65298,4449.1,300.45
65298,3949.1,801.45
65298,4199.1,549.45
65298,4449.1,298.45
65298,4199.1,552.45
65298,4449.1,300.45
65298,4449.1,304.45
65298,3699.1,1053.4
65298,3949.1,801.45
65298,4199.1,550.45
65298,4449.1,301.45
65298,3949.1,801.45
65298,4199.1,549.45
65298,4449.1,298.45
65298,4199.1,550.45
65298,4449.1,298.45
65298,4449.1,301.45
65298,3949.1,804.45
65298,4199.1,552.45
65298,4449.1,301.45
65298,4199.1,552.45
65298,4449.1,300.45
65298,4449.1,301.45
65298,4199.1,556.45
65298,4449.1,304.45
65298,4449.1,304.45
65298,3449.1,1304.4
65298,3699.1,1052.4
65298,3949.1,801.45
65298,4199.1,552.45
65298,4449.1,304.45
65298,3699.1,1052.4
65298,3949.1,800.45
65298,4199.1,549.45
65298,4449.1,300.45
65298,3949.1,801.45
65298,4199.1,549.45
65298,4449.1,298.45
65298,4199.1,552.45
65298,4449.1,300.45
65298,4449.1,304.45
65298,3699.1,1052.4
65298,3949.1,800.45
65298,4199.1,549.45
65298,4449.1,300.45
65298,3949.1,800.45
65298,4199.1,548.45
65298,4449.1,297.45
65298,4199.1,549.45
65298,4449.1,297.45
65298,4449.1,300.45
65298,3949.1,801.45
65298,4199.1,549.45
65298,4449.1,298.45
65298,4199.1,549.45
65298,4449.1,297.45
65298,4449.1,298.45
65298,4199.1,552.45
65298,4449.1,300.45
65298,4449.1,300.45
65298,4449.1,304.45
65298,3699.1,1053.4
65298,3949.1,801.45
65298,4199.1,550.45
65298,4449.1,301.45
65298,3949.1,801.45
65298,4199.1,549.45
65298,4449.1,298.45
65298,4199.1,550.45
65298,4449.1,298.45
65298,4449.1,301.45
65298,3949.1,801.45
65298,4199.1,549.45
65298,4449.1,298.45
65298,4199.1,549.45
65298,4449.1,297.45
65298,4449.1,298.45
65298,4199.1,550.45
65298,4449.1,298.45
65298,4449.1,298.45
65298,4449.1,301.45
65298,3949.1,804.45
65298,4199.1,552.45
65298,4449.1,301.45
65298,4199.1,552.45
65298,4449.1,300.45
65298,4449.1,301.45
65298,4199.1,552.45
65298,4449.1,300.45
65298,4449.1,300.45
65298,4449.1,301.45
65298,5949.1,1215.6
65298,6199.1,1463.6
65298,6449.1,1712.6
65298,6699.1,1963.6
65298,6949.1,2215.6
65298,4199.1,556.45
65298,4449.1,304.45
65298,4449.1,304.45
65298,4449.1,304.45
65298,5949.1,1215.6
65298,6199.1,1463.6
65298,6449.1,1712.6
65298,6699.1,1963.6
65298,6949.1,2215.6
65298,5949.1,1215.6
65298,6199.1,1463.6
65298,6449.1,1712.6
65298,6699.1,1963.6
65298,6949.1,2215.6
65298,6199.1,1467.6
65298,6449.1,1715.6
65298,6699.1,1964.6
65298,6949.1,2215.6
65298,7199.1,2467.6
64430,2699.1,2059.4
64430,2949.1,1807.4
64430,3199.1,1556.4
64430,3449.1,1307.4
64430,3699.1,1059.4
64430,2949.1,1807.4
64430,3199.1,1555.4
64430,3449.1,1304.4
64430,3699.1,1055.4
64430,3949.1,807.45
64430,3199.1,1556.4
64430,3449.1,1304.4
64430,3699.1,1053.4
64430,3949.1,804.45
64430,4199.1,556.45
64430,3449.1,1307.4
64430,3699.1,1055.4
64430,3949.1,804.45
64430,4199.1,555.45
64430,4449.1,307.45
64430,3699.1,1059.4
64430,3949.1,807.45
64430,4199.1,556.45
64430,4449.1,307.45
64430,4699.1,59.448
64430,2949.1,1807.4
64430,3199.1,1555.4
64430,3449.1,1304.4
64430,3699.1,1055.4
64430,3949.1,807.45
64430,3199.1,1555.4
64430,3449.1,1303.4
64430,3699.1,1052.4
64430,3949.1,803.45
64430,4199.1,555.45
64430,3449.1,1304.4
64430,3699.1,1052.4
64430,3949.1,801.45
64430,4199.1,552.45
64430,4449.1,304.45
64430,3699.1,1055.4
64430,3949.1,803.45
64430,4199.1,552.45
64430,4449.1,303.45
64430,4699.1,55.448
64430,3949.1,807.45
64430,4199.1,555.45
64430,4449.1,304.45
64430,4699.1,55.448
64430,4949.1,218.55
64430,3199.1,1556.4
64430,3449.1,1304.4
64430,3699.1,1053.4
64430,3949.1,804.45
64430,4199.1,556.45
64430,3449.1,1304.4
64430,3699.1,1052.4
64430,3949.1,801.45
64430,4199.1,552.45
64430,4449.1,304.45
64430,3699.1,1053.4
64430,3949.1,801.45
64430,4199.1,550.45
64430,4449.1,301.45
64430,4699.1,53.448
64430,3949.1,804.45
64430,4199.1,552.45
64430,4449.1,301.45
64430,4699.1,52.448
64430,4949.1,215.55
64430,3449.1,1307.4
64430,3699.1,1055.4
64430,3949.1,804.45
64430,4199.1,555.45
64430,4449.1,307.45
64430,3699.1,1055.4
64430,3949.1,803.45
64430,4199.1,552.45
64430,4449.1,303.45
64430,4699.1,55.448
64430,3949.1,804.45
64430,4199.1,552.45
64430,4449.1,301.45
64430,4699.1,52.448
64430,4949.1,215.55
64430,3699.1,1059.4
64430,3949.1,807.45
64430,4199.1,556.45
64430,4449.1,307.45
64430,4699.1,59.448
64430,3949.1,807.45
64430,4199.1,555.45
64430,4449.1,304.45
64430,4699.1,55.448
64430,4949.1,218.55
64430,2949.1,1807.4
64430,3199.1,1555.4
64430,3449.1,1304.4
64430,3699.1,1055.4
64430,3949.1,807.45
64430,3199.1,1555.4
64430,3449.1,1303.4
64430,3699.1,1052.4
64430,3949.1,803.45
64430,4199.1,555.45
64430,3449.1,1304.4
64430,3699.1,1052.4
64430,3949.1,801.45
64430,4199.1,552.45
64430,4449.1,304.45
64430,3699.1,1055.4
64430,3949.1,803.45
64430,4199.1,552.45
64430,4449.1,303.45
64430,4699.1,55.448
64430,3949.1,807.45
64430,4199.1,555.45
64430,4449.1,304.45
64430,4699.1,55.448
64430,4949.1,218.55
64430,3199.1,1555.4
64430,3449.1,1303.4
64430,3699.1,1052.4
64430,3949.1,803.45
64430,4199.1,555.45
64430,3449.1,1303.4
64430,3699.1,1051.4
64430,3949.1,800.45
64430,4199.1,551.45
64430,4449.1,303.45
64430,3699.1,1052.4
64430,3949.1,800.45
64430,4199.1,549.45
64430,4449.1,300.45
64430,4699.1,52.448
64430,3949.1,803.45
64430,4199.1,551.45
64430,4449.1,300.45
64430,4699.1,51.448
64430,4949.1,214.55
64430,3449.1,1304.4
64430,3699.1,1052.4
64430,3949.1,801.45
64430,4199.1,552.45
64430,4449.1,304.45
64430,3699.1,1052.4
64430,3949.1,800.45
64430,4199.1,549.45
64430,4449.1,300.45
64430,4699.1,52.448
64430,3949.1,801.45
64430,4199.1,549.45
64430,4449.1,298.45
64430,4699.1,49.448
64430,4949.1,212.55
64430,3699.1,1055.4
64430,3949.1,803.45
64430,4199.1,552.45
64430,4449.1,303.45
64430,4699.1,55.448
64430,3949.1,803.45
64430,4199.1,551.45
64430,4449.1,300.45
64430,4699.1,51.448
64430,4949.1,214.55
64430,3949.1,807.45
64430,4199.1,555.45
64430,4449.1,304.45
64430,4699.1,55.448
64430,4949.1,218.55
64430,3199.1,1556.4
64430,3449.1,1304.4
64430,3699.1,1053.4
64430,3949.1,804.45
64430,4199.1,556.45
64430,3449.1,1304.4
64430,3699.1,1052.4
64430,3949.1,801.45
64430,4199.1,552.45
64430,4449.1,304.45
64430,3699.1,1053.4
64430,3949.1,801.45
64430,4199.1,550.45
64430,4449.1,301.45
64430,4699.1,53.448
64430,3949.1,804.45
64430,4199.1,552.45
64430,4449.1,301.45
64430,4699.1,52.448
64430,4949.1,215.55
64430,3449.1,1304.4
64430,3699.1,1052.4
64430,3949.1,801.45
64430,4199.1,552.45
64430,4449.1,304.45
64430,3699.1,1052.4
64430,3949.1,800.45
64430,4199.1,549.45
64430,4449.1,300.45
64430,4699.1,52.448
64430,3949.1,801.45
64430,4199.1,549.45
64430,4449.1,298.45
64430,4699.1,49.448
64430,4949.1,212.55
64430,3699.1,1053.4
64430,3949.1,801.45
64430,4199.1,550.45
64430,4449.1,301.45
64430,4699.1,53.448
64430,3949.1,801.45
64430,4199.1,549.45
64430,4449.1,298.45
64430,4699.1,49.448
64430,4949.1,212.55
64430,3949.1,804.45
64430,4199.1,552.45
64430,4449.1,301.45
64430,4699.1,52.448
64430,4949.1,215.55
64430,3449.1,1307.4
64430,3699.1,1055.4
64430,3949.1,804.45
64430,4199.1,555.45
64430,4449.1,307.45
64430,3699.1,1055.4
64430,3949.1,803.45
64430,4199.1,552.45
64430,4449.1,303.45
64430,4699.1,55.448
64430,3949.1,804.45
64430,4199.1,552.45
64430,4449.1,301.45
64430,4699.1,52.448
64430,4949.1,215.55
64430,3699.1,1055.4
64430,3949.1,803.45
64430,4199.1,552.45
64430,4449.1,303.45
64430,4699.1,55.448
64430,3949.1,803.45
64430,4199.1,551.45
64430,4449.1,300.45
64430,4699.1,51.448
64430,4949.1,214.55
64430,3949.1,804.45
64430,4199.1,552.45
64430,4449.1,301.45
64430,4699.1,52.448
64430,4949.1,215.55
64430,3699.1,1059.4
64430,3949.1,807.45
64430,4199.1,556.45
64430,4449.1,307.45
64430,4699.1,59.448
64430,3949.1,807.45
64430,4199.1,555.45
64430,4449.1,304.45
64430,4699.1,55.448
64430,4949.1,218.55
64430,3949.1,807.45
64430,4199.1,555.45
64430,4449.1,304.45
64430,4699.1,55.448
64430,4949.1,218.55
64430,2949.1,1807.4
64430,3199.1,1555.4
64430,3449.1,1304.4
64430,3699.1,1055.4
64430,3949.1,807.45
64430,3199.1,1555.4
64430,3449.1,1303.4
64430,3699.1,1052.4
64430,3949.1,803.45
64430,4199.1,555.45
64430,3449.1,1304.4
64430,3699.1,1052.4
64430,3949.1,801.45
64430,4199.1,552.45
64430,4449.1,304.45
64430,3699.1,1055.4
64430,3949.1,803.45
64430,4199.1,552.45
64430,4449.1,303.45
64430,4699.1,55.448
64430,3949.1,807.45
64430,4199.1,555.45
64430,4449.1,304.45
64430,4699.1,55.448
64430,4949.1,218.55
64430,3199.1,1555.4
64430,3449.1,1303.4
64430,3699.1,1052.4
64430,3949.1,803.45
64430,4199.1,555.45
64430,3449.1,1303.4
64430,3699.1,1051.4
64430,3949.1,800.45
64430,4199.1,551.45
64430,4449.1,303.45
64430,3699.1,1052.4
64430,3949.1,800.45
64430,4199.1,549.45
64430,4449.1,300.45
64430,4699.1,52.448
64430,3949.1,803.45
64430,4199.1,551.45
64430,4449.1,300.45
64430,4699.1,51.448
64430,4949.1,214.55
64430,3449.1,1304.4
64430,3699.1,1052.4
64430,3949.1,801.45
64430,4199.1,552.45
64430,4449.1,304.45
64430,3699.1,1052.4
64430,3949.1,800.45
64430,4199.1,549.45
64430,4449.1,300.45
64430,4699.1,52.448
64430,3949.1,801.45
64430,4199.1,549.45
64430,4449.1,298.45
64430,4699.1,49.448
64430,4949.1,212.55
64430,3699.1,1055.4
64430,3949.1,803.45
64430,4199.1,552.45
64430,4449.1,303.45
64430,4699.1,55.448
64430,3949.1,803.45
64430,4199.1,551.45
64430,4449.1,300.45
64430,4699.1,51.448
64430,4949.1,214.55
64430,3949.1,807.45
64430,4199.1,555.45
64430,4449.1,304.45
64430,4699.1,55.448
64430,4949.1,218.55
64430,3199.1,1555.4
64430,3449.1,1303.4
64430,3699.1,1052.4
64430,3949.1,803.45
64430,4199.1,555.45
64430,3449.1,1303.4
64430,3699.1,1051.4
64430,3949.1,800.45
64430,4199.1,551.45
64430,4449.1,303.45
64430,3699.1,1052.4
64430,3949.1,800.45
64430,4199.1,549.45
64430,4449.1,300.45
64430,4699.1,52.448
64430,3949.1,803.45
64430,4199.1,551.45
64430,4449.1,300.45
64430,4699.1,51.448
64430,4949.1,214.55
64430,3449.1,1303.4
64430,3699.1,1051.4
64430,3949.1,800.45
64430,4199.1,551.45
64430,4449.1,303.45
64430,3699.1,1051.4
64430,3949.1,799.45
64430,4199.1,548.45
64430,4449.1,299.45
64430,4699.1,51.448
64430,3949.1,800.45
64430,4199.1,548.45
64430,4449.1,297.45
64430,4699.1,48.448
64430,4949.1,211.55
64430,3699.1,1052.4
64430,3949.1,800.45
64430,4199.1,549.45
64430,4449.1,300.45
64430,4699.1,52.448
64430,3949.1,800.45
64430,4199.1,548.45
64430,4449.1,297.45
64430,4699.1,48.448
64430,4949.1,211.55
64430,3949.1,803.45
64430,4199.1,551.45
64430,4449.1,300.45
64430,4699.1,51.448
64430,4949.1,214.55
64430,3449.1,1304.4
64430,3699.1,1052.4
64430,3949.1,801.45
64430,4199.1,552.45
64430,4449.1,304.45
64430,3699.1,1052.4
64430,3949.1,800.45
64430,4199.1,549.45
64430,4449.1,300.45
64430,4699.1,52.448
64430,3949.1,801.45
64430,4199.1,549.45
64430,4449.1,298.45
64430,4699.1,49.448
64430,4949.1,212.55
64430,3699.1,1052.4
64430,3949.1,800.45
64430,4199.1,549.45
64430,4449.1,300.45
64430,4699.1,52.448
64430,3949.1,800.45
64430,4199.1,548.45
64430,4449.1,297.45
64430,4699.1,48.448
64430,4949.1,211.55
64430,3949.1,801.45
64430,4199.1,549.45
64430,4449.1,298.45
64430,4699.1,49.448
64430,4949.1,212.55
64430,3699.1,1055.4
64430,3949.1,803.45
64430,4199.1,552.45
64430,4449.1,303.45
64430,4699.1,55.448
64430,3949.1,803.45
64430,4199.1,551.45
64430,4449.1,300.45
64430,4699.1,51.448
64430,4949.1,214.55
64430,3949.1,803.45
64430,4199.1,551.45
64430,4449.1,300.45
64430,4699.1,51.448
64430,4949.1,214.55
64430,3949.1,807.45
64430,4199.1,555.45
64430,4449.1,304.45
64430,4699.1,55.448
64430,4949.1,218.55
64430,3199.1,1556.4
64430,3449.1,1304.4
64430,3699.1,1053.4
64430,3949.1,804.45
64430,4199.1,556.45
64430,3449.1,1304.4
64430,3699.1,1052.4
64430,3949.1,801.45
64430,4199.1,552.45
64430,4449.1,304.45
64430,3699.1,1053.4
64430,3949.1,801.45
64430,4199.1,550.45
64430,4449.1,301.45
64430,4699.1,53.448
64430,3949.1,804.45
64430,4199.1,552.45
64430,4449.1,301.45
64430,4699.1,52.448
64430,4949.1,215.55
64430,3449.1,1304.4
64430,3699.1,1052.4
64430,3949.1,801.45
64430,4199.1,552.45
64430,4449.1,304.45
64430,3699.1,1052.4
64430,3949.1,800.45
64430,4199.1,549.45
64430,4449.1,300.45
64430,4699.1,52.448
64430,3949.1,801.45
64430,4199.1,549.45
64430,4449.1,298.45
64430,4699.1,49.448
64430,4949.1,212.55
64430,3699.1,1053.4
64430,3949.1,801.45
64430,4199.1,550.45
64430,4449.1,301.45
64430,4699.1,53.448
64430,3949.1,801.45
64430,4199.1,549.45
64430,4449.1,298.45
64430,4699.1,49.448
64430,4949.1,212.55
64430,3949.1,804.45
64430,4199.1,552.45
64430,4449.1,301.45
64430,4699.1,52.448
64430,4949.1,215.55
64430,3449.1,1304.4
64430,3699.1,1052.4
64430,3949.1,801.45
64430,4199.1,552.45
64430,4449.1,304.45
64430,3699.1,1052.4
64430,3949.1,800.45
64430,4199.1,549.45
64430,4449.1,300.45
64430,4699.1,52.448
64430,3949.1,801.45
64430,4199.1,549.45
64430,4449.1,298.45
64430,4699.1,49.448
64430,4949.1,212.55
64430,3699.1,1052.4
64430,3949.1,800.45
64430,4199.1,549.45
64430,4449.1,300.45
64430,4699.1,52.448
64430,3949.1,800.45
64430,4199.1,548.45
64430,4449.1,297.45
64430,4699.1,48.448
64430,4949.1,211.55
64430,3949.1,801.45
64430,4199.1,549.45
64430,4449.1,298.45
64430,4699.1,49.448
64430,4949.1,212.55
64430,3699.1,1053.4
64430,3949.1,801.45
64430,4199.1,550.45
64430,4449.1,301.45
64430,4699.1,53.448
64430,3949.1,801.45
64430,4199.1,549.45
64430,4449.1,298.45
64430,4699.1,49.448
64430,4949.1,212.55
64430,3949.1,801.45
64430,4199.1,549.45
64430,4449.1,298.45
64430,4699.1,49.448
64430,4949.1,212.55
64430,3949.1,804.45
64430,4199.1,552.45
64430,4449.1,301.45
64430,4699.1,52.448
64430,4949.1,215.55
64430,3449.1,1307.4
64430,3699.1,1055.4
64430,3949.1,804.45
64430,4199.1,555.45
64430,4449.1,307.45
64430,3699.1,1055.4
64430,3949.1,803.45
64430,4199.1,552.45
64430,4449.1,303.45
64430,4699.1,55.448
64430,3949.1,804.45
64430,4199.1,552.45
64430,4449.1,301.45
64430,4699.1,52.448
64430,4949.1,215.55
64430,3699.1,1055.4
64430,3949.1,803.45
64430,4199.1,552.45
64430,4449.1,303.45
64430,4699.1,55.448
64430,3949.1,803.45
64430,4199.1,551.45
64430,4449.1,300.45
64430,4699.1,51.448
64430,4949.1,214.55
64430,3949.1,804.45
64430,4199.1,552.45
64430,4449.1,301.45
64430,4699.1,52.448
64430,4949.1,215.55
64430,3699.1,1055.4
64430,3949.1,803.45
64430,4199.1,552.45
64430,4449.1,303.45
64430,4699.1,55.448
64430,3949.1,803.45
64430,4199.1,551.45
64430,4449.1,300.45
64430,4699.1,51.448
64430,4949.1,214.55
64430,3949.1,803.45
64430,4199.1,551.45
64430,4449.1,300.45
64430,4699.1,51.448
64430,4949.1,214.55
64430,3949.1,804.45
64430,4199.1,552.45
64430,4449.1,301.45
64430,4699.1,52.448
64430,4949.1,215.55
64430,6449.1,1718.6
64430,6449.1,1714.6
64430,6699.1,1966.6
64430,6449.1,1712.6
64430,6699.1,1963.6
64430,6949.1,2215.6
64430,6449.1,1714.6
64430,6699.1,1963.6
64430,6949.1,2214.6
64430,7199.1,2466.6
64430,6449.1,1718.6
64430,6699.1,1966.6
64430,6949.1,2215.6
64430,7199.1,2466.6
64430,7449.1,2718.6
64430,3699.1,1059.4
64430,3949.1,807.45
64430,4199.1,556.45
64430,4449.1,307.45
64430,4699.1,59.448
64430,3949.1,807.45
64430,4199.1,555.45
64430,4449.1,304.45
64430,4699.1,55.448
64430,4949.1,218.55
64430,3949.1,807.45
64430,4199.1,555.45
64430,4449.1,304.45
64430,4699.1,55.448
64430,4949.1,218.55
64430,3949.1,807.45
64430,4199.1,555.45
64430,4449.1,304.45
64430,4699.1,55.448
64430,4949.1,218.55
64430,6449.1,1718.6
64430,6449.1,1714.6
64430,6699.1,1966.6
64430,6449.1,1712.6
64430,6699.1,1963.6
64430,6949.1,2215.6
64430,6449.1,1714.6
64430,6699.1,1963.6
64430,6949.1,2214.6
64430,7199.1,2466.6
64430,6449.1,1718.6
64430,6699.1,1966.6
64430,6949.1,2215.6
64430,7199.1,2466.6
64430,7449.1,2718.6
64430,6449.1,1718.6
64430,6449.1,1714.6
64430,6699.1,1966.6
64430,6449.1,1712.6
64430,6699.1,1963.6
64430,6949.1,2215.6
64430,6449.1,1714.6
64430,6699.1,1963.6
64430,6949.1,2214.6
64430,7199.1,2466.6
64430,6449.1,1718.6
64430,6699.1,1966.6
64430,6949.1,2215.6
64430,7199.1,2466.6
64430,7449.1,2718.6
64430,6449.1,1718.6
64430,6699.1,1970.6
64430,6449.1,1715.6
64430,6699.1,1966.6
64430,6949.1,2218.6
64430,6449.1,1715.6
64430,6699.1,1964.6
64430,6949.1,2215.6
64430,7199.1,2467.6
64430,6449.1,1718.6
64430,6699.1,1966.6
64430,6949.1,2215.6
64430,7199.1,2466.6
64430,7449.1,2718.6
64430,6699.1,1970.6
64430,6949.1,2218.6
64430,7199.1,2467.6
64430,7449.1,2718.6
64430,7699.1,2970.6
63562,2199.1,2562.4
63562,2449.1,2310.4
63562,2699.1,2059.4
63562,2949.1,1810.4
63562,3199.1,1562.4
63562,2449.1,2310.4
63562,2699.1,2058.4
63562,2949.1,1807.4
63562,3199.1,1558.4
63562,3449.1,1310.4
63562,2699.1,2059.4
63562,2949.1,1807.4
63562,3199.1,1556.4
63562,3449.1,1307.4
63562,3699.1,1059.4
63562,2949.1,1810.4
63562,3199.1,1558.4
63562,3449.1,1307.4
63562,3699.1,1058.4
63562,3949.1,810.45
63562,3199.1,1562.4
63562,3449.1,1310.4
63562,3699.1,1059.4
63562,3949.1,810.45
63562,4199.1,562.45
63562,2449.1,2310.4
63562,2699.1,2058.4
63562,2949.1,1807.4
63562,3199.1,1558.4
63562,3449.1,1310.4
63562,2699.1,2058.4
63562,2949.1,1806.4
63562,3199.1,1555.4
63562,3449.1,1306.4
63562,3699.1,1058.4
63562,2949.1,1807.4
63562,3199.1,1555.4
63562,3449.1,1304.4
63562,3699.1,1055.4
63562,3949.1,807.45
63562,3199.1,1558.4
63562,3449.1,1306.4
63562,3699.1,1055.4
63562,3949.1,806.45
63562,4199.1,558.45
63562,3449.1,1310.4
63562,3699.1,1058.4
63562,3949.1,807.45
63562,4199.1,558.45
63562,4449.1,310.45
63562,2699.1,2059.4
63562,2949.1,1807.4
63562,3199.1,1556.4
63562,3449.1,1307.4
63562,3699.1,1059.4
63562,2949.1,1807.4
63562,3199.1,1555.4
63562,3449.1,1304.4
63562,3699.1,1055.4
63562,3949.1,807.45
63562,3199.1,1556.4
63562,3449.1,1304.4
63562,3699.1,1053.4
63562,3949.1,804.45
63562,4199.1,556.45
63562,3449.1,1307.4
63562,3699.1,1055.4
63562,3949.1,804.45
63562,4199.1,555.45
63562,4449.1,307.45
63562,3699.1,1059.4
63562,3949.1,807.45
63562,4199.1,556.45
63562,4449.1,307.45
63562,4699.1,59.448
63562,2949.1,1810.4
63562,3199.1,1558.4
63562,3449.1,1307.4
63562,3699.1,1058.4
63562,3949.1,810.45
63562,3199.1,1558.4
63562,3449.1,1306.4
63562,3699.1,1055.4
63562,3949.1,806.45
63562,4199.1,558.45
63562,3449.1,1307.4
63562,3699.1,1055.4
63562,3949.1,804.45
63562,4199.1,555.45
63562,4449.1,307.45
63562,3699.1,1058.4
63562,3949.1,806.45
63562,4199.1,555.45
63562,4449.1,306.45
63562,4699.1,58.448
63562,3949.1,810.45
63562,4199.1,558.45
63562,4449.1,307.45
63562,4699.1,58.448
63562,4949.1,221.55
63562,3199.1,1562.4
63562,3449.1,1310.4
63562,3699.1,1059.4
63562,3949.1,810.45
63562,4199.1,562.45
63562,3449.1,1310.4
63562,3699.1,1058.4
63562,3949.1,807.45
63562,4199.1,558.45
63562,4449.1,310.45
63562,3699.1,1059.4
63562,3949.1,807.45
63562,4199.1,556.45
63562,4449.1,307.45
63562,4699.1,59.448
63562,3949.1,810.45
63562,4199.1,558.45
63562,4449.1,307.45
63562,4699.1,58.448
63562,4949.1,221.55
63562,4199.1,562.45
63562,4449.1,310.45
63562,4699.1,59.448
63562,4949.1,221.55
63562,5199.1,473.55
63562,2449.1,2310.4
63562,2699.1,2058.4
63562,2949.1,1807.4
63562,3199.1,1558.4
63562,3449.1,1310.4
63562,2699.1,2058.4
63562,2949.1,1806.4
63562,3199.1,1555.4
63562,3449.1,1306.4
63562,3699.1,1058.4
63562,2949.1,1807.4
63562,3199.1,1555.4
63562,3449.1,1304.4
63562,3699.1,1055.4
63562,3949.1,807.45
63562,3199.1,1558.4
63562,3449.1,1306.4
63562,3699.1,1055.4
63562,3949.1,806.45
63562,4199.1,558.45
63562,3449.1,1310.4
63562,3699.1,1058.4
63562,3949.1,807.45
63562,4199.1,558.45
63562,4449.1,310.45
63562,2699.1,2058.4
63562,2949.1,1806.4
63562,3199.1,1555.4
63562,3449.1,1306.4
63562,3699.1,1058.4
63562,2949.1,1806.4
63562,3199.1,1554.4
63562,3449.1,1303.4
63562,3699.1,1054.4
63562,3949.1,806.45
63562,3199.1,1555.4
63562,3449.1,1303.4
63562,3699.1,1052.4
63562,3949.1,803.45
63562,4199.1,555.45
63562,3449.1,1306.4
63562,3699.1,1054.4
63562,3949.1,803.45
63562,4199.1,554.45
63562,4449.1,306.45
63562,3699.1,1058.4
63562,3949.1,806.45
63562,4199.1,555.45
63562,4449.1,306.45
63562,4699.1,58.448
63562,2949.1,1807.4
63562,3199.1,1555.4
63562,3449.1,1304.4
63562,3699.1,1055.4
63562,3949.1,807.45
63562,3199.1,1555.4
63562,3449.1,1303.4
63562,3699.1,1052.4
63562,3949.1,803.45
63562,4199.1,555.45
63562,3449.1,1304.4
63562,3699.1,1052.4
63562,3949.1,801.45
63562,4199.1,552.45
63562,4449.1,304.45
63562,3699.1,1055.4
63562,3949.1,803.45
63562,4199.1,552.45
63562,4449.1,303.45
63562,4699.1,55.448
63562,3949.1,807.45
63562,4199.1,555.45
63562,4449.1,304.45
63562,4699.1,55.448
63562,4949.1,218.55
63562,3199.1,1558.4
63562,3449.1,1306.4
63562,3699.1,1055.4
63562,3949.1,806.45
63562,4199.1,558.45
63562,3449.1,1306.4
63562,3699.1,1054.4
63562,3949.1,803.45
63562,4199.1,554.45
63562,4449.1,306.45
63562,3699.1,1055.4
63562,3949.1,803.45
63562,4199.1,552.45
63562,4449.1,303.45
63562,4699.1,55.448
63562,3949.1,806.45
63562,4199.1,554.45
63562,4449.1,303.45
63562,4699.1,54.448
63562,4949.1,217.55
63562,4199.1,558.45
63562,4449.1,306.45
63562,4699.1,55.448
63562,4949.1,217.55
63562,5199.1,469.55
63562,3449.1,1310.4
63562,3699.1,1058.4
63562,3949.1,807.45
63562,4199.1,558.45
63562,4449.1,310.45
63562,3699.1,1058.4
63562,3949.1,806.45
63562,4199.1,555.45
63562,4449.1,306.45
63562,4699.1,58.448
63562,3949.1,807.45
63562,4199.1,555.45
63562,4449.1,304.45
63562,4699.1,55.448
63562,4949.1,218.55
63562,4199.1,558.45
63562,4449.1,306.45
63562,4699.1,55.448
63562,4949.1,217.55
63562,5199.1,469.55
63562,4449.1,310.45
63562,4699.1,58.448
63562,4949.1,218.55
63562,5199.1,469.55
63562,5449.1,721.55
63562,2699.1,2059.4
63562,2949.1,1807.4
63562,3199.1,1556.4
63562,3449.1,1307.4
63562,3699.1,1059.4
63562,2949.1,1807.4
63562,3199.1,1555.4
63562,3449.1,1304.4
63562,3699.1,1055.4
63562,3949.1,807.45
63562,3199.1,1556.4
63562,3449.1,1304.4
63562,3699.1,1053.4
63562,3949.1,804.45
63562,4199.1,556.45
63562,3449.1,1307.4
63562,3699.1,1055.4
63562,3949.1,804.45
63562,4199.1,555.45
63562,4449.1,307.45
63562,3699.1,1059.4
63562,3949.1,807.45
63562,4199.1,556.45
63562,4449.1,307.45
63562,4699.1,59.448
63562,2949.1,1807.4
63562,3199.1,1555.4
63562,3449.1,1304.4
63562,3699.1,1055.4
63562,3949.1,807.45
63562,3199.1,1555.4
63562,3449.1,1303.4
63562,3699.1,1052.4
63562,3949.1,803.45
63562,4199.1,555.45
63562,3449.1,1304.4
63562,3699.1,1052.4
63562,3949.1,801.45
63562,4199.1,552.45
63562,4449.1,304.45
63562,3699.1,1055.4
63562,3949.1,803.45
63562,4199.1,552.45
63562,4449.1,303.45
63562,4699.1,55.448
63562,3949.1,807.45
63562,4199.1,555.45
63562,4449.1,304.45
63562,4699.1,55.448
63562,4949.1,218.55
63562,3199.1,1556.4
63562,3449.1,1304.4
63562,3699.1,1053.4
63562,3949.1,804.45
63562,4199.1,556.45
63562,3449.1,1304.4
63562,3699.1,1052.4
63562,3949.1,801.45
63562,4199.1,552.45
63562,4449.1,304.45
63562,3699.1,1053.4
63562,3949.1,801.45
63562,4199.1,550.45
63562,4449.1,301.45
63562,4699.1,53.448
63562,3949.1,804.45
63562,4199.1,552.45
63562,4449.1,301.45
63562,4699.1,52.448
63562,4949.1,215.55
63562,4199.1,556.45
63562,4449.1,304.45
63562,4699.1,53.448
63562,4949.1,215.55
63562,5199.1,467.55
63562,3449.1,1307.4
63562,3699.1,1055.4
63562,3949.1,804.45
63562,4199.1,555.45
63562,4449.1,307.45
63562,3699.1,1055.4
63562,3949.1,803.45
63562,4199.1,552.45
63562,4449.1,303.45
63562,4699.1,55.448
63562,3949.1,804.45
63562,4199.1,552.45
63562,4449.1,301.45
63562,4699.1,52.448
63562,4949.1,215.55
63562,4199.1,555.45
63562,4449.1,303.45
63562,4699.1,52.448
63562,4949.1,214.55
63562,5199.1,466.55
63562,4449.1,307.45
63562,4699.1,55.448
63562,4949.1,215.55
63562,5199.1,466.55
63562,5449.1,718.55
63562,2949.1,1810.4
63562,3199.1,1558.4
63562,3449.1,1307.4
63562,3699.1,1058.4
63562,3949.1,810.45
63562,3199.1,1558.4
63562,3449.1,1306.4
63562,3699.1,1055.4
63562,3949.1,806.45
63562,4199.1,558.45
63562,3449.1,1307.4
63562,3699.1,1055.4
63562,3949.1,804.45
63562,4199.1,555.45
63562,4449.1,307.45
63562,3699.1,1058.4
63562,3949.1,806.45
63562,4199.1,555.45
63562,4449.1,306.45
63562,4699.1,58.448
63562,3949.1,810.45
63562,4199.1,558.45
63562,4449.1,307.45
63562,4699.1,58.448
63562,4949.1,221.55
63562,3199.1,1558.4
63562,3449.1,1306.4
63562,3699.1,1055.4
63562,3949.1,806.45
63562,4199.1,558.45
63562,3449.1,1306.4
63562,3699.1,1054.4
63562,3949.1,803.45
63562,4199.1,554.45
63562,4449.1,306.45
63562,3699.1,1055.4
63562,3949.1,803.45
63562,4199.1,552.45
63562,4449.1,303.45
63562,4699.1,55.448
63562,3949.1,806.45
63562,4199.1,554.45
63562,4449.1,303.45
63562,4699.1,54.448
63562,4949.1,217.55
63562,4199.1,558.45
63562,4449.1,306.45
63562,4699.1,55.448
63562,4949.1,217.55
63562,5199.1,469.55
63562,3449.1,1307.4
63562,3699.1,1055.4
63562,3949.1,804.45
63562,4199.1,555.45
63562,4449.1,307.45
63562,3699.1,1055.4
63562,3949.1,803.45
63562,4199.1,552.45
63562,4449.1,303.45
63562,4699.1,55.448
63562,3949.1,804.45
63562,4199.1,552.45
63562,4449.1,301.45
63562,4699.1,52.448
63562,4949.1,215.55
63562,4199.1,555.45
63562,4449.1,303.45
63562,4699.1,52.448
63562,4949.1,214.55
63562,5199.1,466.55
63562,4449.1,307.45
63562,4699.1,55.448
63562,4949.1,215.55
63562,5199.1,466.55
63562,5449.1,718.55
63562,3199.1,1562.4
63562,3449.1,1310.4
63562,3699.1,1059.4
63562,3949.1,810.45
63562,4199.1,562.45
63562,3449.1,1310.4
63562,3699.1,1058.4
63562,3949.1,807.45
63562,4199.1,558.45
63562,4449.1,310.45
63562,3699.1,1059.4
63562,3949.1,807.45
63562,4199.1,556.45
63562,4449.1,307.45
63562,4699.1,59.448
63562,3949.1,810.45
63562,4199.1,558.45
63562,4449.1,307.45
63562,4699.1,58.448
63562,4949.1,221.55
63562,4199.1,562.45
63562,4449.1,310.45
63562,4699.1,59.448
63562,4949.1,221.55
63562,5199.1,473.55
63562,3449.1,1310.4
63562,3699.1,1058.4
63562,3949.1,807.45
63562,4199.1,558.45
63562,4449.1,310.45
63562,3699.1,1058.4
63562,3949.1,806.45
63562,4199.1,555.45
63562,4449.1,306.45
63562,4699.1,58.448
63562,3949.1,807.45
63562,4199.1,555.45
63562,4449.1,304.45
63562,4699.1,55.448
63562,4949.1,218.55
63562,4199.1,558.45
63562,4449.1,306.45
63562,4699.1,55.448
63562,4949.1,217.55
63562,5199.1,469.55
63562,4449.1,310.45
63562,4699.1,58.448
63562,4949.1,218.55
63562,5199.1,469.55
63562,5449.1,721.55
63562,2449.1,2310.4
63562,2699.1,2058.4
63562,2949.1,1807.4
63562,3199.1,1558.4
63562,3449.1,1310.4
63562,2699.1,2058.4
63562,2949.1,1806.4
63562,3199.1,1555.4
63562,3449.1,1306.4
63562,3699.1,1058.4
63562,2949.1,1807.4
63562,3199.1,1555.4
63562,3449.1,1304.4
63562,3699.1,1055.4
63562,3949.1,807.45
63562,3199.1,1558.4
63562,3449.1,1306.4
63562,3699.1,1055.4
63562,3949.1,806.45
63562,4199.1,558.45
63562,3449.1,1310.4
63562,3699.1,1058.4
63562,3949.1,807.45
63562,4199.1,558.45
63562,4449.1,310.45
63562,2699.1,2058.4
63562,2949.1,1806.4
63562,3199.1,1555.4
63562,3449.1,1306.4
63562,3699.1,1058.4
63562,2949.1,1806.4
63562,3199.1,1554.4
63562,3449.1,1303.4
63562,3699.1,1054.4
63562,3949.1,806.45
63562,3199.1,1555.4
63562,3449.1,1303.4
63562,3699.1,1052.4
63562,3949.1,803.45
63562,4199.1,555.45
63562,3449.1,1306.4
63562,3699.1,1054.4
63562,3949.1,803.45
63562,4199.1,554.45
63562,4449.1,306.45
63562,3699.1,1058.4
63562,3949.1,806.45
63562,4199.1,555.45
63562,4449.1,306.45
63562,4699.1,58.448
63562,2949.1,1807.4
63562,3199.1,1555.4
63562,3449.1,1304.4
63562,3699.1,1055.4
63562,3949.1,807.45
63562,3199.1,1555.4
63562,3449.1,1303.4
63562,3699.1,1052.4
63562,3949.1,803.45
63562,4199.1,555.45
63562,3449.1,1304.4
63562,3699.1,1052.4
63562,3949.1,801.45
63562,4199.1,552.45
63562,4449.1,304.45
63562,3699.1,1055.4
63562,3949.1,803.45
63562,4199.1,552.45
63562,4449.1,303.45
63562,4699.1,55.448
63562,3949.1,807.45
63562,4199.1,555.45
63562,4449.1,304.45
63562,4699.1,55.448
63562,4949.1,218.55
63562,3199.1,1558.4
63562,3449.1,1306.4
63562,3699.1,1055.4
63562,3949.1,806.45
63562,4199.1,558.45
63562,3449.1,1306.4
63562,3699.1,1054.4
63562,3949.1,803.45
63562,4199.1,554.45
63562,4449.1,306.45
63562,3699.1,1055.4
63562,3949.1,803.45
63562,4199.1,552.45
63562,4449.1,303.45
63562,4699.1,55.448
63562,3949.1,806.45
63562,4199.1,554.45
63562,4449.1,303.45
63562,4699.1,54.448
63562,4949.1,217.55
63562,4199.1,558.45
63562,4449.1,306.45
63562,4699.1,55.448
63562,4949.1,217.55
63562,5199.1,469.55
63562,3449.1,1310.4
63562,3699.1,1058.4
63562,3949.1,807.45
63562,4199.1,558.45
63562,4449.1,310.45
63562,3699.1,1058.4
63562,3949.1,806.45
63562,4199.1,555.45
63562,4449.1,306.45
63562,4699.1,58.448
63562,3949.1,807.45
63562,4199.1,555.45
63562,4449.1,304.45
63562,4699.1,55.448
63562,4949.1,218.55
63562,4199.1,558.45
63562,4449.1,306.45
63562,4699.1,55.448
63562,4949.1,217.55
63562,5199.1,469.55
63562,4449.1,310.45
63562,4699.1,58.448
63562,4949.1,218.55
63562,5199.1,469.55
63562,5449.1,721.55
63562,2699.1,2058.4
63562,2949.1,1806.4
63562,3199.1,1555.4
63562,3449.1,1306.4
63562,3699.1,1058.4
63562,2949.1,1806.4
63562,3199.1,1554.4
63562,3449.1,1303.4
63562,3699.1,1054.4
63562,3949.1,806.45
63562,3199.1,1555.4
63562,3449.1,1303.4
63562,3699.1,1052.4
63562,3949.1,803.45
63562,4199.1,555.45
63562,3449.1,1306.4
63562,3699.1,1054.4
63562,3949.1,803.45
63562,4199.1,554.45
63562,4449.1,306.45
63562,3699.1,1058.4
63562,3949.1,806.45
63562,4199.1,555.45
63562,4449.1,306.45
63562,4699.1,58.448
63562,2949.1,1806.4
63562,3199.1,1554.4
63562,3449.1,1303.4
63562,3699.1,1054.4
63562,3949.1,806.45
63562,3199.1,1554.4
63562,3449.1,1302.4
63562,3699.1,1051.4
63562,3949.1,802.45
63562,4199.1,554.45
63562,3449.1,1303.4
63562,3699.1,1051.4
63562,3949.1,800.45
63562,4199.1,551.45
63562,4449.1,303.45
63562,3699.1,1054.4
63562,3949.1,802.45
63562,4199.1,551.45
63562,4449.1,302.45
63562,4699.1,54.448
63562,3949.1,806.45
63562,4199.1,554.45
63562,4449.1,303.45
63562,4699.1,54.448
63562,4949.1,217.55
63562,3199.1,1555.4
63562,3449.1,1303.4
63562,3699.1,1052.4
63562,3949.1,803.45
63562,4199.1,555.45
63562,3449.1,1303.4
63562,3699.1,1051.4
63562,3949.1,800.45
63562,4199.1,551.45
63562,4449.1,303.45
63562,3699.1,1052.4
63562,3949.1,800.45
63562,4199.1,549.45
63562,4449.1,300.45
63562,4699.1,52.448
63562,3949.1,803.45
63562,4199.1,551.45
63562,4449.1,300.45
63562,4699.1,51.448
63562,4949.1,214.55
63562,4199.1,555.45
63562,4449.1,303.45
63562,4699.1,52.448
63562,4949.1,214.55
63562,5199.1,466.55
63562,3449.1,1306.4
63562,3699.1,1054.4
63562,3949.1,803.45
63562,4199.1,554.45
63562,4449.1,306.45
63562,3699.1,1054.4
63562,3949.1,802.45
63562,4199.1,551.45
63562,4449.1,302.45
63562,4699.1,54.448
63562,3949.1,803.45
63562,4199.1,551.45
63562,4449.1,300.45
63562,4699.1,51.448
63562,4949.1,214.55
63562,4199.1,554.45
63562,4449.1,302.45
63562,4699.1,51.448
63562,4949.1,213.55
63562,5199.1,465.55
63562,4449.1,306.45
63562,4699.1,54.448
63562,4949.1,214.55
63562,5199.1,465.55
63562,5449.1,717.55
63562,2949.1,1807.4
63562,3199.1,1555.4
63562,3449.1,1304.4
63562,3699.1,1055.4
63562,3949.1,807.45
63562,3199.1,1555.4
63562,3449.1,1303.4
63562,3699.1,1052.4
63562,3949.1,803.45
63562,4199.1,555.45
63562,3449.1,1304.4
63562,3699.1,1052.4
63562,3949.1,801.45
63562,4199.1,552.45
63562,4449.1,304.45
63562,3699.1,1055.4
63562,3949.1,803.45
63562,4199.1,552.45
63562,4449.1,303.45
63562,4699.1,55.448
63562,3949.1,807.45
63562,4199.1,555.45
63562,4449.1,304.45
63562,4699.1,55.448
63562,4949.1,218.55
63562,3199.1,1555.4
63562,3449.1,1303.4
63562,3699.1,1052.4
63562,3949.1,803.45
63562,4199.1,555.45
63562,3449.1,1303.4
63562,3699.1,1051.4
63562,3949.1,800.45
63562,4199.1,551.45
63562,4449.1,303.45
63562,3699.1,1052.4
63562,3949.1,800.45
63562,4199.1,549.45
63562,4449.1,300.45
63562,4699.1,52.448
63562,3949.1,803.45
63562,4199.1,551.45
63562,4449.1,300.45
63562,4699.1,51.448
63562,4949.1,214.55
63562,4199.1,555.45
63562,4449.1,303.45
63562,4699.1,52.448
63562,4949.1,214.55
63562,5199.1,466.55
63562,3449.1,1304.4
63562,3699.1,1052.4
63562,3949.1,801.45
63562,4199.1,552.45
63562,4449.1,304.45
63562,3699.1,1052.4
63562,3949.1,800.45
63562,4199.1,549.45
63562,4449.1,300.45
63562,4699.1,52.448
63562,3949.1,801.45
63562,4199.1,549.45
63562,4449.1,298.45
63562,4699.1,49.448
63562,4949.1,212.55
63562,4199.1,552.45
63562,4449.1,300.45
63562,4699.1,49.448
63562,4949.1,211.55
63562,5199.1,463.55
63562,4449.1,304.45
63562,4699.1,52.448
63562,4949.1,212.55
63562,5199.1,463.55
63562,5449.1,715.55
63562,3199.1,1558.4
63562,3449.1,1306.4
63562,3699.1,1055.4
63562,3949.1,806.45
63562,4199.1,558.45
63562,3449.1,1306.4
63562,3699.1,1054.4
63562,3949.1,803.45
63562,4199.1,554.45
63562,4449.1,306.45
63562,3699.1,1055.4
63562,3949.1,803.45
63562,4199.1,552.45
63562,4449.1,303.45
63562,4699.1,55.448
63562,3949.1,806.45
63562,4199.1,554.45
63562,4449.1,303.45
63562,4699.1,54.448
63562,4949.1,217.55
63562,4199.1,558.45
63562,4449.1,306.45
63562,4699.1,55.448
63562,4949.1,217.55
63562,5199.1,469.55
63562,3449.1,1306.4
63562,3699.1,1054.4
63562,3949.1,803.45
63562,4199.1,554.45
63562,4449.1,306.45
63562,3699.1,1054.4
63562,3949.1,802.45
63562,4199.1,551.45
63562,4449.1,302.45
63562,4699.1,54.448
63562,3949.1,803.45
63562,4199.1,551.45
63562,4449.1,300.45
63562,4699.1,51.448
63562,4949.1,214.55
63562,4199.1,554.45
63562,4449.1,302.45
63562,4699.1,51.448
63562,4949.1,213.55
63562,5199.1,465.55
63562,4449.1,306.45
63562,4699.1,54.448
63562,4949.1,214.55
63562,5199.1,465.55
63562,5449.1,717.55
63562,3449.1,1310.4
63562,3699.1,1058.4
63562,3949.1,807.45
63562,4199.1,558.45
63562,4449.1,310.45
63562,3699.1,1058.4
63562,3949.1,806.45
63562,4199.1,555.45
63562,4449.1,306.45
63562,4699.1,58.448
63562,3949.1,807.45
63562,4199.1,555.45
63562,4449.1,304.45
63562,4699.1,55.448
63562,4949.1,218.55
63562,4199.1,558.45
63562,4449.1,306.45
63562,4699.1,55.448
63562,4949.1,217.55
63562,5199.1,469.55
63562,4449.1,310.45
63562,4699.1,58.448
63562,4949.1,218.55
63562,5199.1,469.55
63562,5449.1,721.55
63562,2699.1,2059.4
63562,2949.1,1807.4
63562,3199.1,1556.4
63562,3449.1,1307.4
63562,3699.1,1059.4
63562,2949.1,1807.4
63562,3199.1,1555.4
63562,3449.1,1304.4
63562,3699.1,1055.4
63562,3949.1,807.45
63562,3199.1,1556.4
63562,3449.1,1304.4
63562,3699.1,1053.4
63562,3949.1,804.45
63562,4199.1,556.45
63562,3449.1,1307.4
63562,3699.1,1055.4
63562,3949.1,804.45
63562,4199.1,555.45
63562,4449.1,307.45
63562,3699.1,1059.4
63562,3949.1,807.45
63562,4199.1,556.45
63562,4449.1,307.45
63562,4699.1,59.448
63562,2949.1,1807.4
63562,3199.1,1555.4
63562,3449.1,1304.4
63562,3699.1,1055.4
63562,3949.1,807.45
63562,3199.1,1555.4
63562,3449.1,1303.4
63562,3699.1,1052.4
63562,3949.1,803.45
63562,4199.1,555.45
63562,3449.1,1304.4
63562,3699.1,1052.4
63562,3949.1,801.45
63562,4199.1,552.45
63562,4449.1,304.45
63562,3699.1,1055.4
63562,3949.1,803.45
63562,4199.1,552.45
63562,4449.1,303.45
63562,4699.1,55.448
63562,3949.1,807.45
63562,4199.1,555.45
63562,4449.1,304.45
63562,4699.1,55.448
63562,4949.1,218.55
63562,3199.1,1556.4
63562,3449.1,1304.4
63562,3699.1,1053.4
63562,3949.1,804.45
63562,4199.1,556.45
63562,3449.1,1304.4
63562,3699.1,1052.4
63562,3949.1,801.45
63562,4199.1,552.45
63562,4449.1,304.45
63562,3699.1,1053.4
63562,3949.1,801.45
63562,4199.1,550.45
63562,4449.1,301.45
63562,4699.1,53.448
63562,3949.1,804.45
63562,4199.1,552.45
63562,4449.1,301.45
63562,4699.1,52.448
63562,4949.1,215.55
63562,4199.1,556.45
63562,4449.1,304.45
63562,4699.1,53.448
63562,4949.1,215.55
63562,5199.1,467.55
63562,3449.1,1307.4
63562,3699.1,1055.4
63562,3949.1,804.45
63562,4199.1,555.45
63562,4449.1,307.45
63562,3699.1,1055.4
63562,3949.1,803.45
63562,4199.1,552.45
63562,4449.1,303.45
63562,4699.1,55.448
63562,3949.1,804.45
63562,4199.1,552.45
63562,4449.1,301.45
63562,4699.1,52.448
63562,4949.1,215.55
63562,4199.1,555.45
63562,4449.1,303.45
63562,4699.1,52.448
63562,4949.1,214.55
63562,5199.1,466.55
63562,4449.1,307.45
63562,4699.1,55.448
63562,4949.1,215.55
63562,5199.1,466.55
63562,5449.1,718.55
63562,2949.1,1807.4
63562,3199.1,1555.4
63562,3449.1,1304.4
63562,3699.1,1055.4
63562,3949.1,807.45
63562,3199.1,1555.4
63562,3449.1,1303.4
63562,3699.1,1052.4
63562,3949.1,803.45
63562,4199.1,555.45
63562,3449.1,1304.4
63562,3699.1,1052.4
63562,3949.1,801.45
63562,4199.1,552.45
63562,4449.1,304.45
63562,3699.1,1055.4
63562,3949.1,803.45
63562,4199.1,552.45
63562,4449.1,303.45
63562,4699.1,55.448
63562,3949.1,807.45
63562,4199.1,555.45
63562,4449.1,304.45
63562,4699.1,55.448
63562,4949.1,218.55
63562,3199.1,1555.4
63562,3449.1,1303.4
63562,3699.1,1052.4
63562,3949.1,803.45
63562,4199.1,555.45
63562,3449.1,1303.4
63562,3699.1,1051.4
63562,3949.1,800.45
63562,4199.1,551.45
63562,4449.1,303.45
63562,3699.1,1052.4
63562,3949.1,800.45
63562,4199.1,549.45
63562,4449.1,300.45
63562,4699.1,52.448
63562,3949.1,803.45
63562,4199.1,551.45
63562,4449.1,300.45
63562,4699.1,51.448
63562,4949.1,214.55
63562,4199.1,555.45
63562,4449.1,303.45
63562,4699.1,52.448
63562,4949.1,214.55
63562,5199.1,466.55
63562,3449.1,1304.4
63562,3699.1,1052.4
63562,3949.1,801.45
63562,4199.1,552.45
63562,4449.1,304.45
63562,3699.1,1052.4
63562,3949.1,800.45
63562,4199.1,549.45
63562,4449.1,300.45
63562,4699.1,52.448
63562,3949.1,801.45
63562,4199.1,549.45
63562,4449.1,298.45
63562,4699.1,49.448
63562,4949.1,212.55
63562,4199.1,552.45
63562,4449.1,300.45
63562,4699.1,49.448
63562,4949.1,211.55
63562,5199.1,463.55
63562,4449.1,304.45
63562,4699.1,52.448
63562,4949.1,212.55
63562,5199.1,463.55
63562,5449.1,715.55
63562,3199.1,1556.4
63562,3449.1,1304.4
63562,3699.1,1053.4
63562,3949.1,804.45
63562,4199.1,556.45
63562,3449.1,1304.4
63562,3699.1,1052.4
63562,3949.1,801.45
63562,4199.1,552.45
63562,4449.1,304.45
63562,3699.1,1053.4
63562,3949.1,801.45
63562,4199.1,550.45
63562,4449.1,301.45
63562,4699.1,53.448
63562,3949.1,804.45
63562,4199.1,552.45
63562,4449.1,301.45
63562,4699.1,52.448
63562,4949.1,215.55
63562,4199.1,556.45
63562,4449.1,304.45
63562,4699.1,53.448
63562,4949.1,215.55
63562,5199.1,467.55
63562,3449.1,1304.4
63562,3699.1,1052.4
63562,3949.1,801.45
63562,4199.1,552.45
63562,4449.1,304.45
63562,3699.1,1052.4
63562,3949.1,800.45
63562,4199.1,549.45
63562,4449.1,300.45
63562,4699.1,52.448
63562,3949.1,801.45
63562,4199.1,549.45
63562,4449.1,298.45
63562,4699.1,49.448
63562,4949.1,212.55
63562,4199.1,552.45
63562,4449.1,300.45
63562,4699.1,49.448
63562,4949.1,211.55
63562,5199.1,463.55
63562,4449.1,304.45
63562,4699.1,52.448
63562,4949.1,212.55
63562,5199.1,463.55
63562,5449.1,715.55
63562,3449.1,1307.4
63562,3699.1,1055.4
63562,3949.1,804.45
63562,4199.1,555.45
63562,4449.1,307.45
63562,3699.1,1055.4
63562,3949.1,803.45
63562,4199.1,552.45
63562,4449.1,303.45
63562,4699.1,55.448
63562,3949.1,804.45
63562,4199.1,552.45
63562,4449.1,301.45
63562,4699.1,52.448
63562,4949.1,215.55
63562,4199.1,555.45
63562,4449.1,303.45
63562,4699.1,52.448
63562,4949.1,214.55
63562,5199.1,466.55
63562,4449.1,307.45
63562,4699.1,55.448
63562,4949.1,215.55
63562,5199.1,466.55
63562,5449.1,718.55
63562,2949.1,1810.4
63562,3199.1,1558.4
63562,3449.1,1307.4
63562,3699.1,1058.4
63562,3949.1,810.45
63562,3199.1,1558.4
63562,3449.1,1306.4
63562,3699.1,1055.4
63562,3949.1,806.45
63562,4199.1,558.45
63562,3449.1,1307.4
63562,3699.1,1055.4
63562,3949.1,804.45
63562,4199.1,555.45
63562,4449.1,307.45
63562,3699.1,1058.4
63562,3949.1,806.45
63562,4199.1,555.45
63562,4449.1,306.45
63562,4699.1,58.448
63562,3949.1,810.45
63562,4199.1,558.45
63562,4449.1,307.45
63562,4699.1,58.448
63562,4949.1,221.55
63562,3199.1,1558.4
63562,3449.1,1306.4
63562,3699.1,1055.4
63562,3949.1,806.45
63562,4199.1,558.45
63562,3449.1,1306.4
63562,3699.1,1054.4
63562,3949.1,803.45
63562,4199.1,554.45
63562,4449.1,306.45
63562,3699.1,1055.4
63562,3949.1,803.45
63562,4199.1,552.45
63562,4449.1,303.45
63562,4699.1,55.448
63562,3949.1,806.45
63562,4199.1,554.45
63562,4449.1,303.45
63562,4699.1,54.448
63562,4949.1,217.55
63562,4199.1,558.45
63562,4449.1,306.45
63562,4699.1,55.448
63562,4949.1,217.55
63562,5199.1,469.55
63562,3449.1,1307.4
63562,3699.1,1055.4
63562,3949.1,804.45
63562,4199.1,555.45
63562,4449.1,307.45
63562,3699.1,1055.4
63562,3949.1,803.45
63562,4199.1,552.45
63562,4449.1,303.45
63562,4699.1,55.448
63562,3949.1,804.45
63562,4199.1,552.45
63562,4449.1,301.45
63562,4699.1,52.448
63562,4949.1,215.55
63562,4199.1,555.45
63562,4449.1,303.45
63562,4699.1,52.448
63562,4949.1,214.55
63562,5199.1,466.55
63562,4449.1,307.45
63562,4699.1,55.448
63562,4949.1,215.55
63562,5199.1,466.55
63562,5449.1,718.55
63562,3199.1,1558.4
63562,3449.1,1306.4
63562,3699.1,1055.4
63562,3949.1,806.45
63562,4199.1,558.45
63562,3449.1,1306.4
63562,3699.1,1054.4
63562,3949.1,803.45
63562,4199.1,554.45
63562,4449.1,306.45
63562,3699.1,1055.4
63562,3949.1,803.45
63562,4199.1,552.45
63562,4449.1,303.45
63562,4699.1,55.448
63562,3949.1,806.45
63562,4199.1,554.45
63562,4449.1,303.45
63562,4699.1,54.448
63562,4949.1,217.55
63562,4199.1,558.45
63562,4449.1,306.45
63562,4699.1,55.448
63562,4949.1,217.55
63562,5199.1,469.55
63562,3449.1,1306.4
63562,3699.1,1054.4
63562,3949.1,803.45
63562,4199.1,554.45
63562,4449.1,306.45
63562,3699.1,1054.4
63562,3949.1,802.45
63562,4199.1,551.45
63562,4449.1,302.45
63562,4699.1,54.448
63562,3949.1,803.45
63562,4199.1,551.45
63562,4449.1,300.45
63562,4699.1,51.448
63562,4949.1,214.55
63562,4199.1,554.45
63562,4449.1,302.45
63562,4699.1,51.448
63562,4949.1,213.55
63562,5199.1,465.55
63562,4449.1,306.45
63562,4699.1,54.448
63562,4949.1,214.55
63562,5199.1,465.55
63562,5449.1,717.55
63562,3449.1,1307.4
63562,3699.1,1055.4
63562,3949.1,804.45
63562,4199.1,555.45
63562,4449.1,307.45
63562,3699.1,1055.4
63562,3949.1,803.45
63562,4199.1,552.45
63562,4449.1,303.45
63562,4699.1,55.448
63562,3949.1,804.45
63562,4199.1,552.45
63562,4449.1,301.45
63562,4699.1,52.448
63562,4949.1,215.55
63562,4199.1,555.45
63562,4449.1,303.45
63562,4699.1,52.448
63562,4949.1,214.55
63562,5199.1,466.55
63562,4449.1,307.45
63562,4699.1,55.448
63562,4949.1,215.55
63562,5199.1,466.55
63562,5449.1,718.55
63562,3199.1,1562.4
63562,3449.1,1310.4
63562,3699.1,1059.4
63562,3949.1,810.45
63562,4199.1,562.45
63562,3449.1,1310.4
63562,3699.1,1058.4
63562,3949.1,807.45
63562,4199.1,558.45
63562,4449.1,310.45
63562,3699.1,1059.4
63562,3949.1,807.45
63562,4199.1,556.45
63562,4449.1,307.45
63562,4699.1,59.448
63562,3949.1,810.45
63562,4199.1,558.45
63562,4449.1,307.45
63562,4699.1,58.448
63562,4949.1,221.55
63562,4199.1,562.45
63562,4449.1,310.45
63562,4699.1,59.448
63562,4949.1,221.55
63562,5199.1,473.55
63562,3449.1,1310.4
63562,3699.1,1058.4
63562,3949.1,807.45
63562,4199.1,558.45
63562,4449.1,310.45
63562,3699.1,1058.4
63562,3949.1,806.45
63562,4199.1,555.45
63562,4449.1,306.45
63562,4699.1,58.448
63562,3949.1,807.45
63562,4199.1,555.45
63562,4449.1,304.45
63562,4699.1,55.448
63562,4949.1,218.55
63562,4199.1,558.45
63562,4449.1,306.45
63562,4699.1,55.448
63562,4949.1,217.55
63562,5199.1,469.55
63562,4449.1,310.45
63562,4699.1,58.448
63562,4949.1,218.55
63562,5199.1,469.55
63562,5449.1,721.55
63562,3449.1,1310.4
63562,3699.1,1058.4
63562,3949.1,807.45
63562,4199.1,558.45
63562,4449.1,310.45
63562,3699.1,1058.4
63562,3949.1,806.45
63562,4199.1,555.45
63562,4449.1,306.45
63562,4699.1,58.448
63562,3949.1,807.45
63562,4199.1,555.45
63562,4449.1,304.45
63562,4699.1,55.448
63562,4949.1,218.55
63562,4199.1,558.45
63562,4449.1,306.45
63562,4699.1,55.448
63562,4949.1,217.55
63562,5199.1,469.55
63562,4449.1,310.45
63562,4699.1,58.448
63562,4949.1,218.55
63562,5199.1,469.55
63562,5449.1,721.55
63562,2449.1,2310.4
63562,2699.1,2058.4
63562,2949.1,1807.4
63562,3199.1,1558.4
63562,3449.1,1310.4
63562,2699.1,2058.4
63562,2949.1,1806.4
63562,3199.1,1555.4
63562,3449.1,1306.4
63562,3699.1,1058.4
63562,2949.1,1807.4
63562,3199.1,1555.4
63562,3449.1,1304.4
63562,3699.1,1055.4
63562,3949.1,807.45
63562,3199.1,1558.4
63562,3449.1,1306.4
63562,3699.1,1055.4
63562,3949.1,806.45
63562,4199.1,558.45
63562,3449.1,1310.4
63562,3699.1,1058.4
63562,3949.1,807.45
63562,4199.1,558.45
63562,4449.1,310.45
63562,2699.1,2058.4
63562,2949.1,1806.4
63562,3199.1,1555.4
63562,3449.1,1306.4
63562,3699.1,1058.4
63562,2949.1,1806.4
63562,3199.1,1554.4
63562,3449.1,1303.4
63562,3699.1,1054.4
63562,3949.1,806.45
63562,3199.1,1555.4
63562,3449.1,1303.4
63562,3699.1,1052.4
63562,3949.1,803.45
63562,4199.1,555.45
63562,3449.1,1306.4
63562,3699.1,1054.4
63562,3949.1,803.45
63562,4199.1,554.45
63562,4449.1,306.45
63562,3699.1,1058.4
63562,3949.1,806.45
63562,4199.1,555.45
63562,4449.1,306.45
63562,4699.1,58.448
63562,2949.1,1807.4
63562,3199.1,1555.4
63562,3449.1,1304.4
63562,3699.1,1055.4
63562,3949.1,807.45
63562,3199.1,1555.4
63562,3449.1,1303.4
63562,3699.1,1052.4
63562,3949.1,803.45
63562,4199.1,555.45
63562,3449.1,1304.4
63562,3699.1,1052.4
63562,3949.1,801.45
63562,4199.1,552.45
63562,4449.1,304.45
63562,3699.1,1055.4
63562,3949.1,803.45
63562,4199.1,552.45
63562,4449.1,303.45
63562,4699.1,55.448
63562,3949.1,807.45
63562,4199.1,555.45
63562,4449.1,304.45
63562,4699.1,55.448
63562,4949.1,218.55
63562,3199.1,1558.4
63562,3449.1,1306.4
63562,3699.1,1055.4
63562,3949.1,806.45
63562,4199.1,558.45
63562,3449.1,1306.4
63562,3699.1,1054.4
63562,3949.1,803.45
63562,4199.1,554.45
63562,4449.1,306.45
63562,3699.1,1055.4
63562,3949.1,803.45
63562,4199.1,552.45
63562,4449.1,303.45
63562,4699.1,55.448
63562,3949.1,806.45
63562,4199.1,554.45
63562,4449.1,303.45
63562,4699.1,54.448
63562,4949.1,217.55
63562,4199.1,558.45
63562,4449.1,306.45
63562,4699.1,55.448
63562,4949.1,217.55
63562,5199.1,469.55
63562,3449.1,1310.4
63562,3699.1,1058.4
63562,3949.1,807.45
63562,4199.1,558.45
63562,4449.1,310.45
63562,3699.1,1058.4
63562,3949.1,806.45
63562,4199.1,555.45
63562,4449.1,306.45
63562,4699.1,58.448
63562,3949.1,807.45
63562,4199.1,555.45
63562,4449.1,304.45
63562,4699.1,55.448
63562,4949.1,218.55
63562,4199.1,558.45
63562,4449.1,306.45
63562,4699.1,55.448
63562,4949.1,217.55
63562,5199.1,469.55
63562,4449.1,310.45
63562,4699.1,58.448
63562,4949.1,218.55
63562,5199.1,469.55
63562,5449.1,721.55
63562,2699.1,2058.4
63562,2949.1,1806.4
63562,3199.1,1555.4
63562,3449.1,1306.4
63562,3699.1,1058.4
63562,2949.1,1806.4
63562,3199.1,1554.4
63562,3449.1,1303.4
63562,3699.1,1054.4
63562,3949.1,806.45
63562,3199.1,1555.4
63562,3449.1,1303.4
63562,3699.1,1052.4
63562,3949.1,803.45
63562,4199.1,555.45
63562,3449.1,1306.4
63562,3699.1,1054.4
63562,3949.1,803.45
63562,4199.1,554.45
63562,4449.1,306.45
63562,3699.1,1058.4
63562,3949.1,806.45
63562,4199.1,555.45
63562,4449.1,306.45
63562,4699.1,58.448
63562,2949.1,1806.4
63562,3199.1,1554.4
63562,3449.1,1303.4
63562,3699.1,1054.4
63562,3949.1,806.45
63562,3199.1,1554.4
63562,3449.1,1302.4
63562,3699.1,1051.4
63562,3949.1,802.45
63562,4199.1,554.45
63562,3449.1,1303.4
63562,3699.1,1051.4
63562,3949.1,800.45
63562,4199.1,551.45
63562,4449.1,303.45
63562,3699.1,1054.4
63562,3949.1,802.45
63562,4199.1,551.45
63562,4449.1,302.45
63562,4699.1,54.448
63562,3949.1,806.45
63562,4199.1,554.45
63562,4449.1,303.45
63562,4699.1,54.448
63562,4949.1,217.55
63562,3199.1,1555.4
63562,3449.1,1303.4
63562,3699.1,1052.4
63562,3949.1,803.45
63562,4199.1,555.45
63562,3449.1,1303.4
63562,3699.1,1051.4
63562,3949.1,800.45
63562,4199.1,551.45
63562,4449.1,303.45
63562,3699.1,1052.4
63562,3949.1,800.45
63562,4199.1,549.45
63562,4449.1,300.45
63562,4699.1,52.448
63562,3949.1,803.45
63562,4199.1,551.45
63562,4449.1,300.45
63562,4699.1,51.448
63562,4949.1,214.55
63562,4199.1,555.45
63562,4449.1,303.45
63562,4699.1,52.448
63562,4949.1,214.55
63562,5199.1,466.55
63562,3449.1,1306.4
63562,3699.1,1054.4
63562,3949.1,803.45
63562,4199.1,554.45
63562,4449.1,306.45
63562,3699.1,1054.4
63562,3949.1,802.45
63562,4199.1,551.45
63562,4449.1,302.45
63562,4699.1,54.448
63562,3949.1,803.45
63562,4199.1,551.45
63562,4449.1,300.45
63562,4699.1,51.448
63562,4949.1,214.55
63562,4199.1,554.45
63562,4449.1,302.45
63562,4699.1,51.448
63562,4949.1,213.55
63562,5199.1,465.55
63562,4449.1,306.45
63562,4699.1,54.448
63562,4949.1,214.55
63562,5199.1,465.55
63562,5449.1,717.55
63562,2949.1,1807.4
63562,3199.1,1555.4
63562,3449.1,1304.4
63562,3699.1,1055.4
63562,3949.1,807.45
63562,3199.1,1555.4
63562,3449.1,1303.4
63562,3699.1,1052.4
63562,3949.1,803.45
63562,4199.1,555.45
63562,3449.1,1304.4
63562,3699.1,1052.4
63562,3949.1,801.45
63562,4199.1,552.45
63562,4449.1,304.45
63562,3699.1,1055.4
63562,3949.1,803.45
63562,4199.1,552.45
63562,4449.1,303.45
63562,4699.1,55.448
63562,3949.1,807.45
63562,4199.1,555.45
63562,4449.1,304.45
63562,4699.1,55.448
63562,4949.1,218.55
63562,3199.1,1555.4
63562,3449.1,1303.4
63562,3699.1,1052.4
63562,3949.1,803.45
63562,4199.1,555.45
63562,3449.1,1303.4
63562,3699.1,1051.4
63562,3949.1,800.45
63562,4199.1,551.45
63562,4449.1,303.45
63562,3699.1,1052.4
63562,3949.1,800.45
63562,4199.1,549.45
63562,4449.1,300.45
63562,4699.1,52.448
63562,3949.1,803.45
63562,4199.1,551.45
63562,4449.1,300.45
63562,4699.1,51.448
63562,4949.1,214.55
63562,4199.1,555.45
63562,4449.1,303.45
63562,4699.1,52.448
63562,4949.1,214.55
63562,5199.1,466.55
63562,3449.1,1304.4
63562,3699.1,1052.4
63562,3949.1,801.45
63562,4199.1,552.45
63562,4449.1,304.45
63562,3699.1,1052.4
63562,3949.1,800.45
63562,4199.1,549.45
63562,4449.1,300.45
63562,4699.1,52.448
63562,3949.1,801.45
63562,4199.1,549.45
63562,4449.1,298.45
63562,4699.1,49.448
63562,4949.1,212.55
63562,4199.1,552.45
63562,4449.1,300.45
63562,4699.1,49.448
63562,4949.1,211.55
63562,5199.1,463.55
63562,4449.1,304.45
63562,4699.1,52.448
63562,4949.1,212.55
63562,5199.1,463.55
63562,5449.1,715.55
63562,3199.1,1558.4
63562,3449.1,1306.4
63562,3699.1,1055.4
63562,3949.1,806.45
63562,4199.1,558.45
63562,3449.1,1306.4
63562,3699.1,1054.4
63562,3949.1,803.45
63562,4199.1,554.45
63562,4449.1,306.45
63562,3699.1,1055.4
63562,3949.1,803.45
63562,4199.1,552.45
63562,4449.1,303.45
63562,4699.1,55.448
63562,3949.1,806.45
63562,4199.1,554.45
63562,4449.1,303.45
63562,4699.1,54.448
63562,4949.1,217.55
63562,4199.1,558.45
63562,4449.1,306.45
63562,4699.1,55.448
63562,4949.1,217.55
63562,5199.1,469.55
63562,3449.1,1306.4
63562,3699.1,1054.4
63562,3949.1,803.45
63562,4199.1,554.45
63562,4449.1,306.45
63562,3699.1,1054.4
63562,3949.1,802.45
63562,4199.1,551.45
63562,4449.1,302.45
63562,4699.1,54.448
63562,3949.1,803.45
63562,4199.1,551.45
63562,4449.1,300.45
63562,4699.1,51.448
63562,4949.1,214.55
63562,4199.1,554.45
63562,4449.1,302.45
63562,4699.1,51.448
63562,4949.1,213.55
63562,5199.1,465.55
63562,4449.1,306.45
63562,4699.1,54.448
63562,4949.1,214.55
63562,5199.1,465.55
63562,5449.1,717.55
63562,3449.1,1310.4
63562,3699.1,1058.4
63562,3949.1,807.45
63562,4199.1,558.45
63562,4449.1,310.45
63562,3699.1,1058.4
63562,3949.1,806.45
63562,4199.1,555.45
63562,4449.1,306.45
63562,4699.1,58.448
63562,3949.1,807.45
63562,4199.1,555.45
63562,4449.1,304.45
63562,4699.1,55.448
63562,4949.1,218.55
63562,4199.1,558.45
63562,4449.1,306.45
63562,4699.1,55.448
63562,4949.1,217.55
63562,5199.1,469.55
63562,4449.1,310.45
63562,4699.1,58.448
63562,4949.1,218.55
63562,5199.1,469.55
63562,5449.1,721.55
63562,2699.1,2058.4
63562,2949.1,1806.4
63562,3199.1,1555.4
63562,3449.1,1306.4
63562,3699.1,1058.4
63562,2949.1,1806.4
63562,3199.1,1554.4
63562,3449.1,1303.4
63562,3699.1,1054.4
63562,3949.1,806.45
63562,3199.1,1555.4
63562,3449.1,1303.4
63562,3699.1,1052.4
63562,3949.1,803.45
63562,4199.1,555.45
63562,3449.1,1306.4
63562,3699.1,1054.4
63562,3949.1,803.45
63562,4199.1,554.45
63562,4449.1,306.45
63562,3699.1,1058.4
63562,3949.1,806.45
63562,4199.1,555.45
63562,4449.1,306.45
63562,4699.1,58.448
63562,2949.1,1806.4
63562,3199.1,1554.4
63562,3449.1,1303.4
63562,3699.1,1054.4
63562,3949.1,806.45
63562,3199.1,1554.4
63562,3449.1,1302.4
63562,3699.1,1051.4
63562,3949.1,802.45
63562,4199.1,554.45
63562,3449.1,1303.4
63562,3699.1,1051.4
63562,3949.1,800.45
63562,4199.1,551.45
63562,4449.1,303.45
63562,3699.1,1054.4
63562,3949.1,802.45
63562,4199.1,551.45
63562,4449.1,302.45
63562,4699.1,54.448
63562,3949.1,806.45
63562,4199.1,554.45
63562,4449.1,303.45
63562,4699.1,54.448
63562,4949.1,217.55
63562,3199.1,1555.4
63562,3449.1,1303.4
63562,3699.1,1052.4
63562,3949.1,803.45
63562,4199.1,555.45
63562,3449.1,1303.4
63562,3699.1,1051.4
63562,3949.1,800.45
63562,4199.1,551.45
63562,4449.1,303.45
63562,3699.1,1052.4
63562,3949.1,800.45
63562,4199.1,549.45
63562,4449.1,300.45
63562,4699.1,52.448
63562,3949.1,803.45
63562,4199.1,551.45
63562,4449.1,300.45
63562,4699.1,51.448
63562,4949.1,214.55
63562,4199.1,555.45
63562,4449.1,303.45
63562,4699.1,52.448
63562,4949.1,214.55
63562,5199.1,466.55
63562,3449.1,1306.4
63562,3699.1,1054.4
63562,3949.1,803.45
63562,4199.1,554.45
63562,4449.1,306.45
63562,3699.1,1054.4
63562,3949.1,802.45
63562,4199.1,551.45
63562,4449.1,302.45
63562,4699.1,54.448
63562,3949.1,803.45
63562,4199.1,551.45
63562,4449.1,300.45
63562,4699.1,51.448
63562,4949.1,214.55
63562,4199.1,554.45
63562,4449.1,302.45
63562,4699.1,51.448
63562,4949.1,213.55
63562,5199.1,465.55
63562,4449.1,306.45
63562,4699.1,54.448
63562,4949.1,214.55
63562,5199.1,465.55
63562,5449.1,717.55
63562,2949.1,1806.4
63562,3199.1,1554.4
63562,3449.1,1303.4
63562,3699.1,1054.4
63562,3949.1,806.45
63562,3199.1,1554.4
63562,3449.1,1302.4
63562,3699.1,1051.4
63562,3949.1,802.45
63562,4199.1,554.45
63562,3449.1,1303.4
63562,3699.1,1051.4
63562,3949.1,800.45
63562,4199.1,551.45
63562,4449.1,303.45
63562,3699.1,1054.4
63562,3949.1,802.45
63562,4199.1,551.45
63562,4449.1,302.45
63562,4699.1,54.448
63562,3949.1,806.45
63562,4199.1,554.45
63562,4449.1,303.45
63562,4699.1,54.448
63562,4949.1,217.55
63562,3199.1,1554.4
63562,3449.1,1302.4
63562,3699.1,1051.4
63562,3949.1,802.45
63562,4199.1,554.45
63562,3449.1,1302.4
63562,3699.1,1050.4
63562,3949.1,799.45
63562,4199.1,550.45
63562,4449.1,302.45
63562,3699.1,1051.4
63562,3949.1,799.45
63562,4199.1,548.45
63562,4449.1,299.45
63562,4699.1,51.448
63562,3949.1,802.45
63562,4199.1,550.45
63562,4449.1,299.45
63562,4699.1,50.448
63562,4949.1,213.55
63562,4199.1,554.45
63562,4449.1,302.45
63562,4699.1,51.448
63562,4949.1,213.55
63562,5199.1,465.55
63562,3449.1,1303.4
63562,3699.1,1051.4
63562,3949.1,800.45
63562,4199.1,551.45
63562,4449.1,303.45
63562,3699.1,1051.4
63562,3949.1,799.45
63562,4199.1,548.45
63562,4449.1,299.45
63562,4699.1,51.448
63562,3949.1,800.45
63562,4199.1,548.45
63562,4449.1,297.45
63562,4699.1,48.448
63562,4949.1,211.55
63562,4199.1,551.45
63562,4449.1,299.45
63562,4699.1,48.448
63562,4949.1,210.55
63562,5199.1,462.55
63562,4449.1,303.45
63562,4699.1,51.448
63562,4949.1,211.55
63562,5199.1,462.55
63562,5449.1,714.55
63562,3199.1,1555.4
63562,3449.1,1303.4
63562,3699.1,1052.4
63562,3949.1,803.45
63562,4199.1,555.45
63562,3449.1,1303.4
63562,3699.1,1051.4
63562,3949.1,800.45
63562,4199.1,551.45
63562,4449.1,303.45
63562,3699.1,1052.4
63562,3949.1,800.45
63562,4199.1,549.45
63562,4449.1,300.45
63562,4699.1,52.448
63562,3949.1,803.45
63562,4199.1,551.45
63562,4449.1,300.45
63562,4699.1,51.448
63562,4949.1,214.55
63562,4199.1,555.45
63562,4449.1,303.45
63562,4699.1,52.448
63562,4949.1,214.55
63562,5199.1,466.55
63562,3449.1,1303.4
63562,3699.1,1051.4
63562,3949.1,800.45
63562,4199.1,551.45
63562,4449.1,303.45
63562,3699.1,1051.4
63562,3949.1,799.45
63562,4199.1,548.45
63562,4449.1,299.45
63562,4699.1,51.448
63562,3949.1,800.45
63562,4199.1,548.45
63562,4449.1,297.45
63562,4699.1,48.448
63562,4949.1,211.55
63562,4199.1,551.45
63562,4449.1,299.45
63562,4699.1,48.448
63562,4949.1,210.55
63562,5199.1,462.55
63562,4449.1,303.45
63562,4699.1,51.448
63562,4949.1,211.55
63562,5199.1,462.55
63562,5449.1,714.55
63562,3449.1,1306.4
63562,3699.1,1054.4
63562,3949.1,803.45
63562,4199.1,554.45
63562,4449.1,306.45
63562,3699.1,1054.4
63562,3949.1,802.45
63562,4199.1,551.45
63562,4449.1,302.45
63562,4699.1,54.448
63562,3949.1,803.45
63562,4199.1,551.45
63562,4449.1,300.45
63562,4699.1,51.448
63562,4949.1,214.55
63562,4199.1,554.45
63562,4449.1,302.45
63562,4699.1,51.448
63562,4949.1,213.55
63562,5199.1,465.55
63562,4449.1,306.45
63562,4699.1,54.448
63562,4949.1,214.55
63562,5199.1,465.55
63562,5449.1,717.55
63562,2949.1,1807.4
63562,3199.1,1555.4
63562,3449.1,1304.4
63562,3699.1,1055.4
63562,3949.1,807.45
63562,3199.1,1555.4
63562,3449.1,1303.4
63562,3699.1,1052.4
63562,3949.1,803.45
63562,4199.1,555.45
63562,3449.1,1304.4
63562,3699.1,1052.4
63562,3949.1,801.45
63562,4199.1,552.45
63562,4449.1,304.45
63562,3699.1,1055.4
63562,3949.1,803.45
63562,4199.1,552.45
63562,4449.1,303.45
63562,4699.1,55.448
63562,3949.1,807.45
63562,4199.1,555.45
63562,4449.1,304.45
63562,4699.1,55.448
63562,4949.1,218.55
63562,3199.1,1555.4
63562,3449.1,1303.4
63562,3699.1,1052.4
63562,3949.1,803.45
63562,4199.1,555.45
63562,3449.1,1303.4
63562,3699.1,1051.4
63562,3949.1,800.45
63562,4199.1,551.45
63562,4449.1,303.45
63562,3699.1,1052.4
63562,3949.1,800.45
63562,4199.1,549.45
63562,4449.1,300.45
63562,4699.1,52.448
63562,3949.1,803.45
63562,4199.1,551.45
63562,4449.1,300.45
63562,4699.1,51.448
63562,4949.1,214.55
63562,4199.1,555.45
63562,4449.1,303.45
63562,4699.1,52.448
63562,4949.1,214.55
63562,5199.1,466.55
63562,3449.1,1304.4
63562,3699.1,1052.4
63562,3949.1,801.45
63562,4199.1,552.45
63562,4449.1,304.45
63562,3699.1,1052.4
63562,3949.1,800.45
63562,4199.1,549.45
63562,4449.1,300.45
63562,4699.1,52.448
63562,3949.1,801.45
63562,4199.1,549.45
63562,4449.1,298.45
63562,4699.1,49.448
63562,4949.1,212.55
63562,4199.1,552.45
63562,4449.1,300.45
63562,4699.1,49.448
63562,4949.1,211.55
63562,5199.1,463.55
63562,4449.1,304.45
63562,4699.1,52.448
63562,4949.1,212.55
63562,5199.1,463.55
63562,5449.1,715.55
63562,3199.1,1555.4
63562,3449.1,1303.4
63562,3699.1,1052.4
63562,3949.1,803.45
63562,4199.1,555.45
63562,3449.1,1303.4
63562,3699.1,1051.4
63562,3949.1,800.45
63562,4199.1,551.45
63562,4449.1,303.45
63562,3699.1,1052.4
63562,3949.1,800.45
63562,4199.1,549.45
63562,4449.1,300.45
63562,4699.1,52.448
63562,3949.1,803.45
63562,4199.1,551.45
63562,4449.1,300.45
63562,4699.1,51.448
63562,4949.1,214.55
63562,4199.1,555.45
63562,4449.1,303.45
63562,4699.1,52.448
63562,4949.1,214.55
63562,5199.1,466.55
63562,3449.1,1303.4
63562,3699.1,1051.4
63562,3949.1,800.45
63562,4199.1,551.45
63562,4449.1,303.45
63562,3699.1,1051.4
63562,3949.1,799.45
63562,4199.1,548.45
63562,4449.1,299.45
63562,4699.1,51.448
63562,3949.1,800.45
63562,4199.1,548.45
63562,4449.1,297.45
63562,4699.1,48.448
63562,4949.1,211.55
63562,4199.1,551.45
63562,4449.1,299.45
63562,4699.1,48.448
63562,4949.1,210.55
63562,5199.1,462.55
63562,4449.1,303.45
63562,4699.1,51.448
63562,4949.1,211.55
63562,5199.1,462.55
63562,5449.1,714.55
63562,3449.1,1304.4
63562,3699.1,1052.4
63562,3949.1,801.45
63562,4199.1,552.45
63562,4449.1,304.45
63562,3699.1,1052.4
63562,3949.1,800.45
63562,4199.1,549.45
63562,4449.1,300.45
63562,4699.1,52.448
63562,3949.1,801.45
63562,4199.1,549.45
63562,4449.1,298.45
63562,4699.1,49.448
63562,4949.1,212.55
63562,4199.1,552.45
63562,4449.1,300.45
63562,4699.1,49.448
63562,4949.1,211.55
63562,5199.1,463.55
63562,4449.1,304.45
63562,4699.1,52.448
63562,4949.1,212.55
63562,5199.1,463.55
63562,5449.1,715.55
63562,3199.1,1558.4
63562,3449.1,1306.4
63562,3699.1,1055.4
63562,3949.1,806.45
63562,4199.1,558.45
63562,3449.1,1306.4
63562,3699.1,1054.4
63562,3949.1,803.45
63562,4199.1,554.45
63562,4449.1,306.45
63562,3699.1,1055.4
63562,3949.1,803.45
63562,4199.1,552.45
63562,4449.1,303.45
63562,4699.1,55.448
63562,3949.1,806.45
63562,4199.1,554.45
63562,4449.1,303.45
63562,4699.1,54.448
63562,4949.1,217.55
63562,4199.1,558.45
63562,4449.1,306.45
63562,4699.1,55.448
63562,4949.1,217.55
63562,5199.1,469.55
63562,3449.1,1306.4
63562,3699.1,1054.4
63562,3949.1,803.45
63562,4199.1,554.45
63562,4449.1,306.45
63562,3699.1,1054.4
63562,3949.1,802.45
63562,4199.1,551.45
63562,4449.1,302.45
63562,4699.1,54.448
63562,3949.1,803.45
63562,4199.1,551.45
63562,4449.1,300.45
63562,4699.1,51.448
63562,4949.1,214.55
63562,4199.1,554.45
63562,4449.1,302.45
63562,4699.1,51.448
63562,4949.1,213.55
63562,5199.1,465.55
63562,4449.1,306.45
63562,4699.1,54.448
63562,4949.1,214.55
63562,5199.1,465.55
63562,5449.1,717.55
63562,3449.1,1306.4
63562,3699.1,1054.4
63562,3949.1,803.45
63562,4199.1,554.45
63562,4449.1,306.45
63562,3699.1,1054.4
63562,3949.1,802.45
63562,4199.1,551.45
63562,4449.1,302.45
63562,4699.1,54.448
63562,3949.1,803.45
63562,4199.1,551.45
63562,4449.1,300.45
63562,4699.1,51.448
63562,4949.1,214.55
63562,4199.1,554.45
63562,4449.1,302.45
63562,4699.1,51.448
63562,4949.1,213.55
63562,5199.1,465.55
63562,4449.1,306.45
63562,4699.1,54.448
63562,4949.1,214.55
63562,5199.1,465.55
63562,5449.1,717.55
63562,3449.1,1310.4
63562,3699.1,1058.4
63562,3949.1,807.45
63562,4199.1,558.45
63562,4449.1,310.45
63562,3699.1,1058.4
63562,3949.1,806.45
63562,4199.1,555.45
63562,4449.1,306.45
63562,4699.1,58.448
63562,3949.1,807.45
63562,4199.1,555.45
63562,4449.1,304.45
63562,4699.1,55.448
63562,4949.1,218.55
63562,4199.1,558.45
63562,4449.1,306.45
63562,4699.1,55.448
63562,4949.1,217.55
63562,5199.1,469.55
63562,4449.1,310.45
63562,4699.1,58.448
63562,4949.1,218.55
63562,5199.1,469.55
63562,5449.1,721.55
63562,2699.1,2059.4
63562,2949.1,1807.4
63562,3199.1,1556.4
63562,3449.1,1307.4
63562,3699.1,1059.4
63562,2949.1,1807.4
63562,3199.1,1555.4
63562,3449.1,1304.4
63562,3699.1,1055.4
63562,3949.1,807.45
63562,3199.1,1556.4
63562,3449.1,1304.4
63562,3699.1,1053.4
63562,3949.1,804.45
63562,4199.1,556.45
63562,3449.1,1307.4
63562,3699.1,1055.4
63562,3949.1,804.45
63562,4199.1,555.45
63562,4449.1,307.45
63562,3699.1,1059.4
63562,3949.1,807.45
63562,4199.1,556.45
63562,4449.1,307.45
63562,4699.1,59.448
63562,2949.1,1807.4
63562,3199.1,1555.4
63562,3449.1,1304.4
63562,3699.1,1055.4
63562,3949.1,807.45
63562,3199.1,1555.4
63562,3449.1,1303.4
63562,3699.1,1052.4
63562,3949.1,803.45
63562,4199.1,555.45
63562,3449.1,1304.4
63562,3699.1,1052.4
63562,3949.1,801.45
63562,4199.1,552.45
63562,4449.1,304.45
63562,3699.1,1055.4
63562,3949.1,803.45
63562,4199.1,552.45
63562,4449.1,303.45
63562,4699.1,55.448
63562,3949.1,807.45
63562,4199.1,555.45
63562,4449.1,304.45
63562,4699.1,55.448
63562,4949.1,218.55
63562,3199.1,1556.4
63562,3449.1,1304.4
63562,3699.1,1053.4
63562,3949.1,804.45
63562,4199.1,556.45
63562,3449.1,1304.4
63562,3699.1,1052.4
63562,3949.1,801.45
63562,4199.1,552.45
63562,4449.1,304.45
63562,3699.1,1053.4
63562,3949.1,801.45
63562,4199.1,550.45
63562,4449.1,301.45
63562,4699.1,53.448
63562,3949.1,804.45
63562,4199.1,552.45
63562,4449.1,301.45
63562,4699.1,52.448
63562,4949.1,215.55
63562,4199.1,556.45
63562,4449.1,304.45
63562,4699.1,53.448
63562,4949.1,215.55
63562,5199.1,467.55
63562,3449.1,1307.4
63562,3699.1,1055.4
63562,3949.1,804.45
63562,4199.1,555.45
63562,4449.1,307.45
63562,3699.1,1055.4
63562,3949.1,803.45
63562,4199.1,552.45
63562,4449.1,303.45
63562,4699.1,55.448
63562,3949.1,804.45
63562,4199.1,552.45
63562,4449.1,301.45
63562,4699.1,52.448
63562,4949.1,215.55
63562,4199.1,555.45
63562,4449.1,303.45
63562,4699.1,52.448
63562,4949.1,214.55
63562,5199.1,466.55
63562,4449.1,307.45
63562,4699.1,55.448
63562,4949.1,215.55
63562,5199.1,466.55
63562,5449.1,718.55
63562,2949.1,1807.4
63562,3199.1,1555.4
63562,3449.1,1304.4
63562,3699.1,1055.4
63562,3949.1,807.45
63562,3199.1,1555.4
63562,3449.1,1303.4
63562,3699.1,1052.4
63562,3949.1,803.45
63562,4199.1,555.45
63562,3449.1,1304.4
63562,3699.1,1052.4
63562,3949.1,801.45
63562,4199.1,552.45
63562,4449.1,304.45
63562,3699.1,1055.4
63562,3949.1,803.45
63562,4199.1,552.45
63562,4449.1,303.45
63562,4699.1,55.448
63562,3949.1,807.45
63562,4199.1,555.45
63562,4449.1,304.45
63562,4699.1,55.448
63562,4949.1,218.55
63562,3199.1,1555.4
63562,3449.1,1303.4
63562,3699.1,1052.4
63562,3949.1,803.45
63562,4199.1,555.45
63562,3449.1,1303.4
63562,3699.1,1051.4
63562,3949.1,800.45
63562,4199.1,551.45
63562,4449.1,303.45
63562,3699.1,1052.4
63562,3949.1,800.45
63562,4199.1,549.45
63562,4449.1,300.45
63562,4699.1,52.448
63562,3949.1,803.45
63562,4199.1,551.45
63562,4449.1,300.45
63562,4699.1,51.448
63562,4949.1,214.55
63562,4199.1,555.45
63562,4449.1,303.45
63562,4699.1,52.448
63562,4949.1,214.55
63562,5199.1,466.55
63562,3449.1,1304.4
63562,3699.1,1052.4
63562,3949.1,801.45
63562,4199.1,552.45
63562,4449.1,304.45
63562,3699.1,1052.4
63562,3949.1,800.45
63562,4199.1,549.45
63562,4449.1,300.45
63562,4699.1,52.448
63562,3949.1,801.45
63562,4199.1,549.45
63562,4449.1,298.45
63562,4699.1,49.448
63562,4949.1,212.55
63562,4199.1,552.45
63562,4449.1,300.45
63562,4699.1,49.448
63562,4949.1,211.55
63562,5199.1,463.55
63562,4449.1,304.45
63562,4699.1,52.448
63562,4949.1,212.55
63562,5199.1,463.55
63562,5449.1,715.55
63562,3199.1,1556.4
63562,3449.1,1304.4
63562,3699.1,1053.4
63562,3949.1,804.45
63562,4199.1,556.45
63562,3449.1,1304.4
63562,3699.1,1052.4
63562,3949.1,801.45
63562,4199.1,552.45
63562,4449.1,304.45
63562,3699.1,1053.4
63562,3949.1,801.45
63562,4199.1,550.45
63562,4449.1,301.45
63562,4699.1,53.448
63562,3949.1,804.45
63562,4199.1,552.45
63562,4449.1,301.45
63562,4699.1,52.448
63562,4949.1,215.55
63562,4199.1,556.45
63562,4449.1,304.45
63562,4699.1,53.448
63562,4949.1,215.55
63562,5199.1,467.55
63562,3449.1,1304.4
63562,3699.1,1052.4
63562,3949.1,801.45
63562,4199.1,552.45
63562,4449.1,304.45
63562,3699.1,1052.4
63562,3949.1,800.45
63562,4199.1,549.45
63562,4449.1,300.45
63562,4699.1,52.448
63562,3949.1,801.45
63562,4199.1,549.45
63562,4449.1,298.45
63562,4699.1,49.448
63562,4949.1,212.55
63562,4199.1,552.45
63562,4449.1,300.45
63562,4699.1,49.448
63562,4949.1,211.55
63562,5199.1,463.55
63562,4449.1,304.45
63562,4699.1,52.448
63562,4949.1,212.55
63562,5199.1,463.55
63562,5449.1,715.55
63562,3449.1,1307.4
63562,3699.1,1055.4
63562,3949.1,804.45
63562,4199.1,555.45
63562,4449.1,307.45
63562,3699.1,1055.4
63562,3949.1,803.45
63562,4199.1,552.45
63562,4449.1,303.45
63562,4699.1,55.448
63562,3949.1,804.45
63562,4199.1,552.45
63562,4449.1,301.45
63562,4699.1,52.448
63562,4949.1,215.55
63562,4199.1,555.45
63562,4449.1,303.45
63562,4699.1,52.448
63562,4949.1,214.55
63562,5199.1,466.55
63562,4449.1,307.45
63562,4699.1,55.448
63562,4949.1,215.55
63562,5199.1,466.55
63562,5449.1,718.55
63562,2949.1,1807.4
63562,3199.1,1555.4
63562,3449.1,1304.4
63562,3699.1,1055.4
63562,3949.1,807.45
63562,3199.1,1555.4
63562,3449.1,1303.4
63562,3699.1,1052.4
63562,3949.1,803.45
63562,4199.1,555.45
63562,3449.1,1304.4
63562,3699.1,1052.4
63562,3949.1,801.45
63562,4199.1,552.45
63562,4449.1,304.45
63562,3699.1,1055.4
63562,3949.1,803.45
63562,4199.1,552.45
63562,4449.1,303.45
63562,4699.1,55.448
63562,3949.1,807.45
63562,4199.1,555.45
63562,4449.1,304.45
63562,4699.1,55.448
63562,4949.1,218.55
63562,3199.1,1555.4
63562,3449.1,1303.4
63562,3699.1,1052.4
63562,3949.1,803.45
63562,4199.1,555.45
63562,3449.1,1303.4
63562,3699.1,1051.4
63562,3949.1,800.45
63562,4199.1,551.45
63562,4449.1,303.45
63562,3699.1,1052.4
63562,3949.1,800.45
63562,4199.1,549.45
63562,4449.1,300.45
63562,4699.1,52.448
63562,3949.1,803.45
63562,4199.1,551.45
63562,4449.1,300.45
63562,4699.1,51.448
63562,4949.1,214.55
63562,4199.1,555.45
63562,4449.1,303.45
63562,4699.1,52.448
63562,4949.1,214.55
63562,5199.1,466.55
63562,3449.1,1304.4
63562,3699.1,1052.4
63562,3949.1,801.45
63562,4199.1,552.45
63562,4449.1,304.45
63562,3699.1,1052.4
63562,3949.1,800.45
63562,4199.1,549.45
63562,4449.1,300.45
63562,4699.1,52.448
63562,3949.1,801.45
63562,4199.1,549.45
63562,4449.1,298.45
63562,4699.1,49.448
63562,4949.1,212.55
63562,4199.1,552.45
63562,4449.1,300.45
63562,4699.1,49.448
63562,4949.1,211.55
63562,5199.1,463.55
63562,4449.1,304.45
63562,4699.1,52.448
63562,4949.1,212.55
63562,5199.1,463.55
63562,5449.1,715.55
63562,3199.1,1555.4
63562,3449.1,1303.4
63562,3699.1,1052.4
63562,3949.1,803.45
63562,4199.1,555.45
63562,3449.1,1303.4
63562,3699.1,1051.4
63562,3949.1,800.45
63562,4199.1,551.45
63562,4449.1,303.45
63562,3699.1,1052.4
63562,3949.1,800.45
63562,4199.1,549.45
63562,4449.1,300.45
63562,4699.1,52.448
63562,3949.1,803.45
63562,4199.1,551.45
63562,4449.1,300.45
63562,4699.1,51.448
63562,4949.1,214.55
63562,4199.1,555.45
63562,4449.1,303.45
63562,4699.1,52.448
63562,4949.1,214.55
63562,5199.1,466.55
63562,3449.1,1303.4
63562,3699.1,1051.4
63562,3949.1,800.45
63562,4199.1,551.45
63562,4449.1,303.45
63562,3699.1,1051.4
63562,3949.1,799.45
63562,4199.1,548.45
63562,4449.1,299.45
63562,4699.1,51.448
63562,3949.1,800.45
63562,4199.1,548.45
63562,4449.1,297.45
63562,4699.1,48.448
63562,4949.1,211.55
63562,4199.1,551.45
63562,4449.1,299.45
63562,4699.1,48.448
63562,4949.1,210.55
63562,5199.1,462.55
63562,4449.1,303.45
63562,4699.1,51.448
63562,4949.1,211.55
63562,5199.1,462.55
63562,5449.1,714.55
63562,3449.1,1304.4
63562,3699.1,1052.4
63562,3949.1,801.45
63562,4199.1,552.45
63562,4449.1,304.45
63562,3699.1,1052.4
63562,3949.1,800.45
63562,4199.1,549.45
63562,4449.1,300.45
63562,4699.1,52.448
63562,3949.1,801.45
63562,4199.1,549.45
63562,4449.1,298.45
63562,4699.1,49.448
63562,4949.1,212.55
63562,4199.1,552.45
63562,4449.1,300.45
63562,4699.1,49.448
63562,4949.1,211.55
63562,5199.1,463.55
63562,4449.1,304.45
63562,4699.1,52.448
63562,4949.1,212.55
63562,5199.1,463.55
63562,5449.1,715.55
63562,3199.1,1556.4
63562,3449.1,1304.4
63562,3699.1,1053.4
63562,3949.1,804.45
63562,4199.1,556.45
63562,3449.1,1304.4
63562,3699.1,1052.4
63562,3949.1,801.45
63562,4199.1,552.45
63562,4449.1,304.45
63562,3699.1,1053.4
63562,3949.1,801.45
63562,4199.1,550.45
63562,4449.1,301.45
63562,4699.1,53.448
63562,3949.1,804.45
63562,4199.1,552.45
63562,4449.1,301.45
63562,4699.1,52.448
63562,4949.1,215.55
63562,4199.1,556.45
63562,4449.1,304.45
63562,4699.1,53.448
63562,4949.1,215.55
63562,5199.1,467.55
63562,3449.1,1304.4
63562,3699.1,1052.4
63562,3949.1,801.45
63562,4199.1,552.45
63562,4449.1,304.45
63562,3699.1,1052.4
63562,3949.1,800.45
63562,4199.1,549.45
63562,4449.1,300.45
63562,4699.1,52.448
63562,3949.1,801.45
63562,4199.1,549.45
63562,4449.1,298.45
63562,4699.1,49.448
63562,4949.1,212.55
63562,4199.1,552.45
63562,4449.1,300.45
63562,4699.1,49.448
63562,4949.1,211.55
63562,5199.1,463.55
63562,4449.1,304.45
63562,4699.1,52.448
63562,4949.1,212.55
63562,5199.1,463.55
63562,5449.1,715.55
63562,3449.1,1304.4
63562,3699.1,1052.4
63562,3949.1,801.45
63562,4199.1,552.45
63562,4449.1,304.45
63562,3699.1,1052.4
63562,3949.1,800.45
63562,4199.1,549.45
63562,4449.1,300.45
63562,4699.1,52.448
63562,3949.1,801.45
63562,4199.1,549.45
63562,4449.1,298.45
63562,4699.1,49.448
63562,4949.1,212.55
63562,4199.1,552.45
63562,4449.1,300.45
63562,4699.1,49.448
63562,4949.1,211.55
63562,5199.1,463.55
63562,4449.1,304.45
63562,4699.1,52.448
63562,4949.1,212.55
63562,5199.1,463.55
63562,5449.1,715.55
63562,3449.1,1307.4
63562,3699.1,1055.4
63562,3949.1,804.45
63562,4199.1,555.45
63562,4449.1,307.45
63562,3699.1,1055.4
63562,3949.1,803.45
63562,4199.1,552.45
63562,4449.1,303.45
63562,4699.1,55.448
63562,3949.1,804.45
63562,4199.1,552.45
63562,4449.1,301.45
63562,4699.1,52.448
63562,4949.1,215.55
63562,4199.1,555.45
63562,4449.1,303.45
63562,4699.1,52.448
63562,4949.1,214.55
63562,5199.1,466.55
63562,4449.1,307.45
63562,4699.1,55.448
63562,4949.1,215.55
63562,5199.1,466.55
63562,5449.1,718.55
63562,2949.1,1810.4
63562,3199.1,1558.4
63562,3449.1,1307.4
63562,3699.1,1058.4
63562,3949.1,810.45
63562,3199.1,1558.4
63562,3449.1,1306.4
63562,3699.1,1055.4
63562,3949.1,806.45
63562,4199.1,558.45
63562,3449.1,1307.4
63562,3699.1,1055.4
63562,3949.1,804.45
63562,4199.1,555.45
63562,4449.1,307.45
63562,3699.1,1058.4
63562,3949.1,806.45
63562,4199.1,555.45
63562,4449.1,306.45
63562,4699.1,58.448
63562,3949.1,810.45
63562,4199.1,558.45
63562,4449.1,307.45
63562,4699.1,58.448
63562,4949.1,221.55
63562,3199.1,1558.4
63562,3449.1,1306.4
63562,3699.1,1055.4
63562,3949.1,806.45
63562,4199.1,558.45
63562,3449.1,1306.4
63562,3699.1,1054.4
63562,3949.1,803.45
63562,4199.1,554.45
63562,4449.1,306.45
63562,3699.1,1055.4
63562,3949.1,803.45
63562,4199.1,552.45
63562,4449.1,303.45
63562,4699.1,55.448
63562,3949.1,806.45
63562,4199.1,554.45
63562,4449.1,303.45
63562,4699.1,54.448
63562,4949.1,217.55
63562,4199.1,558.45
63562,4449.1,306.45
63562,4699.1,55.448
63562,4949.1,217.55
63562,5199.1,469.55
63562,3449.1,1307.4
63562,3699.1,1055.4
63562,3949.1,804.45
63562,4199.1,555.45
63562,4449.1,307.45
63562,3699.1,1055.4
63562,3949.1,803.45
63562,4199.1,552.45
63562,4449.1,303.45
63562,4699.1,55.448
63562,3949.1,804.45
63562,4199.1,552.45
63562,4449.1,301.45
63562,4699.1,52.448
63562,4949.1,215.55
63562,4199.1,555.45
63562,4449.1,303.45
63562,4699.1,52.448
63562,4949.1,214.55
63562,5199.1,466.55
63562,4449.1,307.45
63562,4699.1,55.448
63562,4949.1,215.55
63562,5199.1,466.55
63562,5449.1,718.55
63562,3199.1,1558.4
63562,3449.1,1306.4
63562,3699.1,1055.4
63562,3949.1,806.45
63562,4199.1,558.45
63562,3449.1,1306.4
63562,3699.1,1054.4
63562,3949.1,803.45
63562,4199.1,554.45
63562,4449.1,306.45
63562,3699.1,1055.4
63562,3949.1,803.45
63562,4199.1,552.45
63562,4449.1,303.45
63562,4699.1,55.448
63562,3949.1,806.45
63562,4199.1,554.45
63562,4449.1,303.45
63562,4699.1,54.448
63562,4949.1,217.55
63562,4199.1,558.45
63562,4449.1,306.45
63562,4699.1,55.448
63562,4949.1,217.55
63562,5199.1,469.55
63562,3449.1,1306.4
63562,3699.1,1054.4
63562,3949.1,803.45
63562,4199.1,554.45
63562,4449.1,306.45
63562,3699.1,1054.4
63562,3949.1,802.45
63562,4199.1,551.45
63562,4449.1,302.45
63562,4699.1,54.448
63562,3949.1,803.45
63562,4199.1,551.45
63562,4449.1,300.45
63562,4699.1,51.448
63562,4949.1,214.55
63562,4199.1,554.45
63562,4449.1,302.45
63562,4699.1,51.448
63562,4949.1,213.55
63562,5199.1,465.55
63562,4449.1,306.45
63562,4699.1,54.448
63562,4949.1,214.55
63562,5199.1,465.55
63562,5449.1,717.55
63562,3449.1,1307.4
63562,3699.1,1055.4
63562,3949.1,804.45
63562,4199.1,555.45
63562,4449.1,307.45
63562,3699.1,1055.4
63562,3949.1,803.45
63562,4199.1,552.45
63562,4449.1,303.45
63562,4699.1,55.448
63562,3949.1,804.45
63562,4199.1,552.45
63562,4449.1,301.45
63562,4699.1,52.448
63562,4949.1,215.55
63562,4199.1,555.45
63562,4449.1,303.45
63562,4699.1,52.448
63562,4949.1,214.55
63562,5199.1,466.55
63562,4449.1,307.45
63562,4699.1,55.448
63562,4949.1,215.55
63562,5199.1,466.55
63562,5449.1,718.55
63562,3199.1,1558.4
63562,3449.1,1306.4
63562,3699.1,1055.4
63562,3949.1,806.45
63562,4199.1,558.45
63562,3449.1,1306.4
63562,3699.1,1054.4
63562,3949.1,803.45
63562,4199.1,554.45
63562,4449.1,306.45
63562,3699.1,1055.4
63562,3949.1,803.45
63562,4199.1,552.45
63562,4449.1,303.45
63562,4699.1,55.448
63562,3949.1,806.45
63562,4199.1,554.45
63562,4449.1,303.45
63562,4699.1,54.448
63562,4949.1,217.55
63562,4199.1,558.45
63562,4449.1,306.45
63562,4699.1,55.448
63562,4949.1,217.55
63562,5199.1,469.55
63562,3449.1,1306.4
63562,3699.1,1054.4
63562,3949.1,803.45
63562,4199.1,554.45
63562,4449.1,306.45
63562,3699.1,1054.4
63562,3949.1,802.45
63562,4199.1,551.45
63562,4449.1,302.45
63562,4699.1,54.448
63562,3949.1,803.45
63562,4199.1,551.45
63562,4449.1,300.45
63562,4699.1,51.448
63562,4949.1,214.55
63562,4199.1,554.45
63562,4449.1,302.45
63562,4699.1,51.448
63562,4949.1,213.55
63562,5199.1,465.55
63562,4449.1,306.45
63562,4699.1,54.448
63562,4949.1,214.55
63562,5199.1,465.55
63562,5449.1,717.55
63562,3449.1,1306.4
63562,3699.1,1054.4
63562,3949.1,803.45
63562,4199.1,554.45
63562,4449.1,306.45
63562,3699.1,1054.4
63562,3949.1,802.45
63562,4199.1,551.45
63562,4449.1,302.45
63562,4699.1,54.448
63562,3949.1,803.45
63562,4199.1,551.45
63562,4449.1,300.45
63562,4699.1,51.448
63562,4949.1,214.55
63562,4199.1,554.45
63562,4449.1,302.45
63562,4699.1,51.448
63562,4949.1,213.55
63562,5199.1,465.55
63562,4449.1,306.45
63562,4699.1,54.448
63562,4949.1,214.55
63562,5199.1,465.55
63562,5449.1,717.55
63562,3449.1,1307.4
63562,3699.1,1055.4
63562,3949.1,804.45
63562,4199.1,555.45
63562,4449.1,307.45
63562,3699.1,1055.4
63562,3949.1,803.45
63562,4199.1,552.45
63562,4449.1,303.45
63562,4699.1,55.448
63562,3949.1,804.45
63562,4199.1,552.45
63562,4449.1,301.45
63562,4699.1,52.448
63562,4949.1,215.55
63562,4199.1,555.45
63562,4449.1,303.45
63562,4699.1,52.448
63562,4949.1,214.55
63562,5199.1,466.55
63562,4449.1,307.45
63562,4699.1,55.448
63562,4949.1,215.55
63562,5199.1,466.55
63562,5449.1,718.55
63562,5949.1,1221.6
63562,6199.1,1469.6
63562,6449.1,1718.6
63562,6699.1,1969.6
63562,6949.1,2221.6
63562,5949.1,1217.6
63562,6199.1,1465.6
63562,6449.1,1714.6
63562,6699.1,1965.6
63562,6949.1,2217.6
63562,6199.1,1469.6
63562,6449.1,1717.6
63562,6699.1,1966.6
63562,6949.1,2217.6
63562,7199.1,2469.6
63562,5949.1,1215.6
63562,6199.1,1463.6
63562,6449.1,1712.6
63562,6699.1,1963.6
63562,6949.1,2215.6
63562,6199.1,1466.6
63562,6449.1,1714.6
63562,6699.1,1963.6
63562,6949.1,2214.6
63562,7199.1,2466.6
63562,6449.1,1718.6
63562,6699.1,1966.6
63562,6949.1,2215.6
63562,7199.1,2466.6
63562,7449.1,2718.6
63562,5949.1,1217.6
63562,6199.1,1465.6
63562,6449.1,1714.6
63562,6699.1,1965.6
63562,6949.1,2217.6
63562,6199.1,1466.6
63562,6449.1,1714.6
63562,6699.1,1963.6
63562,6949.1,2214.6
63562,7199.1,2466.6
63562,6449.1,1717.6
63562,6699.1,1965.6
63562,6949.1,2214.6
63562,7199.1,2465.6
63562,7449.1,2717.6
63562,6699.1,1969.6
63562,6949.1,2217.6
63562,7199.1,2466.6
63562,7449.1,2717.6
63562,7699.1,2969.6
63562,5949.1,1221.6
63562,6199.1,1469.6
63562,6449.1,1718.6
63562,6699.1,1969.6
63562,6949.1,2221.6
63562,6199.1,1469.6
63562,6449.1,1717.6
63562,6699.1,1966.6
63562,6949.1,2217.6
63562,7199.1,2469.6
63562,6449.1,1718.6
63562,6699.1,1966.6
63562,6949.1,2215.6
63562,7199.1,2466.6
63562,7449.1,2718.6
63562,6699.1,1969.6
63562,6949.1,2217.6
63562,7199.1,2466.6
63562,7449.1,2717.6
63562,7699.1,2969.6
63562,6949.1,2221.6
63562,7199.1,2469.6
63562,7449.1,2718.6
63562,7699.1,2969.6
63562,7949.1,3221.6
63562,3199.1,1562.4
63562,3449.1,1310.4
63562,3699.1,1059.4
63562,3949.1,810.45
63562,4199.1,562.45
63562,3449.1,1310.4
63562,3699.1,1058.4
63562,3949.1,807.45
63562,4199.1,558.45
63562,4449.1,310.45
63562,3699.1,1059.4
63562,3949.1,807.45
63562,4199.1,556.45
63562,4449.1,307.45
63562,4699.1,59.448
63562,3949.1,810.45
63562,4199.1,558.45
63562,4449.1,307.45
63562,4699.1,58.448
63562,4949.1,221.55
63562,4199.1,562.45
63562,4449.1,310.45
63562,4699.1,59.448
63562,4949.1,221.55
63562,5199.1,473.55
63562,3449.1,1310.4
63562,3699.1,1058.4
63562,3949.1,807.45
63562,4199.1,558.45
63562,4449.1,310.45
63562,3699.1,1058.4
63562,3949.1,806.45
63562,4199.1,555.45
63562,4449.1,306.45
63562,4699.1,58.448
63562,3949.1,807.45
63562,4199.1,555.45
63562,4449.1,304.45
63562,4699.1,55.448
63562,4949.1,218.55
63562,4199.1,558.45
63562,4449.1,306.45
63562,4699.1,55.448
63562,4949.1,217.55
63562,5199.1,469.55
63562,4449.1,310.45
63562,4699.1,58.448
63562,4949.1,218.55
63562,5199.1,469.55
63562,5449.1,721.55
63562,3449.1,1310.4
63562,3699.1,1058.4
63562,3949.1,807.45
63562,4199.1,558.45
63562,4449.1,310.45
63562,3699.1,1058.4
63562,3949.1,806.45
63562,4199.1,555.45
63562,4449.1,306.45
63562,4699.1,58.448
63562,3949.1,807.45
63562,4199.1,555.45
63562,4449.1,304.45
63562,4699.1,55.448
63562,4949.1,218.55
63562,4199.1,558.45
63562,4449.1,306.45
63562,4699.1,55.448
63562,4949.1,217.55
63562,5199.1,469.55
63562,4449.1,310.45
63562,4699.1,58.448
63562,4949.1,218.55
63562,5199.1,469.55
63562,5449.1,721.55
63562,3449.1,1310.4
63562,3699.1,1058.4
63562,3949.1,807.45
63562,4199.1,558.45
63562,4449.1,310.45
63562,3699.1,1058.4
63562,3949.1,806.45
63562,4199.1,555.45
63562,4449.1,306.45
63562,4699.1,58.448
63562,3949.1,807.45
63562,4199.1,555.45
63562,4449.1,304.45
63562,4699.1,55.448
63562,4949.1,218.55
63562,4199.1,558.45
63562,4449.1,306.45
63562,4699.1,55.448
63562,4949.1,217.55
63562,5199.1,469.55
63562,4449.1,310.45
63562,4699.1,58.448
63562,4949.1,218.55
63562,5199.1,469.55
63562,5449.1,721.55
63562,5949.1,1221.6
63562,6199.1,1469.6
63562,6449.1,1718.6
63562,6699.1,1969.6
63562,6949.1,2221.6
63562,5949.1,1217.6
63562,6199.1,1465.6
63562,6449.1,1714.6
63562,6699.1,1965.6
63562,6949.1,2217.6
63562,6199.1,1469.6
63562,6449.1,1717.6
63562,6699.1,1966.6
63562,6949.1,2217.6
63562,7199.1,2469.6
63562,5949.1,1215.6
63562,6199.1,1463.6
63562,6449.1,1712.6
63562,6699.1,1963.6
63562,6949.1,2215.6
63562,6199.1,1466.6
63562,6449.1,1714.6
63562,6699.1,1963.6
63562,6949.1,2214.6
63562,7199.1,2466.6
63562,6449.1,1718.6
63562,6699.1,1966.6
63562,6949.1,2215.6
63562,7199.1,2466.6
63562,7449.1,2718.6
63562,5949.1,1217.6
63562,6199.1,1465.6
63562,6449.1,1714.6
63562,6699.1,1965.6
63562,6949.1,2217.6
63562,6199.1,1466.6
63562,6449.1,1714.6
63562,6699.1,1963.6
63562,6949.1,2214.6
63562,7199.1,2466.6
63562,6449.1,1717.6
63562,6699.1,1965.6
63562,6949.1,2214.6
63562,7199.1,2465.6
63562,7449.1,2717.6
63562,6699.1,1969.6
63562,6949.1,2217.6
63562,7199.1,2466.6
63562,7449.1,2717.6
63562,7699.1,2969.6
63562,5949.1,1221.6
63562,6199.1,1469.6
63562,6449.1,1718.6
63562,6699.1,1969.6
63562,6949.1,2221.6
63562,6199.1,1469.6
63562,6449.1,1717.6
63562,6699.1,1966.6
63562,6949.1,2217.6
63562,7199.1,2469.6
63562,6449.1,1718.6
63562,6699.1,1966.6
63562,6949.1,2215.6
63562,7199.1,2466.6
63562,7449.1,2718.6
63562,6699.1,1969.6
63562,6949.1,2217.6
63562,7199.1,2466.6
63562,7449.1,2717.6
63562,7699.1,2969.6
63562,6949.1,2221.6
63562,7199.1,2469.6
63562,7449.1,2718.6
63562,7699.1,2969.6
63562,7949.1,3221.6
63562,5949.1,1221.6
63562,6199.1,1469.6
63562,6449.1,1718.6
63562,6699.1,1969.6
63562,6949.1,2221.6
63562,5949.1,1217.6
63562,6199.1,1465.6
63562,6449.1,1714.6
63562,6699.1,1965.6
63562,6949.1,2217.6
63562,6199.1,1469.6
63562,6449.1,1717.6
63562,6699.1,1966.6
63562,6949.1,2217.6
63562,7199.1,2469.6
63562,5949.1,1215.6
63562,6199.1,1463.6
63562,6449.1,1712.6
63562,6699.1,1963.6
63562,6949.1,2215.6
63562,6199.1,1466.6
63562,6449.1,1714.6
63562,6699.1,1963.6
63562,6949.1,2214.6
63562,7199.1,2466.6
63562,6449.1,1718.6
63562,6699.1,1966.6
63562,6949.1,2215.6
63562,7199.1,2466.6
63562,7449.1,2718.6
63562,5949.1,1217.6
63562,6199.1,1465.6
63562,6449.1,1714.6
63562,6699.1,1965.6
63562,6949.1,2217.6
63562,6199.1,1466.6
63562,6449.1,1714.6
63562,6699.1,1963.6
63562,6949.1,2214.6
63562,7199.1,2466.6
63562,6449.1,1717.6
63562,6699.1,1965.6
63562,6949.1,2214.6
63562,7199.1,2465.6
63562,7449.1,2717.6
63562,6699.1,1969.6
63562,6949.1,2217.6
63562,7199.1,2466.6
63562,7449.1,2717.6
63562,7699.1,2969.6
63562,5949.1,1221.6
63562,6199.1,1469.6
63562,6449.1,1718.6
63562,6699.1,1969.6
63562,6949.1,2221.6
63562,6199.1,1469.6
63562,6449.1,1717.6
63562,6699.1,1966.6
63562,6949.1,2217.6
63562,7199.1,2469.6
63562,6449.1,1718.6
63562,6699.1,1966.6
63562,6949.1,2215.6
63562,7199.1,2466.6
63562,7449.1,2718.6
63562,6699.1,1969.6
63562,6949.1,2217.6
63562,7199.1,2466.6
63562,7449.1,2717.6
63562,7699.1,2969.6
63562,6949.1,2221.6
63562,7199.1,2469.6
63562,7449.1,2718.6
63562,7699.1,2969.6
63562,7949.1,3221.6
63562,5949.1,1221.6
63562,6199.1,1469.6
63562,6449.1,1718.6
63562,6699.1,1969.6
63562,6949.1,2221.6
63562,6199.1,1473.6
63562,6449.1,1721.6
63562,6699.1,1970.6
63562,6949.1,2221.6
63562,7199.1,2473.6
63562,5949.1,1218.6
63562,6199.1,1466.6
63562,6449.1,1715.6
63562,6699.1,1966.6
63562,6949.1,2218.6
63562,6199.1,1469.6
63562,6449.1,1717.6
63562,6699.1,1966.6
63562,6949.1,2217.6
63562,7199.1,2469.6
63562,6449.1,1721.6
63562,6699.1,1969.6
63562,6949.1,2218.6
63562,7199.1,2469.6
63562,7449.1,2721.6
63562,5949.1,1218.6
63562,6199.1,1466.6
63562,6449.1,1715.6
63562,6699.1,1966.6
63562,6949.1,2218.6
63562,6199.1,1467.6
63562,6449.1,1715.6
63562,6699.1,1964.6
63562,6949.1,2215.6
63562,7199.1,2467.6
63562,6449.1,1718.6
63562,6699.1,1966.6
63562,6949.1,2215.6
63562,7199.1,2466.6
63562,7449.1,2718.6
63562,6699.1,1970.6
63562,6949.1,2218.6
63562,7199.1,2467.6
63562,7449.1,2718.6
63562,7699.1,2970.6
63562,5949.1,1221.6
63562,6199.1,1469.6
63562,6449.1,1718.6
63562,6699.1,1969.6
63562,6949.1,2221.6
63562,6199.1,1469.6
63562,6449.1,1717.6
63562,6699.1,1966.6
63562,6949.1,2217.6
63562,7199.1,2469.6
63562,6449.1,1718.6
63562,6699.1,1966.6
63562,6949.1,2215.6
63562,7199.1,2466.6
63562,7449.1,2718.6
63562,6699.1,1969.6
63562,6949.1,2217.6
63562,7199.1,2466.6
63562,7449.1,2717.6
63562,7699.1,2969.6
63562,6949.1,2221.6
63562,7199.1,2469.6
63562,7449.1,2718.6
63562,7699.1,2969.6
63562,7949.1,3221.6
63562,6199.1,1473.6
63562,6449.1,1721.6
63562,6699.1,1970.6
63562,6949.1,2221.6
63562,7199.1,2473.6
63562,6449.1,1721.6
63562,6699.1,1969.6
63562,6949.1,2218.6
63562,7199.1,2469.6
63562,7449.1,2721.6
63562,6699.1,1970.6
63562,6949.1,2218.6
63562,7199.1,2467.6
63562,7449.1,2718.6
63562,7699.1,2970.6
63562,6949.1,2221.6
63562,7199.1,2469.6
63562,7449.1,2718.6
63562,7699.1,2969.6
63562,7949.1,3221.6
63562,7199.1,2473.6
63562,7449.1,2721.6
63562,7699.1,2970.6
63562,7949.1,3221.6
63562,8199.1,3473.6
