53171,7047.2,350.62
52370,6547.2,152.38
52370,6797.2,101.62
51569,6297.2,403.38
51569,6547.2,152.38
51569,6797.2,104.62
51569,7047.2,356.62
51569,6297.2,403.38
51569,6547.2,151.38
51569,6797.2,101.62
51569,7047.2,352.62
50768,6047.2,654.38
50768,6297.2,403.38
50768,6547.2,154.38
50768,6797.2,107.62
50768,6047.2,655.38
50768,6297.2,403.38
50768,6547.2,152.38
50768,6797.2,104.62
50768,7047.2,356.62
50768,6297.2,406.38
50768,6547.2,154.38
50768,6797.2,104.62
50768,7047.2,355.62
50768,7297.2,607.62
50768,6547.2,158.38
50768,6797.2,107.62
50768,7047.2,356.62
50768,7297.2,607.62
50768,6047.2,654.38
50768,6297.2,403.38
50768,6547.2,154.38
50768,6797.2,107.62
50768,6047.2,654.38
50768,6297.2,402.38
50768,6547.2,151.38
50768,6797.2,103.62
50768,7047.2,355.62
50768,6297.2,403.38
50768,6547.2,151.38
50768,6797.2,101.62
50768,7047.2,352.62
50768,7297.2,604.62
50768,6547.2,154.38
50768,6797.2,103.62
50768,7047.2,352.62
50768,7297.2,603.62
49967,5547.2,1157.4
49967,5797.2,905.38
49967,6047.2,654.38
49967,6297.2,405.38
49967,6547.2,157.38
49967,5797.2,906.38
49967,6047.2,654.38
49967,6297.2,403.38
49967,6547.2,154.38
49967,6797.2,107.62
49967,6047.2,657.38
49967,6297.2,405.38
49967,6547.2,154.38
49967,6797.2,106.62
49967,7047.2,358.62
49967,6297.2,409.38
49967,6547.2,157.38
49967,6797.2,107.62
49967,7047.2,358.62
49967,7297.2,610.62
49967,5547.2,1158.4
49967,5797.2,906.38
49967,6047.2,655.38
49967,6297.2,406.38
49967,6547.2,158.38
49967,5797.2,906.38
49967,6047.2,654.38
49967,6297.2,403.38
49967,6547.2,154.38
49967,6797.2,107.62
49967,6047.2,655.38
49967,6297.2,403.38
49967,6547.2,152.38
49967,6797.2,104.62
49967,7047.2,356.62
49967,6297.2,406.38
49967,6547.2,154.38
49967,6797.2,104.62
49967,7047.2,355.62
49967,7297.2,607.62
49967,6547.2,158.38
49967,6797.2,107.62
49967,7047.2,356.62
49967,7297.2,607.62
49967,7547.2,859.62
49967,5797.2,909.38
49967,6047.2,657.38
49967,6297.2,406.38
49967,6547.2,157.38
49967,6797.2,110.62
49967,6047.2,657.38
49967,6297.2,405.38
49967,6547.2,154.38
49967,6797.2,106.62
49967,7047.2,358.62
49967,6297.2,406.38
49967,6547.2,154.38
49967,6797.2,104.62
49967,7047.2,355.62
49967,7297.2,607.62
49967,6547.2,157.38
49967,6797.2,106.62
49967,7047.2,355.62
49967,7297.2,606.62
49967,7547.2,858.62
49967,6797.2,110.62
49967,7047.2,358.62
49967,7297.2,607.62
49967,7547.2,858.62
49967,6047.2,661.38
49967,6297.2,409.38
49967,6547.2,158.38
49967,6797.2,110.62
49967,7047.2,362.62
49967,6297.2,409.38
49967,6547.2,157.38
49967,6797.2,107.62
49967,7047.2,358.62
49967,7297.2,610.62
49967,6547.2,158.38
49967,6797.2,107.62
49967,7047.2,356.62
49967,7297.2,607.62
49967,7547.2,859.62
49967,6797.2,110.62
49967,7047.2,358.62
49967,7297.2,607.62
49967,7547.2,858.62
49967,5547.2,1157.4
49967,5797.2,905.38
49967,6047.2,654.38
49967,6297.2,405.38
49967,6547.2,157.38
49967,5797.2,906.38
49967,6047.2,654.38
49967,6297.2,403.38
49967,6547.2,154.38
49967,6797.2,107.62
49967,6047.2,657.38
49967,6297.2,405.38
49967,6547.2,154.38
49967,6797.2,106.62
49967,7047.2,358.62
49967,6297.2,409.38
49967,6547.2,157.38
49967,6797.2,107.62
49967,7047.2,358.62
49967,7297.2,610.62
49967,5547.2,1157.4
49967,5797.2,905.38
49967,6047.2,654.38
49967,6297.2,405.38
49967,6547.2,157.38
49967,5797.2,905.38
49967,6047.2,653.38
49967,6297.2,402.38
49967,6547.2,153.38
49967,6797.2,106.62
49967,6047.2,654.38
49967,6297.2,402.38
49967,6547.2,151.38
49967,6797.2,103.62
49967,7047.2,355.62
49967,6297.2,405.38
49967,6547.2,153.38
49967,6797.2,103.62
49967,7047.2,354.62
49967,7297.2,606.62
49967,6547.2,157.38
49967,6797.2,106.62
49967,7047.2,355.62
49967,7297.2,606.62
49967,7547.2,858.62
49967,5797.2,906.38
49967,6047.2,654.38
49967,6297.2,403.38
49967,6547.2,154.38
49967,6797.2,107.62
49967,6047.2,654.38
49967,6297.2,402.38
49967,6547.2,151.38
49967,6797.2,103.62
49967,7047.2,355.62
49967,6297.2,403.38
49967,6547.2,151.38
49967,6797.2,101.62
49967,7047.2,352.62
49967,7297.2,604.62
49967,6547.2,154.38
49967,6797.2,103.62
49967,7047.2,352.62
49967,7297.2,603.62
49967,7547.2,855.62
49967,6797.2,107.62
49967,7047.2,355.62
49967,7297.2,604.62
49967,7547.2,855.62
49967,6047.2,657.38
49967,6297.2,405.38
49967,6547.2,154.38
49967,6797.2,106.62
49967,7047.2,358.62
49967,6297.2,405.38
49967,6547.2,153.38
49967,6797.2,103.62
49967,7047.2,354.62
49967,7297.2,606.62
49967,6547.2,154.38
49967,6797.2,103.62
49967,7047.2,352.62
49967,7297.2,603.62
49967,7547.2,855.62
49967,6797.2,106.62
49967,7047.2,354.62
49967,7297.2,603.62
49967,7547.2,854.62
49166,5047.2,1660.4
49166,5297.2,1408.4
49166,5547.2,1157.4
49166,5797.2,908.38
49166,6047.2,660.38
49166,5297.2,1408.4
49166,5547.2,1156.4
49166,5797.2,905.38
49166,6047.2,656.38
49166,6297.2,408.38
49166,5547.2,1157.4
49166,5797.2,905.38
49166,6047.2,654.38
49166,6297.2,405.38
49166,6547.2,157.38
49166,5797.2,908.38
49166,6047.2,656.38
49166,6297.2,405.38
49166,6547.2,156.38
49166,6797.2,109.62
49166,6047.2,660.38
49166,6297.2,408.38
49166,6547.2,157.38
49166,6797.2,109.62
49166,7047.2,361.62
49166,5297.2,1409.4
49166,5547.2,1157.4
49166,5797.2,906.38
49166,6047.2,657.38
49166,6297.2,409.38
49166,5547.2,1157.4
49166,5797.2,905.38
49166,6047.2,654.38
49166,6297.2,405.38
49166,6547.2,157.38
49166,5797.2,906.38
49166,6047.2,654.38
49166,6297.2,403.38
49166,6547.2,154.38
49166,6797.2,107.62
49166,6047.2,657.38
49166,6297.2,405.38
49166,6547.2,154.38
49166,6797.2,106.62
49166,7047.2,358.62
49166,6297.2,409.38
49166,6547.2,157.38
49166,6797.2,107.62
49166,7047.2,358.62
49166,7297.2,610.62
49166,5547.2,1160.4
49166,5797.2,908.38
49166,6047.2,657.38
49166,6297.2,408.38
49166,6547.2,160.38
49166,5797.2,908.38
49166,6047.2,656.38
49166,6297.2,405.38
49166,6547.2,156.38
49166,6797.2,109.62
49166,6047.2,657.38
49166,6297.2,405.38
49166,6547.2,154.38
49166,6797.2,106.62
49166,7047.2,358.62
49166,6297.2,408.38
49166,6547.2,156.38
49166,6797.2,106.62
49166,7047.2,357.62
49166,7297.2,609.62
49166,6547.2,160.38
49166,6797.2,109.62
49166,7047.2,358.62
49166,7297.2,609.62
49166,7547.2,861.62
49166,5797.2,912.38
49166,6047.2,660.38
49166,6297.2,409.38
49166,6547.2,160.38
49166,6797.2,113.62
49166,6047.2,660.38
49166,6297.2,408.38
49166,6547.2,157.38
49166,6797.2,109.62
49166,7047.2,361.62
49166,6297.2,409.38
49166,6547.2,157.38
49166,6797.2,107.62
49166,7047.2,358.62
49166,7297.2,610.62
49166,6547.2,160.38
49166,6797.2,109.62
49166,7047.2,358.62
49166,7297.2,609.62
49166,7547.2,861.62
49166,6797.2,113.62
49166,7047.2,361.62
49166,7297.2,610.62
49166,7547.2,861.62
49166,7797.2,1113.6
49166,5047.2,1661.4
49166,5297.2,1409.4
49166,5547.2,1158.4
49166,5797.2,909.38
49166,6047.2,661.38
49166,5297.2,1409.4
49166,5547.2,1157.4
49166,5797.2,906.38
49166,6047.2,657.38
49166,6297.2,409.38
49166,5547.2,1158.4
49166,5797.2,906.38
49166,6047.2,655.38
49166,6297.2,406.38
49166,6547.2,158.38
49166,5797.2,909.38
49166,6047.2,657.38
49166,6297.2,406.38
49166,6547.2,157.38
49166,6797.2,110.62
49166,6047.2,661.38
49166,6297.2,409.38
49166,6547.2,158.38
49166,6797.2,110.62
49166,7047.2,362.62
49166,5297.2,1409.4
49166,5547.2,1157.4
49166,5797.2,906.38
49166,6047.2,657.38
49166,6297.2,409.38
49166,5547.2,1157.4
49166,5797.2,905.38
49166,6047.2,654.38
49166,6297.2,405.38
49166,6547.2,157.38
49166,5797.2,906.38
49166,6047.2,654.38
49166,6297.2,403.38
49166,6547.2,154.38
49166,6797.2,107.62
49166,6047.2,657.38
49166,6297.2,405.38
49166,6547.2,154.38
49166,6797.2,106.62
49166,7047.2,358.62
49166,6297.2,409.38
49166,6547.2,157.38
49166,6797.2,107.62
49166,7047.2,358.62
49166,7297.2,610.62
49166,5547.2,1158.4
49166,5797.2,906.38
49166,6047.2,655.38
49166,6297.2,406.38
49166,6547.2,158.38
49166,5797.2,906.38
49166,6047.2,654.38
49166,6297.2,403.38
49166,6547.2,154.38
49166,6797.2,107.62
49166,6047.2,655.38
49166,6297.2,403.38
49166,6547.2,152.38
49166,6797.2,104.62
49166,7047.2,356.62
49166,6297.2,406.38
49166,6547.2,154.38
49166,6797.2,104.62
49166,7047.2,355.62
49166,7297.2,607.62
49166,6547.2,158.38
49166,6797.2,107.62
49166,7047.2,356.62
49166,7297.2,607.62
49166,7547.2,859.62
49166,5797.2,909.38
49166,6047.2,657.38
49166,6297.2,406.38
49166,6547.2,157.38
49166,6797.2,110.62
49166,6047.2,657.38
49166,6297.2,405.38
49166,6547.2,154.38
49166,6797.2,106.62
49166,7047.2,358.62
49166,6297.2,406.38
49166,6547.2,154.38
49166,6797.2,104.62
49166,7047.2,355.62
49166,7297.2,607.62
49166,6547.2,157.38
49166,6797.2,106.62
49166,7047.2,355.62
49166,7297.2,606.62
49166,7547.2,858.62
49166,6797.2,110.62
49166,7047.2,358.62
49166,7297.2,607.62
49166,7547.2,858.62
49166,7797.2,1110.6
49166,6047.2,661.38
49166,6297.2,409.38
49166,6547.2,158.38
49166,6797.2,110.62
49166,7047.2,362.62
49166,6297.2,409.38
49166,6547.2,157.38
49166,6797.2,107.62
49166,7047.2,358.62
49166,7297.2,610.62
49166,6547.2,158.38
49166,6797.2,107.62
49166,7047.2,356.62
49166,7297.2,607.62
49166,7547.2,859.62
49166,6797.2,110.62
49166,7047.2,358.62
49166,7297.2,607.62
49166,7547.2,858.62
49166,7797.2,1110.6
49166,7047.2,362.62
49166,7297.2,610.62
49166,7547.2,859.62
49166,7797.2,1110.6
49166,5297.2,1412.4
49166,5547.2,1160.4
49166,5797.2,909.38
49166,6047.2,660.38
49166,6297.2,412.38
49166,5547.2,1160.4
49166,5797.2,908.38
49166,6047.2,657.38
49166,6297.2,408.38
49166,6547.2,160.38
49166,5797.2,909.38
49166,6047.2,657.38
49166,6297.2,406.38
49166,6547.2,157.38
49166,6797.2,110.62
49166,6047.2,660.38
49166,6297.2,408.38
49166,6547.2,157.38
49166,6797.2,109.62
49166,7047.2,361.62
49166,6297.2,412.38
49166,6547.2,160.38
49166,6797.2,110.62
49166,7047.2,361.62
49166,7297.2,613.62
49166,5547.2,1160.4
49166,5797.2,908.38
49166,6047.2,657.38
49166,6297.2,408.38
49166,6547.2,160.38
49166,5797.2,908.38
49166,6047.2,656.38
49166,6297.2,405.38
49166,6547.2,156.38
49166,6797.2,109.62
49166,6047.2,657.38
49166,6297.2,405.38
49166,6547.2,154.38
49166,6797.2,106.62
49166,7047.2,358.62
49166,6297.2,408.38
49166,6547.2,156.38
49166,6797.2,106.62
49166,7047.2,357.62
49166,7297.2,609.62
49166,6547.2,160.38
49166,6797.2,109.62
49166,7047.2,358.62
49166,7297.2,609.62
49166,7547.2,861.62
49166,5797.2,909.38
49166,6047.2,657.38
49166,6297.2,406.38
49166,6547.2,157.38
49166,6797.2,110.62
49166,6047.2,657.38
49166,6297.2,405.38
49166,6547.2,154.38
49166,6797.2,106.62
49166,7047.2,358.62
49166,6297.2,406.38
49166,6547.2,154.38
49166,6797.2,104.62
49166,7047.2,355.62
49166,7297.2,607.62
49166,6547.2,157.38
49166,6797.2,106.62
49166,7047.2,355.62
49166,7297.2,606.62
49166,7547.2,858.62
49166,6797.2,110.62
49166,7047.2,358.62
49166,7297.2,607.62
49166,7547.2,858.62
49166,7797.2,1110.6
49166,6047.2,660.38
49166,6297.2,408.38
49166,6547.2,157.38
49166,6797.2,109.62
49166,7047.2,361.62
49166,6297.2,408.38
49166,6547.2,156.38
49166,6797.2,106.62
49166,7047.2,357.62
49166,7297.2,609.62
49166,6547.2,157.38
49166,6797.2,106.62
49166,7047.2,355.62
49166,7297.2,606.62
49166,7547.2,858.62
49166,6797.2,109.62
49166,7047.2,357.62
49166,7297.2,606.62
49166,7547.2,857.62
49166,7797.2,1109.6
49166,7047.2,361.62
49166,7297.2,609.62
49166,7547.2,858.62
49166,7797.2,1109.6
49166,6297.2,412.38
49166,6547.2,160.38
49166,6797.2,110.62
49166,7047.2,361.62
49166,7297.2,613.62
49166,6547.2,160.38
49166,6797.2,109.62
49166,7047.2,358.62
49166,7297.2,609.62
49166,7547.2,861.62
49166,6797.2,110.62
49166,7047.2,358.62
49166,7297.2,607.62
49166,7547.2,858.62
49166,7797.2,1110.6
49166,7047.2,361.62
49166,7297.2,609.62
49166,7547.2,858.62
49166,7797.2,1109.6
49166,5547.2,1164.4
49166,5797.2,912.38
49166,6047.2,661.38
49166,6297.2,412.38
49166,6547.2,164.38
49166,5797.2,912.38
49166,6047.2,660.38
49166,6297.2,409.38
49166,6547.2,160.38
49166,6797.2,113.62
49166,6047.2,661.38
49166,6297.2,409.38
49166,6547.2,158.38
49166,6797.2,110.62
49166,7047.2,362.62
49166,6297.2,412.38
49166,6547.2,160.38
49166,6797.2,110.62
49166,7047.2,361.62
49166,7297.2,613.62
49166,6547.2,164.38
49166,6797.2,113.62
49166,7047.2,362.62
49166,7297.2,613.62
49166,7547.2,865.62
49166,5797.2,912.38
49166,6047.2,660.38
49166,6297.2,409.38
49166,6547.2,160.38
49166,6797.2,113.62
49166,6047.2,660.38
49166,6297.2,408.38
49166,6547.2,157.38
49166,6797.2,109.62
49166,7047.2,361.62
49166,6297.2,409.38
49166,6547.2,157.38
49166,6797.2,107.62
49166,7047.2,358.62
49166,7297.2,610.62
49166,6547.2,160.38
49166,6797.2,109.62
49166,7047.2,358.62
49166,7297.2,609.62
49166,7547.2,861.62
49166,6797.2,113.62
49166,7047.2,361.62
49166,7297.2,610.62
49166,7547.2,861.62
49166,7797.2,1113.6
49166,6047.2,661.38
49166,6297.2,409.38
49166,6547.2,158.38
49166,6797.2,110.62
49166,7047.2,362.62
49166,6297.2,409.38
49166,6547.2,157.38
49166,6797.2,107.62
49166,7047.2,358.62
49166,7297.2,610.62
49166,6547.2,158.38
49166,6797.2,107.62
49166,7047.2,356.62
49166,7297.2,607.62
49166,7547.2,859.62
49166,6797.2,110.62
49166,7047.2,358.62
49166,7297.2,607.62
49166,7547.2,858.62
49166,7797.2,1110.6
49166,7047.2,362.62
49166,7297.2,610.62
49166,7547.2,859.62
49166,7797.2,1110.6
49166,6297.2,412.38
49166,6547.2,160.38
49166,6797.2,110.62
49166,7047.2,361.62
49166,7297.2,613.62
49166,6547.2,160.38
49166,6797.2,109.62
49166,7047.2,358.62
49166,7297.2,609.62
49166,7547.2,861.62
49166,6797.2,110.62
49166,7047.2,358.62
49166,7297.2,607.62
49166,7547.2,858.62
49166,7797.2,1110.6
49166,7047.2,361.62
49166,7297.2,609.62
49166,7547.2,858.62
49166,7797.2,1109.6
49166,5047.2,1660.4
49166,5297.2,1408.4
49166,5547.2,1157.4
49166,5797.2,908.38
49166,6047.2,660.38
49166,5297.2,1408.4
49166,5547.2,1156.4
49166,5797.2,905.38
49166,6047.2,656.38
49166,6297.2,408.38
49166,5547.2,1157.4
49166,5797.2,905.38
49166,6047.2,654.38
49166,6297.2,405.38
49166,6547.2,157.38
49166,5797.2,908.38
49166,6047.2,656.38
49166,6297.2,405.38
49166,6547.2,156.38
49166,6797.2,109.62
49166,6047.2,660.38
49166,6297.2,408.38
49166,6547.2,157.38
49166,6797.2,109.62
49166,7047.2,361.62
49166,5297.2,1409.4
49166,5547.2,1157.4
49166,5797.2,906.38
49166,6047.2,657.38
49166,6297.2,409.38
49166,5547.2,1157.4
49166,5797.2,905.38
49166,6047.2,654.38
49166,6297.2,405.38
49166,6547.2,157.38
49166,5797.2,906.38
49166,6047.2,654.38
49166,6297.2,403.38
49166,6547.2,154.38
49166,6797.2,107.62
49166,6047.2,657.38
49166,6297.2,405.38
49166,6547.2,154.38
49166,6797.2,106.62
49166,7047.2,358.62
49166,6297.2,409.38
49166,6547.2,157.38
49166,6797.2,107.62
49166,7047.2,358.62
49166,7297.2,610.62
49166,5547.2,1160.4
49166,5797.2,908.38
49166,6047.2,657.38
49166,6297.2,408.38
49166,6547.2,160.38
49166,5797.2,908.38
49166,6047.2,656.38
49166,6297.2,405.38
49166,6547.2,156.38
49166,6797.2,109.62
49166,6047.2,657.38
49166,6297.2,405.38
49166,6547.2,154.38
49166,6797.2,106.62
49166,7047.2,358.62
49166,6297.2,408.38
49166,6547.2,156.38
49166,6797.2,106.62
49166,7047.2,357.62
49166,7297.2,609.62
49166,6547.2,160.38
49166,6797.2,109.62
49166,7047.2,358.62
49166,7297.2,609.62
49166,7547.2,861.62
49166,5797.2,912.38
49166,6047.2,660.38
49166,6297.2,409.38
49166,6547.2,160.38
49166,6797.2,113.62
49166,6047.2,660.38
49166,6297.2,408.38
49166,6547.2,157.38
49166,6797.2,109.62
49166,7047.2,361.62
49166,6297.2,409.38
49166,6547.2,157.38
49166,6797.2,107.62
49166,7047.2,358.62
49166,7297.2,610.62
49166,6547.2,160.38
49166,6797.2,109.62
49166,7047.2,358.62
49166,7297.2,609.62
49166,7547.2,861.62
49166,6797.2,113.62
49166,7047.2,361.62
49166,7297.2,610.62
49166,7547.2,861.62
49166,7797.2,1113.6
49166,5047.2,1660.4
49166,5297.2,1408.4
49166,5547.2,1157.4
49166,5797.2,908.38
49166,6047.2,660.38
49166,5297.2,1408.4
49166,5547.2,1156.4
49166,5797.2,905.38
49166,6047.2,656.38
49166,6297.2,408.38
49166,5547.2,1157.4
49166,5797.2,905.38
49166,6047.2,654.38
49166,6297.2,405.38
49166,6547.2,157.38
49166,5797.2,908.38
49166,6047.2,656.38
49166,6297.2,405.38
49166,6547.2,156.38
49166,6797.2,109.62
49166,6047.2,660.38
49166,6297.2,408.38
49166,6547.2,157.38
49166,6797.2,109.62
49166,7047.2,361.62
49166,5297.2,1408.4
49166,5547.2,1156.4
49166,5797.2,905.38
49166,6047.2,656.38
49166,6297.2,408.38
49166,5547.2,1156.4
49166,5797.2,904.38
49166,6047.2,653.38
49166,6297.2,404.38
49166,6547.2,156.38
49166,5797.2,905.38
49166,6047.2,653.38
49166,6297.2,402.38
49166,6547.2,153.38
49166,6797.2,106.62
49166,6047.2,656.38
49166,6297.2,404.38
49166,6547.2,153.38
49166,6797.2,105.62
49166,7047.2,357.62
49166,6297.2,408.38
49166,6547.2,156.38
49166,6797.2,106.62
49166,7047.2,357.62
49166,7297.2,609.62
49166,5547.2,1157.4
49166,5797.2,905.38
49166,6047.2,654.38
49166,6297.2,405.38
49166,6547.2,157.38
49166,5797.2,905.38
49166,6047.2,653.38
49166,6297.2,402.38
49166,6547.2,153.38
49166,6797.2,106.62
49166,6047.2,654.38
49166,6297.2,402.38
49166,6547.2,151.38
49166,6797.2,103.62
49166,7047.2,355.62
49166,6297.2,405.38
49166,6547.2,153.38
49166,6797.2,103.62
49166,7047.2,354.62
49166,7297.2,606.62
49166,6547.2,157.38
49166,6797.2,106.62
49166,7047.2,355.62
49166,7297.2,606.62
49166,7547.2,858.62
49166,5797.2,908.38
49166,6047.2,656.38
49166,6297.2,405.38
49166,6547.2,156.38
49166,6797.2,109.62
49166,6047.2,656.38
49166,6297.2,404.38
49166,6547.2,153.38
49166,6797.2,105.62
49166,7047.2,357.62
49166,6297.2,405.38
49166,6547.2,153.38
49166,6797.2,103.62
49166,7047.2,354.62
49166,7297.2,606.62
49166,6547.2,156.38
49166,6797.2,105.62
49166,7047.2,354.62
49166,7297.2,605.62
49166,7547.2,857.62
49166,6797.2,109.62
49166,7047.2,357.62
49166,7297.2,606.62
49166,7547.2,857.62
49166,7797.2,1109.6
49166,6047.2,660.38
49166,6297.2,408.38
49166,6547.2,157.38
49166,6797.2,109.62
49166,7047.2,361.62
49166,6297.2,408.38
49166,6547.2,156.38
49166,6797.2,106.62
49166,7047.2,357.62
49166,7297.2,609.62
49166,6547.2,157.38
49166,6797.2,106.62
49166,7047.2,355.62
49166,7297.2,606.62
49166,7547.2,858.62
49166,6797.2,109.62
49166,7047.2,357.62
49166,7297.2,606.62
49166,7547.2,857.62
49166,7797.2,1109.6
49166,7047.2,361.62
49166,7297.2,609.62
49166,7547.2,858.62
49166,7797.2,1109.6
49166,5297.2,1409.4
49166,5547.2,1157.4
49166,5797.2,906.38
49166,6047.2,657.38
49166,6297.2,409.38
49166,5547.2,1157.4
49166,5797.2,905.38
49166,6047.2,654.38
49166,6297.2,405.38
49166,6547.2,157.38
49166,5797.2,906.38
49166,6047.2,654.38
49166,6297.2,403.38
49166,6547.2,154.38
49166,6797.2,107.62
49166,6047.2,657.38
49166,6297.2,405.38
49166,6547.2,154.38
49166,6797.2,106.62
49166,7047.2,358.62
49166,6297.2,409.38
49166,6547.2,157.38
49166,6797.2,107.62
49166,7047.2,358.62
49166,7297.2,610.62
49166,5547.2,1157.4
49166,5797.2,905.38
49166,6047.2,654.38
49166,6297.2,405.38
49166,6547.2,157.38
49166,5797.2,905.38
49166,6047.2,653.38
49166,6297.2,402.38
49166,6547.2,153.38
49166,6797.2,106.62
49166,6047.2,654.38
49166,6297.2,402.38
49166,6547.2,151.38
49166,6797.2,103.62
49166,7047.2,355.62
49166,6297.2,405.38
49166,6547.2,153.38
49166,6797.2,103.62
49166,7047.2,354.62
49166,7297.2,606.62
49166,6547.2,157.38
49166,6797.2,106.62
49166,7047.2,355.62
49166,7297.2,606.62
49166,7547.2,858.62
49166,5797.2,906.38
49166,6047.2,654.38
49166,6297.2,403.38
49166,6547.2,154.38
49166,6797.2,107.62
49166,6047.2,654.38
49166,6297.2,402.38
49166,6547.2,151.38
49166,6797.2,103.62
49166,7047.2,355.62
49166,6297.2,403.38
49166,6547.2,151.38
49166,6797.2,101.62
49166,7047.2,352.62
49166,7297.2,604.62
49166,6547.2,154.38
49166,6797.2,103.62
49166,7047.2,352.62
49166,7297.2,603.62
49166,7547.2,855.62
49166,6797.2,107.62
49166,7047.2,355.62
49166,7297.2,604.62
49166,7547.2,855.62
49166,7797.2,1107.6
49166,6047.2,657.38
49166,6297.2,405.38
49166,6547.2,154.38
49166,6797.2,106.62
49166,7047.2,358.62
49166,6297.2,405.38
49166,6547.2,153.38
49166,6797.2,103.62
49166,7047.2,354.62
49166,7297.2,606.62
49166,6547.2,154.38
49166,6797.2,103.62
49166,7047.2,352.62
49166,7297.2,603.62
49166,7547.2,855.62
49166,6797.2,106.62
49166,7047.2,354.62
49166,7297.2,603.62
49166,7547.2,854.62
49166,7797.2,1106.6
49166,7047.2,358.62
49166,7297.2,606.62
49166,7547.2,855.62
49166,7797.2,1106.6
49166,6297.2,409.38
49166,6547.2,157.38
49166,6797.2,107.62
49166,7047.2,358.62
49166,7297.2,610.62
49166,6547.2,157.38
49166,6797.2,106.62
49166,7047.2,355.62
49166,7297.2,606.62
49166,7547.2,858.62
49166,6797.2,107.62
49166,7047.2,355.62
49166,7297.2,604.62
49166,7547.2,855.62
49166,7797.2,1107.6
49166,7047.2,358.62
49166,7297.2,606.62
49166,7547.2,855.62
49166,7797.2,1106.6
49166,5547.2,1160.4
49166,5797.2,908.38
49166,6047.2,657.38
49166,6297.2,408.38
49166,6547.2,160.38
49166,5797.2,908.38
49166,6047.2,656.38
49166,6297.2,405.38
49166,6547.2,156.38
49166,6797.2,109.62
49166,6047.2,657.38
49166,6297.2,405.38
49166,6547.2,154.38
49166,6797.2,106.62
49166,7047.2,358.62
49166,6297.2,408.38
49166,6547.2,156.38
49166,6797.2,106.62
49166,7047.2,357.62
49166,7297.2,609.62
49166,6547.2,160.38
49166,6797.2,109.62
49166,7047.2,358.62
49166,7297.2,609.62
49166,7547.2,861.62
49166,5797.2,908.38
49166,6047.2,656.38
49166,6297.2,405.38
49166,6547.2,156.38
49166,6797.2,109.62
49166,6047.2,656.38
49166,6297.2,404.38
49166,6547.2,153.38
49166,6797.2,105.62
49166,7047.2,357.62
49166,6297.2,405.38
49166,6547.2,153.38
49166,6797.2,103.62
49166,7047.2,354.62
49166,7297.2,606.62
49166,6547.2,156.38
49166,6797.2,105.62
49166,7047.2,354.62
49166,7297.2,605.62
49166,7547.2,857.62
49166,6797.2,109.62
49166,7047.2,357.62
49166,7297.2,606.62
49166,7547.2,857.62
49166,7797.2,1109.6
49166,6047.2,657.38
49166,6297.2,405.38
49166,6547.2,154.38
49166,6797.2,106.62
49166,7047.2,358.62
49166,6297.2,405.38
49166,6547.2,153.38
49166,6797.2,103.62
49166,7047.2,354.62
49166,7297.2,606.62
49166,6547.2,154.38
49166,6797.2,103.62
49166,7047.2,352.62
49166,7297.2,603.62
49166,7547.2,855.62
49166,6797.2,106.62
49166,7047.2,354.62
49166,7297.2,603.62
49166,7547.2,854.62
49166,7797.2,1106.6
49166,7047.2,358.62
49166,7297.2,606.62
49166,7547.2,855.62
49166,7797.2,1106.6
49166,6297.2,408.38
49166,6547.2,156.38
49166,6797.2,106.62
49166,7047.2,357.62
49166,7297.2,609.62
49166,6547.2,156.38
49166,6797.2,105.62
49166,7047.2,354.62
49166,7297.2,605.62
49166,7547.2,857.62
49166,6797.2,106.62
49166,7047.2,354.62
49166,7297.2,603.62
49166,7547.2,854.62
49166,7797.2,1106.6
49166,7047.2,357.62
49166,7297.2,605.62
49166,7547.2,854.62
49166,7797.2,1105.6
48365,4547.2,2163.4
48365,4797.2,1911.4
48365,5047.2,1660.4
48365,5297.2,1411.4
48365,5547.2,1163.4
48365,4797.2,1911.4
48365,5047.2,1659.4
48365,5297.2,1408.4
48365,5547.2,1159.4
48365,5797.2,911.38
48365,5047.2,1660.4
48365,5297.2,1408.4
48365,5547.2,1157.4
48365,5797.2,908.38
48365,6047.2,660.38
48365,5297.2,1411.4
48365,5547.2,1159.4
48365,5797.2,908.38
48365,6047.2,659.38
48365,6297.2,411.38
48365,5547.2,1163.4
48365,5797.2,911.38
48365,6047.2,660.38
48365,6297.2,411.38
48365,6547.2,163.38
48365,4797.2,1911.4
48365,5047.2,1659.4
48365,5297.2,1408.4
48365,5547.2,1159.4
48365,5797.2,911.38
48365,5047.2,1659.4
48365,5297.2,1407.4
48365,5547.2,1156.4
48365,5797.2,907.38
48365,6047.2,659.38
48365,5297.2,1408.4
48365,5547.2,1156.4
48365,5797.2,905.38
48365,6047.2,656.38
48365,6297.2,408.38
48365,5547.2,1159.4
48365,5797.2,907.38
48365,6047.2,656.38
48365,6297.2,407.38
48365,6547.2,159.38
48365,5797.2,911.38
48365,6047.2,659.38
48365,6297.2,408.38
48365,6547.2,159.38
48365,6797.2,112.62
48365,5047.2,1660.4
48365,5297.2,1408.4
48365,5547.2,1157.4
48365,5797.2,908.38
48365,6047.2,660.38
48365,5297.2,1408.4
48365,5547.2,1156.4
48365,5797.2,905.38
48365,6047.2,656.38
48365,6297.2,408.38
48365,5547.2,1157.4
48365,5797.2,905.38
48365,6047.2,654.38
48365,6297.2,405.38
48365,6547.2,157.38
48365,5797.2,908.38
48365,6047.2,656.38
48365,6297.2,405.38
48365,6547.2,156.38
48365,6797.2,109.62
48365,6047.2,660.38
48365,6297.2,408.38
48365,6547.2,157.38
48365,6797.2,109.62
48365,7047.2,361.62
48365,5297.2,1411.4
48365,5547.2,1159.4
48365,5797.2,908.38
48365,6047.2,659.38
48365,6297.2,411.38
48365,5547.2,1159.4
48365,5797.2,907.38
48365,6047.2,656.38
48365,6297.2,407.38
48365,6547.2,159.38
48365,5797.2,908.38
48365,6047.2,656.38
48365,6297.2,405.38
48365,6547.2,156.38
48365,6797.2,109.62
48365,6047.2,659.38
48365,6297.2,407.38
48365,6547.2,156.38
48365,6797.2,108.62
48365,7047.2,360.62
48365,6297.2,411.38
48365,6547.2,159.38
48365,6797.2,109.62
48365,7047.2,360.62
48365,7297.2,612.62
48365,5547.2,1163.4
48365,5797.2,911.38
48365,6047.2,660.38
48365,6297.2,411.38
48365,6547.2,163.38
48365,5797.2,911.38
48365,6047.2,659.38
48365,6297.2,408.38
48365,6547.2,159.38
48365,6797.2,112.62
48365,6047.2,660.38
48365,6297.2,408.38
48365,6547.2,157.38
48365,6797.2,109.62
48365,7047.2,361.62
48365,6297.2,411.38
48365,6547.2,159.38
48365,6797.2,109.62
48365,7047.2,360.62
48365,7297.2,612.62
48365,6547.2,163.38
48365,6797.2,112.62
48365,7047.2,361.62
48365,7297.2,612.62
48365,4797.2,1912.4
48365,5047.2,1660.4
48365,5297.2,1409.4
48365,5547.2,1160.4
48365,5797.2,912.38
48365,5047.2,1660.4
48365,5297.2,1408.4
48365,5547.2,1157.4
48365,5797.2,908.38
48365,6047.2,660.38
48365,5297.2,1409.4
48365,5547.2,1157.4
48365,5797.2,906.38
48365,6047.2,657.38
48365,6297.2,409.38
48365,5547.2,1160.4
48365,5797.2,908.38
48365,6047.2,657.38
48365,6297.2,408.38
48365,6547.2,160.38
48365,5797.2,912.38
48365,6047.2,660.38
48365,6297.2,409.38
48365,6547.2,160.38
48365,6797.2,113.62
48365,5047.2,1660.4
48365,5297.2,1408.4
48365,5547.2,1157.4
48365,5797.2,908.38
48365,6047.2,660.38
48365,5297.2,1408.4
48365,5547.2,1156.4
48365,5797.2,905.38
48365,6047.2,656.38
48365,6297.2,408.38
48365,5547.2,1157.4
48365,5797.2,905.38
48365,6047.2,654.38
48365,6297.2,405.38
48365,6547.2,157.38
48365,5797.2,908.38
48365,6047.2,656.38
48365,6297.2,405.38
48365,6547.2,156.38
48365,6797.2,109.62
48365,6047.2,660.38
48365,6297.2,408.38
48365,6547.2,157.38
48365,6797.2,109.62
48365,7047.2,361.62
48365,5297.2,1409.4
48365,5547.2,1157.4
48365,5797.2,906.38
48365,6047.2,657.38
48365,6297.2,409.38
48365,5547.2,1157.4
48365,5797.2,905.38
48365,6047.2,654.38
48365,6297.2,405.38
48365,6547.2,157.38
48365,5797.2,906.38
48365,6047.2,654.38
48365,6297.2,403.38
48365,6547.2,154.38
48365,6797.2,107.62
48365,6047.2,657.38
48365,6297.2,405.38
48365,6547.2,154.38
48365,6797.2,106.62
48365,7047.2,358.62
48365,6297.2,409.38
48365,6547.2,157.38
48365,6797.2,107.62
48365,7047.2,358.62
48365,7297.2,610.62
48365,5547.2,1160.4
48365,5797.2,908.38
48365,6047.2,657.38
48365,6297.2,408.38
48365,6547.2,160.38
48365,5797.2,908.38
48365,6047.2,656.38
48365,6297.2,405.38
48365,6547.2,156.38
48365,6797.2,109.62
48365,6047.2,657.38
48365,6297.2,405.38
48365,6547.2,154.38
48365,6797.2,106.62
48365,7047.2,358.62
48365,6297.2,408.38
48365,6547.2,156.38
48365,6797.2,106.62
48365,7047.2,357.62
48365,7297.2,609.62
48365,6547.2,160.38
48365,6797.2,109.62
48365,7047.2,358.62
48365,7297.2,609.62
48365,5797.2,912.38
48365,6047.2,660.38
48365,6297.2,409.38
48365,6547.2,160.38
48365,6797.2,113.62
48365,6047.2,660.38
48365,6297.2,408.38
48365,6547.2,157.38
48365,6797.2,109.62
48365,7047.2,361.62
48365,6297.2,409.38
48365,6547.2,157.38
48365,6797.2,107.62
48365,7047.2,358.62
48365,7297.2,610.62
48365,6547.2,160.38
48365,6797.2,109.62
48365,7047.2,358.62
48365,7297.2,609.62
48365,6797.2,113.62
48365,7047.2,361.62
48365,7297.2,610.62
48365,5047.2,1663.4
48365,5297.2,1411.4
48365,5547.2,1160.4
48365,5797.2,911.38
48365,6047.2,663.38
48365,5297.2,1411.4
48365,5547.2,1159.4
48365,5797.2,908.38
48365,6047.2,659.38
48365,6297.2,411.38
48365,5547.2,1160.4
48365,5797.2,908.38
48365,6047.2,657.38
48365,6297.2,408.38
48365,6547.2,160.38
48365,5797.2,911.38
48365,6047.2,659.38
48365,6297.2,408.38
48365,6547.2,159.38
48365,6797.2,112.62
48365,6047.2,663.38
48365,6297.2,411.38
48365,6547.2,160.38
48365,6797.2,112.62
48365,7047.2,364.62
48365,5297.2,1411.4
48365,5547.2,1159.4
48365,5797.2,908.38
48365,6047.2,659.38
48365,6297.2,411.38
48365,5547.2,1159.4
48365,5797.2,907.38
48365,6047.2,656.38
48365,6297.2,407.38
48365,6547.2,159.38
48365,5797.2,908.38
48365,6047.2,656.38
48365,6297.2,405.38
48365,6547.2,156.38
48365,6797.2,109.62
48365,6047.2,659.38
48365,6297.2,407.38
48365,6547.2,156.38
48365,6797.2,108.62
48365,7047.2,360.62
48365,6297.2,411.38
48365,6547.2,159.38
48365,6797.2,109.62
48365,7047.2,360.62
48365,7297.2,612.62
48365,5547.2,1160.4
48365,5797.2,908.38
48365,6047.2,657.38
48365,6297.2,408.38
48365,6547.2,160.38
48365,5797.2,908.38
48365,6047.2,656.38
48365,6297.2,405.38
48365,6547.2,156.38
48365,6797.2,109.62
48365,6047.2,657.38
48365,6297.2,405.38
48365,6547.2,154.38
48365,6797.2,106.62
48365,7047.2,358.62
48365,6297.2,408.38
48365,6547.2,156.38
48365,6797.2,106.62
48365,7047.2,357.62
48365,7297.2,609.62
48365,6547.2,160.38
48365,6797.2,109.62
48365,7047.2,358.62
48365,7297.2,609.62
48365,5797.2,911.38
48365,6047.2,659.38
48365,6297.2,408.38
48365,6547.2,159.38
48365,6797.2,112.62
48365,6047.2,659.38
48365,6297.2,407.38
48365,6547.2,156.38
48365,6797.2,108.62
48365,7047.2,360.62
48365,6297.2,408.38
48365,6547.2,156.38
48365,6797.2,106.62
48365,7047.2,357.62
48365,7297.2,609.62
48365,6547.2,159.38
48365,6797.2,108.62
48365,7047.2,357.62
48365,7297.2,608.62
48365,6797.2,112.62
48365,7047.2,360.62
48365,7297.2,609.62
48365,6047.2,663.38
48365,6297.2,411.38
48365,6547.2,160.38
48365,6797.2,112.62
48365,7047.2,364.62
48365,6297.2,411.38
48365,6547.2,159.38
48365,6797.2,109.62
48365,7047.2,360.62
48365,7297.2,612.62
48365,6547.2,160.38
48365,6797.2,109.62
48365,7047.2,358.62
48365,7297.2,609.62
48365,6797.2,112.62
48365,7047.2,360.62
48365,7297.2,609.62
48365,7047.2,364.62
48365,7297.2,612.62
48365,5297.2,1415.4
48365,5547.2,1163.4
48365,5797.2,912.38
48365,6047.2,663.38
48365,6297.2,415.38
48365,5547.2,1163.4
48365,5797.2,911.38
48365,6047.2,660.38
48365,6297.2,411.38
48365,6547.2,163.38
48365,5797.2,912.38
48365,6047.2,660.38
48365,6297.2,409.38
48365,6547.2,160.38
48365,6797.2,113.62
48365,6047.2,663.38
48365,6297.2,411.38
48365,6547.2,160.38
48365,6797.2,112.62
48365,7047.2,364.62
48365,6297.2,415.38
48365,6547.2,163.38
48365,6797.2,113.62
48365,7047.2,364.62
48365,7297.2,616.62
48365,5547.2,1163.4
48365,5797.2,911.38
48365,6047.2,660.38
48365,6297.2,411.38
48365,6547.2,163.38
48365,5797.2,911.38
48365,6047.2,659.38
48365,6297.2,408.38
48365,6547.2,159.38
48365,6797.2,112.62
48365,6047.2,660.38
48365,6297.2,408.38
48365,6547.2,157.38
48365,6797.2,109.62
48365,7047.2,361.62
48365,6297.2,411.38
48365,6547.2,159.38
48365,6797.2,109.62
48365,7047.2,360.62
48365,7297.2,612.62
48365,6547.2,163.38
48365,6797.2,112.62
48365,7047.2,361.62
48365,7297.2,612.62
48365,5797.2,912.38
48365,6047.2,660.38
48365,6297.2,409.38
48365,6547.2,160.38
48365,6797.2,113.62
48365,6047.2,660.38
48365,6297.2,408.38
48365,6547.2,157.38
48365,6797.2,109.62
48365,7047.2,361.62
48365,6297.2,409.38
48365,6547.2,157.38
48365,6797.2,107.62
48365,7047.2,358.62
48365,7297.2,610.62
48365,6547.2,160.38
48365,6797.2,109.62
48365,7047.2,358.62
48365,7297.2,609.62
48365,6797.2,113.62
48365,7047.2,361.62
48365,7297.2,610.62
48365,6047.2,663.38
48365,6297.2,411.38
48365,6547.2,160.38
48365,6797.2,112.62
48365,7047.2,364.62
48365,6297.2,411.38
48365,6547.2,159.38
48365,6797.2,109.62
48365,7047.2,360.62
48365,7297.2,612.62
48365,6547.2,160.38
48365,6797.2,109.62
48365,7047.2,358.62
48365,7297.2,609.62
48365,6797.2,112.62
48365,7047.2,360.62
48365,7297.2,609.62
48365,7047.2,364.62
48365,7297.2,612.62
48365,6297.2,415.38
48365,6547.2,163.38
48365,6797.2,113.62
48365,7047.2,364.62
48365,7297.2,616.62
48365,6547.2,163.38
48365,6797.2,112.62
48365,7047.2,361.62
48365,7297.2,612.62
48365,6797.2,113.62
48365,7047.2,361.62
48365,7297.2,610.62
48365,7047.2,364.62
48365,7297.2,612.62
48365,7297.2,616.62
48365,4547.2,2164.4
48365,4797.2,1912.4
48365,5047.2,1661.4
48365,5297.2,1412.4
48365,5547.2,1164.4
48365,4797.2,1912.4
48365,5047.2,1660.4
48365,5297.2,1409.4
48365,5547.2,1160.4
48365,5797.2,912.38
48365,5047.2,1661.4
48365,5297.2,1409.4
48365,5547.2,1158.4
48365,5797.2,909.38
48365,6047.2,661.38
48365,5297.2,1412.4
48365,5547.2,1160.4
48365,5797.2,909.38
48365,6047.2,660.38
48365,6297.2,412.38
48365,5547.2,1164.4
48365,5797.2,912.38
48365,6047.2,661.38
48365,6297.2,412.38
48365,6547.2,164.38
48365,4797.2,1912.4
48365,5047.2,1660.4
48365,5297.2,1409.4
48365,5547.2,1160.4
48365,5797.2,912.38
48365,5047.2,1660.4
48365,5297.2,1408.4
48365,5547.2,1157.4
48365,5797.2,908.38
48365,6047.2,660.38
48365,5297.2,1409.4
48365,5547.2,1157.4
48365,5797.2,906.38
48365,6047.2,657.38
48365,6297.2,409.38
48365,5547.2,1160.4
48365,5797.2,908.38
48365,6047.2,657.38
48365,6297.2,408.38
48365,6547.2,160.38
48365,5797.2,912.38
48365,6047.2,660.38
48365,6297.2,409.38
48365,6547.2,160.38
48365,6797.2,113.62
48365,5047.2,1661.4
48365,5297.2,1409.4
48365,5547.2,1158.4
48365,5797.2,909.38
48365,6047.2,661.38
48365,5297.2,1409.4
48365,5547.2,1157.4
48365,5797.2,906.38
48365,6047.2,657.38
48365,6297.2,409.38
48365,5547.2,1158.4
48365,5797.2,906.38
48365,6047.2,655.38
48365,6297.2,406.38
48365,6547.2,158.38
48365,5797.2,909.38
48365,6047.2,657.38
48365,6297.2,406.38
48365,6547.2,157.38
48365,6797.2,110.62
48365,6047.2,661.38
48365,6297.2,409.38
48365,6547.2,158.38
48365,6797.2,110.62
48365,7047.2,362.62
48365,5297.2,1412.4
48365,5547.2,1160.4
48365,5797.2,909.38
48365,6047.2,660.38
48365,6297.2,412.38
48365,5547.2,1160.4
48365,5797.2,908.38
48365,6047.2,657.38
48365,6297.2,408.38
48365,6547.2,160.38
48365,5797.2,909.38
48365,6047.2,657.38
48365,6297.2,406.38
48365,6547.2,157.38
48365,6797.2,110.62
48365,6047.2,660.38
48365,6297.2,408.38
48365,6547.2,157.38
48365,6797.2,109.62
48365,7047.2,361.62
48365,6297.2,412.38
48365,6547.2,160.38
48365,6797.2,110.62
48365,7047.2,361.62
48365,7297.2,613.62
48365,5547.2,1164.4
48365,5797.2,912.38
48365,6047.2,661.38
48365,6297.2,412.38
48365,6547.2,164.38
48365,5797.2,912.38
48365,6047.2,660.38
48365,6297.2,409.38
48365,6547.2,160.38
48365,6797.2,113.62
48365,6047.2,661.38
48365,6297.2,409.38
48365,6547.2,158.38
48365,6797.2,110.62
48365,7047.2,362.62
48365,6297.2,412.38
48365,6547.2,160.38
48365,6797.2,110.62
48365,7047.2,361.62
48365,7297.2,613.62
48365,6547.2,164.38
48365,6797.2,113.62
48365,7047.2,362.62
48365,7297.2,613.62
48365,4797.2,1912.4
48365,5047.2,1660.4
48365,5297.2,1409.4
48365,5547.2,1160.4
48365,5797.2,912.38
48365,5047.2,1660.4
48365,5297.2,1408.4
48365,5547.2,1157.4
48365,5797.2,908.38
48365,6047.2,660.38
48365,5297.2,1409.4
48365,5547.2,1157.4
48365,5797.2,906.38
48365,6047.2,657.38
48365,6297.2,409.38
48365,5547.2,1160.4
48365,5797.2,908.38
48365,6047.2,657.38
48365,6297.2,408.38
48365,6547.2,160.38
48365,5797.2,912.38
48365,6047.2,660.38
48365,6297.2,409.38
48365,6547.2,160.38
48365,6797.2,113.62
48365,5047.2,1660.4
48365,5297.2,1408.4
48365,5547.2,1157.4
48365,5797.2,908.38
48365,6047.2,660.38
48365,5297.2,1408.4
48365,5547.2,1156.4
48365,5797.2,905.38
48365,6047.2,656.38
48365,6297.2,408.38
48365,5547.2,1157.4
48365,5797.2,905.38
48365,6047.2,654.38
48365,6297.2,405.38
48365,6547.2,157.38
48365,5797.2,908.38
48365,6047.2,656.38
48365,6297.2,405.38
48365,6547.2,156.38
48365,6797.2,109.62
48365,6047.2,660.38
48365,6297.2,408.38
48365,6547.2,157.38
48365,6797.2,109.62
48365,7047.2,361.62
48365,5297.2,1409.4
48365,5547.2,1157.4
48365,5797.2,906.38
48365,6047.2,657.38
48365,6297.2,409.38
48365,5547.2,1157.4
48365,5797.2,905.38
48365,6047.2,654.38
48365,6297.2,405.38
48365,6547.2,157.38
48365,5797.2,906.38
48365,6047.2,654.38
48365,6297.2,403.38
48365,6547.2,154.38
48365,6797.2,107.62
48365,6047.2,657.38
48365,6297.2,405.38
48365,6547.2,154.38
48365,6797.2,106.62
48365,7047.2,358.62
48365,6297.2,409.38
48365,6547.2,157.38
48365,6797.2,107.62
48365,7047.2,358.62
48365,7297.2,610.62
48365,5547.2,1160.4
48365,5797.2,908.38
48365,6047.2,657.38
48365,6297.2,408.38
48365,6547.2,160.38
48365,5797.2,908.38
48365,6047.2,656.38
48365,6297.2,405.38
48365,6547.2,156.38
48365,6797.2,109.62
48365,6047.2,657.38
48365,6297.2,405.38
48365,6547.2,154.38
48365,6797.2,106.62
48365,7047.2,358.62
48365,6297.2,408.38
48365,6547.2,156.38
48365,6797.2,106.62
48365,7047.2,357.62
48365,7297.2,609.62
48365,6547.2,160.38
48365,6797.2,109.62
48365,7047.2,358.62
48365,7297.2,609.62
48365,5797.2,912.38
48365,6047.2,660.38
48365,6297.2,409.38
48365,6547.2,160.38
48365,6797.2,113.62
48365,6047.2,660.38
48365,6297.2,408.38
48365,6547.2,157.38
48365,6797.2,109.62
48365,7047.2,361.62
48365,6297.2,409.38
48365,6547.2,157.38
48365,6797.2,107.62
48365,7047.2,358.62
48365,7297.2,610.62
48365,6547.2,160.38
48365,6797.2,109.62
48365,7047.2,358.62
48365,7297.2,609.62
48365,6797.2,113.62
48365,7047.2,361.62
48365,7297.2,610.62
48365,5047.2,1661.4
48365,5297.2,1409.4
48365,5547.2,1158.4
48365,5797.2,909.38
48365,6047.2,661.38
48365,5297.2,1409.4
48365,5547.2,1157.4
48365,5797.2,906.38
48365,6047.2,657.38
48365,6297.2,409.38
48365,5547.2,1158.4
48365,5797.2,906.38
48365,6047.2,655.38
48365,6297.2,406.38
48365,6547.2,158.38
48365,5797.2,909.38
48365,6047.2,657.38
48365,6297.2,406.38
48365,6547.2,157.38
48365,6797.2,110.62
48365,6047.2,661.38
48365,6297.2,409.38
48365,6547.2,158.38
48365,6797.2,110.62
48365,7047.2,362.62
48365,5297.2,1409.4
48365,5547.2,1157.4
48365,5797.2,906.38
48365,6047.2,657.38
48365,6297.2,409.38
48365,5547.2,1157.4
48365,5797.2,905.38
48365,6047.2,654.38
48365,6297.2,405.38
48365,6547.2,157.38
48365,5797.2,906.38
48365,6047.2,654.38
48365,6297.2,403.38
48365,6547.2,154.38
48365,6797.2,107.62
48365,6047.2,657.38
48365,6297.2,405.38
48365,6547.2,154.38
48365,6797.2,106.62
48365,7047.2,358.62
48365,6297.2,409.38
48365,6547.2,157.38
48365,6797.2,107.62
48365,7047.2,358.62
48365,7297.2,610.62
48365,5547.2,1158.4
48365,5797.2,906.38
48365,6047.2,655.38
48365,6297.2,406.38
48365,6547.2,158.38
48365,5797.2,906.38
48365,6047.2,654.38
48365,6297.2,403.38
48365,6547.2,154.38
48365,6797.2,107.62
48365,6047.2,655.38
48365,6297.2,403.38
48365,6547.2,152.38
48365,6797.2,104.62
48365,7047.2,356.62
48365,6297.2,406.38
48365,6547.2,154.38
48365,6797.2,104.62
48365,7047.2,355.62
48365,7297.2,607.62
48365,6547.2,158.38
48365,6797.2,107.62
48365,7047.2,356.62
48365,7297.2,607.62
48365,5797.2,909.38
48365,6047.2,657.38
48365,6297.2,406.38
48365,6547.2,157.38
48365,6797.2,110.62
48365,6047.2,657.38
48365,6297.2,405.38
48365,6547.2,154.38
48365,6797.2,106.62
48365,7047.2,358.62
48365,6297.2,406.38
48365,6547.2,154.38
48365,6797.2,104.62
48365,7047.2,355.62
48365,7297.2,607.62
48365,6547.2,157.38
48365,6797.2,106.62
48365,7047.2,355.62
48365,7297.2,606.62
48365,6797.2,110.62
48365,7047.2,358.62
48365,7297.2,607.62
48365,6047.2,661.38
48365,6297.2,409.38
48365,6547.2,158.38
48365,6797.2,110.62
48365,7047.2,362.62
48365,6297.2,409.38
48365,6547.2,157.38
48365,6797.2,107.62
48365,7047.2,358.62
48365,7297.2,610.62
48365,6547.2,158.38
48365,6797.2,107.62
48365,7047.2,356.62
48365,7297.2,607.62
48365,6797.2,110.62
48365,7047.2,358.62
48365,7297.2,607.62
48365,7047.2,362.62
48365,7297.2,610.62
48365,5297.2,1412.4
48365,5547.2,1160.4
48365,5797.2,909.38
48365,6047.2,660.38
48365,6297.2,412.38
48365,5547.2,1160.4
48365,5797.2,908.38
48365,6047.2,657.38
48365,6297.2,408.38
48365,6547.2,160.38
48365,5797.2,909.38
48365,6047.2,657.38
48365,6297.2,406.38
48365,6547.2,157.38
48365,6797.2,110.62
48365,6047.2,660.38
48365,6297.2,408.38
48365,6547.2,157.38
48365,6797.2,109.62
48365,7047.2,361.62
48365,6297.2,412.38
48365,6547.2,160.38
48365,6797.2,110.62
48365,7047.2,361.62
48365,7297.2,613.62
48365,5547.2,1160.4
48365,5797.2,908.38
48365,6047.2,657.38
48365,6297.2,408.38
48365,6547.2,160.38
48365,5797.2,908.38
48365,6047.2,656.38
48365,6297.2,405.38
48365,6547.2,156.38
48365,6797.2,109.62
48365,6047.2,657.38
48365,6297.2,405.38
48365,6547.2,154.38
48365,6797.2,106.62
48365,7047.2,358.62
48365,6297.2,408.38
48365,6547.2,156.38
48365,6797.2,106.62
48365,7047.2,357.62
48365,7297.2,609.62
48365,6547.2,160.38
48365,6797.2,109.62
48365,7047.2,358.62
48365,7297.2,609.62
48365,5797.2,909.38
48365,6047.2,657.38
48365,6297.2,406.38
48365,6547.2,157.38
48365,6797.2,110.62
48365,6047.2,657.38
48365,6297.2,405.38
48365,6547.2,154.38
48365,6797.2,106.62
48365,7047.2,358.62
48365,6297.2,406.38
48365,6547.2,154.38
48365,6797.2,104.62
48365,7047.2,355.62
48365,7297.2,607.62
48365,6547.2,157.38
48365,6797.2,106.62
48365,7047.2,355.62
48365,7297.2,606.62
48365,6797.2,110.62
48365,7047.2,358.62
48365,7297.2,607.62
48365,6047.2,660.38
48365,6297.2,408.38
48365,6547.2,157.38
48365,6797.2,109.62
48365,7047.2,361.62
48365,6297.2,408.38
48365,6547.2,156.38
48365,6797.2,106.62
48365,7047.2,357.62
48365,7297.2,609.62
48365,6547.2,157.38
48365,6797.2,106.62
48365,7047.2,355.62
48365,7297.2,606.62
48365,6797.2,109.62
48365,7047.2,357.62
48365,7297.2,606.62
48365,7047.2,361.62
48365,7297.2,609.62
48365,6297.2,412.38
48365,6547.2,160.38
48365,6797.2,110.62
48365,7047.2,361.62
48365,7297.2,613.62
48365,6547.2,160.38
48365,6797.2,109.62
48365,7047.2,358.62
48365,7297.2,609.62
48365,6797.2,110.62
48365,7047.2,358.62
48365,7297.2,607.62
48365,7047.2,361.62
48365,7297.2,609.62
48365,7297.2,613.62
48365,5547.2,1164.4
48365,5797.2,912.38
48365,6047.2,661.38
48365,6297.2,412.38
48365,6547.2,164.38
48365,5797.2,912.38
48365,6047.2,660.38
48365,6297.2,409.38
48365,6547.2,160.38
48365,6797.2,113.62
48365,6047.2,661.38
48365,6297.2,409.38
48365,6547.2,158.38
48365,6797.2,110.62
48365,7047.2,362.62
48365,6297.2,412.38
48365,6547.2,160.38
48365,6797.2,110.62
48365,7047.2,361.62
48365,7297.2,613.62
48365,6547.2,164.38
48365,6797.2,113.62
48365,7047.2,362.62
48365,7297.2,613.62
48365,5797.2,912.38
48365,6047.2,660.38
48365,6297.2,409.38
48365,6547.2,160.38
48365,6797.2,113.62
48365,6047.2,660.38
48365,6297.2,408.38
48365,6547.2,157.38
48365,6797.2,109.62
48365,7047.2,361.62
48365,6297.2,409.38
48365,6547.2,157.38
48365,6797.2,107.62
48365,7047.2,358.62
48365,7297.2,610.62
48365,6547.2,160.38
48365,6797.2,109.62
48365,7047.2,358.62
48365,7297.2,609.62
48365,6797.2,113.62
48365,7047.2,361.62
48365,7297.2,610.62
48365,6047.2,661.38
48365,6297.2,409.38
48365,6547.2,158.38
48365,6797.2,110.62
48365,7047.2,362.62
48365,6297.2,409.38
48365,6547.2,157.38
48365,6797.2,107.62
48365,7047.2,358.62
48365,7297.2,610.62
48365,6547.2,158.38
48365,6797.2,107.62
48365,7047.2,356.62
48365,7297.2,607.62
48365,6797.2,110.62
48365,7047.2,358.62
48365,7297.2,607.62
48365,7047.2,362.62
48365,7297.2,610.62
48365,6297.2,412.38
48365,6547.2,160.38
48365,6797.2,110.62
48365,7047.2,361.62
48365,7297.2,613.62
48365,6547.2,160.38
48365,6797.2,109.62
48365,7047.2,358.62
48365,7297.2,609.62
48365,6797.2,110.62
48365,7047.2,358.62
48365,7297.2,607.62
48365,7047.2,361.62
48365,7297.2,609.62
48365,7297.2,613.62
48365,6547.2,164.38
48365,6797.2,113.62
48365,7047.2,362.62
48365,7297.2,613.62
48365,6797.2,113.62
48365,7047.2,361.62
48365,7297.2,610.62
48365,7047.2,362.62
48365,7297.2,610.62
48365,7297.2,613.62
48365,4797.2,1915.4
48365,5047.2,1663.4
48365,5297.2,1412.4
48365,5547.2,1163.4
48365,5797.2,915.38
48365,5047.2,1663.4
48365,5297.2,1411.4
48365,5547.2,1160.4
48365,5797.2,911.38
48365,6047.2,663.38
48365,5297.2,1412.4
48365,5547.2,1160.4
48365,5797.2,909.38
48365,6047.2,660.38
48365,6297.2,412.38
48365,5547.2,1163.4
48365,5797.2,911.38
48365,6047.2,660.38
48365,6297.2,411.38
48365,6547.2,163.38
48365,5797.2,915.38
48365,6047.2,663.38
48365,6297.2,412.38
48365,6547.2,163.38
48365,6797.2,116.62
48365,5047.2,1663.4
48365,5297.2,1411.4
48365,5547.2,1160.4
48365,5797.2,911.38
48365,6047.2,663.38
48365,5297.2,1411.4
48365,5547.2,1159.4
48365,5797.2,908.38
48365,6047.2,659.38
48365,6297.2,411.38
48365,5547.2,1160.4
48365,5797.2,908.38
48365,6047.2,657.38
48365,6297.2,408.38
48365,6547.2,160.38
48365,5797.2,911.38
48365,6047.2,659.38
48365,6297.2,408.38
48365,6547.2,159.38
48365,6797.2,112.62
48365,6047.2,663.38
48365,6297.2,411.38
48365,6547.2,160.38
48365,6797.2,112.62
48365,7047.2,364.62
48365,5297.2,1412.4
48365,5547.2,1160.4
48365,5797.2,909.38
48365,6047.2,660.38
48365,6297.2,412.38
48365,5547.2,1160.4
48365,5797.2,908.38
48365,6047.2,657.38
48365,6297.2,408.38
48365,6547.2,160.38
48365,5797.2,909.38
48365,6047.2,657.38
48365,6297.2,406.38
48365,6547.2,157.38
48365,6797.2,110.62
48365,6047.2,660.38
48365,6297.2,408.38
48365,6547.2,157.38
48365,6797.2,109.62
48365,7047.2,361.62
48365,6297.2,412.38
48365,6547.2,160.38
48365,6797.2,110.62
48365,7047.2,361.62
48365,7297.2,613.62
48365,5547.2,1163.4
48365,5797.2,911.38
48365,6047.2,660.38
48365,6297.2,411.38
48365,6547.2,163.38
48365,5797.2,911.38
48365,6047.2,659.38
48365,6297.2,408.38
48365,6547.2,159.38
48365,6797.2,112.62
48365,6047.2,660.38
48365,6297.2,408.38
48365,6547.2,157.38
48365,6797.2,109.62
48365,7047.2,361.62
48365,6297.2,411.38
48365,6547.2,159.38
48365,6797.2,109.62
48365,7047.2,360.62
48365,7297.2,612.62
48365,6547.2,163.38
48365,6797.2,112.62
48365,7047.2,361.62
48365,7297.2,612.62
48365,5797.2,915.38
48365,6047.2,663.38
48365,6297.2,412.38
48365,6547.2,163.38
48365,6797.2,116.62
48365,6047.2,663.38
48365,6297.2,411.38
48365,6547.2,160.38
48365,6797.2,112.62
48365,7047.2,364.62
48365,6297.2,412.38
48365,6547.2,160.38
48365,6797.2,110.62
48365,7047.2,361.62
48365,7297.2,613.62
48365,6547.2,163.38
48365,6797.2,112.62
48365,7047.2,361.62
48365,7297.2,612.62
48365,6797.2,116.62
48365,7047.2,364.62
48365,7297.2,613.62
48365,5047.2,1663.4
48365,5297.2,1411.4
48365,5547.2,1160.4
48365,5797.2,911.38
48365,6047.2,663.38
48365,5297.2,1411.4
48365,5547.2,1159.4
48365,5797.2,908.38
48365,6047.2,659.38
48365,6297.2,411.38
48365,5547.2,1160.4
48365,5797.2,908.38
48365,6047.2,657.38
48365,6297.2,408.38
48365,6547.2,160.38
48365,5797.2,911.38
48365,6047.2,659.38
48365,6297.2,408.38
48365,6547.2,159.38
48365,6797.2,112.62
48365,6047.2,663.38
48365,6297.2,411.38
48365,6547.2,160.38
48365,6797.2,112.62
48365,7047.2,364.62
48365,5297.2,1411.4
48365,5547.2,1159.4
48365,5797.2,908.38
48365,6047.2,659.38
48365,6297.2,411.38
48365,5547.2,1159.4
48365,5797.2,907.38
48365,6047.2,656.38
48365,6297.2,407.38
48365,6547.2,159.38
48365,5797.2,908.38
48365,6047.2,656.38
48365,6297.2,405.38
48365,6547.2,156.38
48365,6797.2,109.62
48365,6047.2,659.38
48365,6297.2,407.38
48365,6547.2,156.38
48365,6797.2,108.62
48365,7047.2,360.62
48365,6297.2,411.38
48365,6547.2,159.38
48365,6797.2,109.62
48365,7047.2,360.62
48365,7297.2,612.62
48365,5547.2,1160.4
48365,5797.2,908.38
48365,6047.2,657.38
48365,6297.2,408.38
48365,6547.2,160.38
48365,5797.2,908.38
48365,6047.2,656.38
48365,6297.2,405.38
48365,6547.2,156.38
48365,6797.2,109.62
48365,6047.2,657.38
48365,6297.2,405.38
48365,6547.2,154.38
48365,6797.2,106.62
48365,7047.2,358.62
48365,6297.2,408.38
48365,6547.2,156.38
48365,6797.2,106.62
48365,7047.2,357.62
48365,7297.2,609.62
48365,6547.2,160.38
48365,6797.2,109.62
48365,7047.2,358.62
48365,7297.2,609.62
48365,5797.2,911.38
48365,6047.2,659.38
48365,6297.2,408.38
48365,6547.2,159.38
48365,6797.2,112.62
48365,6047.2,659.38
48365,6297.2,407.38
48365,6547.2,156.38
48365,6797.2,108.62
48365,7047.2,360.62
48365,6297.2,408.38
48365,6547.2,156.38
48365,6797.2,106.62
48365,7047.2,357.62
48365,7297.2,609.62
48365,6547.2,159.38
48365,6797.2,108.62
48365,7047.2,357.62
48365,7297.2,608.62
48365,6797.2,112.62
48365,7047.2,360.62
48365,7297.2,609.62
48365,6047.2,663.38
48365,6297.2,411.38
48365,6547.2,160.38
48365,6797.2,112.62
48365,7047.2,364.62
48365,6297.2,411.38
48365,6547.2,159.38
48365,6797.2,109.62
48365,7047.2,360.62
48365,7297.2,612.62
48365,6547.2,160.38
48365,6797.2,109.62
48365,7047.2,358.62
48365,7297.2,609.62
48365,6797.2,112.62
48365,7047.2,360.62
48365,7297.2,609.62
48365,7047.2,364.62
48365,7297.2,612.62
48365,5297.2,1412.4
48365,5547.2,1160.4
48365,5797.2,909.38
48365,6047.2,660.38
48365,6297.2,412.38
48365,5547.2,1160.4
48365,5797.2,908.38
48365,6047.2,657.38
48365,6297.2,408.38
48365,6547.2,160.38
48365,5797.2,909.38
48365,6047.2,657.38
48365,6297.2,406.38
48365,6547.2,157.38
48365,6797.2,110.62
48365,6047.2,660.38
48365,6297.2,408.38
48365,6547.2,157.38
48365,6797.2,109.62
48365,7047.2,361.62
48365,6297.2,412.38
48365,6547.2,160.38
48365,6797.2,110.62
48365,7047.2,361.62
48365,7297.2,613.62
48365,5547.2,1160.4
48365,5797.2,908.38
48365,6047.2,657.38
48365,6297.2,408.38
48365,6547.2,160.38
48365,5797.2,908.38
48365,6047.2,656.38
48365,6297.2,405.38
48365,6547.2,156.38
48365,6797.2,109.62
48365,6047.2,657.38
48365,6297.2,405.38
48365,6547.2,154.38
48365,6797.2,106.62
48365,7047.2,358.62
48365,6297.2,408.38
48365,6547.2,156.38
48365,6797.2,106.62
48365,7047.2,357.62
48365,7297.2,609.62
48365,6547.2,160.38
48365,6797.2,109.62
48365,7047.2,358.62
48365,7297.2,609.62
48365,5797.2,909.38
48365,6047.2,657.38
48365,6297.2,406.38
48365,6547.2,157.38
48365,6797.2,110.62
48365,6047.2,657.38
48365,6297.2,405.38
48365,6547.2,154.38
48365,6797.2,106.62
48365,7047.2,358.62
48365,6297.2,406.38
48365,6547.2,154.38
48365,6797.2,104.62
48365,7047.2,355.62
48365,7297.2,607.62
48365,6547.2,157.38
48365,6797.2,106.62
48365,7047.2,355.62
48365,7297.2,606.62
48365,6797.2,110.62
48365,7047.2,358.62
48365,7297.2,607.62
48365,6047.2,660.38
48365,6297.2,408.38
48365,6547.2,157.38
48365,6797.2,109.62
48365,7047.2,361.62
48365,6297.2,408.38
48365,6547.2,156.38
48365,6797.2,106.62
48365,7047.2,357.62
48365,7297.2,609.62
48365,6547.2,157.38
48365,6797.2,106.62
48365,7047.2,355.62
48365,7297.2,606.62
48365,6797.2,109.62
48365,7047.2,357.62
48365,7297.2,606.62
48365,7047.2,361.62
48365,7297.2,609.62
48365,6297.2,412.38
48365,6547.2,160.38
48365,6797.2,110.62
48365,7047.2,361.62
48365,7297.2,613.62
48365,6547.2,160.38
48365,6797.2,109.62
48365,7047.2,358.62
48365,7297.2,609.62
48365,6797.2,110.62
48365,7047.2,358.62
48365,7297.2,607.62
48365,7047.2,361.62
48365,7297.2,609.62
48365,7297.2,613.62
48365,5547.2,1163.4
48365,5797.2,911.38
48365,6047.2,660.38
48365,6297.2,411.38
48365,6547.2,163.38
48365,5797.2,911.38
48365,6047.2,659.38
48365,6297.2,408.38
48365,6547.2,159.38
48365,6797.2,112.62
48365,6047.2,660.38
48365,6297.2,408.38
48365,6547.2,157.38
48365,6797.2,109.62
48365,7047.2,361.62
48365,6297.2,411.38
48365,6547.2,159.38
48365,6797.2,109.62
48365,7047.2,360.62
48365,7297.2,612.62
48365,6547.2,163.38
48365,6797.2,112.62
48365,7047.2,361.62
48365,7297.2,612.62
48365,5797.2,911.38
48365,6047.2,659.38
48365,6297.2,408.38
48365,6547.2,159.38
48365,6797.2,112.62
48365,6047.2,659.38
48365,6297.2,407.38
48365,6547.2,156.38
48365,6797.2,108.62
48365,7047.2,360.62
48365,6297.2,408.38
48365,6547.2,156.38
48365,6797.2,106.62
48365,7047.2,357.62
48365,7297.2,609.62
48365,6547.2,159.38
48365,6797.2,108.62
48365,7047.2,357.62
48365,7297.2,608.62
48365,6797.2,112.62
48365,7047.2,360.62
48365,7297.2,609.62
48365,6047.2,660.38
48365,6297.2,408.38
48365,6547.2,157.38
48365,6797.2,109.62
48365,7047.2,361.62
48365,6297.2,408.38
48365,6547.2,156.38
48365,6797.2,106.62
48365,7047.2,357.62
48365,7297.2,609.62
48365,6547.2,157.38
48365,6797.2,106.62
48365,7047.2,355.62
48365,7297.2,606.62
48365,6797.2,109.62
48365,7047.2,357.62
48365,7297.2,606.62
48365,7047.2,361.62
48365,7297.2,609.62
48365,6297.2,411.38
48365,6547.2,159.38
48365,6797.2,109.62
48365,7047.2,360.62
48365,7297.2,612.62
48365,6547.2,159.38
48365,6797.2,108.62
48365,7047.2,357.62
48365,7297.2,608.62
48365,6797.2,109.62
48365,7047.2,357.62
48365,7297.2,606.62
48365,7047.2,360.62
48365,7297.2,608.62
48365,7297.2,612.62
48365,6547.2,163.38
48365,6797.2,112.62
48365,7047.2,361.62
48365,7297.2,612.62
48365,6797.2,112.62
48365,7047.2,360.62
48365,7297.2,609.62
48365,7047.2,361.62
48365,7297.2,609.62
48365,7297.2,612.62
48365,5797.2,915.38
48365,6047.2,663.38
48365,6297.2,412.38
48365,6547.2,163.38
48365,6797.2,116.62
48365,6047.2,663.38
48365,6297.2,411.38
48365,6547.2,160.38
48365,6797.2,112.62
48365,7047.2,364.62
48365,6297.2,412.38
48365,6547.2,160.38
48365,6797.2,110.62
48365,7047.2,361.62
48365,7297.2,613.62
48365,6547.2,163.38
48365,6797.2,112.62
48365,7047.2,361.62
48365,7297.2,612.62
48365,6797.2,116.62
48365,7047.2,364.62
48365,7297.2,613.62
48365,6047.2,663.38
48365,6297.2,411.38
48365,6547.2,160.38
48365,6797.2,112.62
48365,7047.2,364.62
48365,6297.2,411.38
48365,6547.2,159.38
48365,6797.2,109.62
48365,7047.2,360.62
48365,7297.2,612.62
48365,6547.2,160.38
48365,6797.2,109.62
48365,7047.2,358.62
48365,7297.2,609.62
48365,6797.2,112.62
48365,7047.2,360.62
48365,7297.2,609.62
48365,7047.2,364.62
48365,7297.2,612.62
48365,6297.2,412.38
48365,6547.2,160.38
48365,6797.2,110.62
48365,7047.2,361.62
48365,7297.2,613.62
48365,6547.2,160.38
48365,6797.2,109.62
48365,7047.2,358.62
48365,7297.2,609.62
48365,6797.2,110.62
48365,7047.2,358.62
48365,7297.2,607.62
48365,7047.2,361.62
48365,7297.2,609.62
48365,7297.2,613.62
48365,6547.2,163.38
48365,6797.2,112.62
48365,7047.2,361.62
48365,7297.2,612.62
48365,6797.2,112.62
48365,7047.2,360.62
48365,7297.2,609.62
48365,7047.2,361.62
48365,7297.2,609.62
48365,7297.2,612.62
48365,5047.2,1667.4
48365,5297.2,1415.4
48365,5547.2,1164.4
48365,5797.2,915.38
48365,6047.2,667.38
48365,5297.2,1415.4
48365,5547.2,1163.4
48365,5797.2,912.38
48365,6047.2,663.38
48365,6297.2,415.38
48365,5547.2,1164.4
48365,5797.2,912.38
48365,6047.2,661.38
48365,6297.2,412.38
48365,6547.2,164.38
48365,5797.2,915.38
48365,6047.2,663.38
48365,6297.2,412.38
48365,6547.2,163.38
48365,6797.2,116.62
48365,6047.2,667.38
48365,6297.2,415.38
48365,6547.2,164.38
48365,6797.2,116.62
48365,7047.2,368.62
48365,5297.2,1415.4
48365,5547.2,1163.4
48365,5797.2,912.38
48365,6047.2,663.38
48365,6297.2,415.38
48365,5547.2,1163.4
48365,5797.2,911.38
48365,6047.2,660.38
48365,6297.2,411.38
48365,6547.2,163.38
48365,5797.2,912.38
48365,6047.2,660.38
48365,6297.2,409.38
48365,6547.2,160.38
48365,6797.2,113.62
48365,6047.2,663.38
48365,6297.2,411.38
48365,6547.2,160.38
48365,6797.2,112.62
48365,7047.2,364.62
48365,6297.2,415.38
48365,6547.2,163.38
48365,6797.2,113.62
48365,7047.2,364.62
48365,7297.2,616.62
48365,5547.2,1164.4
48365,5797.2,912.38
48365,6047.2,661.38
48365,6297.2,412.38
48365,6547.2,164.38
48365,5797.2,912.38
48365,6047.2,660.38
48365,6297.2,409.38
48365,6547.2,160.38
48365,6797.2,113.62
48365,6047.2,661.38
48365,6297.2,409.38
48365,6547.2,158.38
48365,6797.2,110.62
48365,7047.2,362.62
48365,6297.2,412.38
48365,6547.2,160.38
48365,6797.2,110.62
48365,7047.2,361.62
48365,7297.2,613.62
48365,6547.2,164.38
48365,6797.2,113.62
48365,7047.2,362.62
48365,7297.2,613.62
48365,5797.2,915.38
48365,6047.2,663.38
48365,6297.2,412.38
48365,6547.2,163.38
48365,6797.2,116.62
48365,6047.2,663.38
48365,6297.2,411.38
48365,6547.2,160.38
48365,6797.2,112.62
48365,7047.2,364.62
48365,6297.2,412.38
48365,6547.2,160.38
48365,6797.2,110.62
48365,7047.2,361.62
48365,7297.2,613.62
48365,6547.2,163.38
48365,6797.2,112.62
48365,7047.2,361.62
48365,7297.2,612.62
48365,6797.2,116.62
48365,7047.2,364.62
48365,7297.2,613.62
48365,6047.2,667.38
48365,6297.2,415.38
48365,6547.2,164.38
48365,6797.2,116.62
48365,7047.2,368.62
48365,6297.2,415.38
48365,6547.2,163.38
48365,6797.2,113.62
48365,7047.2,364.62
48365,7297.2,616.62
48365,6547.2,164.38
48365,6797.2,113.62
48365,7047.2,362.62
48365,7297.2,613.62
48365,6797.2,116.62
48365,7047.2,364.62
48365,7297.2,613.62
48365,7047.2,368.62
48365,7297.2,616.62
48365,5297.2,1415.4
48365,5547.2,1163.4
48365,5797.2,912.38
48365,6047.2,663.38
48365,6297.2,415.38
48365,5547.2,1163.4
48365,5797.2,911.38
48365,6047.2,660.38
48365,6297.2,411.38
48365,6547.2,163.38
48365,5797.2,912.38
48365,6047.2,660.38
48365,6297.2,409.38
48365,6547.2,160.38
48365,6797.2,113.62
48365,6047.2,663.38
48365,6297.2,411.38
48365,6547.2,160.38
48365,6797.2,112.62
48365,7047.2,364.62
48365,6297.2,415.38
48365,6547.2,163.38
48365,6797.2,113.62
48365,7047.2,364.62
48365,7297.2,616.62
48365,5547.2,1163.4
48365,5797.2,911.38
48365,6047.2,660.38
48365,6297.2,411.38
48365,6547.2,163.38
48365,5797.2,911.38
48365,6047.2,659.38
48365,6297.2,408.38
48365,6547.2,159.38
48365,6797.2,112.62
48365,6047.2,660.38
48365,6297.2,408.38
48365,6547.2,157.38
48365,6797.2,109.62
48365,7047.2,361.62
48365,6297.2,411.38
48365,6547.2,159.38
48365,6797.2,109.62
48365,7047.2,360.62
48365,7297.2,612.62
48365,6547.2,163.38
48365,6797.2,112.62
48365,7047.2,361.62
48365,7297.2,612.62
48365,5797.2,912.38
48365,6047.2,660.38
48365,6297.2,409.38
48365,6547.2,160.38
48365,6797.2,113.62
48365,6047.2,660.38
48365,6297.2,408.38
48365,6547.2,157.38
48365,6797.2,109.62
48365,7047.2,361.62
48365,6297.2,409.38
48365,6547.2,157.38
48365,6797.2,107.62
48365,7047.2,358.62
48365,7297.2,610.62
48365,6547.2,160.38
48365,6797.2,109.62
48365,7047.2,358.62
48365,7297.2,609.62
48365,6797.2,113.62
48365,7047.2,361.62
48365,7297.2,610.62
48365,6047.2,663.38
48365,6297.2,411.38
48365,6547.2,160.38
48365,6797.2,112.62
48365,7047.2,364.62
48365,6297.2,411.38
48365,6547.2,159.38
48365,6797.2,109.62
48365,7047.2,360.62
48365,7297.2,612.62
48365,6547.2,160.38
48365,6797.2,109.62
48365,7047.2,358.62
48365,7297.2,609.62
48365,6797.2,112.62
48365,7047.2,360.62
48365,7297.2,609.62
48365,7047.2,364.62
48365,7297.2,612.62
48365,6297.2,415.38
48365,6547.2,163.38
48365,6797.2,113.62
48365,7047.2,364.62
48365,7297.2,616.62
48365,6547.2,163.38
48365,6797.2,112.62
48365,7047.2,361.62
48365,7297.2,612.62
48365,6797.2,113.62
48365,7047.2,361.62
48365,7297.2,610.62
48365,7047.2,364.62
48365,7297.2,612.62
48365,7297.2,616.62
48365,5547.2,1164.4
48365,5797.2,912.38
48365,6047.2,661.38
48365,6297.2,412.38
48365,6547.2,164.38
48365,5797.2,912.38
48365,6047.2,660.38
48365,6297.2,409.38
48365,6547.2,160.38
48365,6797.2,113.62
48365,6047.2,661.38
48365,6297.2,409.38
48365,6547.2,158.38
48365,6797.2,110.62
48365,7047.2,362.62
48365,6297.2,412.38
48365,6547.2,160.38
48365,6797.2,110.62
48365,7047.2,361.62
48365,7297.2,613.62
48365,6547.2,164.38
48365,6797.2,113.62
48365,7047.2,362.62
48365,7297.2,613.62
48365,5797.2,912.38
48365,6047.2,660.38
48365,6297.2,409.38
48365,6547.2,160.38
48365,6797.2,113.62
48365,6047.2,660.38
48365,6297.2,408.38
48365,6547.2,157.38
48365,6797.2,109.62
48365,7047.2,361.62
48365,6297.2,409.38
48365,6547.2,157.38
48365,6797.2,107.62
48365,7047.2,358.62
48365,7297.2,610.62
48365,6547.2,160.38
48365,6797.2,109.62
48365,7047.2,358.62
48365,7297.2,609.62
48365,6797.2,113.62
48365,7047.2,361.62
48365,7297.2,610.62
48365,6047.2,661.38
48365,6297.2,409.38
48365,6547.2,158.38
48365,6797.2,110.62
48365,7047.2,362.62
48365,6297.2,409.38
48365,6547.2,157.38
48365,6797.2,107.62
48365,7047.2,358.62
48365,7297.2,610.62
48365,6547.2,158.38
48365,6797.2,107.62
48365,7047.2,356.62
48365,7297.2,607.62
48365,6797.2,110.62
48365,7047.2,358.62
48365,7297.2,607.62
48365,7047.2,362.62
48365,7297.2,610.62
48365,6297.2,412.38
48365,6547.2,160.38
48365,6797.2,110.62
48365,7047.2,361.62
48365,7297.2,613.62
48365,6547.2,160.38
48365,6797.2,109.62
48365,7047.2,358.62
48365,7297.2,609.62
48365,6797.2,110.62
48365,7047.2,358.62
48365,7297.2,607.62
48365,7047.2,361.62
48365,7297.2,609.62
48365,7297.2,613.62
48365,6547.2,164.38
48365,6797.2,113.62
48365,7047.2,362.62
48365,7297.2,613.62
48365,6797.2,113.62
48365,7047.2,361.62
48365,7297.2,610.62
48365,7047.2,362.62
48365,7297.2,610.62
48365,7297.2,613.62
48365,5797.2,915.38
48365,6047.2,663.38
48365,6297.2,412.38
48365,6547.2,163.38
48365,6797.2,116.62
48365,6047.2,663.38
48365,6297.2,411.38
48365,6547.2,160.38
48365,6797.2,112.62
48365,7047.2,364.62
48365,6297.2,412.38
48365,6547.2,160.38
48365,6797.2,110.62
48365,7047.2,361.62
48365,7297.2,613.62
48365,6547.2,163.38
48365,6797.2,112.62
48365,7047.2,361.62
48365,7297.2,612.62
48365,6797.2,116.62
48365,7047.2,364.62
48365,7297.2,613.62
48365,6047.2,663.38
48365,6297.2,411.38
48365,6547.2,160.38
48365,6797.2,112.62
48365,7047.2,364.62
48365,6297.2,411.38
48365,6547.2,159.38
48365,6797.2,109.62
48365,7047.2,360.62
48365,7297.2,612.62
48365,6547.2,160.38
48365,6797.2,109.62
48365,7047.2,358.62
48365,7297.2,609.62
48365,6797.2,112.62
48365,7047.2,360.62
48365,7297.2,609.62
48365,7047.2,364.62
48365,7297.2,612.62
48365,6297.2,412.38
48365,6547.2,160.38
48365,6797.2,110.62
48365,7047.2,361.62
48365,7297.2,613.62
48365,6547.2,160.38
48365,6797.2,109.62
48365,7047.2,358.62
48365,7297.2,609.62
48365,6797.2,110.62
48365,7047.2,358.62
48365,7297.2,607.62
48365,7047.2,361.62
48365,7297.2,609.62
48365,7297.2,613.62
48365,6547.2,163.38
48365,6797.2,112.62
48365,7047.2,361.62
48365,7297.2,612.62
48365,6797.2,112.62
48365,7047.2,360.62
48365,7297.2,609.62
48365,7047.2,361.62
48365,7297.2,609.62
48365,7297.2,612.62
48365,4547.2,2163.4
48365,4797.2,1911.4
48365,5047.2,1660.4
48365,5297.2,1411.4
48365,5547.2,1163.4
48365,4797.2,1911.4
48365,5047.2,1659.4
48365,5297.2,1408.4
48365,5547.2,1159.4
48365,5797.2,911.38
48365,5047.2,1660.4
48365,5297.2,1408.4
48365,5547.2,1157.4
48365,5797.2,908.38
48365,6047.2,660.38
48365,5297.2,1411.4
48365,5547.2,1159.4
48365,5797.2,908.38
48365,6047.2,659.38
48365,6297.2,411.38
48365,5547.2,1163.4
48365,5797.2,911.38
48365,6047.2,660.38
48365,6297.2,411.38
48365,6547.2,163.38
48365,4797.2,1911.4
48365,5047.2,1659.4
48365,5297.2,1408.4
48365,5547.2,1159.4
48365,5797.2,911.38
48365,5047.2,1659.4
48365,5297.2,1407.4
48365,5547.2,1156.4
48365,5797.2,907.38
48365,6047.2,659.38
48365,5297.2,1408.4
48365,5547.2,1156.4
48365,5797.2,905.38
48365,6047.2,656.38
48365,6297.2,408.38
48365,5547.2,1159.4
48365,5797.2,907.38
48365,6047.2,656.38
48365,6297.2,407.38
48365,6547.2,159.38
48365,5797.2,911.38
48365,6047.2,659.38
48365,6297.2,408.38
48365,6547.2,159.38
48365,6797.2,112.62
48365,5047.2,1660.4
48365,5297.2,1408.4
48365,5547.2,1157.4
48365,5797.2,908.38
48365,6047.2,660.38
48365,5297.2,1408.4
48365,5547.2,1156.4
48365,5797.2,905.38
48365,6047.2,656.38
48365,6297.2,408.38
48365,5547.2,1157.4
48365,5797.2,905.38
48365,6047.2,654.38
48365,6297.2,405.38
48365,6547.2,157.38
48365,5797.2,908.38
48365,6047.2,656.38
48365,6297.2,405.38
48365,6547.2,156.38
48365,6797.2,109.62
48365,6047.2,660.38
48365,6297.2,408.38
48365,6547.2,157.38
48365,6797.2,109.62
48365,7047.2,361.62
48365,5297.2,1411.4
48365,5547.2,1159.4
48365,5797.2,908.38
48365,6047.2,659.38
48365,6297.2,411.38
48365,5547.2,1159.4
48365,5797.2,907.38
48365,6047.2,656.38
48365,6297.2,407.38
48365,6547.2,159.38
48365,5797.2,908.38
48365,6047.2,656.38
48365,6297.2,405.38
48365,6547.2,156.38
48365,6797.2,109.62
48365,6047.2,659.38
48365,6297.2,407.38
48365,6547.2,156.38
48365,6797.2,108.62
48365,7047.2,360.62
48365,6297.2,411.38
48365,6547.2,159.38
48365,6797.2,109.62
48365,7047.2,360.62
48365,7297.2,612.62
48365,5547.2,1163.4
48365,5797.2,911.38
48365,6047.2,660.38
48365,6297.2,411.38
48365,6547.2,163.38
48365,5797.2,911.38
48365,6047.2,659.38
48365,6297.2,408.38
48365,6547.2,159.38
48365,6797.2,112.62
48365,6047.2,660.38
48365,6297.2,408.38
48365,6547.2,157.38
48365,6797.2,109.62
48365,7047.2,361.62
48365,6297.2,411.38
48365,6547.2,159.38
48365,6797.2,109.62
48365,7047.2,360.62
48365,7297.2,612.62
48365,6547.2,163.38
48365,6797.2,112.62
48365,7047.2,361.62
48365,7297.2,612.62
48365,4797.2,1912.4
48365,5047.2,1660.4
48365,5297.2,1409.4
48365,5547.2,1160.4
48365,5797.2,912.38
48365,5047.2,1660.4
48365,5297.2,1408.4
48365,5547.2,1157.4
48365,5797.2,908.38
48365,6047.2,660.38
48365,5297.2,1409.4
48365,5547.2,1157.4
48365,5797.2,906.38
48365,6047.2,657.38
48365,6297.2,409.38
48365,5547.2,1160.4
48365,5797.2,908.38
48365,6047.2,657.38
48365,6297.2,408.38
48365,6547.2,160.38
48365,5797.2,912.38
48365,6047.2,660.38
48365,6297.2,409.38
48365,6547.2,160.38
48365,6797.2,113.62
48365,5047.2,1660.4
48365,5297.2,1408.4
48365,5547.2,1157.4
48365,5797.2,908.38
48365,6047.2,660.38
48365,5297.2,1408.4
48365,5547.2,1156.4
48365,5797.2,905.38
48365,6047.2,656.38
48365,6297.2,408.38
48365,5547.2,1157.4
48365,5797.2,905.38
48365,6047.2,654.38
48365,6297.2,405.38
48365,6547.2,157.38
48365,5797.2,908.38
48365,6047.2,656.38
48365,6297.2,405.38
48365,6547.2,156.38
48365,6797.2,109.62
48365,6047.2,660.38
48365,6297.2,408.38
48365,6547.2,157.38
48365,6797.2,109.62
48365,7047.2,361.62
48365,5297.2,1409.4
48365,5547.2,1157.4
48365,5797.2,906.38
48365,6047.2,657.38
48365,6297.2,409.38
48365,5547.2,1157.4
48365,5797.2,905.38
48365,6047.2,654.38
48365,6297.2,405.38
48365,6547.2,157.38
48365,5797.2,906.38
48365,6047.2,654.38
48365,6297.2,403.38
48365,6547.2,154.38
48365,6797.2,107.62
48365,6047.2,657.38
48365,6297.2,405.38
48365,6547.2,154.38
48365,6797.2,106.62
48365,7047.2,358.62
48365,6297.2,409.38
48365,6547.2,157.38
48365,6797.2,107.62
48365,7047.2,358.62
48365,7297.2,610.62
48365,5547.2,1160.4
48365,5797.2,908.38
48365,6047.2,657.38
48365,6297.2,408.38
48365,6547.2,160.38
48365,5797.2,908.38
48365,6047.2,656.38
48365,6297.2,405.38
48365,6547.2,156.38
48365,6797.2,109.62
48365,6047.2,657.38
48365,6297.2,405.38
48365,6547.2,154.38
48365,6797.2,106.62
48365,7047.2,358.62
48365,6297.2,408.38
48365,6547.2,156.38
48365,6797.2,106.62
48365,7047.2,357.62
48365,7297.2,609.62
48365,6547.2,160.38
48365,6797.2,109.62
48365,7047.2,358.62
48365,7297.2,609.62
48365,5797.2,912.38
48365,6047.2,660.38
48365,6297.2,409.38
48365,6547.2,160.38
48365,6797.2,113.62
48365,6047.2,660.38
48365,6297.2,408.38
48365,6547.2,157.38
48365,6797.2,109.62
48365,7047.2,361.62
48365,6297.2,409.38
48365,6547.2,157.38
48365,6797.2,107.62
48365,7047.2,358.62
48365,7297.2,610.62
48365,6547.2,160.38
48365,6797.2,109.62
48365,7047.2,358.62
48365,7297.2,609.62
48365,6797.2,113.62
48365,7047.2,361.62
48365,7297.2,610.62
48365,5047.2,1663.4
48365,5297.2,1411.4
48365,5547.2,1160.4
48365,5797.2,911.38
48365,6047.2,663.38
48365,5297.2,1411.4
48365,5547.2,1159.4
48365,5797.2,908.38
48365,6047.2,659.38
48365,6297.2,411.38
48365,5547.2,1160.4
48365,5797.2,908.38
48365,6047.2,657.38
48365,6297.2,408.38
48365,6547.2,160.38
48365,5797.2,911.38
48365,6047.2,659.38
48365,6297.2,408.38
48365,6547.2,159.38
48365,6797.2,112.62
48365,6047.2,663.38
48365,6297.2,411.38
48365,6547.2,160.38
48365,6797.2,112.62
48365,7047.2,364.62
48365,5297.2,1411.4
48365,5547.2,1159.4
48365,5797.2,908.38
48365,6047.2,659.38
48365,6297.2,411.38
48365,5547.2,1159.4
48365,5797.2,907.38
48365,6047.2,656.38
48365,6297.2,407.38
48365,6547.2,159.38
48365,5797.2,908.38
48365,6047.2,656.38
48365,6297.2,405.38
48365,6547.2,156.38
48365,6797.2,109.62
48365,6047.2,659.38
48365,6297.2,407.38
48365,6547.2,156.38
48365,6797.2,108.62
48365,7047.2,360.62
48365,6297.2,411.38
48365,6547.2,159.38
48365,6797.2,109.62
48365,7047.2,360.62
48365,7297.2,612.62
48365,5547.2,1160.4
48365,5797.2,908.38
48365,6047.2,657.38
48365,6297.2,408.38
48365,6547.2,160.38
48365,5797.2,908.38
48365,6047.2,656.38
48365,6297.2,405.38
48365,6547.2,156.38
48365,6797.2,109.62
48365,6047.2,657.38
48365,6297.2,405.38
48365,6547.2,154.38
48365,6797.2,106.62
48365,7047.2,358.62
48365,6297.2,408.38
48365,6547.2,156.38
48365,6797.2,106.62
48365,7047.2,357.62
48365,7297.2,609.62
48365,6547.2,160.38
48365,6797.2,109.62
48365,7047.2,358.62
48365,7297.2,609.62
48365,5797.2,911.38
48365,6047.2,659.38
48365,6297.2,408.38
48365,6547.2,159.38
48365,6797.2,112.62
48365,6047.2,659.38
48365,6297.2,407.38
48365,6547.2,156.38
48365,6797.2,108.62
48365,7047.2,360.62
48365,6297.2,408.38
48365,6547.2,156.38
48365,6797.2,106.62
48365,7047.2,357.62
48365,7297.2,609.62
48365,6547.2,159.38
48365,6797.2,108.62
48365,7047.2,357.62
48365,7297.2,608.62
48365,6797.2,112.62
48365,7047.2,360.62
48365,7297.2,609.62
48365,6047.2,663.38
48365,6297.2,411.38
48365,6547.2,160.38
48365,6797.2,112.62
48365,7047.2,364.62
48365,6297.2,411.38
48365,6547.2,159.38
48365,6797.2,109.62
48365,7047.2,360.62
48365,7297.2,612.62
48365,6547.2,160.38
48365,6797.2,109.62
48365,7047.2,358.62
48365,7297.2,609.62
48365,6797.2,112.62
48365,7047.2,360.62
48365,7297.2,609.62
48365,7047.2,364.62
48365,7297.2,612.62
48365,5297.2,1415.4
48365,5547.2,1163.4
48365,5797.2,912.38
48365,6047.2,663.38
48365,6297.2,415.38
48365,5547.2,1163.4
48365,5797.2,911.38
48365,6047.2,660.38
48365,6297.2,411.38
48365,6547.2,163.38
48365,5797.2,912.38
48365,6047.2,660.38
48365,6297.2,409.38
48365,6547.2,160.38
48365,6797.2,113.62
48365,6047.2,663.38
48365,6297.2,411.38
48365,6547.2,160.38
48365,6797.2,112.62
48365,7047.2,364.62
48365,6297.2,415.38
48365,6547.2,163.38
48365,6797.2,113.62
48365,7047.2,364.62
48365,7297.2,616.62
48365,5547.2,1163.4
48365,5797.2,911.38
48365,6047.2,660.38
48365,6297.2,411.38
48365,6547.2,163.38
48365,5797.2,911.38
48365,6047.2,659.38
48365,6297.2,408.38
48365,6547.2,159.38
48365,6797.2,112.62
48365,6047.2,660.38
48365,6297.2,408.38
48365,6547.2,157.38
48365,6797.2,109.62
48365,7047.2,361.62
48365,6297.2,411.38
48365,6547.2,159.38
48365,6797.2,109.62
48365,7047.2,360.62
48365,7297.2,612.62
48365,6547.2,163.38
48365,6797.2,112.62
48365,7047.2,361.62
48365,7297.2,612.62
48365,5797.2,912.38
48365,6047.2,660.38
48365,6297.2,409.38
48365,6547.2,160.38
48365,6797.2,113.62
48365,6047.2,660.38
48365,6297.2,408.38
48365,6547.2,157.38
48365,6797.2,109.62
48365,7047.2,361.62
48365,6297.2,409.38
48365,6547.2,157.38
48365,6797.2,107.62
48365,7047.2,358.62
48365,7297.2,610.62
48365,6547.2,160.38
48365,6797.2,109.62
48365,7047.2,358.62
48365,7297.2,609.62
48365,6797.2,113.62
48365,7047.2,361.62
48365,7297.2,610.62
48365,6047.2,663.38
48365,6297.2,411.38
48365,6547.2,160.38
48365,6797.2,112.62
48365,7047.2,364.62
48365,6297.2,411.38
48365,6547.2,159.38
48365,6797.2,109.62
48365,7047.2,360.62
48365,7297.2,612.62
48365,6547.2,160.38
48365,6797.2,109.62
48365,7047.2,358.62
48365,7297.2,609.62
48365,6797.2,112.62
48365,7047.2,360.62
48365,7297.2,609.62
48365,7047.2,364.62
48365,7297.2,612.62
48365,6297.2,415.38
48365,6547.2,163.38
48365,6797.2,113.62
48365,7047.2,364.62
48365,7297.2,616.62
48365,6547.2,163.38
48365,6797.2,112.62
48365,7047.2,361.62
48365,7297.2,612.62
48365,6797.2,113.62
48365,7047.2,361.62
48365,7297.2,610.62
48365,7047.2,364.62
48365,7297.2,612.62
48365,7297.2,616.62
48365,4547.2,2163.4
48365,4797.2,1911.4
48365,5047.2,1660.4
48365,5297.2,1411.4
48365,5547.2,1163.4
48365,4797.2,1911.4
48365,5047.2,1659.4
48365,5297.2,1408.4
48365,5547.2,1159.4
48365,5797.2,911.38
48365,5047.2,1660.4
48365,5297.2,1408.4
48365,5547.2,1157.4
48365,5797.2,908.38
48365,6047.2,660.38
48365,5297.2,1411.4
48365,5547.2,1159.4
48365,5797.2,908.38
48365,6047.2,659.38
48365,6297.2,411.38
48365,5547.2,1163.4
48365,5797.2,911.38
48365,6047.2,660.38
48365,6297.2,411.38
48365,6547.2,163.38
48365,4797.2,1911.4
48365,5047.2,1659.4
48365,5297.2,1408.4
48365,5547.2,1159.4
48365,5797.2,911.38
48365,5047.2,1659.4
48365,5297.2,1407.4
48365,5547.2,1156.4
48365,5797.2,907.38
48365,6047.2,659.38
48365,5297.2,1408.4
48365,5547.2,1156.4
48365,5797.2,905.38
48365,6047.2,656.38
48365,6297.2,408.38
48365,5547.2,1159.4
48365,5797.2,907.38
48365,6047.2,656.38
48365,6297.2,407.38
48365,6547.2,159.38
48365,5797.2,911.38
48365,6047.2,659.38
48365,6297.2,408.38
48365,6547.2,159.38
48365,6797.2,112.62
48365,5047.2,1660.4
48365,5297.2,1408.4
48365,5547.2,1157.4
48365,5797.2,908.38
48365,6047.2,660.38
48365,5297.2,1408.4
48365,5547.2,1156.4
48365,5797.2,905.38
48365,6047.2,656.38
48365,6297.2,408.38
48365,5547.2,1157.4
48365,5797.2,905.38
48365,6047.2,654.38
48365,6297.2,405.38
48365,6547.2,157.38
48365,5797.2,908.38
48365,6047.2,656.38
48365,6297.2,405.38
48365,6547.2,156.38
48365,6797.2,109.62
48365,6047.2,660.38
48365,6297.2,408.38
48365,6547.2,157.38
48365,6797.2,109.62
48365,7047.2,361.62
48365,5297.2,1411.4
48365,5547.2,1159.4
48365,5797.2,908.38
48365,6047.2,659.38
48365,6297.2,411.38
48365,5547.2,1159.4
48365,5797.2,907.38
48365,6047.2,656.38
48365,6297.2,407.38
48365,6547.2,159.38
48365,5797.2,908.38
48365,6047.2,656.38
48365,6297.2,405.38
48365,6547.2,156.38
48365,6797.2,109.62
48365,6047.2,659.38
48365,6297.2,407.38
48365,6547.2,156.38
48365,6797.2,108.62
48365,7047.2,360.62
48365,6297.2,411.38
48365,6547.2,159.38
48365,6797.2,109.62
48365,7047.2,360.62
48365,7297.2,612.62
48365,5547.2,1163.4
48365,5797.2,911.38
48365,6047.2,660.38
48365,6297.2,411.38
48365,6547.2,163.38
48365,5797.2,911.38
48365,6047.2,659.38
48365,6297.2,408.38
48365,6547.2,159.38
48365,6797.2,112.62
48365,6047.2,660.38
48365,6297.2,408.38
48365,6547.2,157.38
48365,6797.2,109.62
48365,7047.2,361.62
48365,6297.2,411.38
48365,6547.2,159.38
48365,6797.2,109.62
48365,7047.2,360.62
48365,7297.2,612.62
48365,6547.2,163.38
48365,6797.2,112.62
48365,7047.2,361.62
48365,7297.2,612.62
48365,4797.2,1911.4
48365,5047.2,1659.4
48365,5297.2,1408.4
48365,5547.2,1159.4
48365,5797.2,911.38
48365,5047.2,1659.4
48365,5297.2,1407.4
48365,5547.2,1156.4
48365,5797.2,907.38
48365,6047.2,659.38
48365,5297.2,1408.4
48365,5547.2,1156.4
48365,5797.2,905.38
48365,6047.2,656.38
48365,6297.2,408.38
48365,5547.2,1159.4
48365,5797.2,907.38
48365,6047.2,656.38
48365,6297.2,407.38
48365,6547.2,159.38
48365,5797.2,911.38
48365,6047.2,659.38
48365,6297.2,408.38
48365,6547.2,159.38
48365,6797.2,112.62
48365,5047.2,1659.4
48365,5297.2,1407.4
48365,5547.2,1156.4
48365,5797.2,907.38
48365,6047.2,659.38
48365,5297.2,1407.4
48365,5547.2,1155.4
48365,5797.2,904.38
48365,6047.2,655.38
48365,6297.2,407.38
48365,5547.2,1156.4
48365,5797.2,904.38
48365,6047.2,653.38
48365,6297.2,404.38
48365,6547.2,156.38
48365,5797.2,907.38
48365,6047.2,655.38
48365,6297.2,404.38
48365,6547.2,155.38
48365,6797.2,108.62
48365,6047.2,659.38
48365,6297.2,407.38
48365,6547.2,156.38
48365,6797.2,108.62
48365,7047.2,360.62
48365,5297.2,1408.4
48365,5547.2,1156.4
48365,5797.2,905.38
48365,6047.2,656.38
48365,6297.2,408.38
48365,5547.2,1156.4
48365,5797.2,904.38
48365,6047.2,653.38
48365,6297.2,404.38
48365,6547.2,156.38
48365,5797.2,905.38
48365,6047.2,653.38
48365,6297.2,402.38
48365,6547.2,153.38
48365,6797.2,106.62
48365,6047.2,656.38
48365,6297.2,404.38
48365,6547.2,153.38
48365,6797.2,105.62
48365,7047.2,357.62
48365,6297.2,408.38
48365,6547.2,156.38
48365,6797.2,106.62
48365,7047.2,357.62
48365,7297.2,609.62
48365,5547.2,1159.4
48365,5797.2,907.38
48365,6047.2,656.38
48365,6297.2,407.38
48365,6547.2,159.38
48365,5797.2,907.38
48365,6047.2,655.38
48365,6297.2,404.38
48365,6547.2,155.38
48365,6797.2,108.62
48365,6047.2,656.38
48365,6297.2,404.38
48365,6547.2,153.38
48365,6797.2,105.62
48365,7047.2,357.62
48365,6297.2,407.38
48365,6547.2,155.38
48365,6797.2,105.62
48365,7047.2,356.62
48365,7297.2,608.62
48365,6547.2,159.38
48365,6797.2,108.62
48365,7047.2,357.62
48365,7297.2,608.62
48365,5797.2,911.38
48365,6047.2,659.38
48365,6297.2,408.38
48365,6547.2,159.38
48365,6797.2,112.62
48365,6047.2,659.38
48365,6297.2,407.38
48365,6547.2,156.38
48365,6797.2,108.62
48365,7047.2,360.62
48365,6297.2,408.38
48365,6547.2,156.38
48365,6797.2,106.62
48365,7047.2,357.62
48365,7297.2,609.62
48365,6547.2,159.38
48365,6797.2,108.62
48365,7047.2,357.62
48365,7297.2,608.62
48365,6797.2,112.62
48365,7047.2,360.62
48365,7297.2,609.62
48365,5047.2,1660.4
48365,5297.2,1408.4
48365,5547.2,1157.4
48365,5797.2,908.38
48365,6047.2,660.38
48365,5297.2,1408.4
48365,5547.2,1156.4
48365,5797.2,905.38
48365,6047.2,656.38
48365,6297.2,408.38
48365,5547.2,1157.4
48365,5797.2,905.38
48365,6047.2,654.38
48365,6297.2,405.38
48365,6547.2,157.38
48365,5797.2,908.38
48365,6047.2,656.38
48365,6297.2,405.38
48365,6547.2,156.38
48365,6797.2,109.62
48365,6047.2,660.38
48365,6297.2,408.38
48365,6547.2,157.38
48365,6797.2,109.62
48365,7047.2,361.62
48365,5297.2,1408.4
48365,5547.2,1156.4
48365,5797.2,905.38
48365,6047.2,656.38
48365,6297.2,408.38
48365,5547.2,1156.4
48365,5797.2,904.38
48365,6047.2,653.38
48365,6297.2,404.38
48365,6547.2,156.38
48365,5797.2,905.38
48365,6047.2,653.38
48365,6297.2,402.38
48365,6547.2,153.38
48365,6797.2,106.62
48365,6047.2,656.38
48365,6297.2,404.38
48365,6547.2,153.38
48365,6797.2,105.62
48365,7047.2,357.62
48365,6297.2,408.38
48365,6547.2,156.38
48365,6797.2,106.62
48365,7047.2,357.62
48365,7297.2,609.62
48365,5547.2,1157.4
48365,5797.2,905.38
48365,6047.2,654.38
48365,6297.2,405.38
48365,6547.2,157.38
48365,5797.2,905.38
48365,6047.2,653.38
48365,6297.2,402.38
48365,6547.2,153.38
48365,6797.2,106.62
48365,6047.2,654.38
48365,6297.2,402.38
48365,6547.2,151.38
48365,6797.2,103.62
48365,7047.2,355.62
48365,6297.2,405.38
48365,6547.2,153.38
48365,6797.2,103.62
48365,7047.2,354.62
48365,7297.2,606.62
48365,6547.2,157.38
48365,6797.2,106.62
48365,7047.2,355.62
48365,7297.2,606.62
48365,5797.2,908.38
48365,6047.2,656.38
48365,6297.2,405.38
48365,6547.2,156.38
48365,6797.2,109.62
48365,6047.2,656.38
48365,6297.2,404.38
48365,6547.2,153.38
48365,6797.2,105.62
48365,7047.2,357.62
48365,6297.2,405.38
48365,6547.2,153.38
48365,6797.2,103.62
48365,7047.2,354.62
48365,7297.2,606.62
48365,6547.2,156.38
48365,6797.2,105.62
48365,7047.2,354.62
48365,7297.2,605.62
48365,6797.2,109.62
48365,7047.2,357.62
48365,7297.2,606.62
48365,6047.2,660.38
48365,6297.2,408.38
48365,6547.2,157.38
48365,6797.2,109.62
48365,7047.2,361.62
48365,6297.2,408.38
48365,6547.2,156.38
48365,6797.2,106.62
48365,7047.2,357.62
48365,7297.2,609.62
48365,6547.2,157.38
48365,6797.2,106.62
48365,7047.2,355.62
48365,7297.2,606.62
48365,6797.2,109.62
48365,7047.2,357.62
48365,7297.2,606.62
48365,7047.2,361.62
48365,7297.2,609.62
48365,5297.2,1411.4
48365,5547.2,1159.4
48365,5797.2,908.38
48365,6047.2,659.38
48365,6297.2,411.38
48365,5547.2,1159.4
48365,5797.2,907.38
48365,6047.2,656.38
48365,6297.2,407.38
48365,6547.2,159.38
48365,5797.2,908.38
48365,6047.2,656.38
48365,6297.2,405.38
48365,6547.2,156.38
48365,6797.2,109.62
48365,6047.2,659.38
48365,6297.2,407.38
48365,6547.2,156.38
48365,6797.2,108.62
48365,7047.2,360.62
48365,6297.2,411.38
48365,6547.2,159.38
48365,6797.2,109.62
48365,7047.2,360.62
48365,7297.2,612.62
48365,5547.2,1159.4
48365,5797.2,907.38
48365,6047.2,656.38
48365,6297.2,407.38
48365,6547.2,159.38
48365,5797.2,907.38
48365,6047.2,655.38
48365,6297.2,404.38
48365,6547.2,155.38
48365,6797.2,108.62
48365,6047.2,656.38
48365,6297.2,404.38
48365,6547.2,153.38
48365,6797.2,105.62
48365,7047.2,357.62
48365,6297.2,407.38
48365,6547.2,155.38
48365,6797.2,105.62
48365,7047.2,356.62
48365,7297.2,608.62
48365,6547.2,159.38
48365,6797.2,108.62
48365,7047.2,357.62
48365,7297.2,608.62
48365,5797.2,908.38
48365,6047.2,656.38
48365,6297.2,405.38
48365,6547.2,156.38
48365,6797.2,109.62
48365,6047.2,656.38
48365,6297.2,404.38
48365,6547.2,153.38
48365,6797.2,105.62
48365,7047.2,357.62
48365,6297.2,405.38
48365,6547.2,153.38
48365,6797.2,103.62
48365,7047.2,354.62
48365,7297.2,606.62
48365,6547.2,156.38
48365,6797.2,105.62
48365,7047.2,354.62
48365,7297.2,605.62
48365,6797.2,109.62
48365,7047.2,357.62
48365,7297.2,606.62
48365,6047.2,659.38
48365,6297.2,407.38
48365,6547.2,156.38
48365,6797.2,108.62
48365,7047.2,360.62
48365,6297.2,407.38
48365,6547.2,155.38
48365,6797.2,105.62
48365,7047.2,356.62
48365,7297.2,608.62
48365,6547.2,156.38
48365,6797.2,105.62
48365,7047.2,354.62
48365,7297.2,605.62
48365,6797.2,108.62
48365,7047.2,356.62
48365,7297.2,605.62
48365,7047.2,360.62
48365,7297.2,608.62
48365,6297.2,411.38
48365,6547.2,159.38
48365,6797.2,109.62
48365,7047.2,360.62
48365,7297.2,612.62
48365,6547.2,159.38
48365,6797.2,108.62
48365,7047.2,357.62
48365,7297.2,608.62
48365,6797.2,109.62
48365,7047.2,357.62
48365,7297.2,606.62
48365,7047.2,360.62
48365,7297.2,608.62
48365,7297.2,612.62
48365,5547.2,1163.4
48365,5797.2,911.38
48365,6047.2,660.38
48365,6297.2,411.38
48365,6547.2,163.38
48365,5797.2,911.38
48365,6047.2,659.38
48365,6297.2,408.38
48365,6547.2,159.38
48365,6797.2,112.62
48365,6047.2,660.38
48365,6297.2,408.38
48365,6547.2,157.38
48365,6797.2,109.62
48365,7047.2,361.62
48365,6297.2,411.38
48365,6547.2,159.38
48365,6797.2,109.62
48365,7047.2,360.62
48365,7297.2,612.62
48365,6547.2,163.38
48365,6797.2,112.62
48365,7047.2,361.62
48365,7297.2,612.62
48365,5797.2,911.38
48365,6047.2,659.38
48365,6297.2,408.38
48365,6547.2,159.38
48365,6797.2,112.62
48365,6047.2,659.38
48365,6297.2,407.38
48365,6547.2,156.38
48365,6797.2,108.62
48365,7047.2,360.62
48365,6297.2,408.38
48365,6547.2,156.38
48365,6797.2,106.62
48365,7047.2,357.62
48365,7297.2,609.62
48365,6547.2,159.38
48365,6797.2,108.62
48365,7047.2,357.62
48365,7297.2,608.62
48365,6797.2,112.62
48365,7047.2,360.62
48365,7297.2,609.62
48365,6047.2,660.38
48365,6297.2,408.38
48365,6547.2,157.38
48365,6797.2,109.62
48365,7047.2,361.62
48365,6297.2,408.38
48365,6547.2,156.38
48365,6797.2,106.62
48365,7047.2,357.62
48365,7297.2,609.62
48365,6547.2,157.38
48365,6797.2,106.62
48365,7047.2,355.62
48365,7297.2,606.62
48365,6797.2,109.62
48365,7047.2,357.62
48365,7297.2,606.62
48365,7047.2,361.62
48365,7297.2,609.62
48365,6297.2,411.38
48365,6547.2,159.38
48365,6797.2,109.62
48365,7047.2,360.62
48365,7297.2,612.62
48365,6547.2,159.38
48365,6797.2,108.62
48365,7047.2,357.62
48365,7297.2,608.62
48365,6797.2,109.62
48365,7047.2,357.62
48365,7297.2,606.62
48365,7047.2,360.62
48365,7297.2,608.62
48365,7297.2,612.62
48365,6547.2,163.38
48365,6797.2,112.62
48365,7047.2,361.62
48365,7297.2,612.62
48365,6797.2,112.62
48365,7047.2,360.62
48365,7297.2,609.62
48365,7047.2,361.62
48365,7297.2,609.62
48365,7297.2,612.62
48365,4797.2,1912.4
48365,5047.2,1660.4
48365,5297.2,1409.4
48365,5547.2,1160.4
48365,5797.2,912.38
48365,5047.2,1660.4
48365,5297.2,1408.4
48365,5547.2,1157.4
48365,5797.2,908.38
48365,6047.2,660.38
48365,5297.2,1409.4
48365,5547.2,1157.4
48365,5797.2,906.38
48365,6047.2,657.38
48365,6297.2,409.38
48365,5547.2,1160.4
48365,5797.2,908.38
48365,6047.2,657.38
48365,6297.2,408.38
48365,6547.2,160.38
48365,5797.2,912.38
48365,6047.2,660.38
48365,6297.2,409.38
48365,6547.2,160.38
48365,6797.2,113.62
48365,5047.2,1660.4
48365,5297.2,1408.4
48365,5547.2,1157.4
48365,5797.2,908.38
48365,6047.2,660.38
48365,5297.2,1408.4
48365,5547.2,1156.4
48365,5797.2,905.38
48365,6047.2,656.38
48365,6297.2,408.38
48365,5547.2,1157.4
48365,5797.2,905.38
48365,6047.2,654.38
48365,6297.2,405.38
48365,6547.2,157.38
48365,5797.2,908.38
48365,6047.2,656.38
48365,6297.2,405.38
48365,6547.2,156.38
48365,6797.2,109.62
48365,6047.2,660.38
48365,6297.2,408.38
48365,6547.2,157.38
48365,6797.2,109.62
48365,7047.2,361.62
48365,5297.2,1409.4
48365,5547.2,1157.4
48365,5797.2,906.38
48365,6047.2,657.38
48365,6297.2,409.38
48365,5547.2,1157.4
48365,5797.2,905.38
48365,6047.2,654.38
48365,6297.2,405.38
48365,6547.2,157.38
48365,5797.2,906.38
48365,6047.2,654.38
48365,6297.2,403.38
48365,6547.2,154.38
48365,6797.2,107.62
48365,6047.2,657.38
48365,6297.2,405.38
48365,6547.2,154.38
48365,6797.2,106.62
48365,7047.2,358.62
48365,6297.2,409.38
48365,6547.2,157.38
48365,6797.2,107.62
48365,7047.2,358.62
48365,7297.2,610.62
48365,5547.2,1160.4
48365,5797.2,908.38
48365,6047.2,657.38
48365,6297.2,408.38
48365,6547.2,160.38
48365,5797.2,908.38
48365,6047.2,656.38
48365,6297.2,405.38
48365,6547.2,156.38
48365,6797.2,109.62
48365,6047.2,657.38
48365,6297.2,405.38
48365,6547.2,154.38
48365,6797.2,106.62
48365,7047.2,358.62
48365,6297.2,408.38
48365,6547.2,156.38
48365,6797.2,106.62
48365,7047.2,357.62
48365,7297.2,609.62
48365,6547.2,160.38
48365,6797.2,109.62
48365,7047.2,358.62
48365,7297.2,609.62
48365,5797.2,912.38
48365,6047.2,660.38
48365,6297.2,409.38
48365,6547.2,160.38
48365,6797.2,113.62
48365,6047.2,660.38
48365,6297.2,408.38
48365,6547.2,157.38
48365,6797.2,109.62
48365,7047.2,361.62
48365,6297.2,409.38
48365,6547.2,157.38
48365,6797.2,107.62
48365,7047.2,358.62
48365,7297.2,610.62
48365,6547.2,160.38
48365,6797.2,109.62
48365,7047.2,358.62
48365,7297.2,609.62
48365,6797.2,113.62
48365,7047.2,361.62
48365,7297.2,610.62
48365,5047.2,1660.4
48365,5297.2,1408.4
48365,5547.2,1157.4
48365,5797.2,908.38
48365,6047.2,660.38
48365,5297.2,1408.4
48365,5547.2,1156.4
48365,5797.2,905.38
48365,6047.2,656.38
48365,6297.2,408.38
48365,5547.2,1157.4
48365,5797.2,905.38
48365,6047.2,654.38
48365,6297.2,405.38
48365,6547.2,157.38
48365,5797.2,908.38
48365,6047.2,656.38
48365,6297.2,405.38
48365,6547.2,156.38
48365,6797.2,109.62
48365,6047.2,660.38
48365,6297.2,408.38
48365,6547.2,157.38
48365,6797.2,109.62
48365,7047.2,361.62
48365,5297.2,1408.4
48365,5547.2,1156.4
48365,5797.2,905.38
48365,6047.2,656.38
48365,6297.2,408.38
48365,5547.2,1156.4
48365,5797.2,904.38
48365,6047.2,653.38
48365,6297.2,404.38
48365,6547.2,156.38
48365,5797.2,905.38
48365,6047.2,653.38
48365,6297.2,402.38
48365,6547.2,153.38
48365,6797.2,106.62
48365,6047.2,656.38
48365,6297.2,404.38
48365,6547.2,153.38
48365,6797.2,105.62
48365,7047.2,357.62
48365,6297.2,408.38
48365,6547.2,156.38
48365,6797.2,106.62
48365,7047.2,357.62
48365,7297.2,609.62
48365,5547.2,1157.4
48365,5797.2,905.38
48365,6047.2,654.38
48365,6297.2,405.38
48365,6547.2,157.38
48365,5797.2,905.38
48365,6047.2,653.38
48365,6297.2,402.38
48365,6547.2,153.38
48365,6797.2,106.62
48365,6047.2,654.38
48365,6297.2,402.38
48365,6547.2,151.38
48365,6797.2,103.62
48365,7047.2,355.62
48365,6297.2,405.38
48365,6547.2,153.38
48365,6797.2,103.62
48365,7047.2,354.62
48365,7297.2,606.62
48365,6547.2,157.38
48365,6797.2,106.62
48365,7047.2,355.62
48365,7297.2,606.62
48365,5797.2,908.38
48365,6047.2,656.38
48365,6297.2,405.38
48365,6547.2,156.38
48365,6797.2,109.62
48365,6047.2,656.38
48365,6297.2,404.38
48365,6547.2,153.38
48365,6797.2,105.62
48365,7047.2,357.62
48365,6297.2,405.38
48365,6547.2,153.38
48365,6797.2,103.62
48365,7047.2,354.62
48365,7297.2,606.62
48365,6547.2,156.38
48365,6797.2,105.62
48365,7047.2,354.62
48365,7297.2,605.62
48365,6797.2,109.62
48365,7047.2,357.62
48365,7297.2,606.62
48365,6047.2,660.38
48365,6297.2,408.38
48365,6547.2,157.38
48365,6797.2,109.62
48365,7047.2,361.62
48365,6297.2,408.38
48365,6547.2,156.38
48365,6797.2,106.62
48365,7047.2,357.62
48365,7297.2,609.62
48365,6547.2,157.38
48365,6797.2,106.62
48365,7047.2,355.62
48365,7297.2,606.62
48365,6797.2,109.62
48365,7047.2,357.62
48365,7297.2,606.62
48365,7047.2,361.62
48365,7297.2,609.62
48365,5297.2,1409.4
48365,5547.2,1157.4
48365,5797.2,906.38
48365,6047.2,657.38
48365,6297.2,409.38
48365,5547.2,1157.4
48365,5797.2,905.38
48365,6047.2,654.38
48365,6297.2,405.38
48365,6547.2,157.38
48365,5797.2,906.38
48365,6047.2,654.38
48365,6297.2,403.38
48365,6547.2,154.38
48365,6797.2,107.62
48365,6047.2,657.38
48365,6297.2,405.38
48365,6547.2,154.38
48365,6797.2,106.62
48365,7047.2,358.62
48365,6297.2,409.38
48365,6547.2,157.38
48365,6797.2,107.62
48365,7047.2,358.62
48365,7297.2,610.62
48365,5547.2,1157.4
48365,5797.2,905.38
48365,6047.2,654.38
48365,6297.2,405.38
48365,6547.2,157.38
48365,5797.2,905.38
48365,6047.2,653.38
48365,6297.2,402.38
48365,6547.2,153.38
48365,6797.2,106.62
48365,6047.2,654.38
48365,6297.2,402.38
48365,6547.2,151.38
48365,6797.2,103.62
48365,7047.2,355.62
48365,6297.2,405.38
48365,6547.2,153.38
48365,6797.2,103.62
48365,7047.2,354.62
48365,7297.2,606.62
48365,6547.2,157.38
48365,6797.2,106.62
48365,7047.2,355.62
48365,7297.2,606.62
48365,5797.2,906.38
48365,6047.2,654.38
48365,6297.2,403.38
48365,6547.2,154.38
48365,6797.2,107.62
48365,6047.2,654.38
48365,6297.2,402.38
48365,6547.2,151.38
48365,6797.2,103.62
48365,7047.2,355.62
48365,6297.2,403.38
48365,6547.2,151.38
48365,6797.2,101.62
48365,7047.2,352.62
48365,7297.2,604.62
48365,6547.2,154.38
48365,6797.2,103.62
48365,7047.2,352.62
48365,7297.2,603.62
48365,6797.2,107.62
48365,7047.2,355.62
48365,7297.2,604.62
48365,6047.2,657.38
48365,6297.2,405.38
48365,6547.2,154.38
48365,6797.2,106.62
48365,7047.2,358.62
48365,6297.2,405.38
48365,6547.2,153.38
48365,6797.2,103.62
48365,7047.2,354.62
48365,7297.2,606.62
48365,6547.2,154.38
48365,6797.2,103.62
48365,7047.2,352.62
48365,7297.2,603.62
48365,6797.2,106.62
48365,7047.2,354.62
48365,7297.2,603.62
48365,7047.2,358.62
48365,7297.2,606.62
48365,6297.2,409.38
48365,6547.2,157.38
48365,6797.2,107.62
48365,7047.2,358.62
48365,7297.2,610.62
48365,6547.2,157.38
48365,6797.2,106.62
48365,7047.2,355.62
48365,7297.2,606.62
48365,6797.2,107.62
48365,7047.2,355.62
48365,7297.2,604.62
48365,7047.2,358.62
48365,7297.2,606.62
48365,7297.2,610.62
48365,5547.2,1160.4
48365,5797.2,908.38
48365,6047.2,657.38
48365,6297.2,408.38
48365,6547.2,160.38
48365,5797.2,908.38
48365,6047.2,656.38
48365,6297.2,405.38
48365,6547.2,156.38
48365,6797.2,109.62
48365,6047.2,657.38
48365,6297.2,405.38
48365,6547.2,154.38
48365,6797.2,106.62
48365,7047.2,358.62
48365,6297.2,408.38
48365,6547.2,156.38
48365,6797.2,106.62
48365,7047.2,357.62
48365,7297.2,609.62
48365,6547.2,160.38
48365,6797.2,109.62
48365,7047.2,358.62
48365,7297.2,609.62
48365,5797.2,908.38
48365,6047.2,656.38
48365,6297.2,405.38
48365,6547.2,156.38
48365,6797.2,109.62
48365,6047.2,656.38
48365,6297.2,404.38
48365,6547.2,153.38
48365,6797.2,105.62
48365,7047.2,357.62
48365,6297.2,405.38
48365,6547.2,153.38
48365,6797.2,103.62
48365,7047.2,354.62
48365,7297.2,606.62
48365,6547.2,156.38
48365,6797.2,105.62
48365,7047.2,354.62
48365,7297.2,605.62
48365,6797.2,109.62
48365,7047.2,357.62
48365,7297.2,606.62
48365,6047.2,657.38
48365,6297.2,405.38
48365,6547.2,154.38
48365,6797.2,106.62
48365,7047.2,358.62
48365,6297.2,405.38
48365,6547.2,153.38
48365,6797.2,103.62
48365,7047.2,354.62
48365,7297.2,606.62
48365,6547.2,154.38
48365,6797.2,103.62
48365,7047.2,352.62
48365,7297.2,603.62
48365,6797.2,106.62
48365,7047.2,354.62
48365,7297.2,603.62
48365,7047.2,358.62
48365,7297.2,606.62
48365,6297.2,408.38
48365,6547.2,156.38
48365,6797.2,106.62
48365,7047.2,357.62
48365,7297.2,609.62
48365,6547.2,156.38
48365,6797.2,105.62
48365,7047.2,354.62
48365,7297.2,605.62
48365,6797.2,106.62
48365,7047.2,354.62
48365,7297.2,603.62
48365,7047.2,357.62
48365,7297.2,605.62
48365,7297.2,609.62
48365,6547.2,160.38
48365,6797.2,109.62
48365,7047.2,358.62
48365,7297.2,609.62
48365,6797.2,109.62
48365,7047.2,357.62
48365,7297.2,606.62
48365,7047.2,358.62
48365,7297.2,606.62
48365,7297.2,609.62
48365,5797.2,912.38
48365,6047.2,660.38
48365,6297.2,409.38
48365,6547.2,160.38
48365,6797.2,113.62
48365,6047.2,660.38
48365,6297.2,408.38
48365,6547.2,157.38
48365,6797.2,109.62
48365,7047.2,361.62
48365,6297.2,409.38
48365,6547.2,157.38
48365,6797.2,107.62
48365,7047.2,358.62
48365,7297.2,610.62
48365,6547.2,160.38
48365,6797.2,109.62
48365,7047.2,358.62
48365,7297.2,609.62
48365,6797.2,113.62
48365,7047.2,361.62
48365,7297.2,610.62
48365,6047.2,660.38
48365,6297.2,408.38
48365,6547.2,157.38
48365,6797.2,109.62
48365,7047.2,361.62
48365,6297.2,408.38
48365,6547.2,156.38
48365,6797.2,106.62
48365,7047.2,357.62
48365,7297.2,609.62
48365,6547.2,157.38
48365,6797.2,106.62
48365,7047.2,355.62
48365,7297.2,606.62
48365,6797.2,109.62
48365,7047.2,357.62
48365,7297.2,606.62
48365,7047.2,361.62
48365,7297.2,609.62
48365,6297.2,409.38
48365,6547.2,157.38
48365,6797.2,107.62
48365,7047.2,358.62
48365,7297.2,610.62
48365,6547.2,157.38
48365,6797.2,106.62
48365,7047.2,355.62
48365,7297.2,606.62
48365,6797.2,107.62
48365,7047.2,355.62
48365,7297.2,604.62
48365,7047.2,358.62
48365,7297.2,606.62
48365,7297.2,610.62
48365,6547.2,160.38
48365,6797.2,109.62
48365,7047.2,358.62
48365,7297.2,609.62
48365,6797.2,109.62
48365,7047.2,357.62
48365,7297.2,606.62
48365,7047.2,358.62
48365,7297.2,606.62
48365,7297.2,609.62
48365,5047.2,1663.4
48365,5297.2,1411.4
48365,5547.2,1160.4
48365,5797.2,911.38
48365,6047.2,663.38
48365,5297.2,1411.4
48365,5547.2,1159.4
48365,5797.2,908.38
48365,6047.2,659.38
48365,6297.2,411.38
48365,5547.2,1160.4
48365,5797.2,908.38
48365,6047.2,657.38
48365,6297.2,408.38
48365,6547.2,160.38
48365,5797.2,911.38
48365,6047.2,659.38
48365,6297.2,408.38
48365,6547.2,159.38
48365,6797.2,112.62
48365,6047.2,663.38
48365,6297.2,411.38
48365,6547.2,160.38
48365,6797.2,112.62
48365,7047.2,364.62
48365,5297.2,1411.4
48365,5547.2,1159.4
48365,5797.2,908.38
48365,6047.2,659.38
48365,6297.2,411.38
48365,5547.2,1159.4
48365,5797.2,907.38
48365,6047.2,656.38
48365,6297.2,407.38
48365,6547.2,159.38
48365,5797.2,908.38
48365,6047.2,656.38
48365,6297.2,405.38
48365,6547.2,156.38
48365,6797.2,109.62
48365,6047.2,659.38
48365,6297.2,407.38
48365,6547.2,156.38
48365,6797.2,108.62
48365,7047.2,360.62
48365,6297.2,411.38
48365,6547.2,159.38
48365,6797.2,109.62
48365,7047.2,360.62
48365,7297.2,612.62
48365,5547.2,1160.4
48365,5797.2,908.38
48365,6047.2,657.38
48365,6297.2,408.38
48365,6547.2,160.38
48365,5797.2,908.38
48365,6047.2,656.38
48365,6297.2,405.38
48365,6547.2,156.38
48365,6797.2,109.62
48365,6047.2,657.38
48365,6297.2,405.38
48365,6547.2,154.38
48365,6797.2,106.62
48365,7047.2,358.62
48365,6297.2,408.38
48365,6547.2,156.38
48365,6797.2,106.62
48365,7047.2,357.62
48365,7297.2,609.62
48365,6547.2,160.38
48365,6797.2,109.62
48365,7047.2,358.62
48365,7297.2,609.62
48365,5797.2,911.38
48365,6047.2,659.38
48365,6297.2,408.38
48365,6547.2,159.38
48365,6797.2,112.62
48365,6047.2,659.38
48365,6297.2,407.38
48365,6547.2,156.38
48365,6797.2,108.62
48365,7047.2,360.62
48365,6297.2,408.38
48365,6547.2,156.38
48365,6797.2,106.62
48365,7047.2,357.62
48365,7297.2,609.62
48365,6547.2,159.38
48365,6797.2,108.62
48365,7047.2,357.62
48365,7297.2,608.62
48365,6797.2,112.62
48365,7047.2,360.62
48365,7297.2,609.62
48365,6047.2,663.38
48365,6297.2,411.38
48365,6547.2,160.38
48365,6797.2,112.62
48365,7047.2,364.62
48365,6297.2,411.38
48365,6547.2,159.38
48365,6797.2,109.62
48365,7047.2,360.62
48365,7297.2,612.62
48365,6547.2,160.38
48365,6797.2,109.62
48365,7047.2,358.62
48365,7297.2,609.62
48365,6797.2,112.62
48365,7047.2,360.62
48365,7297.2,609.62
48365,7047.2,364.62
48365,7297.2,612.62
48365,5297.2,1411.4
48365,5547.2,1159.4
48365,5797.2,908.38
48365,6047.2,659.38
48365,6297.2,411.38
48365,5547.2,1159.4
48365,5797.2,907.38
48365,6047.2,656.38
48365,6297.2,407.38
48365,6547.2,159.38
48365,5797.2,908.38
48365,6047.2,656.38
48365,6297.2,405.38
48365,6547.2,156.38
48365,6797.2,109.62
48365,6047.2,659.38
48365,6297.2,407.38
48365,6547.2,156.38
48365,6797.2,108.62
48365,7047.2,360.62
48365,6297.2,411.38
48365,6547.2,159.38
48365,6797.2,109.62
48365,7047.2,360.62
48365,7297.2,612.62
48365,5547.2,1159.4
48365,5797.2,907.38
48365,6047.2,656.38
48365,6297.2,407.38
48365,6547.2,159.38
48365,5797.2,907.38
48365,6047.2,655.38
48365,6297.2,404.38
48365,6547.2,155.38
48365,6797.2,108.62
48365,6047.2,656.38
48365,6297.2,404.38
48365,6547.2,153.38
48365,6797.2,105.62
48365,7047.2,357.62
48365,6297.2,407.38
48365,6547.2,155.38
48365,6797.2,105.62
48365,7047.2,356.62
48365,7297.2,608.62
48365,6547.2,159.38
48365,6797.2,108.62
48365,7047.2,357.62
48365,7297.2,608.62
48365,5797.2,908.38
48365,6047.2,656.38
48365,6297.2,405.38
48365,6547.2,156.38
48365,6797.2,109.62
48365,6047.2,656.38
48365,6297.2,404.38
48365,6547.2,153.38
48365,6797.2,105.62
48365,7047.2,357.62
48365,6297.2,405.38
48365,6547.2,153.38
48365,6797.2,103.62
48365,7047.2,354.62
48365,7297.2,606.62
48365,6547.2,156.38
48365,6797.2,105.62
48365,7047.2,354.62
48365,7297.2,605.62
48365,6797.2,109.62
48365,7047.2,357.62
48365,7297.2,606.62
48365,6047.2,659.38
48365,6297.2,407.38
48365,6547.2,156.38
48365,6797.2,108.62
48365,7047.2,360.62
48365,6297.2,407.38
48365,6547.2,155.38
48365,6797.2,105.62
48365,7047.2,356.62
48365,7297.2,608.62
48365,6547.2,156.38
48365,6797.2,105.62
48365,7047.2,354.62
48365,7297.2,605.62
48365,6797.2,108.62
48365,7047.2,356.62
48365,7297.2,605.62
48365,7047.2,360.62
48365,7297.2,608.62
48365,6297.2,411.38
48365,6547.2,159.38
48365,6797.2,109.62
48365,7047.2,360.62
48365,7297.2,612.62
48365,6547.2,159.38
48365,6797.2,108.62
48365,7047.2,357.62
48365,7297.2,608.62
48365,6797.2,109.62
48365,7047.2,357.62
48365,7297.2,606.62
48365,7047.2,360.62
48365,7297.2,608.62
48365,7297.2,612.62
48365,5547.2,1160.4
48365,5797.2,908.38
48365,6047.2,657.38
48365,6297.2,408.38
48365,6547.2,160.38
48365,5797.2,908.38
48365,6047.2,656.38
48365,6297.2,405.38
48365,6547.2,156.38
48365,6797.2,109.62
48365,6047.2,657.38
48365,6297.2,405.38
48365,6547.2,154.38
48365,6797.2,106.62
48365,7047.2,358.62
48365,6297.2,408.38
48365,6547.2,156.38
48365,6797.2,106.62
48365,7047.2,357.62
48365,7297.2,609.62
48365,6547.2,160.38
48365,6797.2,109.62
48365,7047.2,358.62
48365,7297.2,609.62
48365,5797.2,908.38
48365,6047.2,656.38
48365,6297.2,405.38
48365,6547.2,156.38
48365,6797.2,109.62
48365,6047.2,656.38
48365,6297.2,404.38
48365,6547.2,153.38
48365,6797.2,105.62
48365,7047.2,357.62
48365,6297.2,405.38
48365,6547.2,153.38
48365,6797.2,103.62
48365,7047.2,354.62
48365,7297.2,606.62
48365,6547.2,156.38
48365,6797.2,105.62
48365,7047.2,354.62
48365,7297.2,605.62
48365,6797.2,109.62
48365,7047.2,357.62
48365,7297.2,606.62
48365,6047.2,657.38
48365,6297.2,405.38
48365,6547.2,154.38
48365,6797.2,106.62
48365,7047.2,358.62
48365,6297.2,405.38
48365,6547.2,153.38
48365,6797.2,103.62
48365,7047.2,354.62
48365,7297.2,606.62
48365,6547.2,154.38
48365,6797.2,103.62
48365,7047.2,352.62
48365,7297.2,603.62
48365,6797.2,106.62
48365,7047.2,354.62
48365,7297.2,603.62
48365,7047.2,358.62
48365,7297.2,606.62
48365,6297.2,408.38
48365,6547.2,156.38
48365,6797.2,106.62
48365,7047.2,357.62
48365,7297.2,609.62
48365,6547.2,156.38
48365,6797.2,105.62
48365,7047.2,354.62
48365,7297.2,605.62
48365,6797.2,106.62
48365,7047.2,354.62
48365,7297.2,603.62
48365,7047.2,357.62
48365,7297.2,605.62
48365,7297.2,609.62
48365,6547.2,160.38
48365,6797.2,109.62
48365,7047.2,358.62
48365,7297.2,609.62
48365,6797.2,109.62
48365,7047.2,357.62
48365,7297.2,606.62
48365,7047.2,358.62
48365,7297.2,606.62
48365,7297.2,609.62
48365,5797.2,911.38
48365,6047.2,659.38
48365,6297.2,408.38
48365,6547.2,159.38
48365,6797.2,112.62
48365,6047.2,659.38
48365,6297.2,407.38
48365,6547.2,156.38
48365,6797.2,108.62
48365,7047.2,360.62
48365,6297.2,408.38
48365,6547.2,156.38
48365,6797.2,106.62
48365,7047.2,357.62
48365,7297.2,609.62
48365,6547.2,159.38
48365,6797.2,108.62
48365,7047.2,357.62
48365,7297.2,608.62
48365,6797.2,112.62
48365,7047.2,360.62
48365,7297.2,609.62
48365,6047.2,659.38
48365,6297.2,407.38
48365,6547.2,156.38
48365,6797.2,108.62
48365,7047.2,360.62
48365,6297.2,407.38
48365,6547.2,155.38
48365,6797.2,105.62
48365,7047.2,356.62
48365,7297.2,608.62
48365,6547.2,156.38
48365,6797.2,105.62
48365,7047.2,354.62
48365,7297.2,605.62
48365,6797.2,108.62
48365,7047.2,356.62
48365,7297.2,605.62
48365,7047.2,360.62
48365,7297.2,608.62
48365,6297.2,408.38
48365,6547.2,156.38
48365,6797.2,106.62
48365,7047.2,357.62
48365,7297.2,609.62
48365,6547.2,156.38
48365,6797.2,105.62
48365,7047.2,354.62
48365,7297.2,605.62
48365,6797.2,106.62
48365,7047.2,354.62
48365,7297.2,603.62
48365,7047.2,357.62
48365,7297.2,605.62
48365,7297.2,609.62
48365,6547.2,159.38
48365,6797.2,108.62
48365,7047.2,357.62
48365,7297.2,608.62
48365,6797.2,108.62
48365,7047.2,356.62
48365,7297.2,605.62
48365,7047.2,357.62
48365,7297.2,605.62
48365,7297.2,608.62
