46798,5199.1,455.55
47666,4699.1,47.448
47666,4949.1,206.55
47666,5199.1,455.55
47666,5449.1,706.55
48534,4199.1,550.45
48534,4449.1,298.45
48534,4699.1,47.448
48534,4949.1,209.55
48534,5199.1,461.55
48534,4449.1,298.45
48534,4699.1,46.448
48534,4949.1,206.55
48534,5199.1,457.55
48534,5449.1,709.55
48534,4699.1,47.448
48534,4949.1,206.55
48534,5199.1,455.55
48534,5449.1,706.55
48534,5699.1,958.55
48534,4949.1,209.55
48534,5199.1,457.55
48534,5449.1,706.55
48534,5699.1,957.55
49402,3699.1,1053.4
49402,3949.1,801.45
49402,3949.1,801.45
49402,5449.1,712.55
49402,5449.1,712.55
49402,5699.1,964.55
49402,3949.1,801.45
49402,5449.1,709.55
49402,5449.1,708.55
49402,5699.1,960.55
49402,5449.1,709.55
49402,5699.1,960.55
49402,5949.1,1212.6
49402,5449.1,709.55
49402,5449.1,706.55
49402,5699.1,958.55
49402,5449.1,706.55
49402,5699.1,957.55
49402,5949.1,1209.6
49402,5449.1,709.55
49402,5699.1,958.55
49402,5949.1,1209.6
49402,5449.1,712.55
49402,5449.1,708.55
49402,5699.1,960.55
49402,5449.1,706.55
49402,5699.1,957.55
49402,5949.1,1209.6
49402,5449.1,708.55
49402,5699.1,957.55
49402,5949.1,1208.6
50270,3199.1,1556.4
50270,3449.1,1304.4
50270,3699.1,1053.4
50270,3949.1,804.45
50270,3449.1,1304.4
50270,3699.1,1052.4
50270,3949.1,801.45
50270,3449.1,1304.4
50270,3699.1,1052.4
50270,3949.1,801.45
50270,5449.1,712.55
50270,5699.1,963.55
50270,5449.1,712.55
50270,5699.1,963.55
50270,5449.1,715.55
50270,5699.1,964.55
50270,3449.1,1304.4
50270,3699.1,1052.4
50270,3949.1,801.45
50270,5449.1,709.55
50270,5699.1,960.55
50270,5449.1,708.55
50270,5699.1,959.55
50270,5449.1,711.55
50270,5699.1,960.55
50270,5449.1,709.55
50270,5699.1,960.55
50270,5449.1,711.55
50270,5699.1,960.55
50270,5449.1,715.55
50270,5699.1,963.55
50270,5449.1,709.55
50270,5699.1,960.55
50270,5449.1,706.55
50270,5699.1,957.55
50270,5449.1,709.55
50270,5699.1,958.55
50270,5449.1,706.55
50270,5699.1,957.55
50270,5449.1,708.55
50270,5699.1,957.55
50270,5449.1,712.55
50270,5699.1,960.55
50270,5449.1,709.55
50270,5699.1,960.55
50270,5449.1,709.55
50270,5699.1,958.55
50270,5449.1,712.55
50270,5699.1,960.55
50270,5449.1,712.55
50270,5699.1,963.55
50270,5449.1,708.55
50270,5699.1,959.55
50270,5449.1,711.55
50270,5699.1,960.55
50270,5449.1,706.55
50270,5699.1,957.55
50270,5449.1,708.55
50270,5699.1,957.55
50270,5449.1,712.55
50270,5699.1,960.55
50270,5449.1,708.55
50270,5699.1,959.55
50270,5449.1,708.55
50270,5699.1,957.55
50270,5449.1,711.55
50270,5699.1,959.55
51138,2699.1,2059.4
51138,2949.1,1807.4
51138,3199.1,1556.4
51138,3449.1,1307.4
51138,3699.1,1059.4
51138,2949.1,1807.4
51138,3199.1,1555.4
51138,3449.1,1304.4
51138,3699.1,1055.4
51138,3949.1,807.45
51138,3199.1,1556.4
51138,3449.1,1304.4
51138,3699.1,1053.4
51138,3949.1,804.45
51138,4199.1,556.45
51138,3449.1,1307.4
51138,3699.1,1055.4
51138,3949.1,804.45
51138,4199.1,555.45
51138,4449.1,307.45
51138,2949.1,1807.4
51138,3199.1,1555.4
51138,3449.1,1304.4
51138,3699.1,1055.4
51138,3949.1,807.45
51138,3199.1,1555.4
51138,3449.1,1303.4
51138,3699.1,1052.4
51138,3949.1,803.45
51138,4199.1,555.45
51138,3449.1,1304.4
51138,3699.1,1052.4
51138,3949.1,801.45
51138,4199.1,552.45
51138,4449.1,304.45
51138,2949.1,1807.4
51138,3199.1,1555.4
51138,3449.1,1304.4
51138,3699.1,1055.4
51138,3949.1,807.45
51138,3199.1,1555.4
51138,3449.1,1303.4
51138,3699.1,1052.4
51138,3949.1,803.45
51138,4199.1,555.45
51138,3449.1,1304.4
51138,3699.1,1052.4
51138,3949.1,801.45
51138,4199.1,552.45
51138,4449.1,304.45
51138,4949.1,215.55
51138,5199.1,463.55
51138,5449.1,712.55
51138,5699.1,963.55
51138,5199.1,466.55
51138,5449.1,714.55
51138,5699.1,963.55
51138,4949.1,215.55
51138,5199.1,463.55
51138,5449.1,712.55
51138,5699.1,963.55
51138,5199.1,466.55
51138,5449.1,714.55
51138,5699.1,963.55
51138,4949.1,218.55
51138,5199.1,466.55
51138,5449.1,715.55
51138,5699.1,966.55
51138,5199.1,467.55
51138,5449.1,715.55
51138,5699.1,964.55
51138,2949.1,1807.4
51138,3199.1,1555.4
51138,3449.1,1304.4
51138,3699.1,1055.4
51138,3949.1,807.45
51138,3199.1,1555.4
51138,3449.1,1303.4
51138,3699.1,1052.4
51138,3949.1,803.45
51138,4199.1,555.45
51138,3449.1,1304.4
51138,3699.1,1052.4
51138,3949.1,801.45
51138,4199.1,552.45
51138,4449.1,304.45
51138,4949.1,212.55
51138,5199.1,460.55
51138,5449.1,709.55
51138,5699.1,960.55
51138,5199.1,463.55
51138,5449.1,711.55
51138,5699.1,960.55
51138,4949.1,211.55
51138,5199.1,459.55
51138,5449.1,708.55
51138,5699.1,959.55
51138,5199.1,462.55
51138,5449.1,710.55
51138,5699.1,959.55
51138,4949.1,214.55
51138,5199.1,462.55
51138,5449.1,711.55
51138,5699.1,962.55
51138,5199.1,463.55
51138,5449.1,711.55
51138,5699.1,960.55
51138,4949.1,212.55
51138,5199.1,460.55
51138,5449.1,709.55
51138,5699.1,960.55
51138,5199.1,463.55
51138,5449.1,711.55
51138,5699.1,960.55
51138,4949.1,214.55
51138,5199.1,462.55
51138,5449.1,711.55
51138,5699.1,962.55
51138,5199.1,463.55
51138,5449.1,711.55
51138,5699.1,960.55
51138,4949.1,218.55
51138,5199.1,466.55
51138,5449.1,715.55
51138,5699.1,966.55
51138,5199.1,466.55
51138,5449.1,714.55
51138,5699.1,963.55
51138,4949.1,212.55
51138,5199.1,460.55
51138,5449.1,709.55
51138,5699.1,960.55
51138,5199.1,463.55
51138,5449.1,711.55
51138,5699.1,960.55
51138,4949.1,209.55
51138,5199.1,457.55
51138,5449.1,706.55
51138,5699.1,957.55
51138,5199.1,460.55
51138,5449.1,708.55
51138,5699.1,957.55
51138,4949.1,212.55
51138,5199.1,460.55
51138,5449.1,709.55
51138,5699.1,960.55
51138,5199.1,461.55
51138,5449.1,709.55
51138,5699.1,958.55
51138,4949.1,209.55
51138,5199.1,457.55
51138,5449.1,706.55
51138,5699.1,957.55
51138,5199.1,460.55
51138,5449.1,708.55
51138,5699.1,957.55
51138,4949.1,211.55
51138,5199.1,459.55
51138,5449.1,708.55
51138,5699.1,959.55
51138,5199.1,460.55
51138,5449.1,708.55
51138,5699.1,957.55
51138,4949.1,215.55
51138,5199.1,463.55
51138,5449.1,712.55
51138,5699.1,963.55
51138,5199.1,463.55
51138,5449.1,711.55
51138,5699.1,960.55
51138,4949.1,212.55
51138,5199.1,460.55
51138,5449.1,709.55
51138,5699.1,960.55
51138,5199.1,463.55
51138,5449.1,711.55
51138,5699.1,960.55
51138,4949.1,212.55
51138,5199.1,460.55
51138,5449.1,709.55
51138,5699.1,960.55
51138,5199.1,461.55
51138,5449.1,709.55
51138,5699.1,958.55
51138,4949.1,215.55
51138,5199.1,463.55
51138,5449.1,712.55
51138,5699.1,963.55
51138,5199.1,463.55
51138,5449.1,711.55
51138,5699.1,960.55
51138,4949.1,215.55
51138,5199.1,463.55
51138,5449.1,712.55
51138,5699.1,963.55
51138,5199.1,466.55
51138,5449.1,714.55
51138,5699.1,963.55
51138,4949.1,211.55
51138,5199.1,459.55
51138,5449.1,708.55
51138,5699.1,959.55
51138,5199.1,462.55
51138,5449.1,710.55
51138,5699.1,959.55
51138,4949.1,214.55
51138,5199.1,462.55
51138,5449.1,711.55
51138,5699.1,962.55
51138,5199.1,463.55
51138,5449.1,711.55
51138,5699.1,960.55
51138,4949.1,209.55
51138,5199.1,457.55
51138,5449.1,706.55
51138,5699.1,957.55
51138,5199.1,460.55
51138,5449.1,708.55
51138,5699.1,957.55
51138,4949.1,211.55
51138,5199.1,459.55
51138,5449.1,708.55
51138,5699.1,959.55
51138,5199.1,460.55
51138,5449.1,708.55
51138,5699.1,957.55
51138,4949.1,215.55
51138,5199.1,463.55
51138,5449.1,712.55
51138,5699.1,963.55
51138,5199.1,463.55
51138,5449.1,711.55
51138,5699.1,960.55
51138,4949.1,211.55
51138,5199.1,459.55
51138,5449.1,708.55
51138,5699.1,959.55
51138,5199.1,462.55
51138,5449.1,710.55
51138,5699.1,959.55
51138,4949.1,211.55
51138,5199.1,459.55
51138,5449.1,708.55
51138,5699.1,959.55
51138,5199.1,460.55
51138,5449.1,708.55
51138,5699.1,957.55
51138,4949.1,214.55
51138,5199.1,462.55
51138,5449.1,711.55
51138,5699.1,962.55
51138,5199.1,462.55
51138,5449.1,710.55
51138,5699.1,959.55
52006,2199.1,2562.4
52006,2449.1,2310.4
52006,2699.1,2059.4
52006,2949.1,1810.4
52006,3199.1,1562.4
52006,2449.1,2310.4
52006,2699.1,2058.4
52006,2949.1,1807.4
52006,3199.1,1558.4
52006,3449.1,1310.4
52006,2699.1,2059.4
52006,2949.1,1807.4
52006,3199.1,1556.4
52006,3449.1,1307.4
52006,3699.1,1059.4
52006,2949.1,1810.4
52006,3199.1,1558.4
52006,3449.1,1307.4
52006,3699.1,1058.4
52006,3949.1,810.45
52006,3199.1,1562.4
52006,3449.1,1310.4
52006,3699.1,1059.4
52006,3949.1,810.45
52006,4199.1,562.45
52006,2449.1,2310.4
52006,2699.1,2058.4
52006,2949.1,1807.4
52006,3199.1,1558.4
52006,3449.1,1310.4
52006,2699.1,2058.4
52006,2949.1,1806.4
52006,3199.1,1555.4
52006,3449.1,1306.4
52006,3699.1,1058.4
52006,2949.1,1807.4
52006,3199.1,1555.4
52006,3449.1,1304.4
52006,3699.1,1055.4
52006,3949.1,807.45
52006,3199.1,1558.4
52006,3449.1,1306.4
52006,3699.1,1055.4
52006,3949.1,806.45
52006,4199.1,558.45
52006,3449.1,1310.4
52006,3699.1,1058.4
52006,3949.1,807.45
52006,4199.1,558.45
52006,4449.1,310.45
52006,2699.1,2059.4
52006,2949.1,1807.4
52006,3199.1,1556.4
52006,3449.1,1307.4
52006,3699.1,1059.4
52006,2949.1,1807.4
52006,3199.1,1555.4
52006,3449.1,1304.4
52006,3699.1,1055.4
52006,3949.1,807.45
52006,3199.1,1556.4
52006,3449.1,1304.4
52006,3699.1,1053.4
52006,3949.1,804.45
52006,4199.1,556.45
52006,3449.1,1307.4
52006,3699.1,1055.4
52006,3949.1,804.45
52006,4199.1,555.45
52006,4449.1,307.45
52006,3699.1,1059.4
52006,3949.1,807.45
52006,4199.1,556.45
52006,4449.1,307.45
52006,4699.1,59.448
52006,2949.1,1810.4
52006,3199.1,1558.4
52006,3449.1,1307.4
52006,3699.1,1058.4
52006,3949.1,810.45
52006,3199.1,1558.4
52006,3449.1,1306.4
52006,3699.1,1055.4
52006,3949.1,806.45
52006,4199.1,558.45
52006,3449.1,1307.4
52006,3699.1,1055.4
52006,3949.1,804.45
52006,4199.1,555.45
52006,4449.1,307.45
52006,3699.1,1058.4
52006,3949.1,806.45
52006,4199.1,555.45
52006,4449.1,306.45
52006,4699.1,58.448
52006,3949.1,810.45
52006,4199.1,558.45
52006,4449.1,307.45
52006,4699.1,58.448
52006,4949.1,221.55
52006,2449.1,2310.4
52006,2699.1,2058.4
52006,2949.1,1807.4
52006,3199.1,1558.4
52006,3449.1,1310.4
52006,2699.1,2058.4
52006,2949.1,1806.4
52006,3199.1,1555.4
52006,3449.1,1306.4
52006,3699.1,1058.4
52006,2949.1,1807.4
52006,3199.1,1555.4
52006,3449.1,1304.4
52006,3699.1,1055.4
52006,3949.1,807.45
52006,3199.1,1558.4
52006,3449.1,1306.4
52006,3699.1,1055.4
52006,3949.1,806.45
52006,4199.1,558.45
52006,3449.1,1310.4
52006,3699.1,1058.4
52006,3949.1,807.45
52006,4199.1,558.45
52006,4449.1,310.45
52006,2699.1,2058.4
52006,2949.1,1806.4
52006,3199.1,1555.4
52006,3449.1,1306.4
52006,3699.1,1058.4
52006,2949.1,1806.4
52006,3199.1,1554.4
52006,3449.1,1303.4
52006,3699.1,1054.4
52006,3949.1,806.45
52006,3199.1,1555.4
52006,3449.1,1303.4
52006,3699.1,1052.4
52006,3949.1,803.45
52006,4199.1,555.45
52006,3449.1,1306.4
52006,3699.1,1054.4
52006,3949.1,803.45
52006,4199.1,554.45
52006,4449.1,306.45
52006,3699.1,1058.4
52006,3949.1,806.45
52006,4199.1,555.45
52006,4449.1,306.45
52006,4699.1,58.448
52006,2949.1,1807.4
52006,3199.1,1555.4
52006,3449.1,1304.4
52006,3699.1,1055.4
52006,3949.1,807.45
52006,3199.1,1555.4
52006,3449.1,1303.4
52006,3699.1,1052.4
52006,3949.1,803.45
52006,4199.1,555.45
52006,3449.1,1304.4
52006,3699.1,1052.4
52006,3949.1,801.45
52006,4199.1,552.45
52006,4449.1,304.45
52006,3699.1,1055.4
52006,3949.1,803.45
52006,4199.1,552.45
52006,4449.1,303.45
52006,4699.1,55.448
52006,3949.1,807.45
52006,4199.1,555.45
52006,4449.1,304.45
52006,4699.1,55.448
52006,4949.1,218.55
52006,2449.1,2310.4
52006,2699.1,2058.4
52006,2949.1,1807.4
52006,3199.1,1558.4
52006,3449.1,1310.4
52006,2699.1,2058.4
52006,2949.1,1806.4
52006,3199.1,1555.4
52006,3449.1,1306.4
52006,3699.1,1058.4
52006,2949.1,1807.4
52006,3199.1,1555.4
52006,3449.1,1304.4
52006,3699.1,1055.4
52006,3949.1,807.45
52006,3199.1,1558.4
52006,3449.1,1306.4
52006,3699.1,1055.4
52006,3949.1,806.45
52006,4199.1,558.45
52006,3449.1,1310.4
52006,3699.1,1058.4
52006,3949.1,807.45
52006,4199.1,558.45
52006,4449.1,310.45
52006,2699.1,2058.4
52006,2949.1,1806.4
52006,3199.1,1555.4
52006,3449.1,1306.4
52006,3699.1,1058.4
52006,2949.1,1806.4
52006,3199.1,1554.4
52006,3449.1,1303.4
52006,3699.1,1054.4
52006,3949.1,806.45
52006,3199.1,1555.4
52006,3449.1,1303.4
52006,3699.1,1052.4
52006,3949.1,803.45
52006,4199.1,555.45
52006,3449.1,1306.4
52006,3699.1,1054.4
52006,3949.1,803.45
52006,4199.1,554.45
52006,4449.1,306.45
52006,3699.1,1058.4
52006,3949.1,806.45
52006,4199.1,555.45
52006,4449.1,306.45
52006,4699.1,58.448
52006,2949.1,1807.4
52006,3199.1,1555.4
52006,3449.1,1304.4
52006,3699.1,1055.4
52006,3949.1,807.45
52006,3199.1,1555.4
52006,3449.1,1303.4
52006,3699.1,1052.4
52006,3949.1,803.45
52006,4199.1,555.45
52006,3449.1,1304.4
52006,3699.1,1052.4
52006,3949.1,801.45
52006,4199.1,552.45
52006,4449.1,304.45
52006,3699.1,1055.4
52006,3949.1,803.45
52006,4199.1,552.45
52006,4449.1,303.45
52006,4699.1,55.448
52006,3949.1,807.45
52006,4199.1,555.45
52006,4449.1,304.45
52006,4699.1,55.448
52006,4949.1,218.55
52006,4449.1,307.45
52006,4699.1,55.448
52006,4949.1,215.55
52006,5199.1,466.55
52006,5449.1,718.55
52006,4699.1,55.448
52006,4949.1,214.55
52006,5199.1,463.55
52006,5449.1,714.55
52006,5699.1,966.55
52006,4949.1,215.55
52006,5199.1,463.55
52006,5449.1,712.55
52006,5699.1,963.55
52006,5949.1,1215.6
52006,5199.1,466.55
52006,5449.1,714.55
52006,5699.1,963.55
52006,5949.1,1214.6
52006,6199.1,1466.6
52006,4699.1,58.448
52006,4949.1,217.55
52006,5199.1,466.55
52006,5449.1,717.55
52006,5699.1,969.55
52006,4949.1,217.55
52006,5199.1,465.55
52006,5449.1,714.55
52006,5699.1,965.55
52006,5949.1,1217.6
52006,5199.1,466.55
52006,5449.1,714.55
52006,5699.1,963.55
52006,5949.1,1214.6
52006,6199.1,1466.6
52006,4449.1,307.45
52006,4699.1,55.448
52006,4949.1,215.55
52006,5199.1,466.55
52006,5449.1,718.55
52006,4699.1,55.448
52006,4949.1,214.55
52006,5199.1,463.55
52006,5449.1,714.55
52006,5699.1,966.55
52006,4949.1,215.55
52006,5199.1,463.55
52006,5449.1,712.55
52006,5699.1,963.55
52006,5949.1,1215.6
52006,5199.1,466.55
52006,5449.1,714.55
52006,5699.1,963.55
52006,5949.1,1214.6
52006,6199.1,1466.6
52006,4699.1,58.448
52006,4949.1,217.55
52006,5199.1,466.55
52006,5449.1,717.55
52006,5699.1,969.55
52006,4949.1,217.55
52006,5199.1,465.55
52006,5449.1,714.55
52006,5699.1,965.55
52006,5949.1,1217.6
52006,5199.1,466.55
52006,5449.1,714.55
52006,5699.1,963.55
52006,5949.1,1214.6
52006,6199.1,1466.6
52006,4449.1,310.45
52006,4699.1,58.448
52006,4949.1,218.55
52006,5199.1,469.55
52006,5449.1,721.55
52006,4699.1,58.448
52006,4949.1,217.55
52006,5199.1,466.55
52006,5449.1,717.55
52006,5699.1,969.55
52006,4949.1,218.55
52006,5199.1,466.55
52006,5449.1,715.55
52006,5699.1,966.55
52006,5949.1,1218.6
52006,5199.1,469.55
52006,5449.1,717.55
52006,5699.1,966.55
52006,5949.1,1217.6
52006,6199.1,1469.6
52006,4699.1,59.448
52006,4949.1,218.55
52006,5199.1,467.55
52006,5449.1,718.55
52006,5699.1,970.55
52006,4949.1,218.55
52006,5199.1,466.55
52006,5449.1,715.55
52006,5699.1,966.55
52006,5949.1,1218.6
52006,5199.1,467.55
52006,5449.1,715.55
52006,5699.1,964.55
52006,5949.1,1215.6
52006,6199.1,1467.6
52006,2449.1,2310.4
52006,2699.1,2058.4
52006,2949.1,1807.4
52006,3199.1,1558.4
52006,3449.1,1310.4
52006,2699.1,2058.4
52006,2949.1,1806.4
52006,3199.1,1555.4
52006,3449.1,1306.4
52006,3699.1,1058.4
52006,2949.1,1807.4
52006,3199.1,1555.4
52006,3449.1,1304.4
52006,3699.1,1055.4
52006,3949.1,807.45
52006,3199.1,1558.4
52006,3449.1,1306.4
52006,3699.1,1055.4
52006,3949.1,806.45
52006,4199.1,558.45
52006,3449.1,1310.4
52006,3699.1,1058.4
52006,3949.1,807.45
52006,4199.1,558.45
52006,4449.1,310.45
52006,2699.1,2058.4
52006,2949.1,1806.4
52006,3199.1,1555.4
52006,3449.1,1306.4
52006,3699.1,1058.4
52006,2949.1,1806.4
52006,3199.1,1554.4
52006,3449.1,1303.4
52006,3699.1,1054.4
52006,3949.1,806.45
52006,3199.1,1555.4
52006,3449.1,1303.4
52006,3699.1,1052.4
52006,3949.1,803.45
52006,4199.1,555.45
52006,3449.1,1306.4
52006,3699.1,1054.4
52006,3949.1,803.45
52006,4199.1,554.45
52006,4449.1,306.45
52006,3699.1,1058.4
52006,3949.1,806.45
52006,4199.1,555.45
52006,4449.1,306.45
52006,4699.1,58.448
52006,2949.1,1807.4
52006,3199.1,1555.4
52006,3449.1,1304.4
52006,3699.1,1055.4
52006,3949.1,807.45
52006,3199.1,1555.4
52006,3449.1,1303.4
52006,3699.1,1052.4
52006,3949.1,803.45
52006,4199.1,555.45
52006,3449.1,1304.4
52006,3699.1,1052.4
52006,3949.1,801.45
52006,4199.1,552.45
52006,4449.1,304.45
52006,3699.1,1055.4
52006,3949.1,803.45
52006,4199.1,552.45
52006,4449.1,303.45
52006,4699.1,55.448
52006,3949.1,807.45
52006,4199.1,555.45
52006,4449.1,304.45
52006,4699.1,55.448
52006,4949.1,218.55
52006,4449.1,304.45
52006,4699.1,52.448
52006,4949.1,212.55
52006,5199.1,463.55
52006,5449.1,715.55
52006,4699.1,52.448
52006,4949.1,211.55
52006,5199.1,460.55
52006,5449.1,711.55
52006,5699.1,963.55
52006,4949.1,212.55
52006,5199.1,460.55
52006,5449.1,709.55
52006,5699.1,960.55
52006,5949.1,1212.6
52006,5199.1,463.55
52006,5449.1,711.55
52006,5699.1,960.55
52006,5949.1,1211.6
52006,6199.1,1463.6
52006,4699.1,55.448
52006,4949.1,214.55
52006,5199.1,463.55
52006,5449.1,714.55
52006,5699.1,966.55
52006,4949.1,214.55
52006,5199.1,462.55
52006,5449.1,711.55
52006,5699.1,962.55
52006,5949.1,1214.6
52006,5199.1,463.55
52006,5449.1,711.55
52006,5699.1,960.55
52006,5949.1,1211.6
52006,6199.1,1463.6
52006,4449.1,303.45
52006,4699.1,51.448
52006,4949.1,211.55
52006,5199.1,462.55
52006,5449.1,714.55
52006,4699.1,51.448
52006,4949.1,210.55
52006,5199.1,459.55
52006,5449.1,710.55
52006,5699.1,962.55
52006,4949.1,211.55
52006,5199.1,459.55
52006,5449.1,708.55
52006,5699.1,959.55
52006,5949.1,1211.6
52006,5199.1,462.55
52006,5449.1,710.55
52006,5699.1,959.55
52006,5949.1,1210.6
52006,6199.1,1462.6
52006,4699.1,54.448
52006,4949.1,213.55
52006,5199.1,462.55
52006,5449.1,713.55
52006,5699.1,965.55
52006,4949.1,213.55
52006,5199.1,461.55
52006,5449.1,710.55
52006,5699.1,961.55
52006,5949.1,1213.6
52006,5199.1,462.55
52006,5449.1,710.55
52006,5699.1,959.55
52006,5949.1,1210.6
52006,6199.1,1462.6
52006,4449.1,306.45
52006,4699.1,54.448
52006,4949.1,214.55
52006,5199.1,465.55
52006,5449.1,717.55
52006,4699.1,54.448
52006,4949.1,213.55
52006,5199.1,462.55
52006,5449.1,713.55
52006,5699.1,965.55
52006,4949.1,214.55
52006,5199.1,462.55
52006,5449.1,711.55
52006,5699.1,962.55
52006,5949.1,1214.6
52006,5199.1,465.55
52006,5449.1,713.55
52006,5699.1,962.55
52006,5949.1,1213.6
52006,6199.1,1465.6
52006,4699.1,55.448
52006,4949.1,214.55
52006,5199.1,463.55
52006,5449.1,714.55
52006,5699.1,966.55
52006,4949.1,214.55
52006,5199.1,462.55
52006,5449.1,711.55
52006,5699.1,962.55
52006,5949.1,1214.6
52006,5199.1,463.55
52006,5449.1,711.55
52006,5699.1,960.55
52006,5949.1,1211.6
52006,6199.1,1463.6
52006,4449.1,304.45
52006,4699.1,52.448
52006,4949.1,212.55
52006,5199.1,463.55
52006,5449.1,715.55
52006,4699.1,52.448
52006,4949.1,211.55
52006,5199.1,460.55
52006,5449.1,711.55
52006,5699.1,963.55
52006,4949.1,212.55
52006,5199.1,460.55
52006,5449.1,709.55
52006,5699.1,960.55
52006,5949.1,1212.6
52006,5199.1,463.55
52006,5449.1,711.55
52006,5699.1,960.55
52006,5949.1,1211.6
52006,6199.1,1463.6
52006,4699.1,55.448
52006,4949.1,214.55
52006,5199.1,463.55
52006,5449.1,714.55
52006,5699.1,966.55
52006,4949.1,214.55
52006,5199.1,462.55
52006,5449.1,711.55
52006,5699.1,962.55
52006,5949.1,1214.6
52006,5199.1,463.55
52006,5449.1,711.55
52006,5699.1,960.55
52006,5949.1,1211.6
52006,6199.1,1463.6
52006,4449.1,306.45
52006,4699.1,54.448
52006,4949.1,214.55
52006,5199.1,465.55
52006,5449.1,717.55
52006,4699.1,54.448
52006,4949.1,213.55
52006,5199.1,462.55
52006,5449.1,713.55
52006,5699.1,965.55
52006,4949.1,214.55
52006,5199.1,462.55
52006,5449.1,711.55
52006,5699.1,962.55
52006,5949.1,1214.6
52006,5199.1,465.55
52006,5449.1,713.55
52006,5699.1,962.55
52006,5949.1,1213.6
52006,6199.1,1465.6
52006,4699.1,55.448
52006,4949.1,214.55
52006,5199.1,463.55
52006,5449.1,714.55
52006,5699.1,966.55
52006,4949.1,214.55
52006,5199.1,462.55
52006,5449.1,711.55
52006,5699.1,962.55
52006,5949.1,1214.6
52006,5199.1,463.55
52006,5449.1,711.55
52006,5699.1,960.55
52006,5949.1,1211.6
52006,6199.1,1463.6
52006,4449.1,310.45
52006,4699.1,58.448
52006,4949.1,218.55
52006,5199.1,469.55
52006,5449.1,721.55
52006,4699.1,58.448
52006,4949.1,217.55
52006,5199.1,466.55
52006,5449.1,717.55
52006,5699.1,969.55
52006,4949.1,218.55
52006,5199.1,466.55
52006,5449.1,715.55
52006,5699.1,966.55
52006,5949.1,1218.6
52006,5199.1,469.55
52006,5449.1,717.55
52006,5699.1,966.55
52006,5949.1,1217.6
52006,6199.1,1469.6
52006,4699.1,58.448
52006,4949.1,217.55
52006,5199.1,466.55
52006,5449.1,717.55
52006,5699.1,969.55
52006,4949.1,217.55
52006,5199.1,465.55
52006,5449.1,714.55
52006,5699.1,965.55
52006,5949.1,1217.6
52006,5199.1,466.55
52006,5449.1,714.55
52006,5699.1,963.55
52006,5949.1,1214.6
52006,6199.1,1466.6
52006,4449.1,304.45
52006,4699.1,52.448
52006,4949.1,212.55
52006,5199.1,463.55
52006,5449.1,715.55
52006,4699.1,52.448
52006,4949.1,211.55
52006,5199.1,460.55
52006,5449.1,711.55
52006,5699.1,963.55
52006,4949.1,212.55
52006,5199.1,460.55
52006,5449.1,709.55
52006,5699.1,960.55
52006,5949.1,1212.6
52006,5199.1,463.55
52006,5449.1,711.55
52006,5699.1,960.55
52006,5949.1,1211.6
52006,6199.1,1463.6
52006,4699.1,55.448
52006,4949.1,214.55
52006,5199.1,463.55
52006,5449.1,714.55
52006,5699.1,966.55
52006,4949.1,214.55
52006,5199.1,462.55
52006,5449.1,711.55
52006,5699.1,962.55
52006,5949.1,1214.6
52006,5199.1,463.55
52006,5449.1,711.55
52006,5699.1,960.55
52006,5949.1,1211.6
52006,6199.1,1463.6
52006,4449.1,301.45
52006,4699.1,49.448
52006,4949.1,209.55
52006,5199.1,460.55
52006,5449.1,712.55
52006,4699.1,49.448
52006,4949.1,208.55
52006,5199.1,457.55
52006,5449.1,708.55
52006,5699.1,960.55
52006,4949.1,209.55
52006,5199.1,457.55
52006,5449.1,706.55
52006,5699.1,957.55
52006,5949.1,1209.6
52006,5199.1,460.55
52006,5449.1,708.55
52006,5699.1,957.55
52006,5949.1,1208.6
52006,6199.1,1460.6
52006,4699.1,52.448
52006,4949.1,211.55
52006,5199.1,460.55
52006,5449.1,711.55
52006,5699.1,963.55
52006,4949.1,211.55
52006,5199.1,459.55
52006,5449.1,708.55
52006,5699.1,959.55
52006,5949.1,1211.6
52006,5199.1,460.55
52006,5449.1,708.55
52006,5699.1,957.55
52006,5949.1,1208.6
52006,6199.1,1460.6
52006,4449.1,304.45
52006,4699.1,52.448
52006,4949.1,212.55
52006,5199.1,463.55
52006,5449.1,715.55
52006,4699.1,52.448
52006,4949.1,211.55
52006,5199.1,460.55
52006,5449.1,711.55
52006,5699.1,963.55
52006,4949.1,212.55
52006,5199.1,460.55
52006,5449.1,709.55
52006,5699.1,960.55
52006,5949.1,1212.6
52006,5199.1,463.55
52006,5449.1,711.55
52006,5699.1,960.55
52006,5949.1,1211.6
52006,6199.1,1463.6
52006,4699.1,53.448
52006,4949.1,212.55
52006,5199.1,461.55
52006,5449.1,712.55
52006,5699.1,964.55
52006,4949.1,212.55
52006,5199.1,460.55
52006,5449.1,709.55
52006,5699.1,960.55
52006,5949.1,1212.6
52006,5199.1,461.55
52006,5449.1,709.55
52006,5699.1,958.55
52006,5949.1,1209.6
52006,6199.1,1461.6
52006,4449.1,301.45
52006,4699.1,49.448
52006,4949.1,209.55
52006,5199.1,460.55
52006,5449.1,712.55
52006,4699.1,49.448
52006,4949.1,208.55
52006,5199.1,457.55
52006,5449.1,708.55
52006,5699.1,960.55
52006,4949.1,209.55
52006,5199.1,457.55
52006,5449.1,706.55
52006,5699.1,957.55
52006,5949.1,1209.6
52006,5199.1,460.55
52006,5449.1,708.55
52006,5699.1,957.55
52006,5949.1,1208.6
52006,6199.1,1460.6
52006,4699.1,52.448
52006,4949.1,211.55
52006,5199.1,460.55
52006,5449.1,711.55
52006,5699.1,963.55
52006,4949.1,211.55
52006,5199.1,459.55
52006,5449.1,708.55
52006,5699.1,959.55
52006,5949.1,1211.6
52006,5199.1,460.55
52006,5449.1,708.55
52006,5699.1,957.55
52006,5949.1,1208.6
52006,6199.1,1460.6
52006,4449.1,303.45
52006,4699.1,51.448
52006,4949.1,211.55
52006,5199.1,462.55
52006,5449.1,714.55
52006,4699.1,51.448
52006,4949.1,210.55
52006,5199.1,459.55
52006,5449.1,710.55
52006,5699.1,962.55
52006,4949.1,211.55
52006,5199.1,459.55
52006,5449.1,708.55
52006,5699.1,959.55
52006,5949.1,1211.6
52006,5199.1,462.55
52006,5449.1,710.55
52006,5699.1,959.55
52006,5949.1,1210.6
52006,6199.1,1462.6
52006,4699.1,52.448
52006,4949.1,211.55
52006,5199.1,460.55
52006,5449.1,711.55
52006,5699.1,963.55
52006,4949.1,211.55
52006,5199.1,459.55
52006,5449.1,708.55
52006,5699.1,959.55
52006,5949.1,1211.6
52006,5199.1,460.55
52006,5449.1,708.55
52006,5699.1,957.55
52006,5949.1,1208.6
52006,6199.1,1460.6
52006,4449.1,307.45
52006,4699.1,55.448
52006,4949.1,215.55
52006,5199.1,466.55
52006,5449.1,718.55
52006,4699.1,55.448
52006,4949.1,214.55
52006,5199.1,463.55
52006,5449.1,714.55
52006,5699.1,966.55
52006,4949.1,215.55
52006,5199.1,463.55
52006,5449.1,712.55
52006,5699.1,963.55
52006,5949.1,1215.6
52006,5199.1,466.55
52006,5449.1,714.55
52006,5699.1,963.55
52006,5949.1,1214.6
52006,6199.1,1466.6
52006,4699.1,55.448
52006,4949.1,214.55
52006,5199.1,463.55
52006,5449.1,714.55
52006,5699.1,966.55
52006,4949.1,214.55
52006,5199.1,462.55
52006,5449.1,711.55
52006,5699.1,962.55
52006,5949.1,1214.6
52006,5199.1,463.55
52006,5449.1,711.55
52006,5699.1,960.55
52006,5949.1,1211.6
52006,6199.1,1463.6
52006,4449.1,304.45
52006,4699.1,52.448
52006,4949.1,212.55
52006,5199.1,463.55
52006,5449.1,715.55
52006,4699.1,52.448
52006,4949.1,211.55
52006,5199.1,460.55
52006,5449.1,711.55
52006,5699.1,963.55
52006,4949.1,212.55
52006,5199.1,460.55
52006,5449.1,709.55
52006,5699.1,960.55
52006,5949.1,1212.6
52006,5199.1,463.55
52006,5449.1,711.55
52006,5699.1,960.55
52006,5949.1,1211.6
52006,6199.1,1463.6
52006,4699.1,55.448
52006,4949.1,214.55
52006,5199.1,463.55
52006,5449.1,714.55
52006,5699.1,966.55
52006,4949.1,214.55
52006,5199.1,462.55
52006,5449.1,711.55
52006,5699.1,962.55
52006,5949.1,1214.6
52006,5199.1,463.55
52006,5449.1,711.55
52006,5699.1,960.55
52006,5949.1,1211.6
52006,6199.1,1463.6
52006,4449.1,304.45
52006,4699.1,52.448
52006,4949.1,212.55
52006,5199.1,463.55
52006,5449.1,715.55
52006,4699.1,52.448
52006,4949.1,211.55
52006,5199.1,460.55
52006,5449.1,711.55
52006,5699.1,963.55
52006,4949.1,212.55
52006,5199.1,460.55
52006,5449.1,709.55
52006,5699.1,960.55
52006,5949.1,1212.6
52006,5199.1,463.55
52006,5449.1,711.55
52006,5699.1,960.55
52006,5949.1,1211.6
52006,6199.1,1463.6
52006,4699.1,53.448
52006,4949.1,212.55
52006,5199.1,461.55
52006,5449.1,712.55
52006,5699.1,964.55
52006,4949.1,212.55
52006,5199.1,460.55
52006,5449.1,709.55
52006,5699.1,960.55
52006,5949.1,1212.6
52006,5199.1,461.55
52006,5449.1,709.55
52006,5699.1,958.55
52006,5949.1,1209.6
52006,6199.1,1461.6
52006,4449.1,307.45
52006,4699.1,55.448
52006,4949.1,215.55
52006,5199.1,466.55
52006,5449.1,718.55
52006,4699.1,55.448
52006,4949.1,214.55
52006,5199.1,463.55
52006,5449.1,714.55
52006,5699.1,966.55
52006,4949.1,215.55
52006,5199.1,463.55
52006,5449.1,712.55
52006,5699.1,963.55
52006,5949.1,1215.6
52006,5199.1,466.55
52006,5449.1,714.55
52006,5699.1,963.55
52006,5949.1,1214.6
52006,6199.1,1466.6
52006,4699.1,55.448
52006,4949.1,214.55
52006,5199.1,463.55
52006,5449.1,714.55
52006,5699.1,966.55
52006,4949.1,214.55
52006,5199.1,462.55
52006,5449.1,711.55
52006,5699.1,962.55
52006,5949.1,1214.6
52006,5199.1,463.55
52006,5449.1,711.55
52006,5699.1,960.55
52006,5949.1,1211.6
52006,6199.1,1463.6
52006,4449.1,307.45
52006,4699.1,55.448
52006,4949.1,215.55
52006,5199.1,466.55
52006,5449.1,718.55
52006,4699.1,55.448
52006,4949.1,214.55
52006,5199.1,463.55
52006,5449.1,714.55
52006,5699.1,966.55
52006,4949.1,215.55
52006,5199.1,463.55
52006,5449.1,712.55
52006,5699.1,963.55
52006,5949.1,1215.6
52006,5199.1,466.55
52006,5449.1,714.55
52006,5699.1,963.55
52006,5949.1,1214.6
52006,6199.1,1466.6
52006,4699.1,58.448
52006,4949.1,217.55
52006,5199.1,466.55
52006,5449.1,717.55
52006,5699.1,969.55
52006,4949.1,217.55
52006,5199.1,465.55
52006,5449.1,714.55
52006,5699.1,965.55
52006,5949.1,1217.6
52006,5199.1,466.55
52006,5449.1,714.55
52006,5699.1,963.55
52006,5949.1,1214.6
52006,6199.1,1466.6
52006,4449.1,303.45
52006,4699.1,51.448
52006,4949.1,211.55
52006,5199.1,462.55
52006,5449.1,714.55
52006,4699.1,51.448
52006,4949.1,210.55
52006,5199.1,459.55
52006,5449.1,710.55
52006,5699.1,962.55
52006,4949.1,211.55
52006,5199.1,459.55
52006,5449.1,708.55
52006,5699.1,959.55
52006,5949.1,1211.6
52006,5199.1,462.55
52006,5449.1,710.55
52006,5699.1,959.55
52006,5949.1,1210.6
52006,6199.1,1462.6
52006,4699.1,54.448
52006,4949.1,213.55
52006,5199.1,462.55
52006,5449.1,713.55
52006,5699.1,965.55
52006,4949.1,213.55
52006,5199.1,461.55
52006,5449.1,710.55
52006,5699.1,961.55
52006,5949.1,1213.6
52006,5199.1,462.55
52006,5449.1,710.55
52006,5699.1,959.55
52006,5949.1,1210.6
52006,6199.1,1462.6
52006,4449.1,306.45
52006,4699.1,54.448
52006,4949.1,214.55
52006,5199.1,465.55
52006,5449.1,717.55
52006,4699.1,54.448
52006,4949.1,213.55
52006,5199.1,462.55
52006,5449.1,713.55
52006,5699.1,965.55
52006,4949.1,214.55
52006,5199.1,462.55
52006,5449.1,711.55
52006,5699.1,962.55
52006,5949.1,1214.6
52006,5199.1,465.55
52006,5449.1,713.55
52006,5699.1,962.55
52006,5949.1,1213.6
52006,6199.1,1465.6
52006,4699.1,55.448
52006,4949.1,214.55
52006,5199.1,463.55
52006,5449.1,714.55
52006,5699.1,966.55
52006,4949.1,214.55
52006,5199.1,462.55
52006,5449.1,711.55
52006,5699.1,962.55
52006,5949.1,1214.6
52006,5199.1,463.55
52006,5449.1,711.55
52006,5699.1,960.55
52006,5949.1,1211.6
52006,6199.1,1463.6
52006,4449.1,301.45
52006,4699.1,49.448
52006,4949.1,209.55
52006,5199.1,460.55
52006,5449.1,712.55
52006,4699.1,49.448
52006,4949.1,208.55
52006,5199.1,457.55
52006,5449.1,708.55
52006,5699.1,960.55
52006,4949.1,209.55
52006,5199.1,457.55
52006,5449.1,706.55
52006,5699.1,957.55
52006,5949.1,1209.6
52006,5199.1,460.55
52006,5449.1,708.55
52006,5699.1,957.55
52006,5949.1,1208.6
52006,6199.1,1460.6
52006,4699.1,52.448
52006,4949.1,211.55
52006,5199.1,460.55
52006,5449.1,711.55
52006,5699.1,963.55
52006,4949.1,211.55
52006,5199.1,459.55
52006,5449.1,708.55
52006,5699.1,959.55
52006,5949.1,1211.6
52006,5199.1,460.55
52006,5449.1,708.55
52006,5699.1,957.55
52006,5949.1,1208.6
52006,6199.1,1460.6
52006,4449.1,303.45
52006,4699.1,51.448
52006,4949.1,211.55
52006,5199.1,462.55
52006,5449.1,714.55
52006,4699.1,51.448
52006,4949.1,210.55
52006,5199.1,459.55
52006,5449.1,710.55
52006,5699.1,962.55
52006,4949.1,211.55
52006,5199.1,459.55
52006,5449.1,708.55
52006,5699.1,959.55
52006,5949.1,1211.6
52006,5199.1,462.55
52006,5449.1,710.55
52006,5699.1,959.55
52006,5949.1,1210.6
52006,6199.1,1462.6
52006,4699.1,52.448
52006,4949.1,211.55
52006,5199.1,460.55
52006,5449.1,711.55
52006,5699.1,963.55
52006,4949.1,211.55
52006,5199.1,459.55
52006,5449.1,708.55
52006,5699.1,959.55
52006,5949.1,1211.6
52006,5199.1,460.55
52006,5449.1,708.55
52006,5699.1,957.55
52006,5949.1,1208.6
52006,6199.1,1460.6
52006,4449.1,307.45
52006,4699.1,55.448
52006,4949.1,215.55
52006,5199.1,466.55
52006,5449.1,718.55
52006,4699.1,55.448
52006,4949.1,214.55
52006,5199.1,463.55
52006,5449.1,714.55
52006,5699.1,966.55
52006,4949.1,215.55
52006,5199.1,463.55
52006,5449.1,712.55
52006,5699.1,963.55
52006,5949.1,1215.6
52006,5199.1,466.55
52006,5449.1,714.55
52006,5699.1,963.55
52006,5949.1,1214.6
52006,6199.1,1466.6
52006,4699.1,55.448
52006,4949.1,214.55
52006,5199.1,463.55
52006,5449.1,714.55
52006,5699.1,966.55
52006,4949.1,214.55
52006,5199.1,462.55
52006,5449.1,711.55
52006,5699.1,962.55
52006,5949.1,1214.6
52006,5199.1,463.55
52006,5449.1,711.55
52006,5699.1,960.55
52006,5949.1,1211.6
52006,6199.1,1463.6
52006,4449.1,303.45
52006,4699.1,51.448
52006,4949.1,211.55
52006,5199.1,462.55
52006,5449.1,714.55
52006,4699.1,51.448
52006,4949.1,210.55
52006,5199.1,459.55
52006,5449.1,710.55
52006,5699.1,962.55
52006,4949.1,211.55
52006,5199.1,459.55
52006,5449.1,708.55
52006,5699.1,959.55
52006,5949.1,1211.6
52006,5199.1,462.55
52006,5449.1,710.55
52006,5699.1,959.55
52006,5949.1,1210.6
52006,6199.1,1462.6
52006,4699.1,54.448
52006,4949.1,213.55
52006,5199.1,462.55
52006,5449.1,713.55
52006,5699.1,965.55
52006,4949.1,213.55
52006,5199.1,461.55
52006,5449.1,710.55
52006,5699.1,961.55
52006,5949.1,1213.6
52006,5199.1,462.55
52006,5449.1,710.55
52006,5699.1,959.55
52006,5949.1,1210.6
52006,6199.1,1462.6
52006,4449.1,303.45
52006,4699.1,51.448
52006,4949.1,211.55
52006,5199.1,462.55
52006,5449.1,714.55
52006,4699.1,51.448
52006,4949.1,210.55
52006,5199.1,459.55
52006,5449.1,710.55
52006,5699.1,962.55
52006,4949.1,211.55
52006,5199.1,459.55
52006,5449.1,708.55
52006,5699.1,959.55
52006,5949.1,1211.6
52006,5199.1,462.55
52006,5449.1,710.55
52006,5699.1,959.55
52006,5949.1,1210.6
52006,6199.1,1462.6
52006,4699.1,52.448
52006,4949.1,211.55
52006,5199.1,460.55
52006,5449.1,711.55
52006,5699.1,963.55
52006,4949.1,211.55
52006,5199.1,459.55
52006,5449.1,708.55
52006,5699.1,959.55
52006,5949.1,1211.6
52006,5199.1,460.55
52006,5449.1,708.55
52006,5699.1,957.55
52006,5949.1,1208.6
52006,6199.1,1460.6
52006,4449.1,306.45
52006,4699.1,54.448
52006,4949.1,214.55
52006,5199.1,465.55
52006,5449.1,717.55
52006,4699.1,54.448
52006,4949.1,213.55
52006,5199.1,462.55
52006,5449.1,713.55
52006,5699.1,965.55
52006,4949.1,214.55
52006,5199.1,462.55
52006,5449.1,711.55
52006,5699.1,962.55
52006,5949.1,1214.6
52006,5199.1,465.55
52006,5449.1,713.55
52006,5699.1,962.55
52006,5949.1,1213.6
52006,6199.1,1465.6
52006,4699.1,54.448
52006,4949.1,213.55
52006,5199.1,462.55
52006,5449.1,713.55
52006,5699.1,965.55
52006,4949.1,213.55
52006,5199.1,461.55
52006,5449.1,710.55
52006,5699.1,961.55
52006,5949.1,1213.6
52006,5199.1,462.55
52006,5449.1,710.55
52006,5699.1,959.55
52006,5949.1,1210.6
52006,6199.1,1462.6
