-33666,5132.4,167.92
-32863,5382.4,83.079
-32863,5632.4,335.08
-32061,5132.4,169.92
-32061,5382.4,83.079
-32061,5632.4,334.08
-32061,5882.4,586.08
-32061,5132.4,173.92
-32061,5382.4,86.079
-32061,5632.4,335.08
-32061,5882.4,586.08
-32061,6132.4,838.08
-31258,5132.4,169.92
-31258,5382.4,85.079
-31258,5632.4,337.08
-31258,5132.4,169.92
-31258,5382.4,83.079
-31258,5632.4,334.08
-31258,5882.4,586.08
-31258,5132.4,172.92
-31258,5382.4,85.079
-31258,5632.4,334.08
-31258,5882.4,585.08
-31258,6132.4,837.08
-31258,5382.4,89.079
-31258,5632.4,337.08
-31258,5882.4,586.08
-31258,6132.4,837.08
-31258,6382.4,1089.1
-31258,5132.4,173.92
-31258,5382.4,89.079
-31258,5632.4,341.08
-31258,5132.4,172.92
-31258,5382.4,86.079
-31258,5632.4,337.08
-31258,5882.4,589.08
-31258,5132.4,173.92
-31258,5382.4,86.079
-31258,5632.4,335.08
-31258,5882.4,586.08
-31258,6132.4,838.08
-31258,5382.4,89.079
-31258,5632.4,337.08
-31258,5882.4,586.08
-31258,6132.4,837.08
-31258,6382.4,1089.1
-31258,5632.4,341.08
-31258,5882.4,589.08
-31258,6132.4,838.08
-31258,6382.4,1089.1
-31258,6632.4,1341.1
-30455,5132.4,169.92
-30455,5382.4,85.079
-30455,5632.4,337.08
-30455,5132.4,171.92
-30455,5382.4,85.079
-30455,5632.4,336.08
-30455,5882.4,588.08
-30455,5132.4,175.92
-30455,5382.4,88.079
-30455,5632.4,337.08
-30455,5882.4,588.08
-30455,6132.4,840.08
-30455,5132.4,169.92
-30455,5382.4,85.079
-30455,5632.4,337.08
-30455,5132.4,169.92
-30455,5382.4,83.079
-30455,5632.4,334.08
-30455,5882.4,586.08
-30455,5132.4,172.92
-30455,5382.4,85.079
-30455,5632.4,334.08
-30455,5882.4,585.08
-30455,6132.4,837.08
-30455,5382.4,89.079
-30455,5632.4,337.08
-30455,5882.4,586.08
-30455,6132.4,837.08
-30455,6382.4,1089.1
-30455,5132.4,172.92
-30455,5382.4,88.079
-30455,5632.4,340.08
-30455,5132.4,171.92
-30455,5382.4,85.079
-30455,5632.4,336.08
-30455,5882.4,588.08
-30455,5132.4,172.92
-30455,5382.4,85.079
-30455,5632.4,334.08
-30455,5882.4,585.08
-30455,6132.4,837.08
-30455,5382.4,88.079
-30455,5632.4,336.08
-30455,5882.4,585.08
-30455,6132.4,836.08
-30455,6382.4,1088.1
-30455,5632.4,340.08
-30455,5882.4,588.08
-30455,6132.4,837.08
-30455,6382.4,1088.1
-30455,6632.4,1340.1
-30455,5132.4,175.92
-30455,5382.4,89.079
-30455,5632.4,340.08
-30455,5882.4,592.08
-30455,5132.4,175.92
-30455,5382.4,88.079
-30455,5632.4,337.08
-30455,5882.4,588.08
-30455,6132.4,840.08
-30455,5382.4,89.079
-30455,5632.4,337.08
-30455,5882.4,586.08
-30455,6132.4,837.08
-30455,6382.4,1089.1
-30455,5632.4,340.08
-30455,5882.4,588.08
-30455,6132.4,837.08
-30455,6382.4,1088.1
-30455,6632.4,1340.1
-30455,5882.4,592.08
-30455,6132.4,840.08
-30455,6382.4,1089.1
-30455,6632.4,1340.1
-30455,6882.4,1592.1
-30455,5132.4,173.92
-30455,5382.4,89.079
-30455,5632.4,341.08
-30455,5132.4,175.92
-30455,5382.4,89.079
-30455,5632.4,340.08
-30455,5882.4,592.08
-30455,5132.4,179.92
-30455,5382.4,92.079
-30455,5632.4,341.08
-30455,5882.4,592.08
-30455,6132.4,844.08
-30455,5132.4,172.92
-30455,5382.4,88.079
-30455,5632.4,340.08
-30455,5132.4,172.92
-30455,5382.4,86.079
-30455,5632.4,337.08
-30455,5882.4,589.08
-30455,5132.4,175.92
-30455,5382.4,88.079
-30455,5632.4,337.08
-30455,5882.4,588.08
-30455,6132.4,840.08
-30455,5382.4,92.079
-30455,5632.4,340.08
-30455,5882.4,589.08
-30455,6132.4,840.08
-30455,6382.4,1092.1
-30455,5132.4,173.92
-30455,5382.4,89.079
-30455,5632.4,341.08
-30455,5132.4,172.92
-30455,5382.4,86.079
-30455,5632.4,337.08
-30455,5882.4,589.08
-30455,5132.4,173.92
-30455,5382.4,86.079
-30455,5632.4,335.08
-30455,5882.4,586.08
-30455,6132.4,838.08
-30455,5382.4,89.079
-30455,5632.4,337.08
-30455,5882.4,586.08
-30455,6132.4,837.08
-30455,6382.4,1089.1
-30455,5632.4,341.08
-30455,5882.4,589.08
-30455,6132.4,838.08
-30455,6382.4,1089.1
-30455,6632.4,1341.1
-30455,5132.4,175.92
-30455,5382.4,89.079
-30455,5632.4,340.08
-30455,5882.4,592.08
-30455,5132.4,175.92
-30455,5382.4,88.079
-30455,5632.4,337.08
-30455,5882.4,588.08
-30455,6132.4,840.08
-30455,5382.4,89.079
-30455,5632.4,337.08
-30455,5882.4,586.08
-30455,6132.4,837.08
-30455,6382.4,1089.1
-30455,5632.4,340.08
-30455,5882.4,588.08
-30455,6132.4,837.08
-30455,6382.4,1088.1
-30455,6632.4,1340.1
-30455,5882.4,592.08
-30455,6132.4,840.08
-30455,6382.4,1089.1
-30455,6632.4,1340.1
-30455,6882.4,1592.1
-30455,5132.4,179.92
-30455,5382.4,92.079
-30455,5632.4,341.08
-30455,5882.4,592.08
-30455,6132.4,844.08
-30455,5382.4,92.079
-30455,5632.4,340.08
-30455,5882.4,589.08
-30455,6132.4,840.08
-30455,6382.4,1092.1
-30455,5632.4,341.08
-30455,5882.4,589.08
-30455,6132.4,838.08
-30455,6382.4,1089.1
-30455,6632.4,1341.1
-30455,5882.4,592.08
-30455,6132.4,840.08
-30455,6382.4,1089.1
-30455,6632.4,1340.1
-30455,6882.4,1592.1
-30455,6132.4,844.08
-30455,6382.4,1092.1
-30455,6632.4,1341.1
-30455,6882.4,1592.1
-30455,7132.4,1844.1
-29653,5132.4,169.92
-29653,5382.4,85.079
-29653,5632.4,337.08
-29653,5132.4,171.92
-29653,5382.4,85.079
-29653,5632.4,336.08
-29653,5882.4,588.08
-29653,5132.4,175.92
-29653,5382.4,88.079
-29653,5632.4,337.08
-29653,5882.4,588.08
-29653,6132.4,840.08
-29653,5132.4,171.92
-29653,5382.4,87.079
-29653,5632.4,339.08
-29653,5132.4,171.92
-29653,5382.4,85.079
-29653,5632.4,336.08
-29653,5882.4,588.08
-29653,5132.4,174.92
-29653,5382.4,87.079
-29653,5632.4,336.08
-29653,5882.4,587.08
-29653,6132.4,839.08
-29653,5382.4,91.079
-29653,5632.4,339.08
-29653,5882.4,588.08
-29653,6132.4,839.08
-29653,6382.4,1091.1
-29653,5132.4,175.92
-29653,5382.4,91.079
-29653,5632.4,343.08
-29653,5132.4,174.92
-29653,5382.4,88.079
-29653,5632.4,339.08
-29653,5882.4,591.08
-29653,5132.4,175.92
-29653,5382.4,88.079
-29653,5632.4,337.08
-29653,5882.4,588.08
-29653,6132.4,840.08
-29653,5382.4,91.079
-29653,5632.4,339.08
-29653,5882.4,588.08
-29653,6132.4,839.08
-29653,6382.4,1091.1
-29653,5632.4,343.08
-29653,5882.4,591.08
-29653,6132.4,840.08
-29653,6382.4,1091.1
-29653,6632.4,1343.1
-29653,5132.4,169.92
-29653,5382.4,85.079
-29653,5632.4,337.08
-29653,5132.4,171.92
-29653,5382.4,85.079
-29653,5632.4,336.08
-29653,5882.4,588.08
-29653,5132.4,175.92
-29653,5382.4,88.079
-29653,5632.4,337.08
-29653,5882.4,588.08
-29653,6132.4,840.08
-29653,5132.4,169.92
-29653,5382.4,85.079
-29653,5632.4,337.08
-29653,5132.4,169.92
-29653,5382.4,83.079
-29653,5632.4,334.08
-29653,5882.4,586.08
-29653,5132.4,172.92
-29653,5382.4,85.079
-29653,5632.4,334.08
-29653,5882.4,585.08
-29653,6132.4,837.08
-29653,5382.4,89.079
-29653,5632.4,337.08
-29653,5882.4,586.08
-29653,6132.4,837.08
-29653,6382.4,1089.1
-29653,5132.4,172.92
-29653,5382.4,88.079
-29653,5632.4,340.08
-29653,5132.4,171.92
-29653,5382.4,85.079
-29653,5632.4,336.08
-29653,5882.4,588.08
-29653,5132.4,172.92
-29653,5382.4,85.079
-29653,5632.4,334.08
-29653,5882.4,585.08
-29653,6132.4,837.08
-29653,5382.4,88.079
-29653,5632.4,336.08
-29653,5882.4,585.08
-29653,6132.4,836.08
-29653,6382.4,1088.1
-29653,5632.4,340.08
-29653,5882.4,588.08
-29653,6132.4,837.08
-29653,6382.4,1088.1
-29653,6632.4,1340.1
-29653,5132.4,175.92
-29653,5382.4,89.079
-29653,5632.4,340.08
-29653,5882.4,592.08
-29653,5132.4,175.92
-29653,5382.4,88.079
-29653,5632.4,337.08
-29653,5882.4,588.08
-29653,6132.4,840.08
-29653,5382.4,89.079
-29653,5632.4,337.08
-29653,5882.4,586.08
-29653,6132.4,837.08
-29653,6382.4,1089.1
-29653,5632.4,340.08
-29653,5882.4,588.08
-29653,6132.4,837.08
-29653,6382.4,1088.1
-29653,6632.4,1340.1
-29653,5882.4,592.08
-29653,6132.4,840.08
-29653,6382.4,1089.1
-29653,6632.4,1340.1
-29653,6882.4,1592.1
-29653,5132.4,172.92
-29653,5382.4,88.079
-29653,5632.4,340.08
-29653,5132.4,174.92
-29653,5382.4,88.079
-29653,5632.4,339.08
-29653,5882.4,591.08
-29653,5132.4,178.92
-29653,5382.4,91.079
-29653,5632.4,340.08
-29653,5882.4,591.08
-29653,6132.4,843.08
-29653,5132.4,171.92
-29653,5382.4,87.079
-29653,5632.4,339.08
-29653,5132.4,171.92
-29653,5382.4,85.079
-29653,5632.4,336.08
-29653,5882.4,588.08
-29653,5132.4,174.92
-29653,5382.4,87.079
-29653,5632.4,336.08
-29653,5882.4,587.08
-29653,6132.4,839.08
-29653,5382.4,91.079
-29653,5632.4,339.08
-29653,5882.4,588.08
-29653,6132.4,839.08
-29653,6382.4,1091.1
-29653,5132.4,172.92
-29653,5382.4,88.079
-29653,5632.4,340.08
-29653,5132.4,171.92
-29653,5382.4,85.079
-29653,5632.4,336.08
-29653,5882.4,588.08
-29653,5132.4,172.92
-29653,5382.4,85.079
-29653,5632.4,334.08
-29653,5882.4,585.08
-29653,6132.4,837.08
-29653,5382.4,88.079
-29653,5632.4,336.08
-29653,5882.4,585.08
-29653,6132.4,836.08
-29653,6382.4,1088.1
-29653,5632.4,340.08
-29653,5882.4,588.08
-29653,6132.4,837.08
-29653,6382.4,1088.1
-29653,6632.4,1340.1
-29653,5132.4,174.92
-29653,5382.4,88.079
-29653,5632.4,339.08
-29653,5882.4,591.08
-29653,5132.4,174.92
-29653,5382.4,87.079
-29653,5632.4,336.08
-29653,5882.4,587.08
-29653,6132.4,839.08
-29653,5382.4,88.079
-29653,5632.4,336.08
-29653,5882.4,585.08
-29653,6132.4,836.08
-29653,6382.4,1088.1
-29653,5632.4,339.08
-29653,5882.4,587.08
-29653,6132.4,836.08
-29653,6382.4,1087.1
-29653,6632.4,1339.1
-29653,5882.4,591.08
-29653,6132.4,839.08
-29653,6382.4,1088.1
-29653,6632.4,1339.1
-29653,6882.4,1591.1
-29653,5132.4,178.92
-29653,5382.4,91.079
-29653,5632.4,340.08
-29653,5882.4,591.08
-29653,6132.4,843.08
-29653,5382.4,91.079
-29653,5632.4,339.08
-29653,5882.4,588.08
-29653,6132.4,839.08
-29653,6382.4,1091.1
-29653,5632.4,340.08
-29653,5882.4,588.08
-29653,6132.4,837.08
-29653,6382.4,1088.1
-29653,6632.4,1340.1
-29653,5882.4,591.08
-29653,6132.4,839.08
-29653,6382.4,1088.1
-29653,6632.4,1339.1
-29653,6882.4,1591.1
-29653,6132.4,843.08
-29653,6382.4,1091.1
-29653,6632.4,1340.1
-29653,6882.4,1591.1
-29653,7132.4,1843.1
-29653,5132.4,175.92
-29653,5382.4,91.079
-29653,5632.4,343.08
-29653,5132.4,175.92
-29653,5382.4,89.079
-29653,5632.4,340.08
-29653,5882.4,592.08
-29653,5132.4,178.92
-29653,5382.4,91.079
-29653,5632.4,340.08
-29653,5882.4,591.08
-29653,6132.4,843.08
-29653,5382.4,95.079
-29653,5632.4,343.08
-29653,5882.4,592.08
-29653,6132.4,843.08
-29653,6382.4,1095.1
-29653,5132.4,175.92
-29653,5382.4,91.079
-29653,5632.4,343.08
-29653,5132.4,174.92
-29653,5382.4,88.079
-29653,5632.4,339.08
-29653,5882.4,591.08
-29653,5132.4,175.92
-29653,5382.4,88.079
-29653,5632.4,337.08
-29653,5882.4,588.08
-29653,6132.4,840.08
-29653,5382.4,91.079
-29653,5632.4,339.08
-29653,5882.4,588.08
-29653,6132.4,839.08
-29653,6382.4,1091.1
-29653,5632.4,343.08
-29653,5882.4,591.08
-29653,6132.4,840.08
-29653,6382.4,1091.1
-29653,6632.4,1343.1
-29653,5132.4,175.92
-29653,5382.4,89.079
-29653,5632.4,340.08
-29653,5882.4,592.08
-29653,5132.4,175.92
-29653,5382.4,88.079
-29653,5632.4,337.08
-29653,5882.4,588.08
-29653,6132.4,840.08
-29653,5382.4,89.079
-29653,5632.4,337.08
-29653,5882.4,586.08
-29653,6132.4,837.08
-29653,6382.4,1089.1
-29653,5632.4,340.08
-29653,5882.4,588.08
-29653,6132.4,837.08
-29653,6382.4,1088.1
-29653,6632.4,1340.1
-29653,5882.4,592.08
-29653,6132.4,840.08
-29653,6382.4,1089.1
-29653,6632.4,1340.1
-29653,6882.4,1592.1
-29653,5132.4,178.92
-29653,5382.4,91.079
-29653,5632.4,340.08
-29653,5882.4,591.08
-29653,6132.4,843.08
-29653,5382.4,91.079
-29653,5632.4,339.08
-29653,5882.4,588.08
-29653,6132.4,839.08
-29653,6382.4,1091.1
-29653,5632.4,340.08
-29653,5882.4,588.08
-29653,6132.4,837.08
-29653,6382.4,1088.1
-29653,6632.4,1340.1
-29653,5882.4,591.08
-29653,6132.4,839.08
-29653,6382.4,1088.1
-29653,6632.4,1339.1
-29653,6882.4,1591.1
-29653,6132.4,843.08
-29653,6382.4,1091.1
-29653,6632.4,1340.1
-29653,6882.4,1591.1
-29653,7132.4,1843.1
-29653,5382.4,95.079
-29653,5632.4,343.08
-29653,5882.4,592.08
-29653,6132.4,843.08
-29653,6382.4,1095.1
-29653,5632.4,343.08
-29653,5882.4,591.08
-29653,6132.4,840.08
-29653,6382.4,1091.1
-29653,6632.4,1343.1
-29653,5882.4,592.08
-29653,6132.4,840.08
-29653,6382.4,1089.1
-29653,6632.4,1340.1
-29653,6882.4,1592.1
-29653,6132.4,843.08
-29653,6382.4,1091.1
-29653,6632.4,1340.1
-29653,6882.4,1591.1
-29653,7132.4,1843.1
-29653,6382.4,1095.1
-29653,6632.4,1343.1
-29653,6882.4,1592.1
-29653,7132.4,1843.1
-29653,7382.4,2095.1
-29653,5132.4,173.92
-29653,5382.4,89.079
-29653,5632.4,341.08
-29653,5132.4,175.92
-29653,5382.4,89.079
-29653,5632.4,340.08
-29653,5882.4,592.08
-29653,5132.4,179.92
-29653,5382.4,92.079
-29653,5632.4,341.08
-29653,5882.4,592.08
-29653,6132.4,844.08
-29653,5132.4,175.92
-29653,5382.4,91.079
-29653,5632.4,343.08
-29653,5132.4,175.92
-29653,5382.4,89.079
-29653,5632.4,340.08
-29653,5882.4,592.08
-29653,5132.4,178.92
-29653,5382.4,91.079
-29653,5632.4,340.08
-29653,5882.4,591.08
-29653,6132.4,843.08
-29653,5382.4,95.079
-29653,5632.4,343.08
-29653,5882.4,592.08
-29653,6132.4,843.08
-29653,6382.4,1095.1
-29653,5132.4,179.92
-29653,5382.4,95.079
-29653,5632.4,347.08
-29653,5132.4,178.92
-29653,5382.4,92.079
-29653,5632.4,343.08
-29653,5882.4,595.08
-29653,5132.4,179.92
-29653,5382.4,92.079
-29653,5632.4,341.08
-29653,5882.4,592.08
-29653,6132.4,844.08
-29653,5382.4,95.079
-29653,5632.4,343.08
-29653,5882.4,592.08
-29653,6132.4,843.08
-29653,6382.4,1095.1
-29653,5632.4,347.08
-29653,5882.4,595.08
-29653,6132.4,844.08
-29653,6382.4,1095.1
-29653,6632.4,1347.1
-29653,5132.4,172.92
-29653,5382.4,88.079
-29653,5632.4,340.08
-29653,5132.4,174.92
-29653,5382.4,88.079
-29653,5632.4,339.08
-29653,5882.4,591.08
-29653,5132.4,178.92
-29653,5382.4,91.079
-29653,5632.4,340.08
-29653,5882.4,591.08
-29653,6132.4,843.08
-29653,5132.4,172.92
-29653,5382.4,88.079
-29653,5632.4,340.08
-29653,5132.4,172.92
-29653,5382.4,86.079
-29653,5632.4,337.08
-29653,5882.4,589.08
-29653,5132.4,175.92
-29653,5382.4,88.079
-29653,5632.4,337.08
-29653,5882.4,588.08
-29653,6132.4,840.08
-29653,5382.4,92.079
-29653,5632.4,340.08
-29653,5882.4,589.08
-29653,6132.4,840.08
-29653,6382.4,1092.1
-29653,5132.4,175.92
-29653,5382.4,91.079
-29653,5632.4,343.08
-29653,5132.4,174.92
-29653,5382.4,88.079
-29653,5632.4,339.08
-29653,5882.4,591.08
-29653,5132.4,175.92
-29653,5382.4,88.079
-29653,5632.4,337.08
-29653,5882.4,588.08
-29653,6132.4,840.08
-29653,5382.4,91.079
-29653,5632.4,339.08
-29653,5882.4,588.08
-29653,6132.4,839.08
-29653,6382.4,1091.1
-29653,5632.4,343.08
-29653,5882.4,591.08
-29653,6132.4,840.08
-29653,6382.4,1091.1
-29653,6632.4,1343.1
-29653,5132.4,178.92
-29653,5382.4,92.079
-29653,5632.4,343.08
-29653,5882.4,595.08
-29653,5132.4,178.92
-29653,5382.4,91.079
-29653,5632.4,340.08
-29653,5882.4,591.08
-29653,6132.4,843.08
-29653,5382.4,92.079
-29653,5632.4,340.08
-29653,5882.4,589.08
-29653,6132.4,840.08
-29653,6382.4,1092.1
-29653,5632.4,343.08
-29653,5882.4,591.08
-29653,6132.4,840.08
-29653,6382.4,1091.1
-29653,6632.4,1343.1
-29653,5882.4,595.08
-29653,6132.4,843.08
-29653,6382.4,1092.1
-29653,6632.4,1343.1
-29653,6882.4,1595.1
-29653,5132.4,173.92
-29653,5382.4,89.079
-29653,5632.4,341.08
-29653,5132.4,175.92
-29653,5382.4,89.079
-29653,5632.4,340.08
-29653,5882.4,592.08
-29653,5132.4,179.92
-29653,5382.4,92.079
-29653,5632.4,341.08
-29653,5882.4,592.08
-29653,6132.4,844.08
-29653,5132.4,172.92
-29653,5382.4,88.079
-29653,5632.4,340.08
-29653,5132.4,172.92
-29653,5382.4,86.079
-29653,5632.4,337.08
-29653,5882.4,589.08
-29653,5132.4,175.92
-29653,5382.4,88.079
-29653,5632.4,337.08
-29653,5882.4,588.08
-29653,6132.4,840.08
-29653,5382.4,92.079
-29653,5632.4,340.08
-29653,5882.4,589.08
-29653,6132.4,840.08
-29653,6382.4,1092.1
-29653,5132.4,173.92
-29653,5382.4,89.079
-29653,5632.4,341.08
-29653,5132.4,172.92
-29653,5382.4,86.079
-29653,5632.4,337.08
-29653,5882.4,589.08
-29653,5132.4,173.92
-29653,5382.4,86.079
-29653,5632.4,335.08
-29653,5882.4,586.08
-29653,6132.4,838.08
-29653,5382.4,89.079
-29653,5632.4,337.08
-29653,5882.4,586.08
-29653,6132.4,837.08
-29653,6382.4,1089.1
-29653,5632.4,341.08
-29653,5882.4,589.08
-29653,6132.4,838.08
-29653,6382.4,1089.1
-29653,6632.4,1341.1
-29653,5132.4,175.92
-29653,5382.4,89.079
-29653,5632.4,340.08
-29653,5882.4,592.08
-29653,5132.4,175.92
-29653,5382.4,88.079
-29653,5632.4,337.08
-29653,5882.4,588.08
-29653,6132.4,840.08
-29653,5382.4,89.079
-29653,5632.4,337.08
-29653,5882.4,586.08
-29653,6132.4,837.08
-29653,6382.4,1089.1
-29653,5632.4,340.08
-29653,5882.4,588.08
-29653,6132.4,837.08
-29653,6382.4,1088.1
-29653,6632.4,1340.1
-29653,5882.4,592.08
-29653,6132.4,840.08
-29653,6382.4,1089.1
-29653,6632.4,1340.1
-29653,6882.4,1592.1
-29653,5132.4,179.92
-29653,5382.4,92.079
-29653,5632.4,341.08
-29653,5882.4,592.08
-29653,6132.4,844.08
-29653,5382.4,92.079
-29653,5632.4,340.08
-29653,5882.4,589.08
-29653,6132.4,840.08
-29653,6382.4,1092.1
-29653,5632.4,341.08
-29653,5882.4,589.08
-29653,6132.4,838.08
-29653,6382.4,1089.1
-29653,6632.4,1341.1
-29653,5882.4,592.08
-29653,6132.4,840.08
-29653,6382.4,1089.1
-29653,6632.4,1340.1
-29653,6882.4,1592.1
-29653,6132.4,844.08
-29653,6382.4,1092.1
-29653,6632.4,1341.1
-29653,6882.4,1592.1
-29653,7132.4,1844.1
-29653,5132.4,175.92
-29653,5382.4,91.079
-29653,5632.4,343.08
-29653,5132.4,175.92
-29653,5382.4,89.079
-29653,5632.4,340.08
-29653,5882.4,592.08
-29653,5132.4,178.92
-29653,5382.4,91.079
-29653,5632.4,340.08
-29653,5882.4,591.08
-29653,6132.4,843.08
-29653,5382.4,95.079
-29653,5632.4,343.08
-29653,5882.4,592.08
-29653,6132.4,843.08
-29653,6382.4,1095.1
-29653,5132.4,175.92
-29653,5382.4,91.079
-29653,5632.4,343.08
-29653,5132.4,174.92
-29653,5382.4,88.079
-29653,5632.4,339.08
-29653,5882.4,591.08
-29653,5132.4,175.92
-29653,5382.4,88.079
-29653,5632.4,337.08
-29653,5882.4,588.08
-29653,6132.4,840.08
-29653,5382.4,91.079
-29653,5632.4,339.08
-29653,5882.4,588.08
-29653,6132.4,839.08
-29653,6382.4,1091.1
-29653,5632.4,343.08
-29653,5882.4,591.08
-29653,6132.4,840.08
-29653,6382.4,1091.1
-29653,6632.4,1343.1
-29653,5132.4,175.92
-29653,5382.4,89.079
-29653,5632.4,340.08
-29653,5882.4,592.08
-29653,5132.4,175.92
-29653,5382.4,88.079
-29653,5632.4,337.08
-29653,5882.4,588.08
-29653,6132.4,840.08
-29653,5382.4,89.079
-29653,5632.4,337.08
-29653,5882.4,586.08
-29653,6132.4,837.08
-29653,6382.4,1089.1
-29653,5632.4,340.08
-29653,5882.4,588.08
-29653,6132.4,837.08
-29653,6382.4,1088.1
-29653,6632.4,1340.1
-29653,5882.4,592.08
-29653,6132.4,840.08
-29653,6382.4,1089.1
-29653,6632.4,1340.1
-29653,6882.4,1592.1
-29653,5132.4,178.92
-29653,5382.4,91.079
-29653,5632.4,340.08
-29653,5882.4,591.08
-29653,6132.4,843.08
-29653,5382.4,91.079
-29653,5632.4,339.08
-29653,5882.4,588.08
-29653,6132.4,839.08
-29653,6382.4,1091.1
-29653,5632.4,340.08
-29653,5882.4,588.08
-29653,6132.4,837.08
-29653,6382.4,1088.1
-29653,6632.4,1340.1
-29653,5882.4,591.08
-29653,6132.4,839.08
-29653,6382.4,1088.1
-29653,6632.4,1339.1
-29653,6882.4,1591.1
-29653,6132.4,843.08
-29653,6382.4,1091.1
-29653,6632.4,1340.1
-29653,6882.4,1591.1
-29653,7132.4,1843.1
-29653,5382.4,95.079
-29653,5632.4,343.08
-29653,5882.4,592.08
-29653,6132.4,843.08
-29653,6382.4,1095.1
-29653,5632.4,343.08
-29653,5882.4,591.08
-29653,6132.4,840.08
-29653,6382.4,1091.1
-29653,6632.4,1343.1
-29653,5882.4,592.08
-29653,6132.4,840.08
-29653,6382.4,1089.1
-29653,6632.4,1340.1
-29653,6882.4,1592.1
-29653,6132.4,843.08
-29653,6382.4,1091.1
-29653,6632.4,1340.1
-29653,6882.4,1591.1
-29653,7132.4,1843.1
-29653,6382.4,1095.1
-29653,6632.4,1343.1
-29653,6882.4,1592.1
-29653,7132.4,1843.1
-29653,7382.4,2095.1
-29653,5132.4,179.92
-29653,5382.4,95.079
-29653,5632.4,347.08
-29653,5132.4,178.92
-29653,5382.4,92.079
-29653,5632.4,343.08
-29653,5882.4,595.08
-29653,5132.4,179.92
-29653,5382.4,92.079
-29653,5632.4,341.08
-29653,5882.4,592.08
-29653,6132.4,844.08
-29653,5382.4,95.079
-29653,5632.4,343.08
-29653,5882.4,592.08
-29653,6132.4,843.08
-29653,6382.4,1095.1
-29653,5632.4,347.08
-29653,5882.4,595.08
-29653,6132.4,844.08
-29653,6382.4,1095.1
-29653,6632.4,1347.1
-29653,5132.4,178.92
-29653,5382.4,92.079
-29653,5632.4,343.08
-29653,5882.4,595.08
-29653,5132.4,178.92
-29653,5382.4,91.079
-29653,5632.4,340.08
-29653,5882.4,591.08
-29653,6132.4,843.08
-29653,5382.4,92.079
-29653,5632.4,340.08
-29653,5882.4,589.08
-29653,6132.4,840.08
-29653,6382.4,1092.1
-29653,5632.4,343.08
-29653,5882.4,591.08
-29653,6132.4,840.08
-29653,6382.4,1091.1
-29653,6632.4,1343.1
-29653,5882.4,595.08
-29653,6132.4,843.08
-29653,6382.4,1092.1
-29653,6632.4,1343.1
-29653,6882.4,1595.1
-29653,5132.4,179.92
-29653,5382.4,92.079
-29653,5632.4,341.08
-29653,5882.4,592.08
-29653,6132.4,844.08
-29653,5382.4,92.079
-29653,5632.4,340.08
-29653,5882.4,589.08
-29653,6132.4,840.08
-29653,6382.4,1092.1
-29653,5632.4,341.08
-29653,5882.4,589.08
-29653,6132.4,838.08
-29653,6382.4,1089.1
-29653,6632.4,1341.1
-29653,5882.4,592.08
-29653,6132.4,840.08
-29653,6382.4,1089.1
-29653,6632.4,1340.1
-29653,6882.4,1592.1
-29653,6132.4,844.08
-29653,6382.4,1092.1
-29653,6632.4,1341.1
-29653,6882.4,1592.1
-29653,7132.4,1844.1
-29653,5382.4,95.079
-29653,5632.4,343.08
-29653,5882.4,592.08
-29653,6132.4,843.08
-29653,6382.4,1095.1
-29653,5632.4,343.08
-29653,5882.4,591.08
-29653,6132.4,840.08
-29653,6382.4,1091.1
-29653,6632.4,1343.1
-29653,5882.4,592.08
-29653,6132.4,840.08
-29653,6382.4,1089.1
-29653,6632.4,1340.1
-29653,6882.4,1592.1
-29653,6132.4,843.08
-29653,6382.4,1091.1
-29653,6632.4,1340.1
-29653,6882.4,1591.1
-29653,7132.4,1843.1
-29653,6382.4,1095.1
-29653,6632.4,1343.1
-29653,6882.4,1592.1
-29653,7132.4,1843.1
-29653,7382.4,2095.1
-29653,5632.4,347.08
-29653,5882.4,595.08
-29653,6132.4,844.08
-29653,6382.4,1095.1
-29653,6632.4,1347.1
-29653,5882.4,595.08
-29653,6132.4,843.08
-29653,6382.4,1092.1
-29653,6632.4,1343.1
-29653,6882.4,1595.1
-29653,6132.4,844.08
-29653,6382.4,1092.1
-29653,6632.4,1341.1
-29653,6882.4,1592.1
-29653,7132.4,1844.1
-29653,6382.4,1095.1
-29653,6632.4,1343.1
-29653,6882.4,1592.1
-29653,7132.4,1843.1
-29653,7382.4,2095.1
-29653,6632.4,1347.1
-29653,6882.4,1595.1
-29653,7132.4,1844.1
-29653,7382.4,2095.1
-29653,7632.4,2347.1
-28850,5132.4,169.92
-28850,5382.4,85.079
-28850,5632.4,337.08
-28850,5132.4,171.92
-28850,5382.4,85.079
-28850,5632.4,336.08
-28850,5882.4,588.08
-28850,5132.4,175.92
-28850,5382.4,88.079
-28850,5632.4,337.08
-28850,5882.4,588.08
-28850,6132.4,840.08
-28850,5132.4,171.92
-28850,5382.4,87.079
-28850,5632.4,339.08
-28850,5132.4,171.92
-28850,5382.4,85.079
-28850,5632.4,336.08
-28850,5882.4,588.08
-28850,5132.4,174.92
-28850,5382.4,87.079
-28850,5632.4,336.08
-28850,5882.4,587.08
-28850,6132.4,839.08
-28850,5382.4,91.079
-28850,5632.4,339.08
-28850,5882.4,588.08
-28850,6132.4,839.08
-28850,6382.4,1091.1
-28850,5132.4,175.92
-28850,5382.4,91.079
-28850,5632.4,343.08
-28850,5132.4,174.92
-28850,5382.4,88.079
-28850,5632.4,339.08
-28850,5882.4,591.08
-28850,5132.4,175.92
-28850,5382.4,88.079
-28850,5632.4,337.08
-28850,5882.4,588.08
-28850,6132.4,840.08
-28850,5382.4,91.079
-28850,5632.4,339.08
-28850,5882.4,588.08
-28850,6132.4,839.08
-28850,6382.4,1091.1
-28850,5632.4,343.08
-28850,5882.4,591.08
-28850,6132.4,840.08
-28850,6382.4,1091.1
-28850,6632.4,1343.1
-28850,5132.4,171.92
-28850,5382.4,87.079
-28850,5632.4,339.08
-28850,5132.4,173.92
-28850,5382.4,87.079
-28850,5632.4,338.08
-28850,5882.4,590.08
-28850,5132.4,177.92
-28850,5382.4,90.079
-28850,5632.4,339.08
-28850,5882.4,590.08
-28850,6132.4,842.08
-28850,5132.4,171.92
-28850,5382.4,87.079
-28850,5632.4,339.08
-28850,5132.4,171.92
-28850,5382.4,85.079
-28850,5632.4,336.08
-28850,5882.4,588.08
-28850,5132.4,174.92
-28850,5382.4,87.079
-28850,5632.4,336.08
-28850,5882.4,587.08
-28850,6132.4,839.08
-28850,5382.4,91.079
-28850,5632.4,339.08
-28850,5882.4,588.08
-28850,6132.4,839.08
-28850,6382.4,1091.1
-28850,5132.4,174.92
-28850,5382.4,90.079
-28850,5632.4,342.08
-28850,5132.4,173.92
-28850,5382.4,87.079
-28850,5632.4,338.08
-28850,5882.4,590.08
-28850,5132.4,174.92
-28850,5382.4,87.079
-28850,5632.4,336.08
-28850,5882.4,587.08
-28850,6132.4,839.08
-28850,5382.4,90.079
-28850,5632.4,338.08
-28850,5882.4,587.08
-28850,6132.4,838.08
-28850,6382.4,1090.1
-28850,5632.4,342.08
-28850,5882.4,590.08
-28850,6132.4,839.08
-28850,6382.4,1090.1
-28850,6632.4,1342.1
-28850,5132.4,177.92
-28850,5382.4,91.079
-28850,5632.4,342.08
-28850,5882.4,594.08
-28850,5132.4,177.92
-28850,5382.4,90.079
-28850,5632.4,339.08
-28850,5882.4,590.08
-28850,6132.4,842.08
-28850,5382.4,91.079
-28850,5632.4,339.08
-28850,5882.4,588.08
-28850,6132.4,839.08
-28850,6382.4,1091.1
-28850,5632.4,342.08
-28850,5882.4,590.08
-28850,6132.4,839.08
-28850,6382.4,1090.1
-28850,6632.4,1342.1
-28850,5882.4,594.08
-28850,6132.4,842.08
-28850,6382.4,1091.1
-28850,6632.4,1342.1
-28850,6882.4,1594.1
-28850,5132.4,175.92
-28850,5382.4,91.079
-28850,5632.4,343.08
-28850,5132.4,177.92
-28850,5382.4,91.079
-28850,5632.4,342.08
-28850,5882.4,594.08
-28850,5132.4,181.92
-28850,5382.4,94.079
-28850,5632.4,343.08
-28850,5882.4,594.08
-28850,6132.4,846.08
-28850,5132.4,174.92
-28850,5382.4,90.079
-28850,5632.4,342.08
-28850,5132.4,174.92
-28850,5382.4,88.079
-28850,5632.4,339.08
-28850,5882.4,591.08
-28850,5132.4,177.92
-28850,5382.4,90.079
-28850,5632.4,339.08
-28850,5882.4,590.08
-28850,6132.4,842.08
-28850,5382.4,94.079
-28850,5632.4,342.08
-28850,5882.4,591.08
-28850,6132.4,842.08
-28850,6382.4,1094.1
-28850,5132.4,175.92
-28850,5382.4,91.079
-28850,5632.4,343.08
-28850,5132.4,174.92
-28850,5382.4,88.079
-28850,5632.4,339.08
-28850,5882.4,591.08
-28850,5132.4,175.92
-28850,5382.4,88.079
-28850,5632.4,337.08
-28850,5882.4,588.08
-28850,6132.4,840.08
-28850,5382.4,91.079
-28850,5632.4,339.08
-28850,5882.4,588.08
-28850,6132.4,839.08
-28850,6382.4,1091.1
-28850,5632.4,343.08
-28850,5882.4,591.08
-28850,6132.4,840.08
-28850,6382.4,1091.1
-28850,6632.4,1343.1
-28850,5132.4,177.92
-28850,5382.4,91.079
-28850,5632.4,342.08
-28850,5882.4,594.08
-28850,5132.4,177.92
-28850,5382.4,90.079
-28850,5632.4,339.08
-28850,5882.4,590.08
-28850,6132.4,842.08
-28850,5382.4,91.079
-28850,5632.4,339.08
-28850,5882.4,588.08
-28850,6132.4,839.08
-28850,6382.4,1091.1
-28850,5632.4,342.08
-28850,5882.4,590.08
-28850,6132.4,839.08
-28850,6382.4,1090.1
-28850,6632.4,1342.1
-28850,5882.4,594.08
-28850,6132.4,842.08
-28850,6382.4,1091.1
-28850,6632.4,1342.1
-28850,6882.4,1594.1
-28850,5132.4,181.92
-28850,5382.4,94.079
-28850,5632.4,343.08
-28850,5882.4,594.08
-28850,6132.4,846.08
-28850,5382.4,94.079
-28850,5632.4,342.08
-28850,5882.4,591.08
-28850,6132.4,842.08
-28850,6382.4,1094.1
-28850,5632.4,343.08
-28850,5882.4,591.08
-28850,6132.4,840.08
-28850,6382.4,1091.1
-28850,6632.4,1343.1
-28850,5882.4,594.08
-28850,6132.4,842.08
-28850,6382.4,1091.1
-28850,6632.4,1342.1
-28850,6882.4,1594.1
-28850,6132.4,846.08
-28850,6382.4,1094.1
-28850,6632.4,1343.1
-28850,6882.4,1594.1
-28850,7132.4,1846.1
-28850,5132.4,169.92
-28850,5382.4,85.079
-28850,5632.4,337.08
-28850,5132.4,171.92
-28850,5382.4,85.079
-28850,5632.4,336.08
-28850,5882.4,588.08
-28850,5132.4,175.92
-28850,5382.4,88.079
-28850,5632.4,337.08
-28850,5882.4,588.08
-28850,6132.4,840.08
-28850,5132.4,171.92
-28850,5382.4,87.079
-28850,5632.4,339.08
-28850,5132.4,171.92
-28850,5382.4,85.079
-28850,5632.4,336.08
-28850,5882.4,588.08
-28850,5132.4,174.92
-28850,5382.4,87.079
-28850,5632.4,336.08
-28850,5882.4,587.08
-28850,6132.4,839.08
-28850,5382.4,91.079
-28850,5632.4,339.08
-28850,5882.4,588.08
-28850,6132.4,839.08
-28850,6382.4,1091.1
-28850,5132.4,175.92
-28850,5382.4,91.079
-28850,5632.4,343.08
-28850,5132.4,174.92
-28850,5382.4,88.079
-28850,5632.4,339.08
-28850,5882.4,591.08
-28850,5132.4,175.92
-28850,5382.4,88.079
-28850,5632.4,337.08
-28850,5882.4,588.08
-28850,6132.4,840.08
-28850,5382.4,91.079
-28850,5632.4,339.08
-28850,5882.4,588.08
-28850,6132.4,839.08
-28850,6382.4,1091.1
-28850,5632.4,343.08
-28850,5882.4,591.08
-28850,6132.4,840.08
-28850,6382.4,1091.1
-28850,6632.4,1343.1
-28850,5132.4,169.92
-28850,5382.4,85.079
-28850,5632.4,337.08
-28850,5132.4,171.92
-28850,5382.4,85.079
-28850,5632.4,336.08
-28850,5882.4,588.08
-28850,5132.4,175.92
-28850,5382.4,88.079
-28850,5632.4,337.08
-28850,5882.4,588.08
-28850,6132.4,840.08
-28850,5132.4,169.92
-28850,5382.4,85.079
-28850,5632.4,337.08
-28850,5132.4,169.92
-28850,5382.4,83.079
-28850,5632.4,334.08
-28850,5882.4,586.08
-28850,5132.4,172.92
-28850,5382.4,85.079
-28850,5632.4,334.08
-28850,5882.4,585.08
-28850,6132.4,837.08
-28850,5382.4,89.079
-28850,5632.4,337.08
-28850,5882.4,586.08
-28850,6132.4,837.08
-28850,6382.4,1089.1
-28850,5132.4,172.92
-28850,5382.4,88.079
-28850,5632.4,340.08
-28850,5132.4,171.92
-28850,5382.4,85.079
-28850,5632.4,336.08
-28850,5882.4,588.08
-28850,5132.4,172.92
-28850,5382.4,85.079
-28850,5632.4,334.08
-28850,5882.4,585.08
-28850,6132.4,837.08
-28850,5382.4,88.079
-28850,5632.4,336.08
-28850,5882.4,585.08
-28850,6132.4,836.08
-28850,6382.4,1088.1
-28850,5632.4,340.08
-28850,5882.4,588.08
-28850,6132.4,837.08
-28850,6382.4,1088.1
-28850,6632.4,1340.1
-28850,5132.4,175.92
-28850,5382.4,89.079
-28850,5632.4,340.08
-28850,5882.4,592.08
-28850,5132.4,175.92
-28850,5382.4,88.079
-28850,5632.4,337.08
-28850,5882.4,588.08
-28850,6132.4,840.08
-28850,5382.4,89.079
-28850,5632.4,337.08
-28850,5882.4,586.08
-28850,6132.4,837.08
-28850,6382.4,1089.1
-28850,5632.4,340.08
-28850,5882.4,588.08
-28850,6132.4,837.08
-28850,6382.4,1088.1
-28850,6632.4,1340.1
-28850,5882.4,592.08
-28850,6132.4,840.08
-28850,6382.4,1089.1
-28850,6632.4,1340.1
-28850,6882.4,1592.1
-28850,5132.4,172.92
-28850,5382.4,88.079
-28850,5632.4,340.08
-28850,5132.4,174.92
-28850,5382.4,88.079
-28850,5632.4,339.08
-28850,5882.4,591.08
-28850,5132.4,178.92
-28850,5382.4,91.079
-28850,5632.4,340.08
-28850,5882.4,591.08
-28850,6132.4,843.08
-28850,5132.4,171.92
-28850,5382.4,87.079
-28850,5632.4,339.08
-28850,5132.4,171.92
-28850,5382.4,85.079
-28850,5632.4,336.08
-28850,5882.4,588.08
-28850,5132.4,174.92
-28850,5382.4,87.079
-28850,5632.4,336.08
-28850,5882.4,587.08
-28850,6132.4,839.08
-28850,5382.4,91.079
-28850,5632.4,339.08
-28850,5882.4,588.08
-28850,6132.4,839.08
-28850,6382.4,1091.1
-28850,5132.4,172.92
-28850,5382.4,88.079
-28850,5632.4,340.08
-28850,5132.4,171.92
-28850,5382.4,85.079
-28850,5632.4,336.08
-28850,5882.4,588.08
-28850,5132.4,172.92
-28850,5382.4,85.079
-28850,5632.4,334.08
-28850,5882.4,585.08
-28850,6132.4,837.08
-28850,5382.4,88.079
-28850,5632.4,336.08
-28850,5882.4,585.08
-28850,6132.4,836.08
-28850,6382.4,1088.1
-28850,5632.4,340.08
-28850,5882.4,588.08
-28850,6132.4,837.08
-28850,6382.4,1088.1
-28850,6632.4,1340.1
-28850,5132.4,174.92
-28850,5382.4,88.079
-28850,5632.4,339.08
-28850,5882.4,591.08
-28850,5132.4,174.92
-28850,5382.4,87.079
-28850,5632.4,336.08
-28850,5882.4,587.08
-28850,6132.4,839.08
-28850,5382.4,88.079
-28850,5632.4,336.08
-28850,5882.4,585.08
-28850,6132.4,836.08
-28850,6382.4,1088.1
-28850,5632.4,339.08
-28850,5882.4,587.08
-28850,6132.4,836.08
-28850,6382.4,1087.1
-28850,6632.4,1339.1
-28850,5882.4,591.08
-28850,6132.4,839.08
-28850,6382.4,1088.1
-28850,6632.4,1339.1
-28850,6882.4,1591.1
-28850,5132.4,178.92
-28850,5382.4,91.079
-28850,5632.4,340.08
-28850,5882.4,591.08
-28850,6132.4,843.08
-28850,5382.4,91.079
-28850,5632.4,339.08
-28850,5882.4,588.08
-28850,6132.4,839.08
-28850,6382.4,1091.1
-28850,5632.4,340.08
-28850,5882.4,588.08
-28850,6132.4,837.08
-28850,6382.4,1088.1
-28850,6632.4,1340.1
-28850,5882.4,591.08
-28850,6132.4,839.08
-28850,6382.4,1088.1
-28850,6632.4,1339.1
-28850,6882.4,1591.1
-28850,6132.4,843.08
-28850,6382.4,1091.1
-28850,6632.4,1340.1
-28850,6882.4,1591.1
-28850,7132.4,1843.1
-28850,5132.4,175.92
-28850,5382.4,91.079
-28850,5632.4,343.08
-28850,5132.4,175.92
-28850,5382.4,89.079
-28850,5632.4,340.08
-28850,5882.4,592.08
-28850,5132.4,178.92
-28850,5382.4,91.079
-28850,5632.4,340.08
-28850,5882.4,591.08
-28850,6132.4,843.08
-28850,5382.4,95.079
-28850,5632.4,343.08
-28850,5882.4,592.08
-28850,6132.4,843.08
-28850,6382.4,1095.1
-28850,5132.4,175.92
-28850,5382.4,91.079
-28850,5632.4,343.08
-28850,5132.4,174.92
-28850,5382.4,88.079
-28850,5632.4,339.08
-28850,5882.4,591.08
-28850,5132.4,175.92
-28850,5382.4,88.079
-28850,5632.4,337.08
-28850,5882.4,588.08
-28850,6132.4,840.08
-28850,5382.4,91.079
-28850,5632.4,339.08
-28850,5882.4,588.08
-28850,6132.4,839.08
-28850,6382.4,1091.1
-28850,5632.4,343.08
-28850,5882.4,591.08
-28850,6132.4,840.08
-28850,6382.4,1091.1
-28850,6632.4,1343.1
-28850,5132.4,175.92
-28850,5382.4,89.079
-28850,5632.4,340.08
-28850,5882.4,592.08
-28850,5132.4,175.92
-28850,5382.4,88.079
-28850,5632.4,337.08
-28850,5882.4,588.08
-28850,6132.4,840.08
-28850,5382.4,89.079
-28850,5632.4,337.08
-28850,5882.4,586.08
-28850,6132.4,837.08
-28850,6382.4,1089.1
-28850,5632.4,340.08
-28850,5882.4,588.08
-28850,6132.4,837.08
-28850,6382.4,1088.1
-28850,6632.4,1340.1
-28850,5882.4,592.08
-28850,6132.4,840.08
-28850,6382.4,1089.1
-28850,6632.4,1340.1
-28850,6882.4,1592.1
-28850,5132.4,178.92
-28850,5382.4,91.079
-28850,5632.4,340.08
-28850,5882.4,591.08
-28850,6132.4,843.08
-28850,5382.4,91.079
-28850,5632.4,339.08
-28850,5882.4,588.08
-28850,6132.4,839.08
-28850,6382.4,1091.1
-28850,5632.4,340.08
-28850,5882.4,588.08
-28850,6132.4,837.08
-28850,6382.4,1088.1
-28850,6632.4,1340.1
-28850,5882.4,591.08
-28850,6132.4,839.08
-28850,6382.4,1088.1
-28850,6632.4,1339.1
-28850,6882.4,1591.1
-28850,6132.4,843.08
-28850,6382.4,1091.1
-28850,6632.4,1340.1
-28850,6882.4,1591.1
-28850,7132.4,1843.1
-28850,5382.4,95.079
-28850,5632.4,343.08
-28850,5882.4,592.08
-28850,6132.4,843.08
-28850,6382.4,1095.1
-28850,5632.4,343.08
-28850,5882.4,591.08
-28850,6132.4,840.08
-28850,6382.4,1091.1
-28850,6632.4,1343.1
-28850,5882.4,592.08
-28850,6132.4,840.08
-28850,6382.4,1089.1
-28850,6632.4,1340.1
-28850,6882.4,1592.1
-28850,6132.4,843.08
-28850,6382.4,1091.1
-28850,6632.4,1340.1
-28850,6882.4,1591.1
-28850,7132.4,1843.1
-28850,6382.4,1095.1
-28850,6632.4,1343.1
-28850,6882.4,1592.1
-28850,7132.4,1843.1
-28850,7382.4,2095.1
-28850,5132.4,172.92
-28850,5382.4,88.079
-28850,5632.4,340.08
-28850,5132.4,174.92
-28850,5382.4,88.079
-28850,5632.4,339.08
-28850,5882.4,591.08
-28850,5132.4,178.92
-28850,5382.4,91.079
-28850,5632.4,340.08
-28850,5882.4,591.08
-28850,6132.4,843.08
-28850,5132.4,174.92
-28850,5382.4,90.079
-28850,5632.4,342.08
-28850,5132.4,174.92
-28850,5382.4,88.079
-28850,5632.4,339.08
-28850,5882.4,591.08
-28850,5132.4,177.92
-28850,5382.4,90.079
-28850,5632.4,339.08
-28850,5882.4,590.08
-28850,6132.4,842.08
-28850,5382.4,94.079
-28850,5632.4,342.08
-28850,5882.4,591.08
-28850,6132.4,842.08
-28850,6382.4,1094.1
-28850,5132.4,178.92
-28850,5382.4,94.079
-28850,5632.4,346.08
-28850,5132.4,177.92
-28850,5382.4,91.079
-28850,5632.4,342.08
-28850,5882.4,594.08
-28850,5132.4,178.92
-28850,5382.4,91.079
-28850,5632.4,340.08
-28850,5882.4,591.08
-28850,6132.4,843.08
-28850,5382.4,94.079
-28850,5632.4,342.08
-28850,5882.4,591.08
-28850,6132.4,842.08
-28850,6382.4,1094.1
-28850,5632.4,346.08
-28850,5882.4,594.08
-28850,6132.4,843.08
-28850,6382.4,1094.1
-28850,6632.4,1346.1
-28850,5132.4,171.92
-28850,5382.4,87.079
-28850,5632.4,339.08
-28850,5132.4,173.92
-28850,5382.4,87.079
-28850,5632.4,338.08
-28850,5882.4,590.08
-28850,5132.4,177.92
-28850,5382.4,90.079
-28850,5632.4,339.08
-28850,5882.4,590.08
-28850,6132.4,842.08
-28850,5132.4,171.92
-28850,5382.4,87.079
-28850,5632.4,339.08
-28850,5132.4,171.92
-28850,5382.4,85.079
-28850,5632.4,336.08
-28850,5882.4,588.08
-28850,5132.4,174.92
-28850,5382.4,87.079
-28850,5632.4,336.08
-28850,5882.4,587.08
-28850,6132.4,839.08
-28850,5382.4,91.079
-28850,5632.4,339.08
-28850,5882.4,588.08
-28850,6132.4,839.08
-28850,6382.4,1091.1
-28850,5132.4,174.92
-28850,5382.4,90.079
-28850,5632.4,342.08
-28850,5132.4,173.92
-28850,5382.4,87.079
-28850,5632.4,338.08
-28850,5882.4,590.08
-28850,5132.4,174.92
-28850,5382.4,87.079
-28850,5632.4,336.08
-28850,5882.4,587.08
-28850,6132.4,839.08
-28850,5382.4,90.079
-28850,5632.4,338.08
-28850,5882.4,587.08
-28850,6132.4,838.08
-28850,6382.4,1090.1
-28850,5632.4,342.08
-28850,5882.4,590.08
-28850,6132.4,839.08
-28850,6382.4,1090.1
-28850,6632.4,1342.1
-28850,5132.4,177.92
-28850,5382.4,91.079
-28850,5632.4,342.08
-28850,5882.4,594.08
-28850,5132.4,177.92
-28850,5382.4,90.079
-28850,5632.4,339.08
-28850,5882.4,590.08
-28850,6132.4,842.08
-28850,5382.4,91.079
-28850,5632.4,339.08
-28850,5882.4,588.08
-28850,6132.4,839.08
-28850,6382.4,1091.1
-28850,5632.4,342.08
-28850,5882.4,590.08
-28850,6132.4,839.08
-28850,6382.4,1090.1
-28850,6632.4,1342.1
-28850,5882.4,594.08
-28850,6132.4,842.08
-28850,6382.4,1091.1
-28850,6632.4,1342.1
-28850,6882.4,1594.1
-28850,5132.4,172.92
-28850,5382.4,88.079
-28850,5632.4,340.08
-28850,5132.4,174.92
-28850,5382.4,88.079
-28850,5632.4,339.08
-28850,5882.4,591.08
-28850,5132.4,178.92
-28850,5382.4,91.079
-28850,5632.4,340.08
-28850,5882.4,591.08
-28850,6132.4,843.08
-28850,5132.4,171.92
-28850,5382.4,87.079
-28850,5632.4,339.08
-28850,5132.4,171.92
-28850,5382.4,85.079
-28850,5632.4,336.08
-28850,5882.4,588.08
-28850,5132.4,174.92
-28850,5382.4,87.079
-28850,5632.4,336.08
-28850,5882.4,587.08
-28850,6132.4,839.08
-28850,5382.4,91.079
-28850,5632.4,339.08
-28850,5882.4,588.08
-28850,6132.4,839.08
-28850,6382.4,1091.1
-28850,5132.4,172.92
-28850,5382.4,88.079
-28850,5632.4,340.08
-28850,5132.4,171.92
-28850,5382.4,85.079
-28850,5632.4,336.08
-28850,5882.4,588.08
-28850,5132.4,172.92
-28850,5382.4,85.079
-28850,5632.4,334.08
-28850,5882.4,585.08
-28850,6132.4,837.08
-28850,5382.4,88.079
-28850,5632.4,336.08
-28850,5882.4,585.08
-28850,6132.4,836.08
-28850,6382.4,1088.1
-28850,5632.4,340.08
-28850,5882.4,588.08
-28850,6132.4,837.08
-28850,6382.4,1088.1
-28850,6632.4,1340.1
-28850,5132.4,174.92
-28850,5382.4,88.079
-28850,5632.4,339.08
-28850,5882.4,591.08
-28850,5132.4,174.92
-28850,5382.4,87.079
-28850,5632.4,336.08
-28850,5882.4,587.08
-28850,6132.4,839.08
-28850,5382.4,88.079
-28850,5632.4,336.08
-28850,5882.4,585.08
-28850,6132.4,836.08
-28850,6382.4,1088.1
-28850,5632.4,339.08
-28850,5882.4,587.08
-28850,6132.4,836.08
-28850,6382.4,1087.1
-28850,6632.4,1339.1
-28850,5882.4,591.08
-28850,6132.4,839.08
-28850,6382.4,1088.1
-28850,6632.4,1339.1
-28850,6882.4,1591.1
-28850,5132.4,178.92
-28850,5382.4,91.079
-28850,5632.4,340.08
-28850,5882.4,591.08
-28850,6132.4,843.08
-28850,5382.4,91.079
-28850,5632.4,339.08
-28850,5882.4,588.08
-28850,6132.4,839.08
-28850,6382.4,1091.1
-28850,5632.4,340.08
-28850,5882.4,588.08
-28850,6132.4,837.08
-28850,6382.4,1088.1
-28850,6632.4,1340.1
-28850,5882.4,591.08
-28850,6132.4,839.08
-28850,6382.4,1088.1
-28850,6632.4,1339.1
-28850,6882.4,1591.1
-28850,6132.4,843.08
-28850,6382.4,1091.1
-28850,6632.4,1340.1
-28850,6882.4,1591.1
-28850,7132.4,1843.1
-28850,5132.4,174.92
-28850,5382.4,90.079
-28850,5632.4,342.08
-28850,5132.4,174.92
-28850,5382.4,88.079
-28850,5632.4,339.08
-28850,5882.4,591.08
-28850,5132.4,177.92
-28850,5382.4,90.079
-28850,5632.4,339.08
-28850,5882.4,590.08
-28850,6132.4,842.08
-28850,5382.4,94.079
-28850,5632.4,342.08
-28850,5882.4,591.08
-28850,6132.4,842.08
-28850,6382.4,1094.1
-28850,5132.4,174.92
-28850,5382.4,90.079
-28850,5632.4,342.08
-28850,5132.4,173.92
-28850,5382.4,87.079
-28850,5632.4,338.08
-28850,5882.4,590.08
-28850,5132.4,174.92
-28850,5382.4,87.079
-28850,5632.4,336.08
-28850,5882.4,587.08
-28850,6132.4,839.08
-28850,5382.4,90.079
-28850,5632.4,338.08
-28850,5882.4,587.08
-28850,6132.4,838.08
-28850,6382.4,1090.1
-28850,5632.4,342.08
-28850,5882.4,590.08
-28850,6132.4,839.08
-28850,6382.4,1090.1
-28850,6632.4,1342.1
-28850,5132.4,174.92
-28850,5382.4,88.079
-28850,5632.4,339.08
-28850,5882.4,591.08
-28850,5132.4,174.92
-28850,5382.4,87.079
-28850,5632.4,336.08
-28850,5882.4,587.08
-28850,6132.4,839.08
-28850,5382.4,88.079
-28850,5632.4,336.08
-28850,5882.4,585.08
-28850,6132.4,836.08
-28850,6382.4,1088.1
-28850,5632.4,339.08
-28850,5882.4,587.08
-28850,6132.4,836.08
-28850,6382.4,1087.1
-28850,6632.4,1339.1
-28850,5882.4,591.08
-28850,6132.4,839.08
-28850,6382.4,1088.1
-28850,6632.4,1339.1
-28850,6882.4,1591.1
-28850,5132.4,177.92
-28850,5382.4,90.079
-28850,5632.4,339.08
-28850,5882.4,590.08
-28850,6132.4,842.08
-28850,5382.4,90.079
-28850,5632.4,338.08
-28850,5882.4,587.08
-28850,6132.4,838.08
-28850,6382.4,1090.1
-28850,5632.4,339.08
-28850,5882.4,587.08
-28850,6132.4,836.08
-28850,6382.4,1087.1
-28850,6632.4,1339.1
-28850,5882.4,590.08
-28850,6132.4,838.08
-28850,6382.4,1087.1
-28850,6632.4,1338.1
-28850,6882.4,1590.1
-28850,6132.4,842.08
-28850,6382.4,1090.1
-28850,6632.4,1339.1
-28850,6882.4,1590.1
-28850,7132.4,1842.1
-28850,5382.4,94.079
-28850,5632.4,342.08
-28850,5882.4,591.08
-28850,6132.4,842.08
-28850,6382.4,1094.1
-28850,5632.4,342.08
-28850,5882.4,590.08
-28850,6132.4,839.08
-28850,6382.4,1090.1
-28850,6632.4,1342.1
-28850,5882.4,591.08
-28850,6132.4,839.08
-28850,6382.4,1088.1
-28850,6632.4,1339.1
-28850,6882.4,1591.1
-28850,6132.4,842.08
-28850,6382.4,1090.1
-28850,6632.4,1339.1
-28850,6882.4,1590.1
-28850,7132.4,1842.1
-28850,6382.4,1094.1
-28850,6632.4,1342.1
-28850,6882.4,1591.1
-28850,7132.4,1842.1
-28850,7382.4,2094.1
-28850,5132.4,178.92
-28850,5382.4,94.079
-28850,5632.4,346.08
-28850,5132.4,177.92
-28850,5382.4,91.079
-28850,5632.4,342.08
-28850,5882.4,594.08
-28850,5132.4,178.92
-28850,5382.4,91.079
-28850,5632.4,340.08
-28850,5882.4,591.08
-28850,6132.4,843.08
-28850,5382.4,94.079
-28850,5632.4,342.08
-28850,5882.4,591.08
-28850,6132.4,842.08
-28850,6382.4,1094.1
-28850,5632.4,346.08
-28850,5882.4,594.08
-28850,6132.4,843.08
-28850,6382.4,1094.1
-28850,6632.4,1346.1
-28850,5132.4,177.92
-28850,5382.4,91.079
-28850,5632.4,342.08
-28850,5882.4,594.08
-28850,5132.4,177.92
-28850,5382.4,90.079
-28850,5632.4,339.08
-28850,5882.4,590.08
-28850,6132.4,842.08
-28850,5382.4,91.079
-28850,5632.4,339.08
-28850,5882.4,588.08
-28850,6132.4,839.08
-28850,6382.4,1091.1
-28850,5632.4,342.08
-28850,5882.4,590.08
-28850,6132.4,839.08
-28850,6382.4,1090.1
-28850,6632.4,1342.1
-28850,5882.4,594.08
-28850,6132.4,842.08
-28850,6382.4,1091.1
-28850,6632.4,1342.1
-28850,6882.4,1594.1
-28850,5132.4,178.92
-28850,5382.4,91.079
-28850,5632.4,340.08
-28850,5882.4,591.08
-28850,6132.4,843.08
-28850,5382.4,91.079
-28850,5632.4,339.08
-28850,5882.4,588.08
-28850,6132.4,839.08
-28850,6382.4,1091.1
-28850,5632.4,340.08
-28850,5882.4,588.08
-28850,6132.4,837.08
-28850,6382.4,1088.1
-28850,6632.4,1340.1
-28850,5882.4,591.08
-28850,6132.4,839.08
-28850,6382.4,1088.1
-28850,6632.4,1339.1
-28850,6882.4,1591.1
-28850,6132.4,843.08
-28850,6382.4,1091.1
-28850,6632.4,1340.1
-28850,6882.4,1591.1
-28850,7132.4,1843.1
-28850,5382.4,94.079
-28850,5632.4,342.08
-28850,5882.4,591.08
-28850,6132.4,842.08
-28850,6382.4,1094.1
-28850,5632.4,342.08
-28850,5882.4,590.08
-28850,6132.4,839.08
-28850,6382.4,1090.1
-28850,6632.4,1342.1
-28850,5882.4,591.08
-28850,6132.4,839.08
-28850,6382.4,1088.1
-28850,6632.4,1339.1
-28850,6882.4,1591.1
-28850,6132.4,842.08
-28850,6382.4,1090.1
-28850,6632.4,1339.1
-28850,6882.4,1590.1
-28850,7132.4,1842.1
-28850,6382.4,1094.1
-28850,6632.4,1342.1
-28850,6882.4,1591.1
-28850,7132.4,1842.1
-28850,7382.4,2094.1
-28850,5632.4,346.08
-28850,5882.4,594.08
-28850,6132.4,843.08
-28850,6382.4,1094.1
-28850,6632.4,1346.1
-28850,5882.4,594.08
-28850,6132.4,842.08
-28850,6382.4,1091.1
-28850,6632.4,1342.1
-28850,6882.4,1594.1
-28850,6132.4,843.08
-28850,6382.4,1091.1
-28850,6632.4,1340.1
-28850,6882.4,1591.1
-28850,7132.4,1843.1
-28850,6382.4,1094.1
-28850,6632.4,1342.1
-28850,6882.4,1591.1
-28850,7132.4,1842.1
-28850,7382.4,2094.1
-28850,6632.4,1346.1
-28850,6882.4,1594.1
-28850,7132.4,1843.1
-28850,7382.4,2094.1
-28850,7632.4,2346.1
-28850,5132.4,175.92
-28850,5382.4,91.079
-28850,5632.4,343.08
-28850,5132.4,177.92
-28850,5382.4,91.079
-28850,5632.4,342.08
-28850,5882.4,594.08
-28850,5132.4,181.92
-28850,5382.4,94.079
-28850,5632.4,343.08
-28850,5882.4,594.08
-28850,6132.4,846.08
-28850,5132.4,175.92
-28850,5382.4,91.079
-28850,5632.4,343.08
-28850,5132.4,175.92
-28850,5382.4,89.079
-28850,5632.4,340.08
-28850,5882.4,592.08
-28850,5132.4,178.92
-28850,5382.4,91.079
-28850,5632.4,340.08
-28850,5882.4,591.08
-28850,6132.4,843.08
-28850,5382.4,95.079
-28850,5632.4,343.08
-28850,5882.4,592.08
-28850,6132.4,843.08
-28850,6382.4,1095.1
-28850,5132.4,178.92
-28850,5382.4,94.079
-28850,5632.4,346.08
-28850,5132.4,177.92
-28850,5382.4,91.079
-28850,5632.4,342.08
-28850,5882.4,594.08
-28850,5132.4,178.92
-28850,5382.4,91.079
-28850,5632.4,340.08
-28850,5882.4,591.08
-28850,6132.4,843.08
-28850,5382.4,94.079
-28850,5632.4,342.08
-28850,5882.4,591.08
-28850,6132.4,842.08
-28850,6382.4,1094.1
-28850,5632.4,346.08
-28850,5882.4,594.08
-28850,6132.4,843.08
-28850,6382.4,1094.1
-28850,6632.4,1346.1
-28850,5132.4,181.92
-28850,5382.4,95.079
-28850,5632.4,346.08
-28850,5882.4,598.08
-28850,5132.4,181.92
-28850,5382.4,94.079
-28850,5632.4,343.08
-28850,5882.4,594.08
-28850,6132.4,846.08
-28850,5382.4,95.079
-28850,5632.4,343.08
-28850,5882.4,592.08
-28850,6132.4,843.08
-28850,6382.4,1095.1
-28850,5632.4,346.08
-28850,5882.4,594.08
-28850,6132.4,843.08
-28850,6382.4,1094.1
-28850,6632.4,1346.1
-28850,5882.4,598.08
-28850,6132.4,846.08
-28850,6382.4,1095.1
-28850,6632.4,1346.1
-28850,6882.4,1598.1
-28850,5132.4,175.92
-28850,5382.4,91.079
-28850,5632.4,343.08
-28850,5132.4,177.92
-28850,5382.4,91.079
-28850,5632.4,342.08
-28850,5882.4,594.08
-28850,5132.4,181.92
-28850,5382.4,94.079
-28850,5632.4,343.08
-28850,5882.4,594.08
-28850,6132.4,846.08
-28850,5132.4,174.92
-28850,5382.4,90.079
-28850,5632.4,342.08
-28850,5132.4,174.92
-28850,5382.4,88.079
-28850,5632.4,339.08
-28850,5882.4,591.08
-28850,5132.4,177.92
-28850,5382.4,90.079
-28850,5632.4,339.08
-28850,5882.4,590.08
-28850,6132.4,842.08
-28850,5382.4,94.079
-28850,5632.4,342.08
-28850,5882.4,591.08
-28850,6132.4,842.08
-28850,6382.4,1094.1
-28850,5132.4,175.92
-28850,5382.4,91.079
-28850,5632.4,343.08
-28850,5132.4,174.92
-28850,5382.4,88.079
-28850,5632.4,339.08
-28850,5882.4,591.08
-28850,5132.4,175.92
-28850,5382.4,88.079
-28850,5632.4,337.08
-28850,5882.4,588.08
-28850,6132.4,840.08
-28850,5382.4,91.079
-28850,5632.4,339.08
-28850,5882.4,588.08
-28850,6132.4,839.08
-28850,6382.4,1091.1
-28850,5632.4,343.08
-28850,5882.4,591.08
-28850,6132.4,840.08
-28850,6382.4,1091.1
-28850,6632.4,1343.1
-28850,5132.4,177.92
-28850,5382.4,91.079
-28850,5632.4,342.08
-28850,5882.4,594.08
-28850,5132.4,177.92
-28850,5382.4,90.079
-28850,5632.4,339.08
-28850,5882.4,590.08
-28850,6132.4,842.08
-28850,5382.4,91.079
-28850,5632.4,339.08
-28850,5882.4,588.08
-28850,6132.4,839.08
-28850,6382.4,1091.1
-28850,5632.4,342.08
-28850,5882.4,590.08
-28850,6132.4,839.08
-28850,6382.4,1090.1
-28850,6632.4,1342.1
-28850,5882.4,594.08
-28850,6132.4,842.08
-28850,6382.4,1091.1
-28850,6632.4,1342.1
-28850,6882.4,1594.1
-28850,5132.4,181.92
-28850,5382.4,94.079
-28850,5632.4,343.08
-28850,5882.4,594.08
-28850,6132.4,846.08
-28850,5382.4,94.079
-28850,5632.4,342.08
-28850,5882.4,591.08
-28850,6132.4,842.08
-28850,6382.4,1094.1
-28850,5632.4,343.08
-28850,5882.4,591.08
-28850,6132.4,840.08
-28850,6382.4,1091.1
-28850,6632.4,1343.1
-28850,5882.4,594.08
-28850,6132.4,842.08
-28850,6382.4,1091.1
-28850,6632.4,1342.1
-28850,6882.4,1594.1
-28850,6132.4,846.08
-28850,6382.4,1094.1
-28850,6632.4,1343.1
-28850,6882.4,1594.1
-28850,7132.4,1846.1
-28850,5132.4,175.92
-28850,5382.4,91.079
-28850,5632.4,343.08
-28850,5132.4,175.92
-28850,5382.4,89.079
-28850,5632.4,340.08
-28850,5882.4,592.08
-28850,5132.4,178.92
-28850,5382.4,91.079
-28850,5632.4,340.08
-28850,5882.4,591.08
-28850,6132.4,843.08
-28850,5382.4,95.079
-28850,5632.4,343.08
-28850,5882.4,592.08
-28850,6132.4,843.08
-28850,6382.4,1095.1
-28850,5132.4,175.92
-28850,5382.4,91.079
-28850,5632.4,343.08
-28850,5132.4,174.92
-28850,5382.4,88.079
-28850,5632.4,339.08
-28850,5882.4,591.08
-28850,5132.4,175.92
-28850,5382.4,88.079
-28850,5632.4,337.08
-28850,5882.4,588.08
-28850,6132.4,840.08
-28850,5382.4,91.079
-28850,5632.4,339.08
-28850,5882.4,588.08
-28850,6132.4,839.08
-28850,6382.4,1091.1
-28850,5632.4,343.08
-28850,5882.4,591.08
-28850,6132.4,840.08
-28850,6382.4,1091.1
-28850,6632.4,1343.1
-28850,5132.4,175.92
-28850,5382.4,89.079
-28850,5632.4,340.08
-28850,5882.4,592.08
-28850,5132.4,175.92
-28850,5382.4,88.079
-28850,5632.4,337.08
-28850,5882.4,588.08
-28850,6132.4,840.08
-28850,5382.4,89.079
-28850,5632.4,337.08
-28850,5882.4,586.08
-28850,6132.4,837.08
-28850,6382.4,1089.1
-28850,5632.4,340.08
-28850,5882.4,588.08
-28850,6132.4,837.08
-28850,6382.4,1088.1
-28850,6632.4,1340.1
-28850,5882.4,592.08
-28850,6132.4,840.08
-28850,6382.4,1089.1
-28850,6632.4,1340.1
-28850,6882.4,1592.1
-28850,5132.4,178.92
-28850,5382.4,91.079
-28850,5632.4,340.08
-28850,5882.4,591.08
-28850,6132.4,843.08
-28850,5382.4,91.079
-28850,5632.4,339.08
-28850,5882.4,588.08
-28850,6132.4,839.08
-28850,6382.4,1091.1
-28850,5632.4,340.08
-28850,5882.4,588.08
-28850,6132.4,837.08
-28850,6382.4,1088.1
-28850,6632.4,1340.1
-28850,5882.4,591.08
-28850,6132.4,839.08
-28850,6382.4,1088.1
-28850,6632.4,1339.1
-28850,6882.4,1591.1
-28850,6132.4,843.08
-28850,6382.4,1091.1
-28850,6632.4,1340.1
-28850,6882.4,1591.1
-28850,7132.4,1843.1
-28850,5382.4,95.079
-28850,5632.4,343.08
-28850,5882.4,592.08
-28850,6132.4,843.08
-28850,6382.4,1095.1
-28850,5632.4,343.08
-28850,5882.4,591.08
-28850,6132.4,840.08
-28850,6382.4,1091.1
-28850,6632.4,1343.1
-28850,5882.4,592.08
-28850,6132.4,840.08
-28850,6382.4,1089.1
-28850,6632.4,1340.1
-28850,6882.4,1592.1
-28850,6132.4,843.08
-28850,6382.4,1091.1
-28850,6632.4,1340.1
-28850,6882.4,1591.1
-28850,7132.4,1843.1
-28850,6382.4,1095.1
-28850,6632.4,1343.1
-28850,6882.4,1592.1
-28850,7132.4,1843.1
-28850,7382.4,2095.1
-28850,5132.4,178.92
-28850,5382.4,94.079
-28850,5632.4,346.08
-28850,5132.4,177.92
-28850,5382.4,91.079
-28850,5632.4,342.08
-28850,5882.4,594.08
-28850,5132.4,178.92
-28850,5382.4,91.079
-28850,5632.4,340.08
-28850,5882.4,591.08
-28850,6132.4,843.08
-28850,5382.4,94.079
-28850,5632.4,342.08
-28850,5882.4,591.08
-28850,6132.4,842.08
-28850,6382.4,1094.1
-28850,5632.4,346.08
-28850,5882.4,594.08
-28850,6132.4,843.08
-28850,6382.4,1094.1
-28850,6632.4,1346.1
-28850,5132.4,177.92
-28850,5382.4,91.079
-28850,5632.4,342.08
-28850,5882.4,594.08
-28850,5132.4,177.92
-28850,5382.4,90.079
-28850,5632.4,339.08
-28850,5882.4,590.08
-28850,6132.4,842.08
-28850,5382.4,91.079
-28850,5632.4,339.08
-28850,5882.4,588.08
-28850,6132.4,839.08
-28850,6382.4,1091.1
-28850,5632.4,342.08
-28850,5882.4,590.08
-28850,6132.4,839.08
-28850,6382.4,1090.1
-28850,6632.4,1342.1
-28850,5882.4,594.08
-28850,6132.4,842.08
-28850,6382.4,1091.1
-28850,6632.4,1342.1
-28850,6882.4,1594.1
-28850,5132.4,178.92
-28850,5382.4,91.079
-28850,5632.4,340.08
-28850,5882.4,591.08
-28850,6132.4,843.08
-28850,5382.4,91.079
-28850,5632.4,339.08
-28850,5882.4,588.08
-28850,6132.4,839.08
-28850,6382.4,1091.1
-28850,5632.4,340.08
-28850,5882.4,588.08
-28850,6132.4,837.08
-28850,6382.4,1088.1
-28850,6632.4,1340.1
-28850,5882.4,591.08
-28850,6132.4,839.08
-28850,6382.4,1088.1
-28850,6632.4,1339.1
-28850,6882.4,1591.1
-28850,6132.4,843.08
-28850,6382.4,1091.1
-28850,6632.4,1340.1
-28850,6882.4,1591.1
-28850,7132.4,1843.1
-28850,5382.4,94.079
-28850,5632.4,342.08
-28850,5882.4,591.08
-28850,6132.4,842.08
-28850,6382.4,1094.1
-28850,5632.4,342.08
-28850,5882.4,590.08
-28850,6132.4,839.08
-28850,6382.4,1090.1
-28850,6632.4,1342.1
-28850,5882.4,591.08
-28850,6132.4,839.08
-28850,6382.4,1088.1
-28850,6632.4,1339.1
-28850,6882.4,1591.1
-28850,6132.4,842.08
-28850,6382.4,1090.1
-28850,6632.4,1339.1
-28850,6882.4,1590.1
-28850,7132.4,1842.1
-28850,6382.4,1094.1
-28850,6632.4,1342.1
-28850,6882.4,1591.1
-28850,7132.4,1842.1
-28850,7382.4,2094.1
-28850,5632.4,346.08
-28850,5882.4,594.08
-28850,6132.4,843.08
-28850,6382.4,1094.1
-28850,6632.4,1346.1
-28850,5882.4,594.08
-28850,6132.4,842.08
-28850,6382.4,1091.1
-28850,6632.4,1342.1
-28850,6882.4,1594.1
-28850,6132.4,843.08
-28850,6382.4,1091.1
-28850,6632.4,1340.1
-28850,6882.4,1591.1
-28850,7132.4,1843.1
-28850,6382.4,1094.1
-28850,6632.4,1342.1
-28850,6882.4,1591.1
-28850,7132.4,1842.1
-28850,7382.4,2094.1
-28850,6632.4,1346.1
-28850,6882.4,1594.1
-28850,7132.4,1843.1
-28850,7382.4,2094.1
-28850,7632.4,2346.1
-28850,5132.4,181.92
-28850,5382.4,95.079
-28850,5632.4,346.08
-28850,5882.4,598.08
-28850,5132.4,181.92
-28850,5382.4,94.079
-28850,5632.4,343.08
-28850,5882.4,594.08
-28850,6132.4,846.08
-28850,5382.4,95.079
-28850,5632.4,343.08
-28850,5882.4,592.08
-28850,6132.4,843.08
-28850,6382.4,1095.1
-28850,5632.4,346.08
-28850,5882.4,594.08
-28850,6132.4,843.08
-28850,6382.4,1094.1
-28850,6632.4,1346.1
-28850,5882.4,598.08
-28850,6132.4,846.08
-28850,6382.4,1095.1
-28850,6632.4,1346.1
-28850,6882.4,1598.1
-28850,5132.4,181.92
-28850,5382.4,94.079
-28850,5632.4,343.08
-28850,5882.4,594.08
-28850,6132.4,846.08
-28850,5382.4,94.079
-28850,5632.4,342.08
-28850,5882.4,591.08
-28850,6132.4,842.08
-28850,6382.4,1094.1
-28850,5632.4,343.08
-28850,5882.4,591.08
-28850,6132.4,840.08
-28850,6382.4,1091.1
-28850,6632.4,1343.1
-28850,5882.4,594.08
-28850,6132.4,842.08
-28850,6382.4,1091.1
-28850,6632.4,1342.1
-28850,6882.4,1594.1
-28850,6132.4,846.08
-28850,6382.4,1094.1
-28850,6632.4,1343.1
-28850,6882.4,1594.1
-28850,7132.4,1846.1
-28850,5382.4,95.079
-28850,5632.4,343.08
-28850,5882.4,592.08
-28850,6132.4,843.08
-28850,6382.4,1095.1
-28850,5632.4,343.08
-28850,5882.4,591.08
-28850,6132.4,840.08
-28850,6382.4,1091.1
-28850,6632.4,1343.1
-28850,5882.4,592.08
-28850,6132.4,840.08
-28850,6382.4,1089.1
-28850,6632.4,1340.1
-28850,6882.4,1592.1
-28850,6132.4,843.08
-28850,6382.4,1091.1
-28850,6632.4,1340.1
-28850,6882.4,1591.1
-28850,7132.4,1843.1
-28850,6382.4,1095.1
-28850,6632.4,1343.1
-28850,6882.4,1592.1
-28850,7132.4,1843.1
-28850,7382.4,2095.1
-28850,5632.4,346.08
-28850,5882.4,594.08
-28850,6132.4,843.08
-28850,6382.4,1094.1
-28850,6632.4,1346.1
-28850,5882.4,594.08
-28850,6132.4,842.08
-28850,6382.4,1091.1
-28850,6632.4,1342.1
-28850,6882.4,1594.1
-28850,6132.4,843.08
-28850,6382.4,1091.1
-28850,6632.4,1340.1
-28850,6882.4,1591.1
-28850,7132.4,1843.1
-28850,6382.4,1094.1
-28850,6632.4,1342.1
-28850,6882.4,1591.1
-28850,7132.4,1842.1
-28850,7382.4,2094.1
-28850,6632.4,1346.1
-28850,6882.4,1594.1
-28850,7132.4,1843.1
-28850,7382.4,2094.1
-28850,7632.4,2346.1
-28850,5882.4,598.08
-28850,6132.4,846.08
-28850,6382.4,1095.1
-28850,6632.4,1346.1
-28850,6882.4,1598.1
-28850,6132.4,846.08
-28850,6382.4,1094.1
-28850,6632.4,1343.1
-28850,6882.4,1594.1
-28850,7132.4,1846.1
-28850,6382.4,1095.1
-28850,6632.4,1343.1
-28850,6882.4,1592.1
-28850,7132.4,1843.1
-28850,7382.4,2095.1
-28850,6632.4,1346.1
-28850,6882.4,1594.1
-28850,7132.4,1843.1
-28850,7382.4,2094.1
-28850,7632.4,2346.1
-28850,6882.4,1598.1
-28850,7132.4,1846.1
-28850,7382.4,2095.1
-28850,7632.4,2346.1
-28850,7882.4,2598.1
-28850,5132.4,173.92
-28850,5382.4,89.079
-28850,5632.4,341.08
-28850,5132.4,175.92
-28850,5382.4,89.079
-28850,5632.4,340.08
-28850,5882.4,592.08
-28850,5132.4,179.92
-28850,5382.4,92.079
-28850,5632.4,341.08
-28850,5882.4,592.08
-28850,6132.4,844.08
-28850,5132.4,175.92
-28850,5382.4,91.079
-28850,5632.4,343.08
-28850,5132.4,175.92
-28850,5382.4,89.079
-28850,5632.4,340.08
-28850,5882.4,592.08
-28850,5132.4,178.92
-28850,5382.4,91.079
-28850,5632.4,340.08
-28850,5882.4,591.08
-28850,6132.4,843.08
-28850,5382.4,95.079
-28850,5632.4,343.08
-28850,5882.4,592.08
-28850,6132.4,843.08
-28850,6382.4,1095.1
-28850,5132.4,179.92
-28850,5382.4,95.079
-28850,5632.4,347.08
-28850,5132.4,178.92
-28850,5382.4,92.079
-28850,5632.4,343.08
-28850,5882.4,595.08
-28850,5132.4,179.92
-28850,5382.4,92.079
-28850,5632.4,341.08
-28850,5882.4,592.08
-28850,6132.4,844.08
-28850,5382.4,95.079
-28850,5632.4,343.08
-28850,5882.4,592.08
-28850,6132.4,843.08
-28850,6382.4,1095.1
-28850,5632.4,347.08
-28850,5882.4,595.08
-28850,6132.4,844.08
-28850,6382.4,1095.1
-28850,6632.4,1347.1
-28850,5132.4,175.92
-28850,5382.4,91.079
-28850,5632.4,343.08
-28850,5132.4,177.92
-28850,5382.4,91.079
-28850,5632.4,342.08
-28850,5882.4,594.08
-28850,5132.4,181.92
-28850,5382.4,94.079
-28850,5632.4,343.08
-28850,5882.4,594.08
-28850,6132.4,846.08
-28850,5132.4,175.92
-28850,5382.4,91.079
-28850,5632.4,343.08
-28850,5132.4,175.92
-28850,5382.4,89.079
-28850,5632.4,340.08
-28850,5882.4,592.08
-28850,5132.4,178.92
-28850,5382.4,91.079
-28850,5632.4,340.08
-28850,5882.4,591.08
-28850,6132.4,843.08
-28850,5382.4,95.079
-28850,5632.4,343.08
-28850,5882.4,592.08
-28850,6132.4,843.08
-28850,6382.4,1095.1
-28850,5132.4,178.92
-28850,5382.4,94.079
-28850,5632.4,346.08
-28850,5132.4,177.92
-28850,5382.4,91.079
-28850,5632.4,342.08
-28850,5882.4,594.08
-28850,5132.4,178.92
-28850,5382.4,91.079
-28850,5632.4,340.08
-28850,5882.4,591.08
-28850,6132.4,843.08
-28850,5382.4,94.079
-28850,5632.4,342.08
-28850,5882.4,591.08
-28850,6132.4,842.08
-28850,6382.4,1094.1
-28850,5632.4,346.08
-28850,5882.4,594.08
-28850,6132.4,843.08
-28850,6382.4,1094.1
-28850,6632.4,1346.1
-28850,5132.4,181.92
-28850,5382.4,95.079
-28850,5632.4,346.08
-28850,5882.4,598.08
-28850,5132.4,181.92
-28850,5382.4,94.079
-28850,5632.4,343.08
-28850,5882.4,594.08
-28850,6132.4,846.08
-28850,5382.4,95.079
-28850,5632.4,343.08
-28850,5882.4,592.08
-28850,6132.4,843.08
-28850,6382.4,1095.1
-28850,5632.4,346.08
-28850,5882.4,594.08
-28850,6132.4,843.08
-28850,6382.4,1094.1
-28850,6632.4,1346.1
-28850,5882.4,598.08
-28850,6132.4,846.08
-28850,6382.4,1095.1
-28850,6632.4,1346.1
-28850,6882.4,1598.1
-28850,5132.4,179.92
-28850,5382.4,95.079
-28850,5632.4,347.08
-28850,5132.4,181.92
-28850,5382.4,95.079
-28850,5632.4,346.08
-28850,5882.4,598.08
-28850,5132.4,185.92
-28850,5382.4,98.079
-28850,5632.4,347.08
-28850,5882.4,598.08
-28850,6132.4,850.08
-28850,5132.4,178.92
-28850,5382.4,94.079
-28850,5632.4,346.08
-28850,5132.4,178.92
-28850,5382.4,92.079
-28850,5632.4,343.08
-28850,5882.4,595.08
-28850,5132.4,181.92
-28850,5382.4,94.079
-28850,5632.4,343.08
-28850,5882.4,594.08
-28850,6132.4,846.08
-28850,5382.4,98.079
-28850,5632.4,346.08
-28850,5882.4,595.08
-28850,6132.4,846.08
-28850,6382.4,1098.1
-28850,5132.4,179.92
-28850,5382.4,95.079
-28850,5632.4,347.08
-28850,5132.4,178.92
-28850,5382.4,92.079
-28850,5632.4,343.08
-28850,5882.4,595.08
-28850,5132.4,179.92
-28850,5382.4,92.079
-28850,5632.4,341.08
-28850,5882.4,592.08
-28850,6132.4,844.08
-28850,5382.4,95.079
-28850,5632.4,343.08
-28850,5882.4,592.08
-28850,6132.4,843.08
-28850,6382.4,1095.1
-28850,5632.4,347.08
-28850,5882.4,595.08
-28850,6132.4,844.08
-28850,6382.4,1095.1
-28850,6632.4,1347.1
-28850,5132.4,181.92
-28850,5382.4,95.079
-28850,5632.4,346.08
-28850,5882.4,598.08
-28850,5132.4,181.92
-28850,5382.4,94.079
-28850,5632.4,343.08
-28850,5882.4,594.08
-28850,6132.4,846.08
-28850,5382.4,95.079
-28850,5632.4,343.08
-28850,5882.4,592.08
-28850,6132.4,843.08
-28850,6382.4,1095.1
-28850,5632.4,346.08
-28850,5882.4,594.08
-28850,6132.4,843.08
-28850,6382.4,1094.1
-28850,6632.4,1346.1
-28850,5882.4,598.08
-28850,6132.4,846.08
-28850,6382.4,1095.1
-28850,6632.4,1346.1
-28850,6882.4,1598.1
-28850,5132.4,185.92
-28850,5382.4,98.079
-28850,5632.4,347.08
-28850,5882.4,598.08
-28850,6132.4,850.08
-28850,5382.4,98.079
-28850,5632.4,346.08
-28850,5882.4,595.08
-28850,6132.4,846.08
-28850,6382.4,1098.1
-28850,5632.4,347.08
-28850,5882.4,595.08
-28850,6132.4,844.08
-28850,6382.4,1095.1
-28850,6632.4,1347.1
-28850,5882.4,598.08
-28850,6132.4,846.08
-28850,6382.4,1095.1
-28850,6632.4,1346.1
-28850,6882.4,1598.1
-28850,6132.4,850.08
-28850,6382.4,1098.1
-28850,6632.4,1347.1
-28850,6882.4,1598.1
-28850,7132.4,1850.1
-28850,5132.4,172.92
-28850,5382.4,88.079
-28850,5632.4,340.08
-28850,5132.4,174.92
-28850,5382.4,88.079
-28850,5632.4,339.08
-28850,5882.4,591.08
-28850,5132.4,178.92
-28850,5382.4,91.079
-28850,5632.4,340.08
-28850,5882.4,591.08
-28850,6132.4,843.08
-28850,5132.4,174.92
-28850,5382.4,90.079
-28850,5632.4,342.08
-28850,5132.4,174.92
-28850,5382.4,88.079
-28850,5632.4,339.08
-28850,5882.4,591.08
-28850,5132.4,177.92
-28850,5382.4,90.079
-28850,5632.4,339.08
-28850,5882.4,590.08
-28850,6132.4,842.08
-28850,5382.4,94.079
-28850,5632.4,342.08
-28850,5882.4,591.08
-28850,6132.4,842.08
-28850,6382.4,1094.1
-28850,5132.4,178.92
-28850,5382.4,94.079
-28850,5632.4,346.08
-28850,5132.4,177.92
-28850,5382.4,91.079
-28850,5632.4,342.08
-28850,5882.4,594.08
-28850,5132.4,178.92
-28850,5382.4,91.079
-28850,5632.4,340.08
-28850,5882.4,591.08
-28850,6132.4,843.08
-28850,5382.4,94.079
-28850,5632.4,342.08
-28850,5882.4,591.08
-28850,6132.4,842.08
-28850,6382.4,1094.1
-28850,5632.4,346.08
-28850,5882.4,594.08
-28850,6132.4,843.08
-28850,6382.4,1094.1
-28850,6632.4,1346.1
-28850,5132.4,172.92
-28850,5382.4,88.079
-28850,5632.4,340.08
-28850,5132.4,174.92
-28850,5382.4,88.079
-28850,5632.4,339.08
-28850,5882.4,591.08
-28850,5132.4,178.92
-28850,5382.4,91.079
-28850,5632.4,340.08
-28850,5882.4,591.08
-28850,6132.4,843.08
-28850,5132.4,172.92
-28850,5382.4,88.079
-28850,5632.4,340.08
-28850,5132.4,172.92
-28850,5382.4,86.079
-28850,5632.4,337.08
-28850,5882.4,589.08
-28850,5132.4,175.92
-28850,5382.4,88.079
-28850,5632.4,337.08
-28850,5882.4,588.08
-28850,6132.4,840.08
-28850,5382.4,92.079
-28850,5632.4,340.08
-28850,5882.4,589.08
-28850,6132.4,840.08
-28850,6382.4,1092.1
-28850,5132.4,175.92
-28850,5382.4,91.079
-28850,5632.4,343.08
-28850,5132.4,174.92
-28850,5382.4,88.079
-28850,5632.4,339.08
-28850,5882.4,591.08
-28850,5132.4,175.92
-28850,5382.4,88.079
-28850,5632.4,337.08
-28850,5882.4,588.08
-28850,6132.4,840.08
-28850,5382.4,91.079
-28850,5632.4,339.08
-28850,5882.4,588.08
-28850,6132.4,839.08
-28850,6382.4,1091.1
-28850,5632.4,343.08
-28850,5882.4,591.08
-28850,6132.4,840.08
-28850,6382.4,1091.1
-28850,6632.4,1343.1
-28850,5132.4,178.92
-28850,5382.4,92.079
-28850,5632.4,343.08
-28850,5882.4,595.08
-28850,5132.4,178.92
-28850,5382.4,91.079
-28850,5632.4,340.08
-28850,5882.4,591.08
-28850,6132.4,843.08
-28850,5382.4,92.079
-28850,5632.4,340.08
-28850,5882.4,589.08
-28850,6132.4,840.08
-28850,6382.4,1092.1
-28850,5632.4,343.08
-28850,5882.4,591.08
-28850,6132.4,840.08
-28850,6382.4,1091.1
-28850,6632.4,1343.1
-28850,5882.4,595.08
-28850,6132.4,843.08
-28850,6382.4,1092.1
-28850,6632.4,1343.1
-28850,6882.4,1595.1
-28850,5132.4,175.92
-28850,5382.4,91.079
-28850,5632.4,343.08
-28850,5132.4,177.92
-28850,5382.4,91.079
-28850,5632.4,342.08
-28850,5882.4,594.08
-28850,5132.4,181.92
-28850,5382.4,94.079
-28850,5632.4,343.08
-28850,5882.4,594.08
-28850,6132.4,846.08
-28850,5132.4,174.92
-28850,5382.4,90.079
-28850,5632.4,342.08
-28850,5132.4,174.92
-28850,5382.4,88.079
-28850,5632.4,339.08
-28850,5882.4,591.08
-28850,5132.4,177.92
-28850,5382.4,90.079
-28850,5632.4,339.08
-28850,5882.4,590.08
-28850,6132.4,842.08
-28850,5382.4,94.079
-28850,5632.4,342.08
-28850,5882.4,591.08
-28850,6132.4,842.08
-28850,6382.4,1094.1
-28850,5132.4,175.92
-28850,5382.4,91.079
-28850,5632.4,343.08
-28850,5132.4,174.92
-28850,5382.4,88.079
-28850,5632.4,339.08
-28850,5882.4,591.08
-28850,5132.4,175.92
-28850,5382.4,88.079
-28850,5632.4,337.08
-28850,5882.4,588.08
-28850,6132.4,840.08
-28850,5382.4,91.079
-28850,5632.4,339.08
-28850,5882.4,588.08
-28850,6132.4,839.08
-28850,6382.4,1091.1
-28850,5632.4,343.08
-28850,5882.4,591.08
-28850,6132.4,840.08
-28850,6382.4,1091.1
-28850,6632.4,1343.1
-28850,5132.4,177.92
-28850,5382.4,91.079
-28850,5632.4,342.08
-28850,5882.4,594.08
-28850,5132.4,177.92
-28850,5382.4,90.079
-28850,5632.4,339.08
-28850,5882.4,590.08
-28850,6132.4,842.08
-28850,5382.4,91.079
-28850,5632.4,339.08
-28850,5882.4,588.08
-28850,6132.4,839.08
-28850,6382.4,1091.1
-28850,5632.4,342.08
-28850,5882.4,590.08
-28850,6132.4,839.08
-28850,6382.4,1090.1
-28850,6632.4,1342.1
-28850,5882.4,594.08
-28850,6132.4,842.08
-28850,6382.4,1091.1
-28850,6632.4,1342.1
-28850,6882.4,1594.1
-28850,5132.4,181.92
-28850,5382.4,94.079
-28850,5632.4,343.08
-28850,5882.4,594.08
-28850,6132.4,846.08
-28850,5382.4,94.079
-28850,5632.4,342.08
-28850,5882.4,591.08
-28850,6132.4,842.08
-28850,6382.4,1094.1
-28850,5632.4,343.08
-28850,5882.4,591.08
-28850,6132.4,840.08
-28850,6382.4,1091.1
-28850,6632.4,1343.1
-28850,5882.4,594.08
-28850,6132.4,842.08
-28850,6382.4,1091.1
-28850,6632.4,1342.1
-28850,6882.4,1594.1
-28850,6132.4,846.08
-28850,6382.4,1094.1
-28850,6632.4,1343.1
-28850,6882.4,1594.1
-28850,7132.4,1846.1
-28850,5132.4,178.92
-28850,5382.4,94.079
-28850,5632.4,346.08
-28850,5132.4,178.92
-28850,5382.4,92.079
-28850,5632.4,343.08
-28850,5882.4,595.08
-28850,5132.4,181.92
-28850,5382.4,94.079
-28850,5632.4,343.08
-28850,5882.4,594.08
-28850,6132.4,846.08
-28850,5382.4,98.079
-28850,5632.4,346.08
-28850,5882.4,595.08
-28850,6132.4,846.08
-28850,6382.4,1098.1
-28850,5132.4,178.92
-28850,5382.4,94.079
-28850,5632.4,346.08
-28850,5132.4,177.92
-28850,5382.4,91.079
-28850,5632.4,342.08
-28850,5882.4,594.08
-28850,5132.4,178.92
-28850,5382.4,91.079
-28850,5632.4,340.08
-28850,5882.4,591.08
-28850,6132.4,843.08
-28850,5382.4,94.079
-28850,5632.4,342.08
-28850,5882.4,591.08
-28850,6132.4,842.08
-28850,6382.4,1094.1
-28850,5632.4,346.08
-28850,5882.4,594.08
-28850,6132.4,843.08
-28850,6382.4,1094.1
-28850,6632.4,1346.1
-28850,5132.4,178.92
-28850,5382.4,92.079
-28850,5632.4,343.08
-28850,5882.4,595.08
-28850,5132.4,178.92
-28850,5382.4,91.079
-28850,5632.4,340.08
-28850,5882.4,591.08
-28850,6132.4,843.08
-28850,5382.4,92.079
-28850,5632.4,340.08
-28850,5882.4,589.08
-28850,6132.4,840.08
-28850,6382.4,1092.1
-28850,5632.4,343.08
-28850,5882.4,591.08
-28850,6132.4,840.08
-28850,6382.4,1091.1
-28850,6632.4,1343.1
-28850,5882.4,595.08
-28850,6132.4,843.08
-28850,6382.4,1092.1
-28850,6632.4,1343.1
-28850,6882.4,1595.1
-28850,5132.4,181.92
-28850,5382.4,94.079
-28850,5632.4,343.08
-28850,5882.4,594.08
-28850,6132.4,846.08
-28850,5382.4,94.079
-28850,5632.4,342.08
-28850,5882.4,591.08
-28850,6132.4,842.08
-28850,6382.4,1094.1
-28850,5632.4,343.08
-28850,5882.4,591.08
-28850,6132.4,840.08
-28850,6382.4,1091.1
-28850,6632.4,1343.1
-28850,5882.4,594.08
-28850,6132.4,842.08
-28850,6382.4,1091.1
-28850,6632.4,1342.1
-28850,6882.4,1594.1
-28850,6132.4,846.08
-28850,6382.4,1094.1
-28850,6632.4,1343.1
-28850,6882.4,1594.1
-28850,7132.4,1846.1
-28850,5382.4,98.079
-28850,5632.4,346.08
-28850,5882.4,595.08
-28850,6132.4,846.08
-28850,6382.4,1098.1
-28850,5632.4,346.08
-28850,5882.4,594.08
-28850,6132.4,843.08
-28850,6382.4,1094.1
-28850,6632.4,1346.1
-28850,5882.4,595.08
-28850,6132.4,843.08
-28850,6382.4,1092.1
-28850,6632.4,1343.1
-28850,6882.4,1595.1
-28850,6132.4,846.08
-28850,6382.4,1094.1
-28850,6632.4,1343.1
-28850,6882.4,1594.1
-28850,7132.4,1846.1
-28850,6382.4,1098.1
-28850,6632.4,1346.1
-28850,6882.4,1595.1
-28850,7132.4,1846.1
-28850,7382.4,2098.1
-28850,5132.4,173.92
-28850,5382.4,89.079
-28850,5632.4,341.08
-28850,5132.4,175.92
-28850,5382.4,89.079
-28850,5632.4,340.08
-28850,5882.4,592.08
-28850,5132.4,179.92
-28850,5382.4,92.079
-28850,5632.4,341.08
-28850,5882.4,592.08
-28850,6132.4,844.08
-28850,5132.4,175.92
-28850,5382.4,91.079
-28850,5632.4,343.08
-28850,5132.4,175.92
-28850,5382.4,89.079
-28850,5632.4,340.08
-28850,5882.4,592.08
-28850,5132.4,178.92
-28850,5382.4,91.079
-28850,5632.4,340.08
-28850,5882.4,591.08
-28850,6132.4,843.08
-28850,5382.4,95.079
-28850,5632.4,343.08
-28850,5882.4,592.08
-28850,6132.4,843.08
-28850,6382.4,1095.1
-28850,5132.4,179.92
-28850,5382.4,95.079
-28850,5632.4,347.08
-28850,5132.4,178.92
-28850,5382.4,92.079
-28850,5632.4,343.08
-28850,5882.4,595.08
-28850,5132.4,179.92
-28850,5382.4,92.079
-28850,5632.4,341.08
-28850,5882.4,592.08
-28850,6132.4,844.08
-28850,5382.4,95.079
-28850,5632.4,343.08
-28850,5882.4,592.08
-28850,6132.4,843.08
-28850,6382.4,1095.1
-28850,5632.4,347.08
-28850,5882.4,595.08
-28850,6132.4,844.08
-28850,6382.4,1095.1
-28850,6632.4,1347.1
-28850,5132.4,172.92
-28850,5382.4,88.079
-28850,5632.4,340.08
-28850,5132.4,174.92
-28850,5382.4,88.079
-28850,5632.4,339.08
-28850,5882.4,591.08
-28850,5132.4,178.92
-28850,5382.4,91.079
-28850,5632.4,340.08
-28850,5882.4,591.08
-28850,6132.4,843.08
-28850,5132.4,172.92
-28850,5382.4,88.079
-28850,5632.4,340.08
-28850,5132.4,172.92
-28850,5382.4,86.079
-28850,5632.4,337.08
-28850,5882.4,589.08
-28850,5132.4,175.92
-28850,5382.4,88.079
-28850,5632.4,337.08
-28850,5882.4,588.08
-28850,6132.4,840.08
-28850,5382.4,92.079
-28850,5632.4,340.08
-28850,5882.4,589.08
-28850,6132.4,840.08
-28850,6382.4,1092.1
-28850,5132.4,175.92
-28850,5382.4,91.079
-28850,5632.4,343.08
-28850,5132.4,174.92
-28850,5382.4,88.079
-28850,5632.4,339.08
-28850,5882.4,591.08
-28850,5132.4,175.92
-28850,5382.4,88.079
-28850,5632.4,337.08
-28850,5882.4,588.08
-28850,6132.4,840.08
-28850,5382.4,91.079
-28850,5632.4,339.08
-28850,5882.4,588.08
-28850,6132.4,839.08
-28850,6382.4,1091.1
-28850,5632.4,343.08
-28850,5882.4,591.08
-28850,6132.4,840.08
-28850,6382.4,1091.1
-28850,6632.4,1343.1
-28850,5132.4,178.92
-28850,5382.4,92.079
-28850,5632.4,343.08
-28850,5882.4,595.08
-28850,5132.4,178.92
-28850,5382.4,91.079
-28850,5632.4,340.08
-28850,5882.4,591.08
-28850,6132.4,843.08
-28850,5382.4,92.079
-28850,5632.4,340.08
-28850,5882.4,589.08
-28850,6132.4,840.08
-28850,6382.4,1092.1
-28850,5632.4,343.08
-28850,5882.4,591.08
-28850,6132.4,840.08
-28850,6382.4,1091.1
-28850,6632.4,1343.1
-28850,5882.4,595.08
-28850,6132.4,843.08
-28850,6382.4,1092.1
-28850,6632.4,1343.1
-28850,6882.4,1595.1
-28850,5132.4,173.92
-28850,5382.4,89.079
-28850,5632.4,341.08
-28850,5132.4,175.92
-28850,5382.4,89.079
-28850,5632.4,340.08
-28850,5882.4,592.08
-28850,5132.4,179.92
-28850,5382.4,92.079
-28850,5632.4,341.08
-28850,5882.4,592.08
-28850,6132.4,844.08
-28850,5132.4,172.92
-28850,5382.4,88.079
-28850,5632.4,340.08
-28850,5132.4,172.92
-28850,5382.4,86.079
-28850,5632.4,337.08
-28850,5882.4,589.08
-28850,5132.4,175.92
-28850,5382.4,88.079
-28850,5632.4,337.08
-28850,5882.4,588.08
-28850,6132.4,840.08
-28850,5382.4,92.079
-28850,5632.4,340.08
-28850,5882.4,589.08
-28850,6132.4,840.08
-28850,6382.4,1092.1
-28850,5132.4,173.92
-28850,5382.4,89.079
-28850,5632.4,341.08
-28850,5132.4,172.92
-28850,5382.4,86.079
-28850,5632.4,337.08
-28850,5882.4,589.08
-28850,5132.4,173.92
-28850,5382.4,86.079
-28850,5632.4,335.08
-28850,5882.4,586.08
-28850,6132.4,838.08
-28850,5382.4,89.079
-28850,5632.4,337.08
-28850,5882.4,586.08
-28850,6132.4,837.08
-28850,6382.4,1089.1
-28850,5632.4,341.08
-28850,5882.4,589.08
-28850,6132.4,838.08
-28850,6382.4,1089.1
-28850,6632.4,1341.1
-28850,5132.4,175.92
-28850,5382.4,89.079
-28850,5632.4,340.08
-28850,5882.4,592.08
-28850,5132.4,175.92
-28850,5382.4,88.079
-28850,5632.4,337.08
-28850,5882.4,588.08
-28850,6132.4,840.08
-28850,5382.4,89.079
-28850,5632.4,337.08
-28850,5882.4,586.08
-28850,6132.4,837.08
-28850,6382.4,1089.1
-28850,5632.4,340.08
-28850,5882.4,588.08
-28850,6132.4,837.08
-28850,6382.4,1088.1
-28850,6632.4,1340.1
-28850,5882.4,592.08
-28850,6132.4,840.08
-28850,6382.4,1089.1
-28850,6632.4,1340.1
-28850,6882.4,1592.1
-28850,5132.4,179.92
-28850,5382.4,92.079
-28850,5632.4,341.08
-28850,5882.4,592.08
-28850,6132.4,844.08
-28850,5382.4,92.079
-28850,5632.4,340.08
-28850,5882.4,589.08
-28850,6132.4,840.08
-28850,6382.4,1092.1
-28850,5632.4,341.08
-28850,5882.4,589.08
-28850,6132.4,838.08
-28850,6382.4,1089.1
-28850,6632.4,1341.1
-28850,5882.4,592.08
-28850,6132.4,840.08
-28850,6382.4,1089.1
-28850,6632.4,1340.1
-28850,6882.4,1592.1
-28850,6132.4,844.08
-28850,6382.4,1092.1
-28850,6632.4,1341.1
-28850,6882.4,1592.1
-28850,7132.4,1844.1
-28850,5132.4,175.92
-28850,5382.4,91.079
-28850,5632.4,343.08
-28850,5132.4,175.92
-28850,5382.4,89.079
-28850,5632.4,340.08
-28850,5882.4,592.08
-28850,5132.4,178.92
-28850,5382.4,91.079
-28850,5632.4,340.08
-28850,5882.4,591.08
-28850,6132.4,843.08
-28850,5382.4,95.079
-28850,5632.4,343.08
-28850,5882.4,592.08
-28850,6132.4,843.08
-28850,6382.4,1095.1
-28850,5132.4,175.92
-28850,5382.4,91.079
-28850,5632.4,343.08
-28850,5132.4,174.92
-28850,5382.4,88.079
-28850,5632.4,339.08
-28850,5882.4,591.08
-28850,5132.4,175.92
-28850,5382.4,88.079
-28850,5632.4,337.08
-28850,5882.4,588.08
-28850,6132.4,840.08
-28850,5382.4,91.079
-28850,5632.4,339.08
-28850,5882.4,588.08
-28850,6132.4,839.08
-28850,6382.4,1091.1
-28850,5632.4,343.08
-28850,5882.4,591.08
-28850,6132.4,840.08
-28850,6382.4,1091.1
-28850,6632.4,1343.1
-28850,5132.4,175.92
-28850,5382.4,89.079
-28850,5632.4,340.08
-28850,5882.4,592.08
-28850,5132.4,175.92
-28850,5382.4,88.079
-28850,5632.4,337.08
-28850,5882.4,588.08
-28850,6132.4,840.08
-28850,5382.4,89.079
-28850,5632.4,337.08
-28850,5882.4,586.08
-28850,6132.4,837.08
-28850,6382.4,1089.1
-28850,5632.4,340.08
-28850,5882.4,588.08
-28850,6132.4,837.08
-28850,6382.4,1088.1
-28850,6632.4,1340.1
-28850,5882.4,592.08
-28850,6132.4,840.08
-28850,6382.4,1089.1
-28850,6632.4,1340.1
-28850,6882.4,1592.1
-28850,5132.4,178.92
-28850,5382.4,91.079
-28850,5632.4,340.08
-28850,5882.4,591.08
-28850,6132.4,843.08
-28850,5382.4,91.079
-28850,5632.4,339.08
-28850,5882.4,588.08
-28850,6132.4,839.08
-28850,6382.4,1091.1
-28850,5632.4,340.08
-28850,5882.4,588.08
-28850,6132.4,837.08
-28850,6382.4,1088.1
-28850,6632.4,1340.1
-28850,5882.4,591.08
-28850,6132.4,839.08
-28850,6382.4,1088.1
-28850,6632.4,1339.1
-28850,6882.4,1591.1
-28850,6132.4,843.08
-28850,6382.4,1091.1
-28850,6632.4,1340.1
-28850,6882.4,1591.1
-28850,7132.4,1843.1
-28850,5382.4,95.079
-28850,5632.4,343.08
-28850,5882.4,592.08
-28850,6132.4,843.08
-28850,6382.4,1095.1
-28850,5632.4,343.08
-28850,5882.4,591.08
-28850,6132.4,840.08
-28850,6382.4,1091.1
-28850,6632.4,1343.1
-28850,5882.4,592.08
-28850,6132.4,840.08
-28850,6382.4,1089.1
-28850,6632.4,1340.1
-28850,6882.4,1592.1
-28850,6132.4,843.08
-28850,6382.4,1091.1
-28850,6632.4,1340.1
-28850,6882.4,1591.1
-28850,7132.4,1843.1
-28850,6382.4,1095.1
-28850,6632.4,1343.1
-28850,6882.4,1592.1
-28850,7132.4,1843.1
-28850,7382.4,2095.1
-28850,5132.4,179.92
-28850,5382.4,95.079
-28850,5632.4,347.08
-28850,5132.4,178.92
-28850,5382.4,92.079
-28850,5632.4,343.08
-28850,5882.4,595.08
-28850,5132.4,179.92
-28850,5382.4,92.079
-28850,5632.4,341.08
-28850,5882.4,592.08
-28850,6132.4,844.08
-28850,5382.4,95.079
-28850,5632.4,343.08
-28850,5882.4,592.08
-28850,6132.4,843.08
-28850,6382.4,1095.1
-28850,5632.4,347.08
-28850,5882.4,595.08
-28850,6132.4,844.08
-28850,6382.4,1095.1
-28850,6632.4,1347.1
-28850,5132.4,178.92
-28850,5382.4,92.079
-28850,5632.4,343.08
-28850,5882.4,595.08
-28850,5132.4,178.92
-28850,5382.4,91.079
-28850,5632.4,340.08
-28850,5882.4,591.08
-28850,6132.4,843.08
-28850,5382.4,92.079
-28850,5632.4,340.08
-28850,5882.4,589.08
-28850,6132.4,840.08
-28850,6382.4,1092.1
-28850,5632.4,343.08
-28850,5882.4,591.08
-28850,6132.4,840.08
-28850,6382.4,1091.1
-28850,6632.4,1343.1
-28850,5882.4,595.08
-28850,6132.4,843.08
-28850,6382.4,1092.1
-28850,6632.4,1343.1
-28850,6882.4,1595.1
-28850,5132.4,179.92
-28850,5382.4,92.079
-28850,5632.4,341.08
-28850,5882.4,592.08
-28850,6132.4,844.08
-28850,5382.4,92.079
-28850,5632.4,340.08
-28850,5882.4,589.08
-28850,6132.4,840.08
-28850,6382.4,1092.1
-28850,5632.4,341.08
-28850,5882.4,589.08
-28850,6132.4,838.08
-28850,6382.4,1089.1
-28850,6632.4,1341.1
-28850,5882.4,592.08
-28850,6132.4,840.08
-28850,6382.4,1089.1
-28850,6632.4,1340.1
-28850,6882.4,1592.1
-28850,6132.4,844.08
-28850,6382.4,1092.1
-28850,6632.4,1341.1
-28850,6882.4,1592.1
-28850,7132.4,1844.1
-28850,5382.4,95.079
-28850,5632.4,343.08
-28850,5882.4,592.08
-28850,6132.4,843.08
-28850,6382.4,1095.1
-28850,5632.4,343.08
-28850,5882.4,591.08
-28850,6132.4,840.08
-28850,6382.4,1091.1
-28850,6632.4,1343.1
-28850,5882.4,592.08
-28850,6132.4,840.08
-28850,6382.4,1089.1
-28850,6632.4,1340.1
-28850,6882.4,1592.1
-28850,6132.4,843.08
-28850,6382.4,1091.1
-28850,6632.4,1340.1
-28850,6882.4,1591.1
-28850,7132.4,1843.1
-28850,6382.4,1095.1
-28850,6632.4,1343.1
-28850,6882.4,1592.1
-28850,7132.4,1843.1
-28850,7382.4,2095.1
-28850,5632.4,347.08
-28850,5882.4,595.08
-28850,6132.4,844.08
-28850,6382.4,1095.1
-28850,6632.4,1347.1
-28850,5882.4,595.08
-28850,6132.4,843.08
-28850,6382.4,1092.1
-28850,6632.4,1343.1
-28850,6882.4,1595.1
-28850,6132.4,844.08
-28850,6382.4,1092.1
-28850,6632.4,1341.1
-28850,6882.4,1592.1
-28850,7132.4,1844.1
-28850,6382.4,1095.1
-28850,6632.4,1343.1
-28850,6882.4,1592.1
-28850,7132.4,1843.1
-28850,7382.4,2095.1
-28850,6632.4,1347.1
-28850,6882.4,1595.1
-28850,7132.4,1844.1
-28850,7382.4,2095.1
-28850,7632.4,2347.1
-28850,5132.4,175.92
-28850,5382.4,91.079
-28850,5632.4,343.08
-28850,5132.4,177.92
-28850,5382.4,91.079
-28850,5632.4,342.08
-28850,5882.4,594.08
-28850,5132.4,181.92
-28850,5382.4,94.079
-28850,5632.4,343.08
-28850,5882.4,594.08
-28850,6132.4,846.08
-28850,5132.4,175.92
-28850,5382.4,91.079
-28850,5632.4,343.08
-28850,5132.4,175.92
-28850,5382.4,89.079
-28850,5632.4,340.08
-28850,5882.4,592.08
-28850,5132.4,178.92
-28850,5382.4,91.079
-28850,5632.4,340.08
-28850,5882.4,591.08
-28850,6132.4,843.08
-28850,5382.4,95.079
-28850,5632.4,343.08
-28850,5882.4,592.08
-28850,6132.4,843.08
-28850,6382.4,1095.1
-28850,5132.4,178.92
-28850,5382.4,94.079
-28850,5632.4,346.08
-28850,5132.4,177.92
-28850,5382.4,91.079
-28850,5632.4,342.08
-28850,5882.4,594.08
-28850,5132.4,178.92
-28850,5382.4,91.079
-28850,5632.4,340.08
-28850,5882.4,591.08
-28850,6132.4,843.08
-28850,5382.4,94.079
-28850,5632.4,342.08
-28850,5882.4,591.08
-28850,6132.4,842.08
-28850,6382.4,1094.1
-28850,5632.4,346.08
-28850,5882.4,594.08
-28850,6132.4,843.08
-28850,6382.4,1094.1
-28850,6632.4,1346.1
-28850,5132.4,181.92
-28850,5382.4,95.079
-28850,5632.4,346.08
-28850,5882.4,598.08
-28850,5132.4,181.92
-28850,5382.4,94.079
-28850,5632.4,343.08
-28850,5882.4,594.08
-28850,6132.4,846.08
-28850,5382.4,95.079
-28850,5632.4,343.08
-28850,5882.4,592.08
-28850,6132.4,843.08
-28850,6382.4,1095.1
-28850,5632.4,346.08
-28850,5882.4,594.08
-28850,6132.4,843.08
-28850,6382.4,1094.1
-28850,6632.4,1346.1
-28850,5882.4,598.08
-28850,6132.4,846.08
-28850,6382.4,1095.1
-28850,6632.4,1346.1
-28850,6882.4,1598.1
-28850,5132.4,175.92
-28850,5382.4,91.079
-28850,5632.4,343.08
-28850,5132.4,177.92
-28850,5382.4,91.079
-28850,5632.4,342.08
-28850,5882.4,594.08
-28850,5132.4,181.92
-28850,5382.4,94.079
-28850,5632.4,343.08
-28850,5882.4,594.08
-28850,6132.4,846.08
-28850,5132.4,174.92
-28850,5382.4,90.079
-28850,5632.4,342.08
-28850,5132.4,174.92
-28850,5382.4,88.079
-28850,5632.4,339.08
-28850,5882.4,591.08
-28850,5132.4,177.92
-28850,5382.4,90.079
-28850,5632.4,339.08
-28850,5882.4,590.08
-28850,6132.4,842.08
-28850,5382.4,94.079
-28850,5632.4,342.08
-28850,5882.4,591.08
-28850,6132.4,842.08
-28850,6382.4,1094.1
-28850,5132.4,175.92
-28850,5382.4,91.079
-28850,5632.4,343.08
-28850,5132.4,174.92
-28850,5382.4,88.079
-28850,5632.4,339.08
-28850,5882.4,591.08
-28850,5132.4,175.92
-28850,5382.4,88.079
-28850,5632.4,337.08
-28850,5882.4,588.08
-28850,6132.4,840.08
-28850,5382.4,91.079
-28850,5632.4,339.08
-28850,5882.4,588.08
-28850,6132.4,839.08
-28850,6382.4,1091.1
-28850,5632.4,343.08
-28850,5882.4,591.08
-28850,6132.4,840.08
-28850,6382.4,1091.1
-28850,6632.4,1343.1
-28850,5132.4,177.92
-28850,5382.4,91.079
-28850,5632.4,342.08
-28850,5882.4,594.08
-28850,5132.4,177.92
-28850,5382.4,90.079
-28850,5632.4,339.08
-28850,5882.4,590.08
-28850,6132.4,842.08
-28850,5382.4,91.079
-28850,5632.4,339.08
-28850,5882.4,588.08
-28850,6132.4,839.08
-28850,6382.4,1091.1
-28850,5632.4,342.08
-28850,5882.4,590.08
-28850,6132.4,839.08
-28850,6382.4,1090.1
-28850,6632.4,1342.1
-28850,5882.4,594.08
-28850,6132.4,842.08
-28850,6382.4,1091.1
-28850,6632.4,1342.1
-28850,6882.4,1594.1
-28850,5132.4,181.92
-28850,5382.4,94.079
-28850,5632.4,343.08
-28850,5882.4,594.08
-28850,6132.4,846.08
-28850,5382.4,94.079
-28850,5632.4,342.08
-28850,5882.4,591.08
-28850,6132.4,842.08
-28850,6382.4,1094.1
-28850,5632.4,343.08
-28850,5882.4,591.08
-28850,6132.4,840.08
-28850,6382.4,1091.1
-28850,6632.4,1343.1
-28850,5882.4,594.08
-28850,6132.4,842.08
-28850,6382.4,1091.1
-28850,6632.4,1342.1
-28850,6882.4,1594.1
-28850,6132.4,846.08
-28850,6382.4,1094.1
-28850,6632.4,1343.1
-28850,6882.4,1594.1
-28850,7132.4,1846.1
-28850,5132.4,175.92
-28850,5382.4,91.079
-28850,5632.4,343.08
-28850,5132.4,175.92
-28850,5382.4,89.079
-28850,5632.4,340.08
-28850,5882.4,592.08
-28850,5132.4,178.92
-28850,5382.4,91.079
-28850,5632.4,340.08
-28850,5882.4,591.08
-28850,6132.4,843.08
-28850,5382.4,95.079
-28850,5632.4,343.08
-28850,5882.4,592.08
-28850,6132.4,843.08
-28850,6382.4,1095.1
-28850,5132.4,175.92
-28850,5382.4,91.079
-28850,5632.4,343.08
-28850,5132.4,174.92
-28850,5382.4,88.079
-28850,5632.4,339.08
-28850,5882.4,591.08
-28850,5132.4,175.92
-28850,5382.4,88.079
-28850,5632.4,337.08
-28850,5882.4,588.08
-28850,6132.4,840.08
-28850,5382.4,91.079
-28850,5632.4,339.08
-28850,5882.4,588.08
-28850,6132.4,839.08
-28850,6382.4,1091.1
-28850,5632.4,343.08
-28850,5882.4,591.08
-28850,6132.4,840.08
-28850,6382.4,1091.1
-28850,6632.4,1343.1
-28850,5132.4,175.92
-28850,5382.4,89.079
-28850,5632.4,340.08
-28850,5882.4,592.08
-28850,5132.4,175.92
-28850,5382.4,88.079
-28850,5632.4,337.08
-28850,5882.4,588.08
-28850,6132.4,840.08
-28850,5382.4,89.079
-28850,5632.4,337.08
-28850,5882.4,586.08
-28850,6132.4,837.08
-28850,6382.4,1089.1
-28850,5632.4,340.08
-28850,5882.4,588.08
-28850,6132.4,837.08
-28850,6382.4,1088.1
-28850,6632.4,1340.1
-28850,5882.4,592.08
-28850,6132.4,840.08
-28850,6382.4,1089.1
-28850,6632.4,1340.1
-28850,6882.4,1592.1
-28850,5132.4,178.92
-28850,5382.4,91.079
-28850,5632.4,340.08
-28850,5882.4,591.08
-28850,6132.4,843.08
-28850,5382.4,91.079
-28850,5632.4,339.08
-28850,5882.4,588.08
-28850,6132.4,839.08
-28850,6382.4,1091.1
-28850,5632.4,340.08
-28850,5882.4,588.08
-28850,6132.4,837.08
-28850,6382.4,1088.1
-28850,6632.4,1340.1
-28850,5882.4,591.08
-28850,6132.4,839.08
-28850,6382.4,1088.1
-28850,6632.4,1339.1
-28850,6882.4,1591.1
-28850,6132.4,843.08
-28850,6382.4,1091.1
-28850,6632.4,1340.1
-28850,6882.4,1591.1
-28850,7132.4,1843.1
-28850,5382.4,95.079
-28850,5632.4,343.08
-28850,5882.4,592.08
-28850,6132.4,843.08
-28850,6382.4,1095.1
-28850,5632.4,343.08
-28850,5882.4,591.08
-28850,6132.4,840.08
-28850,6382.4,1091.1
-28850,6632.4,1343.1
-28850,5882.4,592.08
-28850,6132.4,840.08
-28850,6382.4,1089.1
-28850,6632.4,1340.1
-28850,6882.4,1592.1
-28850,6132.4,843.08
-28850,6382.4,1091.1
-28850,6632.4,1340.1
-28850,6882.4,1591.1
-28850,7132.4,1843.1
-28850,6382.4,1095.1
-28850,6632.4,1343.1
-28850,6882.4,1592.1
-28850,7132.4,1843.1
-28850,7382.4,2095.1
-28850,5132.4,178.92
-28850,5382.4,94.079
-28850,5632.4,346.08
-28850,5132.4,177.92
-28850,5382.4,91.079
-28850,5632.4,342.08
-28850,5882.4,594.08
-28850,5132.4,178.92
-28850,5382.4,91.079
-28850,5632.4,340.08
-28850,5882.4,591.08
-28850,6132.4,843.08
-28850,5382.4,94.079
-28850,5632.4,342.08
-28850,5882.4,591.08
-28850,6132.4,842.08
-28850,6382.4,1094.1
-28850,5632.4,346.08
-28850,5882.4,594.08
-28850,6132.4,843.08
-28850,6382.4,1094.1
-28850,6632.4,1346.1
-28850,5132.4,177.92
-28850,5382.4,91.079
-28850,5632.4,342.08
-28850,5882.4,594.08
-28850,5132.4,177.92
-28850,5382.4,90.079
-28850,5632.4,339.08
-28850,5882.4,590.08
-28850,6132.4,842.08
-28850,5382.4,91.079
-28850,5632.4,339.08
-28850,5882.4,588.08
-28850,6132.4,839.08
-28850,6382.4,1091.1
-28850,5632.4,342.08
-28850,5882.4,590.08
-28850,6132.4,839.08
-28850,6382.4,1090.1
-28850,6632.4,1342.1
-28850,5882.4,594.08
-28850,6132.4,842.08
-28850,6382.4,1091.1
-28850,6632.4,1342.1
-28850,6882.4,1594.1
-28850,5132.4,178.92
-28850,5382.4,91.079
-28850,5632.4,340.08
-28850,5882.4,591.08
-28850,6132.4,843.08
-28850,5382.4,91.079
-28850,5632.4,339.08
-28850,5882.4,588.08
-28850,6132.4,839.08
-28850,6382.4,1091.1
-28850,5632.4,340.08
-28850,5882.4,588.08
-28850,6132.4,837.08
-28850,6382.4,1088.1
-28850,6632.4,1340.1
-28850,5882.4,591.08
-28850,6132.4,839.08
-28850,6382.4,1088.1
-28850,6632.4,1339.1
-28850,6882.4,1591.1
-28850,6132.4,843.08
-28850,6382.4,1091.1
-28850,6632.4,1340.1
-28850,6882.4,1591.1
-28850,7132.4,1843.1
-28850,5382.4,94.079
-28850,5632.4,342.08
-28850,5882.4,591.08
-28850,6132.4,842.08
-28850,6382.4,1094.1
-28850,5632.4,342.08
-28850,5882.4,590.08
-28850,6132.4,839.08
-28850,6382.4,1090.1
-28850,6632.4,1342.1
-28850,5882.4,591.08
-28850,6132.4,839.08
-28850,6382.4,1088.1
-28850,6632.4,1339.1
-28850,6882.4,1591.1
-28850,6132.4,842.08
-28850,6382.4,1090.1
-28850,6632.4,1339.1
-28850,6882.4,1590.1
-28850,7132.4,1842.1
-28850,6382.4,1094.1
-28850,6632.4,1342.1
-28850,6882.4,1591.1
-28850,7132.4,1842.1
-28850,7382.4,2094.1
-28850,5632.4,346.08
-28850,5882.4,594.08
-28850,6132.4,843.08
-28850,6382.4,1094.1
-28850,6632.4,1346.1
-28850,5882.4,594.08
-28850,6132.4,842.08
-28850,6382.4,1091.1
-28850,6632.4,1342.1
-28850,6882.4,1594.1
-28850,6132.4,843.08
-28850,6382.4,1091.1
-28850,6632.4,1340.1
-28850,6882.4,1591.1
-28850,7132.4,1843.1
-28850,6382.4,1094.1
-28850,6632.4,1342.1
-28850,6882.4,1591.1
-28850,7132.4,1842.1
-28850,7382.4,2094.1
-28850,6632.4,1346.1
-28850,6882.4,1594.1
-28850,7132.4,1843.1
-28850,7382.4,2094.1
-28850,7632.4,2346.1
-28850,5132.4,181.92
-28850,5382.4,95.079
-28850,5632.4,346.08
-28850,5882.4,598.08
-28850,5132.4,181.92
-28850,5382.4,94.079
-28850,5632.4,343.08
-28850,5882.4,594.08
-28850,6132.4,846.08
-28850,5382.4,95.079
-28850,5632.4,343.08
-28850,5882.4,592.08
-28850,6132.4,843.08
-28850,6382.4,1095.1
-28850,5632.4,346.08
-28850,5882.4,594.08
-28850,6132.4,843.08
-28850,6382.4,1094.1
-28850,6632.4,1346.1
-28850,5882.4,598.08
-28850,6132.4,846.08
-28850,6382.4,1095.1
-28850,6632.4,1346.1
-28850,6882.4,1598.1
-28850,5132.4,181.92
-28850,5382.4,94.079
-28850,5632.4,343.08
-28850,5882.4,594.08
-28850,6132.4,846.08
-28850,5382.4,94.079
-28850,5632.4,342.08
-28850,5882.4,591.08
-28850,6132.4,842.08
-28850,6382.4,1094.1
-28850,5632.4,343.08
-28850,5882.4,591.08
-28850,6132.4,840.08
-28850,6382.4,1091.1
-28850,6632.4,1343.1
-28850,5882.4,594.08
-28850,6132.4,842.08
-28850,6382.4,1091.1
-28850,6632.4,1342.1
-28850,6882.4,1594.1
-28850,6132.4,846.08
-28850,6382.4,1094.1
-28850,6632.4,1343.1
-28850,6882.4,1594.1
-28850,7132.4,1846.1
-28850,5382.4,95.079
-28850,5632.4,343.08
-28850,5882.4,592.08
-28850,6132.4,843.08
-28850,6382.4,1095.1
-28850,5632.4,343.08
-28850,5882.4,591.08
-28850,6132.4,840.08
-28850,6382.4,1091.1
-28850,6632.4,1343.1
-28850,5882.4,592.08
-28850,6132.4,840.08
-28850,6382.4,1089.1
-28850,6632.4,1340.1
-28850,6882.4,1592.1
-28850,6132.4,843.08
-28850,6382.4,1091.1
-28850,6632.4,1340.1
-28850,6882.4,1591.1
-28850,7132.4,1843.1
-28850,6382.4,1095.1
-28850,6632.4,1343.1
-28850,6882.4,1592.1
-28850,7132.4,1843.1
-28850,7382.4,2095.1
-28850,5632.4,346.08
-28850,5882.4,594.08
-28850,6132.4,843.08
-28850,6382.4,1094.1
-28850,6632.4,1346.1
-28850,5882.4,594.08
-28850,6132.4,842.08
-28850,6382.4,1091.1
-28850,6632.4,1342.1
-28850,6882.4,1594.1
-28850,6132.4,843.08
-28850,6382.4,1091.1
-28850,6632.4,1340.1
-28850,6882.4,1591.1
-28850,7132.4,1843.1
-28850,6382.4,1094.1
-28850,6632.4,1342.1
-28850,6882.4,1591.1
-28850,7132.4,1842.1
-28850,7382.4,2094.1
-28850,6632.4,1346.1
-28850,6882.4,1594.1
-28850,7132.4,1843.1
-28850,7382.4,2094.1
-28850,7632.4,2346.1
-28850,5882.4,598.08
-28850,6132.4,846.08
-28850,6382.4,1095.1
-28850,6632.4,1346.1
-28850,6882.4,1598.1
-28850,6132.4,846.08
-28850,6382.4,1094.1
-28850,6632.4,1343.1
-28850,6882.4,1594.1
-28850,7132.4,1846.1
-28850,6382.4,1095.1
-28850,6632.4,1343.1
-28850,6882.4,1592.1
-28850,7132.4,1843.1
-28850,7382.4,2095.1
-28850,6632.4,1346.1
-28850,6882.4,1594.1
-28850,7132.4,1843.1
-28850,7382.4,2094.1
-28850,7632.4,2346.1
-28850,6882.4,1598.1
-28850,7132.4,1846.1
-28850,7382.4,2095.1
-28850,7632.4,2346.1
-28850,7882.4,2598.1
-28850,5132.4,179.92
-28850,5382.4,95.079
-28850,5632.4,347.08
-28850,5132.4,181.92
-28850,5382.4,95.079
-28850,5632.4,346.08
-28850,5882.4,598.08
-28850,5132.4,185.92
-28850,5382.4,98.079
-28850,5632.4,347.08
-28850,5882.4,598.08
-28850,6132.4,850.08
-28850,5132.4,178.92
-28850,5382.4,94.079
-28850,5632.4,346.08
-28850,5132.4,178.92
-28850,5382.4,92.079
-28850,5632.4,343.08
-28850,5882.4,595.08
-28850,5132.4,181.92
-28850,5382.4,94.079
-28850,5632.4,343.08
-28850,5882.4,594.08
-28850,6132.4,846.08
-28850,5382.4,98.079
-28850,5632.4,346.08
-28850,5882.4,595.08
-28850,6132.4,846.08
-28850,6382.4,1098.1
-28850,5132.4,179.92
-28850,5382.4,95.079
-28850,5632.4,347.08
-28850,5132.4,178.92
-28850,5382.4,92.079
-28850,5632.4,343.08
-28850,5882.4,595.08
-28850,5132.4,179.92
-28850,5382.4,92.079
-28850,5632.4,341.08
-28850,5882.4,592.08
-28850,6132.4,844.08
-28850,5382.4,95.079
-28850,5632.4,343.08
-28850,5882.4,592.08
-28850,6132.4,843.08
-28850,6382.4,1095.1
-28850,5632.4,347.08
-28850,5882.4,595.08
-28850,6132.4,844.08
-28850,6382.4,1095.1
-28850,6632.4,1347.1
-28850,5132.4,181.92
-28850,5382.4,95.079
-28850,5632.4,346.08
-28850,5882.4,598.08
-28850,5132.4,181.92
-28850,5382.4,94.079
-28850,5632.4,343.08
-28850,5882.4,594.08
-28850,6132.4,846.08
-28850,5382.4,95.079
-28850,5632.4,343.08
-28850,5882.4,592.08
-28850,6132.4,843.08
-28850,6382.4,1095.1
-28850,5632.4,346.08
-28850,5882.4,594.08
-28850,6132.4,843.08
-28850,6382.4,1094.1
-28850,6632.4,1346.1
-28850,5882.4,598.08
-28850,6132.4,846.08
-28850,6382.4,1095.1
-28850,6632.4,1346.1
-28850,6882.4,1598.1
-28850,5132.4,185.92
-28850,5382.4,98.079
-28850,5632.4,347.08
-28850,5882.4,598.08
-28850,6132.4,850.08
-28850,5382.4,98.079
-28850,5632.4,346.08
-28850,5882.4,595.08
-28850,6132.4,846.08
-28850,6382.4,1098.1
-28850,5632.4,347.08
-28850,5882.4,595.08
-28850,6132.4,844.08
-28850,6382.4,1095.1
-28850,6632.4,1347.1
-28850,5882.4,598.08
-28850,6132.4,846.08
-28850,6382.4,1095.1
-28850,6632.4,1346.1
-28850,6882.4,1598.1
-28850,6132.4,850.08
-28850,6382.4,1098.1
-28850,6632.4,1347.1
-28850,6882.4,1598.1
-28850,7132.4,1850.1
-28850,5132.4,178.92
-28850,5382.4,94.079
-28850,5632.4,346.08
-28850,5132.4,178.92
-28850,5382.4,92.079
-28850,5632.4,343.08
-28850,5882.4,595.08
-28850,5132.4,181.92
-28850,5382.4,94.079
-28850,5632.4,343.08
-28850,5882.4,594.08
-28850,6132.4,846.08
-28850,5382.4,98.079
-28850,5632.4,346.08
-28850,5882.4,595.08
-28850,6132.4,846.08
-28850,6382.4,1098.1
-28850,5132.4,178.92
-28850,5382.4,94.079
-28850,5632.4,346.08
-28850,5132.4,177.92
-28850,5382.4,91.079
-28850,5632.4,342.08
-28850,5882.4,594.08
-28850,5132.4,178.92
-28850,5382.4,91.079
-28850,5632.4,340.08
-28850,5882.4,591.08
-28850,6132.4,843.08
-28850,5382.4,94.079
-28850,5632.4,342.08
-28850,5882.4,591.08
-28850,6132.4,842.08
-28850,6382.4,1094.1
-28850,5632.4,346.08
-28850,5882.4,594.08
-28850,6132.4,843.08
-28850,6382.4,1094.1
-28850,6632.4,1346.1
-28850,5132.4,178.92
-28850,5382.4,92.079
-28850,5632.4,343.08
-28850,5882.4,595.08
-28850,5132.4,178.92
-28850,5382.4,91.079
-28850,5632.4,340.08
-28850,5882.4,591.08
-28850,6132.4,843.08
-28850,5382.4,92.079
-28850,5632.4,340.08
-28850,5882.4,589.08
-28850,6132.4,840.08
-28850,6382.4,1092.1
-28850,5632.4,343.08
-28850,5882.4,591.08
-28850,6132.4,840.08
-28850,6382.4,1091.1
-28850,6632.4,1343.1
-28850,5882.4,595.08
-28850,6132.4,843.08
-28850,6382.4,1092.1
-28850,6632.4,1343.1
-28850,6882.4,1595.1
-28850,5132.4,181.92
-28850,5382.4,94.079
-28850,5632.4,343.08
-28850,5882.4,594.08
-28850,6132.4,846.08
-28850,5382.4,94.079
-28850,5632.4,342.08
-28850,5882.4,591.08
-28850,6132.4,842.08
-28850,6382.4,1094.1
-28850,5632.4,343.08
-28850,5882.4,591.08
-28850,6132.4,840.08
-28850,6382.4,1091.1
-28850,6632.4,1343.1
-28850,5882.4,594.08
-28850,6132.4,842.08
-28850,6382.4,1091.1
-28850,6632.4,1342.1
-28850,6882.4,1594.1
-28850,6132.4,846.08
-28850,6382.4,1094.1
-28850,6632.4,1343.1
-28850,6882.4,1594.1
-28850,7132.4,1846.1
-28850,5382.4,98.079
-28850,5632.4,346.08
-28850,5882.4,595.08
-28850,6132.4,846.08
-28850,6382.4,1098.1
-28850,5632.4,346.08
-28850,5882.4,594.08
-28850,6132.4,843.08
-28850,6382.4,1094.1
-28850,6632.4,1346.1
-28850,5882.4,595.08
-28850,6132.4,843.08
-28850,6382.4,1092.1
-28850,6632.4,1343.1
-28850,6882.4,1595.1
-28850,6132.4,846.08
-28850,6382.4,1094.1
-28850,6632.4,1343.1
-28850,6882.4,1594.1
-28850,7132.4,1846.1
-28850,6382.4,1098.1
-28850,6632.4,1346.1
-28850,6882.4,1595.1
-28850,7132.4,1846.1
-28850,7382.4,2098.1
-28850,5132.4,179.92
-28850,5382.4,95.079
-28850,5632.4,347.08
-28850,5132.4,178.92
-28850,5382.4,92.079
-28850,5632.4,343.08
-28850,5882.4,595.08
-28850,5132.4,179.92
-28850,5382.4,92.079
-28850,5632.4,341.08
-28850,5882.4,592.08
-28850,6132.4,844.08
-28850,5382.4,95.079
-28850,5632.4,343.08
-28850,5882.4,592.08
-28850,6132.4,843.08
-28850,6382.4,1095.1
-28850,5632.4,347.08
-28850,5882.4,595.08
-28850,6132.4,844.08
-28850,6382.4,1095.1
-28850,6632.4,1347.1
-28850,5132.4,178.92
-28850,5382.4,92.079
-28850,5632.4,343.08
-28850,5882.4,595.08
-28850,5132.4,178.92
-28850,5382.4,91.079
-28850,5632.4,340.08
-28850,5882.4,591.08
-28850,6132.4,843.08
-28850,5382.4,92.079
-28850,5632.4,340.08
-28850,5882.4,589.08
-28850,6132.4,840.08
-28850,6382.4,1092.1
-28850,5632.4,343.08
-28850,5882.4,591.08
-28850,6132.4,840.08
-28850,6382.4,1091.1
-28850,6632.4,1343.1
-28850,5882.4,595.08
-28850,6132.4,843.08
-28850,6382.4,1092.1
-28850,6632.4,1343.1
-28850,6882.4,1595.1
-28850,5132.4,179.92
-28850,5382.4,92.079
-28850,5632.4,341.08
-28850,5882.4,592.08
-28850,6132.4,844.08
-28850,5382.4,92.079
-28850,5632.4,340.08
-28850,5882.4,589.08
-28850,6132.4,840.08
-28850,6382.4,1092.1
-28850,5632.4,341.08
-28850,5882.4,589.08
-28850,6132.4,838.08
-28850,6382.4,1089.1
-28850,6632.4,1341.1
-28850,5882.4,592.08
-28850,6132.4,840.08
-28850,6382.4,1089.1
-28850,6632.4,1340.1
-28850,6882.4,1592.1
-28850,6132.4,844.08
-28850,6382.4,1092.1
-28850,6632.4,1341.1
-28850,6882.4,1592.1
-28850,7132.4,1844.1
-28850,5382.4,95.079
-28850,5632.4,343.08
-28850,5882.4,592.08
-28850,6132.4,843.08
-28850,6382.4,1095.1
-28850,5632.4,343.08
-28850,5882.4,591.08
-28850,6132.4,840.08
-28850,6382.4,1091.1
-28850,6632.4,1343.1
-28850,5882.4,592.08
-28850,6132.4,840.08
-28850,6382.4,1089.1
-28850,6632.4,1340.1
-28850,6882.4,1592.1
-28850,6132.4,843.08
-28850,6382.4,1091.1
-28850,6632.4,1340.1
-28850,6882.4,1591.1
-28850,7132.4,1843.1
-28850,6382.4,1095.1
-28850,6632.4,1343.1
-28850,6882.4,1592.1
-28850,7132.4,1843.1
-28850,7382.4,2095.1
-28850,5632.4,347.08
-28850,5882.4,595.08
-28850,6132.4,844.08
-28850,6382.4,1095.1
-28850,6632.4,1347.1
-28850,5882.4,595.08
-28850,6132.4,843.08
-28850,6382.4,1092.1
-28850,6632.4,1343.1
-28850,6882.4,1595.1
-28850,6132.4,844.08
-28850,6382.4,1092.1
-28850,6632.4,1341.1
-28850,6882.4,1592.1
-28850,7132.4,1844.1
-28850,6382.4,1095.1
-28850,6632.4,1343.1
-28850,6882.4,1592.1
-28850,7132.4,1843.1
-28850,7382.4,2095.1
-28850,6632.4,1347.1
-28850,6882.4,1595.1
-28850,7132.4,1844.1
-28850,7382.4,2095.1
-28850,7632.4,2347.1
-28850,5132.4,181.92
-28850,5382.4,95.079
-28850,5632.4,346.08
-28850,5882.4,598.08
-28850,5132.4,181.92
-28850,5382.4,94.079
-28850,5632.4,343.08
-28850,5882.4,594.08
-28850,6132.4,846.08
-28850,5382.4,95.079
-28850,5632.4,343.08
-28850,5882.4,592.08
-28850,6132.4,843.08
-28850,6382.4,1095.1
-28850,5632.4,346.08
-28850,5882.4,594.08
-28850,6132.4,843.08
-28850,6382.4,1094.1
-28850,6632.4,1346.1
-28850,5882.4,598.08
-28850,6132.4,846.08
-28850,6382.4,1095.1
-28850,6632.4,1346.1
-28850,6882.4,1598.1
-28850,5132.4,181.92
-28850,5382.4,94.079
-28850,5632.4,343.08
-28850,5882.4,594.08
-28850,6132.4,846.08
-28850,5382.4,94.079
-28850,5632.4,342.08
-28850,5882.4,591.08
-28850,6132.4,842.08
-28850,6382.4,1094.1
-28850,5632.4,343.08
-28850,5882.4,591.08
-28850,6132.4,840.08
-28850,6382.4,1091.1
-28850,6632.4,1343.1
-28850,5882.4,594.08
-28850,6132.4,842.08
-28850,6382.4,1091.1
-28850,6632.4,1342.1
-28850,6882.4,1594.1
-28850,6132.4,846.08
-28850,6382.4,1094.1
-28850,6632.4,1343.1
-28850,6882.4,1594.1
-28850,7132.4,1846.1
-28850,5382.4,95.079
-28850,5632.4,343.08
-28850,5882.4,592.08
-28850,6132.4,843.08
-28850,6382.4,1095.1
-28850,5632.4,343.08
-28850,5882.4,591.08
-28850,6132.4,840.08
-28850,6382.4,1091.1
-28850,6632.4,1343.1
-28850,5882.4,592.08
-28850,6132.4,840.08
-28850,6382.4,1089.1
-28850,6632.4,1340.1
-28850,6882.4,1592.1
-28850,6132.4,843.08
-28850,6382.4,1091.1
-28850,6632.4,1340.1
-28850,6882.4,1591.1
-28850,7132.4,1843.1
-28850,6382.4,1095.1
-28850,6632.4,1343.1
-28850,6882.4,1592.1
-28850,7132.4,1843.1
-28850,7382.4,2095.1
-28850,5632.4,346.08
-28850,5882.4,594.08
-28850,6132.4,843.08
-28850,6382.4,1094.1
-28850,6632.4,1346.1
-28850,5882.4,594.08
-28850,6132.4,842.08
-28850,6382.4,1091.1
-28850,6632.4,1342.1
-28850,6882.4,1594.1
-28850,6132.4,843.08
-28850,6382.4,1091.1
-28850,6632.4,1340.1
-28850,6882.4,1591.1
-28850,7132.4,1843.1
-28850,6382.4,1094.1
-28850,6632.4,1342.1
-28850,6882.4,1591.1
-28850,7132.4,1842.1
-28850,7382.4,2094.1
-28850,6632.4,1346.1
-28850,6882.4,1594.1
-28850,7132.4,1843.1
-28850,7382.4,2094.1
-28850,7632.4,2346.1
-28850,5882.4,598.08
-28850,6132.4,846.08
-28850,6382.4,1095.1
-28850,6632.4,1346.1
-28850,6882.4,1598.1
-28850,6132.4,846.08
-28850,6382.4,1094.1
-28850,6632.4,1343.1
-28850,6882.4,1594.1
-28850,7132.4,1846.1
-28850,6382.4,1095.1
-28850,6632.4,1343.1
-28850,6882.4,1592.1
-28850,7132.4,1843.1
-28850,7382.4,2095.1
-28850,6632.4,1346.1
-28850,6882.4,1594.1
-28850,7132.4,1843.1
-28850,7382.4,2094.1
-28850,7632.4,2346.1
-28850,6882.4,1598.1
-28850,7132.4,1846.1
-28850,7382.4,2095.1
-28850,7632.4,2346.1
-28850,7882.4,2598.1
-28850,5132.4,185.92
-28850,5382.4,98.079
-28850,5632.4,347.08
-28850,5882.4,598.08
-28850,6132.4,850.08
-28850,5382.4,98.079
-28850,5632.4,346.08
-28850,5882.4,595.08
-28850,6132.4,846.08
-28850,6382.4,1098.1
-28850,5632.4,347.08
-28850,5882.4,595.08
-28850,6132.4,844.08
-28850,6382.4,1095.1
-28850,6632.4,1347.1
-28850,5882.4,598.08
-28850,6132.4,846.08
-28850,6382.4,1095.1
-28850,6632.4,1346.1
-28850,6882.4,1598.1
-28850,6132.4,850.08
-28850,6382.4,1098.1
-28850,6632.4,1347.1
-28850,6882.4,1598.1
-28850,7132.4,1850.1
-28850,5382.4,98.079
-28850,5632.4,346.08
-28850,5882.4,595.08
-28850,6132.4,846.08
-28850,6382.4,1098.1
-28850,5632.4,346.08
-28850,5882.4,594.08
-28850,6132.4,843.08
-28850,6382.4,1094.1
-28850,6632.4,1346.1
-28850,5882.4,595.08
-28850,6132.4,843.08
-28850,6382.4,1092.1
-28850,6632.4,1343.1
-28850,6882.4,1595.1
-28850,6132.4,846.08
-28850,6382.4,1094.1
-28850,6632.4,1343.1
-28850,6882.4,1594.1
-28850,7132.4,1846.1
-28850,6382.4,1098.1
-28850,6632.4,1346.1
-28850,6882.4,1595.1
-28850,7132.4,1846.1
-28850,7382.4,2098.1
-28850,5632.4,347.08
-28850,5882.4,595.08
-28850,6132.4,844.08
-28850,6382.4,1095.1
-28850,6632.4,1347.1
-28850,5882.4,595.08
-28850,6132.4,843.08
-28850,6382.4,1092.1
-28850,6632.4,1343.1
-28850,6882.4,1595.1
-28850,6132.4,844.08
-28850,6382.4,1092.1
-28850,6632.4,1341.1
-28850,6882.4,1592.1
-28850,7132.4,1844.1
-28850,6382.4,1095.1
-28850,6632.4,1343.1
-28850,6882.4,1592.1
-28850,7132.4,1843.1
-28850,7382.4,2095.1
-28850,6632.4,1347.1
-28850,6882.4,1595.1
-28850,7132.4,1844.1
-28850,7382.4,2095.1
-28850,7632.4,2347.1
-28850,5882.4,598.08
-28850,6132.4,846.08
-28850,6382.4,1095.1
-28850,6632.4,1346.1
-28850,6882.4,1598.1
-28850,6132.4,846.08
-28850,6382.4,1094.1
-28850,6632.4,1343.1
-28850,6882.4,1594.1
-28850,7132.4,1846.1
-28850,6382.4,1095.1
-28850,6632.4,1343.1
-28850,6882.4,1592.1
-28850,7132.4,1843.1
-28850,7382.4,2095.1
-28850,6632.4,1346.1
-28850,6882.4,1594.1
-28850,7132.4,1843.1
-28850,7382.4,2094.1
-28850,7632.4,2346.1
-28850,6882.4,1598.1
-28850,7132.4,1846.1
-28850,7382.4,2095.1
-28850,7632.4,2346.1
-28850,7882.4,2598.1
-28850,6132.4,850.08
-28850,6382.4,1098.1
-28850,6632.4,1347.1
-28850,6882.4,1598.1
-28850,7132.4,1850.1
-28850,6382.4,1098.1
-28850,6632.4,1346.1
-28850,6882.4,1595.1
-28850,7132.4,1846.1
-28850,7382.4,2098.1
-28850,6632.4,1347.1
-28850,6882.4,1595.1
-28850,7132.4,1844.1
-28850,7382.4,2095.1
-28850,7632.4,2347.1
-28850,6882.4,1598.1
-28850,7132.4,1846.1
-28850,7382.4,2095.1
-28850,7632.4,2346.1
-28850,7882.4,2598.1
-28850,7132.4,1850.1
-28850,7382.4,2098.1
-28850,7632.4,2347.1
-28850,7882.4,2598.1
-28850,8132.4,2850.1
