79901,7459.3,609.31
79099,6959.3,112.31
79099,7209.3,360.31
79099,7459.3,609.31
79099,7709.3,860.31
79099,7959.3,1112.3
78296,6459.3,396.69
78296,6709.3,144.69
78296,6959.3,112.31
78296,7209.3,363.31
78296,7459.3,615.31
78296,6709.3,144.69
78296,6959.3,111.31
78296,7209.3,360.31
78296,7459.3,611.31
78296,7709.3,863.31
78296,6959.3,112.31
78296,7209.3,360.31
78296,7459.3,609.31
78296,7709.3,860.31
78296,7959.3,1112.3
78296,7209.3,363.31
78296,7459.3,611.31
78296,7709.3,860.31
78296,7959.3,1111.3
78296,8209.3,1363.3
78296,7459.3,615.31
78296,7709.3,863.31
78296,7959.3,1112.3
78296,8209.3,1363.3
78296,8459.3,1615.3
77494,5959.3,899.69
77494,6209.3,647.69
77494,6459.3,396.69
77494,6709.3,147.69
77494,6959.3,118.31
77494,6209.3,647.69
77494,6459.3,395.69
77494,6709.3,144.69
77494,6959.3,114.31
77494,6459.3,396.69
77494,6709.3,144.69
77494,6959.3,112.31
77494,6709.3,147.69
77494,6959.3,114.31
77494,6959.3,118.31
77494,6209.3,647.69
77494,6459.3,395.69
77494,6709.3,144.69
77494,6959.3,114.31
77494,6459.3,395.69
77494,6709.3,143.69
77494,6959.3,111.31
77494,6709.3,144.69
77494,6959.3,111.31
77494,6959.3,114.31
77494,6459.3,396.69
77494,6709.3,144.69
77494,6959.3,112.31
77494,6709.3,144.69
77494,6959.3,111.31
77494,6959.3,112.31
77494,6709.3,147.69
77494,6959.3,114.31
77494,6959.3,114.31
77494,8709.3,1866.3
77494,6959.3,118.31
77494,8709.3,1866.3
77494,8709.3,1866.3
77494,8959.3,2118.3
76692,5459.3,1402.7
76692,5709.3,1150.7
76692,5959.3,899.69
76692,6209.3,650.69
76692,6459.3,402.69
76692,5709.3,1150.7
76692,5959.3,898.69
76692,6209.3,647.69
76692,6459.3,398.69
76692,5959.3,899.69
76692,6209.3,647.69
76692,6459.3,396.69
76692,6209.3,650.69
76692,6459.3,398.69
76692,6459.3,402.69
76692,5709.3,1150.7
76692,5959.3,898.69
76692,6209.3,647.69
76692,6459.3,398.69
76692,5959.3,898.69
76692,6209.3,646.69
76692,6459.3,395.69
76692,6209.3,647.69
76692,6459.3,395.69
76692,6459.3,398.69
76692,5959.3,899.69
76692,6209.3,647.69
76692,6459.3,396.69
76692,6209.3,647.69
76692,6459.3,395.69
76692,6459.3,396.69
76692,6209.3,650.69
76692,6459.3,398.69
76692,6459.3,398.69
76692,6459.3,402.69
76692,5709.3,1150.7
76692,5959.3,898.69
76692,6209.3,647.69
76692,6459.3,398.69
76692,5959.3,898.69
76692,6209.3,646.69
76692,6459.3,395.69
76692,6209.3,647.69
76692,6459.3,395.69
76692,6459.3,398.69
76692,5959.3,898.69
76692,6209.3,646.69
76692,6459.3,395.69
76692,6209.3,646.69
76692,6459.3,394.69
76692,6459.3,395.69
76692,6209.3,647.69
76692,6459.3,395.69
76692,6459.3,395.69
76692,6459.3,398.69
76692,5959.3,899.69
76692,6209.3,647.69
76692,6459.3,396.69
76692,6209.3,647.69
76692,6459.3,395.69
76692,6459.3,396.69
76692,6209.3,647.69
76692,6459.3,395.69
76692,6459.3,395.69
76692,6459.3,396.69
76692,6209.3,650.69
76692,6459.3,398.69
76692,6459.3,398.69
76692,6459.3,398.69
76692,8209.3,1369.3
76692,8459.3,1617.3
76692,8709.3,1866.3
76692,8959.3,2117.3
76692,9209.3,2369.3
76692,6459.3,402.69
76692,8209.3,1369.3
76692,8459.3,1617.3
76692,8709.3,1866.3
76692,8959.3,2117.3
76692,9209.3,2369.3
76692,8209.3,1369.3
76692,8459.3,1617.3
76692,8709.3,1866.3
76692,8959.3,2117.3
76692,9209.3,2369.3
76692,8459.3,1621.3
76692,8709.3,1869.3
76692,8959.3,2118.3
76692,9209.3,2369.3
76692,9459.3,2621.3
75889,5459.3,1402.7
75889,5709.3,1153.7
75889,5959.3,905.69
75889,5459.3,1401.7
75889,5709.3,1150.7
75889,5959.3,901.69
75889,6209.3,653.69
75889,5459.3,1402.7
75889,5709.3,1150.7
75889,5959.3,899.69
75889,6209.3,650.69
75889,6459.3,402.69
75889,5709.3,1153.7
75889,5959.3,901.69
75889,6209.3,650.69
75889,6459.3,401.69
75889,6709.3,153.69
75889,5959.3,905.69
75889,6209.3,653.69
75889,6459.3,402.69
75889,6709.3,153.69
75889,6959.3,124.31
75889,5459.3,1401.7
75889,5709.3,1150.7
75889,5959.3,901.69
75889,6209.3,653.69
75889,5459.3,1401.7
75889,5709.3,1149.7
75889,5959.3,898.69
75889,6209.3,649.69
75889,6459.3,401.69
75889,5709.3,1150.7
75889,5959.3,898.69
75889,6209.3,647.69
75889,6459.3,398.69
75889,6709.3,150.69
75889,5959.3,901.69
75889,6209.3,649.69
75889,6459.3,398.69
75889,6709.3,149.69
75889,6959.3,120.31
75889,5459.3,1402.7
75889,5709.3,1150.7
75889,5959.3,899.69
75889,6209.3,650.69
75889,6459.3,402.69
75889,5709.3,1150.7
75889,5959.3,898.69
75889,6209.3,647.69
75889,6459.3,398.69
75889,6709.3,150.69
75889,5959.3,899.69
75889,6209.3,647.69
75889,6459.3,396.69
75889,6709.3,147.69
75889,6959.3,118.31
75889,5709.3,1153.7
75889,5959.3,901.69
75889,6209.3,650.69
75889,6459.3,401.69
75889,6709.3,153.69
75889,5959.3,901.69
75889,6209.3,649.69
75889,6459.3,398.69
75889,6709.3,149.69
75889,6959.3,120.31
75889,5959.3,905.69
75889,6209.3,653.69
75889,6459.3,402.69
75889,6709.3,153.69
75889,6959.3,124.31
75889,5459.3,1401.7
75889,5709.3,1150.7
75889,5959.3,901.69
75889,6209.3,653.69
75889,5459.3,1401.7
75889,5709.3,1149.7
75889,5959.3,898.69
75889,6209.3,649.69
75889,6459.3,401.69
75889,5709.3,1150.7
75889,5959.3,898.69
75889,6209.3,647.69
75889,6459.3,398.69
75889,6709.3,150.69
75889,5959.3,901.69
75889,6209.3,649.69
75889,6459.3,398.69
75889,6709.3,149.69
75889,6959.3,120.31
75889,5459.3,1401.7
75889,5709.3,1149.7
75889,5959.3,898.69
75889,6209.3,649.69
75889,6459.3,401.69
75889,5709.3,1149.7
75889,5959.3,897.69
75889,6209.3,646.69
75889,6459.3,397.69
75889,6709.3,149.69
75889,5959.3,898.69
75889,6209.3,646.69
75889,6459.3,395.69
75889,6709.3,146.69
75889,6959.3,117.31
75889,5709.3,1150.7
75889,5959.3,898.69
75889,6209.3,647.69
75889,6459.3,398.69
75889,6709.3,150.69
75889,5959.3,898.69
75889,6209.3,646.69
75889,6459.3,395.69
75889,6709.3,146.69
75889,6959.3,117.31
75889,5959.3,901.69
75889,6209.3,649.69
75889,6459.3,398.69
75889,6709.3,149.69
75889,6959.3,120.31
75889,5459.3,1402.7
75889,5709.3,1150.7
75889,5959.3,899.69
75889,6209.3,650.69
75889,6459.3,402.69
75889,5709.3,1150.7
75889,5959.3,898.69
75889,6209.3,647.69
75889,6459.3,398.69
75889,6709.3,150.69
75889,5959.3,899.69
75889,6209.3,647.69
75889,6459.3,396.69
75889,6709.3,147.69
75889,6959.3,118.31
75889,5709.3,1150.7
75889,5959.3,898.69
75889,6209.3,647.69
75889,6459.3,398.69
75889,6709.3,150.69
75889,5959.3,898.69
75889,6209.3,646.69
75889,6459.3,395.69
75889,6709.3,146.69
75889,6959.3,117.31
75889,5959.3,899.69
75889,6209.3,647.69
75889,6459.3,396.69
75889,6709.3,147.69
75889,6959.3,118.31
75889,5709.3,1153.7
75889,5959.3,901.69
75889,6209.3,650.69
75889,6459.3,401.69
75889,6709.3,153.69
75889,5959.3,901.69
75889,6209.3,649.69
75889,6459.3,398.69
75889,6709.3,149.69
75889,6959.3,120.31
75889,5959.3,901.69
75889,6209.3,649.69
75889,6459.3,398.69
75889,6709.3,149.69
75889,6959.3,120.31
75889,5959.3,905.69
75889,6209.3,653.69
75889,6459.3,402.69
75889,6709.3,153.69
75889,6959.3,124.31
75889,5459.3,1401.7
75889,5709.3,1150.7
75889,5959.3,901.69
75889,6209.3,653.69
75889,5459.3,1401.7
75889,5709.3,1149.7
75889,5959.3,898.69
75889,6209.3,649.69
75889,6459.3,401.69
75889,5709.3,1150.7
75889,5959.3,898.69
75889,6209.3,647.69
75889,6459.3,398.69
75889,6709.3,150.69
75889,5959.3,901.69
75889,6209.3,649.69
75889,6459.3,398.69
75889,6709.3,149.69
75889,6959.3,120.31
75889,5459.3,1401.7
75889,5709.3,1149.7
75889,5959.3,898.69
75889,6209.3,649.69
75889,6459.3,401.69
75889,5709.3,1149.7
75889,5959.3,897.69
75889,6209.3,646.69
75889,6459.3,397.69
75889,6709.3,149.69
75889,5959.3,898.69
75889,6209.3,646.69
75889,6459.3,395.69
75889,6709.3,146.69
75889,6959.3,117.31
75889,5709.3,1150.7
75889,5959.3,898.69
75889,6209.3,647.69
75889,6459.3,398.69
75889,6709.3,150.69
75889,5959.3,898.69
75889,6209.3,646.69
75889,6459.3,395.69
75889,6709.3,146.69
75889,6959.3,117.31
75889,5959.3,901.69
75889,6209.3,649.69
75889,6459.3,398.69
75889,6709.3,149.69
75889,6959.3,120.31
75889,5459.3,1401.7
75889,5709.3,1149.7
75889,5959.3,898.69
75889,6209.3,649.69
75889,6459.3,401.69
75889,5709.3,1149.7
75889,5959.3,897.69
75889,6209.3,646.69
75889,6459.3,397.69
75889,6709.3,149.69
75889,5959.3,898.69
75889,6209.3,646.69
75889,6459.3,395.69
75889,6709.3,146.69
75889,6959.3,117.31
75889,5709.3,1149.7
75889,5959.3,897.69
75889,6209.3,646.69
75889,6459.3,397.69
75889,6709.3,149.69
75889,5959.3,897.69
75889,6209.3,645.69
75889,6459.3,394.69
75889,6709.3,145.69
75889,6959.3,116.31
75889,5959.3,898.69
75889,6209.3,646.69
75889,6459.3,395.69
75889,6709.3,146.69
75889,6959.3,117.31
75889,5709.3,1150.7
75889,5959.3,898.69
75889,6209.3,647.69
75889,6459.3,398.69
75889,6709.3,150.69
75889,5959.3,898.69
75889,6209.3,646.69
75889,6459.3,395.69
75889,6709.3,146.69
75889,6959.3,117.31
75889,5959.3,898.69
75889,6209.3,646.69
75889,6459.3,395.69
75889,6709.3,146.69
75889,6959.3,117.31
75889,5959.3,901.69
75889,6209.3,649.69
75889,6459.3,398.69
75889,6709.3,149.69
75889,6959.3,120.31
75889,5459.3,1402.7
75889,5709.3,1150.7
75889,5959.3,899.69
75889,6209.3,650.69
75889,6459.3,402.69
75889,5709.3,1150.7
75889,5959.3,898.69
75889,6209.3,647.69
75889,6459.3,398.69
75889,6709.3,150.69
75889,5959.3,899.69
75889,6209.3,647.69
75889,6459.3,396.69
75889,6709.3,147.69
75889,6959.3,118.31
75889,5709.3,1150.7
75889,5959.3,898.69
75889,6209.3,647.69
75889,6459.3,398.69
75889,6709.3,150.69
75889,5959.3,898.69
75889,6209.3,646.69
75889,6459.3,395.69
75889,6709.3,146.69
75889,6959.3,117.31
75889,5959.3,899.69
75889,6209.3,647.69
75889,6459.3,396.69
75889,6709.3,147.69
75889,6959.3,118.31
75889,5709.3,1150.7
75889,5959.3,898.69
75889,6209.3,647.69
75889,6459.3,398.69
75889,6709.3,150.69
75889,5959.3,898.69
75889,6209.3,646.69
75889,6459.3,395.69
75889,6709.3,146.69
75889,6959.3,117.31
75889,5959.3,898.69
75889,6209.3,646.69
75889,6459.3,395.69
75889,6709.3,146.69
75889,6959.3,117.31
75889,5959.3,899.69
75889,6209.3,647.69
75889,6459.3,396.69
75889,6709.3,147.69
75889,6959.3,118.31
75889,5709.3,1153.7
75889,5959.3,901.69
75889,6209.3,650.69
75889,6459.3,401.69
75889,6709.3,153.69
75889,5959.3,901.69
75889,6209.3,649.69
75889,6459.3,398.69
75889,6709.3,149.69
75889,6959.3,120.31
75889,5959.3,901.69
75889,6209.3,649.69
75889,6459.3,398.69
75889,6709.3,149.69
75889,6959.3,120.31
75889,5959.3,901.69
75889,6209.3,649.69
75889,6459.3,398.69
75889,6709.3,149.69
75889,6959.3,120.31
75889,7709.3,872.31
75889,7959.3,1120.3
75889,8209.3,1369.3
75889,8459.3,1620.3
75889,8709.3,1872.3
75889,7959.3,1120.3
75889,8209.3,1368.3
75889,8459.3,1617.3
75889,8709.3,1868.3
75889,8959.3,2120.3
75889,8209.3,1369.3
75889,8459.3,1617.3
75889,8709.3,1866.3
75889,8959.3,2117.3
75889,9209.3,2369.3
75889,8459.3,1620.3
75889,8709.3,1868.3
75889,8959.3,2117.3
75889,9209.3,2368.3
75889,9459.3,2620.3
75889,8709.3,1872.3
75889,8959.3,2120.3
75889,9209.3,2369.3
75889,9459.3,2620.3
75889,9709.3,2872.3
75889,5959.3,905.69
75889,6209.3,653.69
75889,6459.3,402.69
75889,6709.3,153.69
75889,6959.3,124.31
75889,7709.3,872.31
75889,7959.3,1120.3
75889,8209.3,1369.3
75889,8459.3,1620.3
75889,8709.3,1872.3
75889,7959.3,1120.3
75889,8209.3,1368.3
75889,8459.3,1617.3
75889,8709.3,1868.3
75889,8959.3,2120.3
75889,8209.3,1369.3
75889,8459.3,1617.3
75889,8709.3,1866.3
75889,8959.3,2117.3
75889,9209.3,2369.3
75889,8459.3,1620.3
75889,8709.3,1868.3
75889,8959.3,2117.3
75889,9209.3,2368.3
75889,9459.3,2620.3
75889,8709.3,1872.3
75889,8959.3,2120.3
75889,9209.3,2369.3
75889,9459.3,2620.3
75889,9709.3,2872.3
75889,7709.3,872.31
75889,7959.3,1120.3
75889,8209.3,1369.3
75889,8459.3,1620.3
75889,8709.3,1872.3
75889,7959.3,1120.3
75889,8209.3,1368.3
75889,8459.3,1617.3
75889,8709.3,1868.3
75889,8959.3,2120.3
75889,8209.3,1369.3
75889,8459.3,1617.3
75889,8709.3,1866.3
75889,8959.3,2117.3
75889,9209.3,2369.3
75889,8459.3,1620.3
75889,8709.3,1868.3
75889,8959.3,2117.3
75889,9209.3,2368.3
75889,9459.3,2620.3
75889,8709.3,1872.3
75889,8959.3,2120.3
75889,9209.3,2369.3
75889,9459.3,2620.3
75889,9709.3,2872.3
75889,7959.3,1124.3
75889,8209.3,1372.3
75889,8459.3,1621.3
75889,8709.3,1872.3
75889,8959.3,2124.3
75889,8209.3,1372.3
75889,8459.3,1620.3
75889,8709.3,1869.3
75889,8959.3,2120.3
75889,9209.3,2372.3
75889,8459.3,1621.3
75889,8709.3,1869.3
75889,8959.3,2118.3
75889,9209.3,2369.3
75889,9459.3,2621.3
75889,8709.3,1872.3
75889,8959.3,2120.3
75889,9209.3,2369.3
75889,9459.3,2620.3
75889,9709.3,2872.3
75889,8959.3,2124.3
75889,9209.3,2372.3
75889,9459.3,2621.3
75889,9709.3,2872.3
75889,9959.3,3124.3
75087,4959.3,1905.7
75087,5209.3,1653.7
75087,5459.3,1402.7
75087,5709.3,1153.7
75087,5959.3,905.69
75087,5209.3,1656.7
75087,5459.3,1404.7
75087,5709.3,1153.7
75087,5959.3,904.69
75087,6209.3,656.69
75087,5459.3,1408.7
75087,5709.3,1156.7
75087,5959.3,905.69
75087,6209.3,656.69
75087,6459.3,408.69
75087,4959.3,1904.7
75087,5209.3,1652.7
75087,5459.3,1401.7
75087,5709.3,1152.7
75087,5959.3,904.69
75087,5209.3,1653.7
75087,5459.3,1401.7
75087,5709.3,1150.7
75087,5959.3,901.69
75087,6209.3,653.69
75087,5459.3,1404.7
75087,5709.3,1152.7
75087,5959.3,901.69
75087,6209.3,652.69
75087,6459.3,404.69
75087,5709.3,1156.7
75087,5959.3,904.69
75087,6209.3,653.69
75087,6459.3,404.69
75087,6709.3,156.69
75087,4959.3,1905.7
75087,5209.3,1653.7
75087,5459.3,1402.7
75087,5709.3,1153.7
75087,5959.3,905.69
75087,5209.3,1653.7
75087,5459.3,1401.7
75087,5709.3,1150.7
75087,5959.3,901.69
75087,6209.3,653.69
75087,5459.3,1402.7
75087,5709.3,1150.7
75087,5959.3,899.69
75087,6209.3,650.69
75087,6459.3,402.69
75087,5709.3,1153.7
75087,5959.3,901.69
75087,6209.3,650.69
75087,6459.3,401.69
75087,6709.3,153.69
75087,5959.3,905.69
75087,6209.3,653.69
75087,6459.3,402.69
75087,6709.3,153.69
75087,6959.3,124.31
75087,5209.3,1656.7
75087,5459.3,1404.7
75087,5709.3,1153.7
75087,5959.3,904.69
75087,6209.3,656.69
75087,5459.3,1404.7
75087,5709.3,1152.7
75087,5959.3,901.69
75087,6209.3,652.69
75087,6459.3,404.69
75087,5709.3,1153.7
75087,5959.3,901.69
75087,6209.3,650.69
75087,6459.3,401.69
75087,6709.3,153.69
75087,5959.3,904.69
75087,6209.3,652.69
75087,6459.3,401.69
75087,6709.3,152.69
75087,6959.3,123.31
75087,6209.3,656.69
75087,6459.3,404.69
75087,6709.3,153.69
75087,6959.3,123.31
75087,7209.3,375.31
75087,5459.3,1408.7
75087,5709.3,1156.7
75087,5959.3,905.69
75087,6209.3,656.69
75087,6459.3,408.69
75087,5709.3,1156.7
75087,5959.3,904.69
75087,6209.3,653.69
75087,6459.3,404.69
75087,6709.3,156.69
75087,5959.3,905.69
75087,6209.3,653.69
75087,6459.3,402.69
75087,6709.3,153.69
75087,6959.3,124.31
75087,6209.3,656.69
75087,6459.3,404.69
75087,6709.3,153.69
75087,6959.3,123.31
75087,7209.3,375.31
75087,6459.3,408.69
75087,6709.3,156.69
75087,6959.3,124.31
75087,7209.3,375.31
75087,7459.3,627.31
75087,4959.3,1904.7
75087,5209.3,1652.7
75087,5459.3,1401.7
75087,5709.3,1152.7
75087,5959.3,904.69
75087,5209.3,1653.7
75087,5459.3,1401.7
75087,5709.3,1150.7
75087,5959.3,901.69
75087,6209.3,653.69
75087,5459.3,1404.7
75087,5709.3,1152.7
75087,5959.3,901.69
75087,6209.3,652.69
75087,6459.3,404.69
75087,5709.3,1156.7
75087,5959.3,904.69
75087,6209.3,653.69
75087,6459.3,404.69
75087,6709.3,156.69
75087,4959.3,1904.7
75087,5209.3,1652.7
75087,5459.3,1401.7
75087,5709.3,1152.7
75087,5959.3,904.69
75087,5209.3,1652.7
75087,5459.3,1400.7
75087,5709.3,1149.7
75087,5959.3,900.69
75087,6209.3,652.69
75087,5459.3,1401.7
75087,5709.3,1149.7
75087,5959.3,898.69
75087,6209.3,649.69
75087,6459.3,401.69
75087,5709.3,1152.7
75087,5959.3,900.69
75087,6209.3,649.69
75087,6459.3,400.69
75087,6709.3,152.69
75087,5959.3,904.69
75087,6209.3,652.69
75087,6459.3,401.69
75087,6709.3,152.69
75087,6959.3,123.31
75087,5209.3,1653.7
75087,5459.3,1401.7
75087,5709.3,1150.7
75087,5959.3,901.69
75087,6209.3,653.69
75087,5459.3,1401.7
75087,5709.3,1149.7
75087,5959.3,898.69
75087,6209.3,649.69
75087,6459.3,401.69
75087,5709.3,1150.7
75087,5959.3,898.69
75087,6209.3,647.69
75087,6459.3,398.69
75087,6709.3,150.69
75087,5959.3,901.69
75087,6209.3,649.69
75087,6459.3,398.69
75087,6709.3,149.69
75087,6959.3,120.31
75087,6209.3,653.69
75087,6459.3,401.69
75087,6709.3,150.69
75087,6959.3,120.31
75087,7209.3,372.31
75087,5459.3,1404.7
75087,5709.3,1152.7
75087,5959.3,901.69
75087,6209.3,652.69
75087,6459.3,404.69
75087,5709.3,1152.7
75087,5959.3,900.69
75087,6209.3,649.69
75087,6459.3,400.69
75087,6709.3,152.69
75087,5959.3,901.69
75087,6209.3,649.69
75087,6459.3,398.69
75087,6709.3,149.69
75087,6959.3,120.31
75087,6209.3,652.69
75087,6459.3,400.69
75087,6709.3,149.69
75087,6959.3,119.31
75087,7209.3,371.31
75087,6459.3,404.69
75087,6709.3,152.69
75087,6959.3,120.31
75087,7209.3,371.31
75087,7459.3,623.31
75087,4959.3,1905.7
75087,5209.3,1653.7
75087,5459.3,1402.7
75087,5709.3,1153.7
75087,5959.3,905.69
75087,5209.3,1653.7
75087,5459.3,1401.7
75087,5709.3,1150.7
75087,5959.3,901.69
75087,6209.3,653.69
75087,5459.3,1402.7
75087,5709.3,1150.7
75087,5959.3,899.69
75087,6209.3,650.69
75087,6459.3,402.69
75087,5709.3,1153.7
75087,5959.3,901.69
75087,6209.3,650.69
75087,6459.3,401.69
75087,6709.3,153.69
75087,5959.3,905.69
75087,6209.3,653.69
75087,6459.3,402.69
75087,6709.3,153.69
75087,6959.3,124.31
75087,5209.3,1653.7
75087,5459.3,1401.7
75087,5709.3,1150.7
75087,5959.3,901.69
75087,6209.3,653.69
75087,5459.3,1401.7
75087,5709.3,1149.7
75087,5959.3,898.69
75087,6209.3,649.69
75087,6459.3,401.69
75087,5709.3,1150.7
75087,5959.3,898.69
75087,6209.3,647.69
75087,6459.3,398.69
75087,6709.3,150.69
75087,5959.3,901.69
75087,6209.3,649.69
75087,6459.3,398.69
75087,6709.3,149.69
75087,6959.3,120.31
75087,6209.3,653.69
75087,6459.3,401.69
75087,6709.3,150.69
75087,6959.3,120.31
75087,7209.3,372.31
75087,5459.3,1402.7
75087,5709.3,1150.7
75087,5959.3,899.69
75087,6209.3,650.69
75087,6459.3,402.69
75087,5709.3,1150.7
75087,5959.3,898.69
75087,6209.3,647.69
75087,6459.3,398.69
75087,6709.3,150.69
75087,5959.3,899.69
75087,6209.3,647.69
75087,6459.3,396.69
75087,6709.3,147.69
75087,6959.3,118.31
75087,6209.3,650.69
75087,6459.3,398.69
75087,6709.3,147.69
75087,6959.3,117.31
75087,7209.3,369.31
75087,6459.3,402.69
75087,6709.3,150.69
75087,6959.3,118.31
75087,7209.3,369.31
75087,7459.3,621.31
75087,5209.3,1656.7
75087,5459.3,1404.7
75087,5709.3,1153.7
75087,5959.3,904.69
75087,6209.3,656.69
75087,5459.3,1404.7
75087,5709.3,1152.7
75087,5959.3,901.69
75087,6209.3,652.69
75087,6459.3,404.69
75087,5709.3,1153.7
75087,5959.3,901.69
75087,6209.3,650.69
75087,6459.3,401.69
75087,6709.3,153.69
75087,5959.3,904.69
75087,6209.3,652.69
75087,6459.3,401.69
75087,6709.3,152.69
75087,6959.3,123.31
75087,6209.3,656.69
75087,6459.3,404.69
75087,6709.3,153.69
75087,6959.3,123.31
75087,7209.3,375.31
75087,5459.3,1404.7
75087,5709.3,1152.7
75087,5959.3,901.69
75087,6209.3,652.69
75087,6459.3,404.69
75087,5709.3,1152.7
75087,5959.3,900.69
75087,6209.3,649.69
75087,6459.3,400.69
75087,6709.3,152.69
75087,5959.3,901.69
75087,6209.3,649.69
75087,6459.3,398.69
75087,6709.3,149.69
75087,6959.3,120.31
75087,6209.3,652.69
75087,6459.3,400.69
75087,6709.3,149.69
75087,6959.3,119.31
75087,7209.3,371.31
75087,6459.3,404.69
75087,6709.3,152.69
75087,6959.3,120.31
75087,7209.3,371.31
75087,7459.3,623.31
75087,5459.3,1408.7
75087,5709.3,1156.7
75087,5959.3,905.69
75087,6209.3,656.69
75087,6459.3,408.69
75087,5709.3,1156.7
75087,5959.3,904.69
75087,6209.3,653.69
75087,6459.3,404.69
75087,6709.3,156.69
75087,5959.3,905.69
75087,6209.3,653.69
75087,6459.3,402.69
75087,6709.3,153.69
75087,6959.3,124.31
75087,6209.3,656.69
75087,6459.3,404.69
75087,6709.3,153.69
75087,6959.3,123.31
75087,7209.3,375.31
75087,6459.3,408.69
75087,6709.3,156.69
75087,6959.3,124.31
75087,7209.3,375.31
75087,7459.3,627.31
75087,4959.3,1904.7
75087,5209.3,1652.7
75087,5459.3,1401.7
75087,5709.3,1152.7
75087,5959.3,904.69
75087,5209.3,1653.7
75087,5459.3,1401.7
75087,5709.3,1150.7
75087,5959.3,901.69
75087,6209.3,653.69
75087,5459.3,1404.7
75087,5709.3,1152.7
75087,5959.3,901.69
75087,6209.3,652.69
75087,6459.3,404.69
75087,5709.3,1156.7
75087,5959.3,904.69
75087,6209.3,653.69
75087,6459.3,404.69
75087,6709.3,156.69
75087,4959.3,1904.7
75087,5209.3,1652.7
75087,5459.3,1401.7
75087,5709.3,1152.7
75087,5959.3,904.69
75087,5209.3,1652.7
75087,5459.3,1400.7
75087,5709.3,1149.7
75087,5959.3,900.69
75087,6209.3,652.69
75087,5459.3,1401.7
75087,5709.3,1149.7
75087,5959.3,898.69
75087,6209.3,649.69
75087,6459.3,401.69
75087,5709.3,1152.7
75087,5959.3,900.69
75087,6209.3,649.69
75087,6459.3,400.69
75087,6709.3,152.69
75087,5959.3,904.69
75087,6209.3,652.69
75087,6459.3,401.69
75087,6709.3,152.69
75087,6959.3,123.31
75087,5209.3,1653.7
75087,5459.3,1401.7
75087,5709.3,1150.7
75087,5959.3,901.69
75087,6209.3,653.69
75087,5459.3,1401.7
75087,5709.3,1149.7
75087,5959.3,898.69
75087,6209.3,649.69
75087,6459.3,401.69
75087,5709.3,1150.7
75087,5959.3,898.69
75087,6209.3,647.69
75087,6459.3,398.69
75087,6709.3,150.69
75087,5959.3,901.69
75087,6209.3,649.69
75087,6459.3,398.69
75087,6709.3,149.69
75087,6959.3,120.31
75087,6209.3,653.69
75087,6459.3,401.69
75087,6709.3,150.69
75087,6959.3,120.31
75087,7209.3,372.31
75087,5459.3,1404.7
75087,5709.3,1152.7
75087,5959.3,901.69
75087,6209.3,652.69
75087,6459.3,404.69
75087,5709.3,1152.7
75087,5959.3,900.69
75087,6209.3,649.69
75087,6459.3,400.69
75087,6709.3,152.69
75087,5959.3,901.69
75087,6209.3,649.69
75087,6459.3,398.69
75087,6709.3,149.69
75087,6959.3,120.31
75087,6209.3,652.69
75087,6459.3,400.69
75087,6709.3,149.69
75087,6959.3,119.31
75087,7209.3,371.31
75087,6459.3,404.69
75087,6709.3,152.69
75087,6959.3,120.31
75087,7209.3,371.31
75087,7459.3,623.31
75087,4959.3,1904.7
75087,5209.3,1652.7
75087,5459.3,1401.7
75087,5709.3,1152.7
75087,5959.3,904.69
75087,5209.3,1652.7
75087,5459.3,1400.7
75087,5709.3,1149.7
75087,5959.3,900.69
75087,6209.3,652.69
75087,5459.3,1401.7
75087,5709.3,1149.7
75087,5959.3,898.69
75087,6209.3,649.69
75087,6459.3,401.69
75087,5709.3,1152.7
75087,5959.3,900.69
75087,6209.3,649.69
75087,6459.3,400.69
75087,6709.3,152.69
75087,5959.3,904.69
75087,6209.3,652.69
75087,6459.3,401.69
75087,6709.3,152.69
75087,6959.3,123.31
75087,5209.3,1652.7
75087,5459.3,1400.7
75087,5709.3,1149.7
75087,5959.3,900.69
75087,6209.3,652.69
75087,5459.3,1400.7
75087,5709.3,1148.7
75087,5959.3,897.69
75087,6209.3,648.69
75087,6459.3,400.69
75087,5709.3,1149.7
75087,5959.3,897.69
75087,6209.3,646.69
75087,6459.3,397.69
75087,6709.3,149.69
75087,5959.3,900.69
75087,6209.3,648.69
75087,6459.3,397.69
75087,6709.3,148.69
75087,6959.3,119.31
75087,6209.3,652.69
75087,6459.3,400.69
75087,6709.3,149.69
75087,6959.3,119.31
75087,7209.3,371.31
75087,5459.3,1401.7
75087,5709.3,1149.7
75087,5959.3,898.69
75087,6209.3,649.69
75087,6459.3,401.69
75087,5709.3,1149.7
75087,5959.3,897.69
75087,6209.3,646.69
75087,6459.3,397.69
75087,6709.3,149.69
75087,5959.3,898.69
75087,6209.3,646.69
75087,6459.3,395.69
75087,6709.3,146.69
75087,6959.3,117.31
75087,6209.3,649.69
75087,6459.3,397.69
75087,6709.3,146.69
75087,6959.3,116.31
75087,7209.3,368.31
75087,6459.3,401.69
75087,6709.3,149.69
75087,6959.3,117.31
75087,7209.3,368.31
75087,7459.3,620.31
75087,5209.3,1653.7
75087,5459.3,1401.7
75087,5709.3,1150.7
75087,5959.3,901.69
75087,6209.3,653.69
75087,5459.3,1401.7
75087,5709.3,1149.7
75087,5959.3,898.69
75087,6209.3,649.69
75087,6459.3,401.69
75087,5709.3,1150.7
75087,5959.3,898.69
75087,6209.3,647.69
75087,6459.3,398.69
75087,6709.3,150.69
75087,5959.3,901.69
75087,6209.3,649.69
75087,6459.3,398.69
75087,6709.3,149.69
75087,6959.3,120.31
75087,6209.3,653.69
75087,6459.3,401.69
75087,6709.3,150.69
75087,6959.3,120.31
75087,7209.3,372.31
75087,5459.3,1401.7
75087,5709.3,1149.7
75087,5959.3,898.69
75087,6209.3,649.69
75087,6459.3,401.69
75087,5709.3,1149.7
75087,5959.3,897.69
75087,6209.3,646.69
75087,6459.3,397.69
75087,6709.3,149.69
75087,5959.3,898.69
75087,6209.3,646.69
75087,6459.3,395.69
75087,6709.3,146.69
75087,6959.3,117.31
75087,6209.3,649.69
75087,6459.3,397.69
75087,6709.3,146.69
75087,6959.3,116.31
75087,7209.3,368.31
75087,6459.3,401.69
75087,6709.3,149.69
75087,6959.3,117.31
75087,7209.3,368.31
75087,7459.3,620.31
75087,5459.3,1404.7
75087,5709.3,1152.7
75087,5959.3,901.69
75087,6209.3,652.69
75087,6459.3,404.69
75087,5709.3,1152.7
75087,5959.3,900.69
75087,6209.3,649.69
75087,6459.3,400.69
75087,6709.3,152.69
75087,5959.3,901.69
75087,6209.3,649.69
75087,6459.3,398.69
75087,6709.3,149.69
75087,6959.3,120.31
75087,6209.3,652.69
75087,6459.3,400.69
75087,6709.3,149.69
75087,6959.3,119.31
75087,7209.3,371.31
75087,6459.3,404.69
75087,6709.3,152.69
75087,6959.3,120.31
75087,7209.3,371.31
75087,7459.3,623.31
75087,4959.3,1905.7
75087,5209.3,1653.7
75087,5459.3,1402.7
75087,5709.3,1153.7
75087,5959.3,905.69
75087,5209.3,1653.7
75087,5459.3,1401.7
75087,5709.3,1150.7
75087,5959.3,901.69
75087,6209.3,653.69
75087,5459.3,1402.7
75087,5709.3,1150.7
75087,5959.3,899.69
75087,6209.3,650.69
75087,6459.3,402.69
75087,5709.3,1153.7
75087,5959.3,901.69
75087,6209.3,650.69
75087,6459.3,401.69
75087,6709.3,153.69
75087,5959.3,905.69
75087,6209.3,653.69
75087,6459.3,402.69
75087,6709.3,153.69
75087,6959.3,124.31
75087,5209.3,1653.7
75087,5459.3,1401.7
75087,5709.3,1150.7
75087,5959.3,901.69
75087,6209.3,653.69
75087,5459.3,1401.7
75087,5709.3,1149.7
75087,5959.3,898.69
75087,6209.3,649.69
75087,6459.3,401.69
75087,5709.3,1150.7
75087,5959.3,898.69
75087,6209.3,647.69
75087,6459.3,398.69
75087,6709.3,150.69
75087,5959.3,901.69
75087,6209.3,649.69
75087,6459.3,398.69
75087,6709.3,149.69
75087,6959.3,120.31
75087,6209.3,653.69
75087,6459.3,401.69
75087,6709.3,150.69
75087,6959.3,120.31
75087,7209.3,372.31
75087,5459.3,1402.7
75087,5709.3,1150.7
75087,5959.3,899.69
75087,6209.3,650.69
75087,6459.3,402.69
75087,5709.3,1150.7
75087,5959.3,898.69
75087,6209.3,647.69
75087,6459.3,398.69
75087,6709.3,150.69
75087,5959.3,899.69
75087,6209.3,647.69
75087,6459.3,396.69
75087,6709.3,147.69
75087,6959.3,118.31
75087,6209.3,650.69
75087,6459.3,398.69
75087,6709.3,147.69
75087,6959.3,117.31
75087,7209.3,369.31
75087,6459.3,402.69
75087,6709.3,150.69
75087,6959.3,118.31
75087,7209.3,369.31
75087,7459.3,621.31
75087,5209.3,1653.7
75087,5459.3,1401.7
75087,5709.3,1150.7
75087,5959.3,901.69
75087,6209.3,653.69
75087,5459.3,1401.7
75087,5709.3,1149.7
75087,5959.3,898.69
75087,6209.3,649.69
75087,6459.3,401.69
75087,5709.3,1150.7
75087,5959.3,898.69
75087,6209.3,647.69
75087,6459.3,398.69
75087,6709.3,150.69
75087,5959.3,901.69
75087,6209.3,649.69
75087,6459.3,398.69
75087,6709.3,149.69
75087,6959.3,120.31
75087,6209.3,653.69
75087,6459.3,401.69
75087,6709.3,150.69
75087,6959.3,120.31
75087,7209.3,372.31
75087,5459.3,1401.7
75087,5709.3,1149.7
75087,5959.3,898.69
75087,6209.3,649.69
75087,6459.3,401.69
75087,5709.3,1149.7
75087,5959.3,897.69
75087,6209.3,646.69
75087,6459.3,397.69
75087,6709.3,149.69
75087,5959.3,898.69
75087,6209.3,646.69
75087,6459.3,395.69
75087,6709.3,146.69
75087,6959.3,117.31
75087,6209.3,649.69
75087,6459.3,397.69
75087,6709.3,146.69
75087,6959.3,116.31
75087,7209.3,368.31
75087,6459.3,401.69
75087,6709.3,149.69
75087,6959.3,117.31
75087,7209.3,368.31
75087,7459.3,620.31
75087,5459.3,1402.7
75087,5709.3,1150.7
75087,5959.3,899.69
75087,6209.3,650.69
75087,6459.3,402.69
75087,5709.3,1150.7
75087,5959.3,898.69
75087,6209.3,647.69
75087,6459.3,398.69
75087,6709.3,150.69
75087,5959.3,899.69
75087,6209.3,647.69
75087,6459.3,396.69
75087,6709.3,147.69
75087,6959.3,118.31
75087,6209.3,650.69
75087,6459.3,398.69
75087,6709.3,147.69
75087,6959.3,117.31
75087,7209.3,369.31
75087,6459.3,402.69
75087,6709.3,150.69
75087,6959.3,118.31
75087,7209.3,369.31
75087,7459.3,621.31
75087,5209.3,1656.7
75087,5459.3,1404.7
75087,5709.3,1153.7
75087,5959.3,904.69
75087,6209.3,656.69
75087,5459.3,1404.7
75087,5709.3,1152.7
75087,5959.3,901.69
75087,6209.3,652.69
75087,6459.3,404.69
75087,5709.3,1153.7
75087,5959.3,901.69
75087,6209.3,650.69
75087,6459.3,401.69
75087,6709.3,153.69
75087,5959.3,904.69
75087,6209.3,652.69
75087,6459.3,401.69
75087,6709.3,152.69
75087,6959.3,123.31
75087,6209.3,656.69
75087,6459.3,404.69
75087,6709.3,153.69
75087,6959.3,123.31
75087,7209.3,375.31
75087,5459.3,1404.7
75087,5709.3,1152.7
75087,5959.3,901.69
75087,6209.3,652.69
75087,6459.3,404.69
75087,5709.3,1152.7
75087,5959.3,900.69
75087,6209.3,649.69
75087,6459.3,400.69
75087,6709.3,152.69
75087,5959.3,901.69
75087,6209.3,649.69
75087,6459.3,398.69
75087,6709.3,149.69
75087,6959.3,120.31
75087,6209.3,652.69
75087,6459.3,400.69
75087,6709.3,149.69
75087,6959.3,119.31
75087,7209.3,371.31
75087,6459.3,404.69
75087,6709.3,152.69
75087,6959.3,120.31
75087,7209.3,371.31
75087,7459.3,623.31
75087,5459.3,1404.7
75087,5709.3,1152.7
75087,5959.3,901.69
75087,6209.3,652.69
75087,6459.3,404.69
75087,5709.3,1152.7
75087,5959.3,900.69
75087,6209.3,649.69
75087,6459.3,400.69
75087,6709.3,152.69
75087,5959.3,901.69
75087,6209.3,649.69
75087,6459.3,398.69
75087,6709.3,149.69
75087,6959.3,120.31
75087,6209.3,652.69
75087,6459.3,400.69
75087,6709.3,149.69
75087,6959.3,119.31
75087,7209.3,371.31
75087,6459.3,404.69
75087,6709.3,152.69
75087,6959.3,120.31
75087,7209.3,371.31
75087,7459.3,623.31
75087,5459.3,1408.7
75087,5709.3,1156.7
75087,5959.3,905.69
75087,6209.3,656.69
75087,6459.3,408.69
75087,5709.3,1156.7
75087,5959.3,904.69
75087,6209.3,653.69
75087,6459.3,404.69
75087,6709.3,156.69
75087,5959.3,905.69
75087,6209.3,653.69
75087,6459.3,402.69
75087,6709.3,153.69
75087,6959.3,124.31
75087,6209.3,656.69
75087,6459.3,404.69
75087,6709.3,153.69
75087,6959.3,123.31
75087,7209.3,375.31
75087,6459.3,408.69
75087,6709.3,156.69
75087,6959.3,124.31
75087,7209.3,375.31
75087,7459.3,627.31
75087,4959.3,1904.7
75087,5209.3,1652.7
75087,5459.3,1401.7
75087,5709.3,1152.7
75087,5959.3,904.69
75087,5209.3,1653.7
75087,5459.3,1401.7
75087,5709.3,1150.7
75087,5959.3,901.69
75087,6209.3,653.69
75087,5459.3,1404.7
75087,5709.3,1152.7
75087,5959.3,901.69
75087,6209.3,652.69
75087,6459.3,404.69
75087,5709.3,1156.7
75087,5959.3,904.69
75087,6209.3,653.69
75087,6459.3,404.69
75087,6709.3,156.69
75087,4959.3,1904.7
75087,5209.3,1652.7
75087,5459.3,1401.7
75087,5709.3,1152.7
75087,5959.3,904.69
75087,5209.3,1652.7
75087,5459.3,1400.7
75087,5709.3,1149.7
75087,5959.3,900.69
75087,6209.3,652.69
75087,5459.3,1401.7
75087,5709.3,1149.7
75087,5959.3,898.69
75087,6209.3,649.69
75087,6459.3,401.69
75087,5709.3,1152.7
75087,5959.3,900.69
75087,6209.3,649.69
75087,6459.3,400.69
75087,6709.3,152.69
75087,5959.3,904.69
75087,6209.3,652.69
75087,6459.3,401.69
75087,6709.3,152.69
75087,6959.3,123.31
75087,5209.3,1653.7
75087,5459.3,1401.7
75087,5709.3,1150.7
75087,5959.3,901.69
75087,6209.3,653.69
75087,5459.3,1401.7
75087,5709.3,1149.7
75087,5959.3,898.69
75087,6209.3,649.69
75087,6459.3,401.69
75087,5709.3,1150.7
75087,5959.3,898.69
75087,6209.3,647.69
75087,6459.3,398.69
75087,6709.3,150.69
75087,5959.3,901.69
75087,6209.3,649.69
75087,6459.3,398.69
75087,6709.3,149.69
75087,6959.3,120.31
75087,6209.3,653.69
75087,6459.3,401.69
75087,6709.3,150.69
75087,6959.3,120.31
75087,7209.3,372.31
75087,5459.3,1404.7
75087,5709.3,1152.7
75087,5959.3,901.69
75087,6209.3,652.69
75087,6459.3,404.69
75087,5709.3,1152.7
75087,5959.3,900.69
75087,6209.3,649.69
75087,6459.3,400.69
75087,6709.3,152.69
75087,5959.3,901.69
75087,6209.3,649.69
75087,6459.3,398.69
75087,6709.3,149.69
75087,6959.3,120.31
75087,6209.3,652.69
75087,6459.3,400.69
75087,6709.3,149.69
75087,6959.3,119.31
75087,7209.3,371.31
75087,6459.3,404.69
75087,6709.3,152.69
75087,6959.3,120.31
75087,7209.3,371.31
75087,7459.3,623.31
75087,4959.3,1904.7
75087,5209.3,1652.7
75087,5459.3,1401.7
75087,5709.3,1152.7
75087,5959.3,904.69
75087,5209.3,1652.7
75087,5459.3,1400.7
75087,5709.3,1149.7
75087,5959.3,900.69
75087,6209.3,652.69
75087,5459.3,1401.7
75087,5709.3,1149.7
75087,5959.3,898.69
75087,6209.3,649.69
75087,6459.3,401.69
75087,5709.3,1152.7
75087,5959.3,900.69
75087,6209.3,649.69
75087,6459.3,400.69
75087,6709.3,152.69
75087,5959.3,904.69
75087,6209.3,652.69
75087,6459.3,401.69
75087,6709.3,152.69
75087,6959.3,123.31
75087,5209.3,1652.7
75087,5459.3,1400.7
75087,5709.3,1149.7
75087,5959.3,900.69
75087,6209.3,652.69
75087,5459.3,1400.7
75087,5709.3,1148.7
75087,5959.3,897.69
75087,6209.3,648.69
75087,6459.3,400.69
75087,5709.3,1149.7
75087,5959.3,897.69
75087,6209.3,646.69
75087,6459.3,397.69
75087,6709.3,149.69
75087,5959.3,900.69
75087,6209.3,648.69
75087,6459.3,397.69
75087,6709.3,148.69
75087,6959.3,119.31
75087,6209.3,652.69
75087,6459.3,400.69
75087,6709.3,149.69
75087,6959.3,119.31
75087,7209.3,371.31
75087,5459.3,1401.7
75087,5709.3,1149.7
75087,5959.3,898.69
75087,6209.3,649.69
75087,6459.3,401.69
75087,5709.3,1149.7
75087,5959.3,897.69
75087,6209.3,646.69
75087,6459.3,397.69
75087,6709.3,149.69
75087,5959.3,898.69
75087,6209.3,646.69
75087,6459.3,395.69
75087,6709.3,146.69
75087,6959.3,117.31
75087,6209.3,649.69
75087,6459.3,397.69
75087,6709.3,146.69
75087,6959.3,116.31
75087,7209.3,368.31
75087,6459.3,401.69
75087,6709.3,149.69
75087,6959.3,117.31
75087,7209.3,368.31
75087,7459.3,620.31
75087,5209.3,1653.7
75087,5459.3,1401.7
75087,5709.3,1150.7
75087,5959.3,901.69
75087,6209.3,653.69
75087,5459.3,1401.7
75087,5709.3,1149.7
75087,5959.3,898.69
75087,6209.3,649.69
75087,6459.3,401.69
75087,5709.3,1150.7
75087,5959.3,898.69
75087,6209.3,647.69
75087,6459.3,398.69
75087,6709.3,150.69
75087,5959.3,901.69
75087,6209.3,649.69
75087,6459.3,398.69
75087,6709.3,149.69
75087,6959.3,120.31
75087,6209.3,653.69
75087,6459.3,401.69
75087,6709.3,150.69
75087,6959.3,120.31
75087,7209.3,372.31
75087,5459.3,1401.7
75087,5709.3,1149.7
75087,5959.3,898.69
75087,6209.3,649.69
75087,6459.3,401.69
75087,5709.3,1149.7
75087,5959.3,897.69
75087,6209.3,646.69
75087,6459.3,397.69
75087,6709.3,149.69
75087,5959.3,898.69
75087,6209.3,646.69
75087,6459.3,395.69
75087,6709.3,146.69
75087,6959.3,117.31
75087,6209.3,649.69
75087,6459.3,397.69
75087,6709.3,146.69
75087,6959.3,116.31
75087,7209.3,368.31
75087,6459.3,401.69
75087,6709.3,149.69
75087,6959.3,117.31
75087,7209.3,368.31
75087,7459.3,620.31
75087,5459.3,1404.7
75087,5709.3,1152.7
75087,5959.3,901.69
75087,6209.3,652.69
75087,6459.3,404.69
75087,5709.3,1152.7
75087,5959.3,900.69
75087,6209.3,649.69
75087,6459.3,400.69
75087,6709.3,152.69
75087,5959.3,901.69
75087,6209.3,649.69
75087,6459.3,398.69
75087,6709.3,149.69
75087,6959.3,120.31
75087,6209.3,652.69
75087,6459.3,400.69
75087,6709.3,149.69
75087,6959.3,119.31
75087,7209.3,371.31
75087,6459.3,404.69
75087,6709.3,152.69
75087,6959.3,120.31
75087,7209.3,371.31
75087,7459.3,623.31
75087,4959.3,1904.7
75087,5209.3,1652.7
75087,5459.3,1401.7
75087,5709.3,1152.7
75087,5959.3,904.69
75087,5209.3,1652.7
75087,5459.3,1400.7
75087,5709.3,1149.7
75087,5959.3,900.69
75087,6209.3,652.69
75087,5459.3,1401.7
75087,5709.3,1149.7
75087,5959.3,898.69
75087,6209.3,649.69
75087,6459.3,401.69
75087,5709.3,1152.7
75087,5959.3,900.69
75087,6209.3,649.69
75087,6459.3,400.69
75087,6709.3,152.69
75087,5959.3,904.69
75087,6209.3,652.69
75087,6459.3,401.69
75087,6709.3,152.69
75087,6959.3,123.31
75087,5209.3,1652.7
75087,5459.3,1400.7
75087,5709.3,1149.7
75087,5959.3,900.69
75087,6209.3,652.69
75087,5459.3,1400.7
75087,5709.3,1148.7
75087,5959.3,897.69
75087,6209.3,648.69
75087,6459.3,400.69
75087,5709.3,1149.7
75087,5959.3,897.69
75087,6209.3,646.69
75087,6459.3,397.69
75087,6709.3,149.69
75087,5959.3,900.69
75087,6209.3,648.69
75087,6459.3,397.69
75087,6709.3,148.69
75087,6959.3,119.31
75087,6209.3,652.69
75087,6459.3,400.69
75087,6709.3,149.69
75087,6959.3,119.31
75087,7209.3,371.31
75087,5459.3,1401.7
75087,5709.3,1149.7
75087,5959.3,898.69
75087,6209.3,649.69
75087,6459.3,401.69
75087,5709.3,1149.7
75087,5959.3,897.69
75087,6209.3,646.69
75087,6459.3,397.69
75087,6709.3,149.69
75087,5959.3,898.69
75087,6209.3,646.69
75087,6459.3,395.69
75087,6709.3,146.69
75087,6959.3,117.31
75087,6209.3,649.69
75087,6459.3,397.69
75087,6709.3,146.69
75087,6959.3,116.31
75087,7209.3,368.31
75087,6459.3,401.69
75087,6709.3,149.69
75087,6959.3,117.31
75087,7209.3,368.31
75087,7459.3,620.31
75087,5209.3,1652.7
75087,5459.3,1400.7
75087,5709.3,1149.7
75087,5959.3,900.69
75087,6209.3,652.69
75087,5459.3,1400.7
75087,5709.3,1148.7
75087,5959.3,897.69
75087,6209.3,648.69
75087,6459.3,400.69
75087,5709.3,1149.7
75087,5959.3,897.69
75087,6209.3,646.69
75087,6459.3,397.69
75087,6709.3,149.69
75087,5959.3,900.69
75087,6209.3,648.69
75087,6459.3,397.69
75087,6709.3,148.69
75087,6959.3,119.31
75087,6209.3,652.69
75087,6459.3,400.69
75087,6709.3,149.69
75087,6959.3,119.31
75087,7209.3,371.31
75087,5459.3,1400.7
75087,5709.3,1148.7
75087,5959.3,897.69
75087,6209.3,648.69
75087,6459.3,400.69
75087,5709.3,1148.7
75087,5959.3,896.69
75087,6209.3,645.69
75087,6459.3,396.69
75087,6709.3,148.69
75087,5959.3,897.69
75087,6209.3,645.69
75087,6459.3,394.69
75087,6709.3,145.69
75087,6959.3,116.31
75087,6209.3,648.69
75087,6459.3,396.69
75087,6709.3,145.69
75087,6959.3,115.31
75087,7209.3,367.31
75087,6459.3,400.69
75087,6709.3,148.69
75087,6959.3,116.31
75087,7209.3,367.31
75087,7459.3,619.31
75087,5459.3,1401.7
75087,5709.3,1149.7
75087,5959.3,898.69
75087,6209.3,649.69
75087,6459.3,401.69
75087,5709.3,1149.7
75087,5959.3,897.69
75087,6209.3,646.69
75087,6459.3,397.69
75087,6709.3,149.69
75087,5959.3,898.69
75087,6209.3,646.69
75087,6459.3,395.69
75087,6709.3,146.69
75087,6959.3,117.31
75087,6209.3,649.69
75087,6459.3,397.69
75087,6709.3,146.69
75087,6959.3,116.31
75087,7209.3,368.31
75087,6459.3,401.69
75087,6709.3,149.69
75087,6959.3,117.31
75087,7209.3,368.31
75087,7459.3,620.31
75087,5209.3,1653.7
75087,5459.3,1401.7
75087,5709.3,1150.7
75087,5959.3,901.69
75087,6209.3,653.69
75087,5459.3,1401.7
75087,5709.3,1149.7
75087,5959.3,898.69
75087,6209.3,649.69
75087,6459.3,401.69
75087,5709.3,1150.7
75087,5959.3,898.69
75087,6209.3,647.69
75087,6459.3,398.69
75087,6709.3,150.69
75087,5959.3,901.69
75087,6209.3,649.69
75087,6459.3,398.69
75087,6709.3,149.69
75087,6959.3,120.31
75087,6209.3,653.69
75087,6459.3,401.69
75087,6709.3,150.69
75087,6959.3,120.31
75087,7209.3,372.31
75087,5459.3,1401.7
75087,5709.3,1149.7
75087,5959.3,898.69
75087,6209.3,649.69
75087,6459.3,401.69
75087,5709.3,1149.7
75087,5959.3,897.69
75087,6209.3,646.69
75087,6459.3,397.69
75087,6709.3,149.69
75087,5959.3,898.69
75087,6209.3,646.69
75087,6459.3,395.69
75087,6709.3,146.69
75087,6959.3,117.31
75087,6209.3,649.69
75087,6459.3,397.69
75087,6709.3,146.69
75087,6959.3,116.31
75087,7209.3,368.31
75087,6459.3,401.69
75087,6709.3,149.69
75087,6959.3,117.31
75087,7209.3,368.31
75087,7459.3,620.31
75087,5459.3,1401.7
75087,5709.3,1149.7
75087,5959.3,898.69
75087,6209.3,649.69
75087,6459.3,401.69
75087,5709.3,1149.7
75087,5959.3,897.69
75087,6209.3,646.69
75087,6459.3,397.69
75087,6709.3,149.69
75087,5959.3,898.69
75087,6209.3,646.69
75087,6459.3,395.69
75087,6709.3,146.69
75087,6959.3,117.31
75087,6209.3,649.69
75087,6459.3,397.69
75087,6709.3,146.69
75087,6959.3,116.31
75087,7209.3,368.31
75087,6459.3,401.69
75087,6709.3,149.69
75087,6959.3,117.31
75087,7209.3,368.31
75087,7459.3,620.31
75087,5459.3,1404.7
75087,5709.3,1152.7
75087,5959.3,901.69
75087,6209.3,652.69
75087,6459.3,404.69
75087,5709.3,1152.7
75087,5959.3,900.69
75087,6209.3,649.69
75087,6459.3,400.69
75087,6709.3,152.69
75087,5959.3,901.69
75087,6209.3,649.69
75087,6459.3,398.69
75087,6709.3,149.69
75087,6959.3,120.31
75087,6209.3,652.69
75087,6459.3,400.69
75087,6709.3,149.69
75087,6959.3,119.31
75087,7209.3,371.31
75087,6459.3,404.69
75087,6709.3,152.69
75087,6959.3,120.31
75087,7209.3,371.31
75087,7459.3,623.31
75087,4959.3,1905.7
75087,5209.3,1653.7
75087,5459.3,1402.7
75087,5709.3,1153.7
75087,5959.3,905.69
75087,5209.3,1653.7
75087,5459.3,1401.7
75087,5709.3,1150.7
75087,5959.3,901.69
75087,6209.3,653.69
75087,5459.3,1402.7
75087,5709.3,1150.7
75087,5959.3,899.69
75087,6209.3,650.69
75087,6459.3,402.69
75087,5709.3,1153.7
75087,5959.3,901.69
75087,6209.3,650.69
75087,6459.3,401.69
75087,6709.3,153.69
75087,5959.3,905.69
75087,6209.3,653.69
75087,6459.3,402.69
75087,6709.3,153.69
75087,6959.3,124.31
75087,5209.3,1653.7
75087,5459.3,1401.7
75087,5709.3,1150.7
75087,5959.3,901.69
75087,6209.3,653.69
75087,5459.3,1401.7
75087,5709.3,1149.7
75087,5959.3,898.69
75087,6209.3,649.69
75087,6459.3,401.69
75087,5709.3,1150.7
75087,5959.3,898.69
75087,6209.3,647.69
75087,6459.3,398.69
75087,6709.3,150.69
75087,5959.3,901.69
75087,6209.3,649.69
75087,6459.3,398.69
75087,6709.3,149.69
75087,6959.3,120.31
75087,6209.3,653.69
75087,6459.3,401.69
75087,6709.3,150.69
75087,6959.3,120.31
75087,7209.3,372.31
75087,5459.3,1402.7
75087,5709.3,1150.7
75087,5959.3,899.69
75087,6209.3,650.69
75087,6459.3,402.69
75087,5709.3,1150.7
75087,5959.3,898.69
75087,6209.3,647.69
75087,6459.3,398.69
75087,6709.3,150.69
75087,5959.3,899.69
75087,6209.3,647.69
75087,6459.3,396.69
75087,6709.3,147.69
75087,6959.3,118.31
75087,6209.3,650.69
75087,6459.3,398.69
75087,6709.3,147.69
75087,6959.3,117.31
75087,7209.3,369.31
75087,6459.3,402.69
75087,6709.3,150.69
75087,6959.3,118.31
75087,7209.3,369.31
75087,7459.3,621.31
75087,5209.3,1653.7
75087,5459.3,1401.7
75087,5709.3,1150.7
75087,5959.3,901.69
75087,6209.3,653.69
75087,5459.3,1401.7
75087,5709.3,1149.7
75087,5959.3,898.69
75087,6209.3,649.69
75087,6459.3,401.69
75087,5709.3,1150.7
75087,5959.3,898.69
75087,6209.3,647.69
75087,6459.3,398.69
75087,6709.3,150.69
75087,5959.3,901.69
75087,6209.3,649.69
75087,6459.3,398.69
75087,6709.3,149.69
75087,6959.3,120.31
75087,6209.3,653.69
75087,6459.3,401.69
75087,6709.3,150.69
75087,6959.3,120.31
75087,7209.3,372.31
75087,5459.3,1401.7
75087,5709.3,1149.7
75087,5959.3,898.69
75087,6209.3,649.69
75087,6459.3,401.69
75087,5709.3,1149.7
75087,5959.3,897.69
75087,6209.3,646.69
75087,6459.3,397.69
75087,6709.3,149.69
75087,5959.3,898.69
75087,6209.3,646.69
75087,6459.3,395.69
75087,6709.3,146.69
75087,6959.3,117.31
75087,6209.3,649.69
75087,6459.3,397.69
75087,6709.3,146.69
75087,6959.3,116.31
75087,7209.3,368.31
75087,6459.3,401.69
75087,6709.3,149.69
75087,6959.3,117.31
75087,7209.3,368.31
75087,7459.3,620.31
75087,5459.3,1402.7
75087,5709.3,1150.7
75087,5959.3,899.69
75087,6209.3,650.69
75087,6459.3,402.69
75087,5709.3,1150.7
75087,5959.3,898.69
75087,6209.3,647.69
75087,6459.3,398.69
75087,6709.3,150.69
75087,5959.3,899.69
75087,6209.3,647.69
75087,6459.3,396.69
75087,6709.3,147.69
75087,6959.3,118.31
75087,6209.3,650.69
75087,6459.3,398.69
75087,6709.3,147.69
75087,6959.3,117.31
75087,7209.3,369.31
75087,6459.3,402.69
75087,6709.3,150.69
75087,6959.3,118.31
75087,7209.3,369.31
75087,7459.3,621.31
75087,5209.3,1653.7
75087,5459.3,1401.7
75087,5709.3,1150.7
75087,5959.3,901.69
75087,6209.3,653.69
75087,5459.3,1401.7
75087,5709.3,1149.7
75087,5959.3,898.69
75087,6209.3,649.69
75087,6459.3,401.69
75087,5709.3,1150.7
75087,5959.3,898.69
75087,6209.3,647.69
75087,6459.3,398.69
75087,6709.3,150.69
75087,5959.3,901.69
75087,6209.3,649.69
75087,6459.3,398.69
75087,6709.3,149.69
75087,6959.3,120.31
75087,6209.3,653.69
75087,6459.3,401.69
75087,6709.3,150.69
75087,6959.3,120.31
75087,7209.3,372.31
75087,5459.3,1401.7
75087,5709.3,1149.7
75087,5959.3,898.69
75087,6209.3,649.69
75087,6459.3,401.69
75087,5709.3,1149.7
75087,5959.3,897.69
75087,6209.3,646.69
75087,6459.3,397.69
75087,6709.3,149.69
75087,5959.3,898.69
75087,6209.3,646.69
75087,6459.3,395.69
75087,6709.3,146.69
75087,6959.3,117.31
75087,6209.3,649.69
75087,6459.3,397.69
75087,6709.3,146.69
75087,6959.3,116.31
75087,7209.3,368.31
75087,6459.3,401.69
75087,6709.3,149.69
75087,6959.3,117.31
75087,7209.3,368.31
75087,7459.3,620.31
75087,5459.3,1401.7
75087,5709.3,1149.7
75087,5959.3,898.69
75087,6209.3,649.69
75087,6459.3,401.69
75087,5709.3,1149.7
75087,5959.3,897.69
75087,6209.3,646.69
75087,6459.3,397.69
75087,6709.3,149.69
75087,5959.3,898.69
75087,6209.3,646.69
75087,6459.3,395.69
75087,6709.3,146.69
75087,6959.3,117.31
75087,6209.3,649.69
75087,6459.3,397.69
75087,6709.3,146.69
75087,6959.3,116.31
75087,7209.3,368.31
75087,6459.3,401.69
75087,6709.3,149.69
75087,6959.3,117.31
75087,7209.3,368.31
75087,7459.3,620.31
75087,5459.3,1402.7
75087,5709.3,1150.7
75087,5959.3,899.69
75087,6209.3,650.69
75087,6459.3,402.69
75087,5709.3,1150.7
75087,5959.3,898.69
75087,6209.3,647.69
75087,6459.3,398.69
75087,6709.3,150.69
75087,5959.3,899.69
75087,6209.3,647.69
75087,6459.3,396.69
75087,6709.3,147.69
75087,6959.3,118.31
75087,6209.3,650.69
75087,6459.3,398.69
75087,6709.3,147.69
75087,6959.3,117.31
75087,7209.3,369.31
75087,6459.3,402.69
75087,6709.3,150.69
75087,6959.3,118.31
75087,7209.3,369.31
75087,7459.3,621.31
75087,5209.3,1656.7
75087,5459.3,1404.7
75087,5709.3,1153.7
75087,5959.3,904.69
75087,6209.3,656.69
75087,5459.3,1404.7
75087,5709.3,1152.7
75087,5959.3,901.69
75087,6209.3,652.69
75087,6459.3,404.69
75087,5709.3,1153.7
75087,5959.3,901.69
75087,6209.3,650.69
75087,6459.3,401.69
75087,6709.3,153.69
75087,5959.3,904.69
75087,6209.3,652.69
75087,6459.3,401.69
75087,6709.3,152.69
75087,6959.3,123.31
75087,6209.3,656.69
75087,6459.3,404.69
75087,6709.3,153.69
75087,6959.3,123.31
75087,7209.3,375.31
75087,5459.3,1404.7
75087,5709.3,1152.7
75087,5959.3,901.69
75087,6209.3,652.69
75087,6459.3,404.69
75087,5709.3,1152.7
75087,5959.3,900.69
75087,6209.3,649.69
75087,6459.3,400.69
75087,6709.3,152.69
75087,5959.3,901.69
75087,6209.3,649.69
75087,6459.3,398.69
75087,6709.3,149.69
75087,6959.3,120.31
75087,6209.3,652.69
75087,6459.3,400.69
75087,6709.3,149.69
75087,6959.3,119.31
75087,7209.3,371.31
75087,6459.3,404.69
75087,6709.3,152.69
75087,6959.3,120.31
75087,7209.3,371.31
75087,7459.3,623.31
75087,5459.3,1404.7
75087,5709.3,1152.7
75087,5959.3,901.69
75087,6209.3,652.69
75087,6459.3,404.69
75087,5709.3,1152.7
75087,5959.3,900.69
75087,6209.3,649.69
75087,6459.3,400.69
75087,6709.3,152.69
75087,5959.3,901.69
75087,6209.3,649.69
75087,6459.3,398.69
75087,6709.3,149.69
75087,6959.3,120.31
75087,6209.3,652.69
75087,6459.3,400.69
75087,6709.3,149.69
75087,6959.3,119.31
75087,7209.3,371.31
75087,6459.3,404.69
75087,6709.3,152.69
75087,6959.3,120.31
75087,7209.3,371.31
75087,7459.3,623.31
75087,5459.3,1404.7
75087,5709.3,1152.7
75087,5959.3,901.69
75087,6209.3,652.69
75087,6459.3,404.69
75087,5709.3,1152.7
75087,5959.3,900.69
75087,6209.3,649.69
75087,6459.3,400.69
75087,6709.3,152.69
75087,5959.3,901.69
75087,6209.3,649.69
75087,6459.3,398.69
75087,6709.3,149.69
75087,6959.3,120.31
75087,6209.3,652.69
75087,6459.3,400.69
75087,6709.3,149.69
75087,6959.3,119.31
75087,7209.3,371.31
75087,6459.3,404.69
75087,6709.3,152.69
75087,6959.3,120.31
75087,7209.3,371.31
75087,7459.3,623.31
75087,7209.3,375.31
75087,7459.3,623.31
75087,7709.3,872.31
75087,7959.3,1123.3
75087,8209.3,1375.3
75087,7459.3,623.31
75087,7709.3,871.31
75087,7959.3,1120.3
75087,8209.3,1371.3
75087,8459.3,1623.3
75087,7709.3,872.31
75087,7959.3,1120.3
75087,8209.3,1369.3
75087,8459.3,1620.3
75087,8709.3,1872.3
75087,7959.3,1123.3
75087,8209.3,1371.3
75087,8459.3,1620.3
75087,8709.3,1871.3
75087,8959.3,2123.3
75087,8209.3,1375.3
75087,8459.3,1623.3
75087,8709.3,1872.3
75087,8959.3,2123.3
75087,9209.3,2375.3
75087,7459.3,623.31
75087,7709.3,871.31
75087,7959.3,1120.3
75087,8209.3,1371.3
75087,8459.3,1623.3
75087,7709.3,871.31
75087,7959.3,1119.3
75087,8209.3,1368.3
75087,8459.3,1619.3
75087,8709.3,1871.3
75087,7959.3,1120.3
75087,8209.3,1368.3
75087,8459.3,1617.3
75087,8709.3,1868.3
75087,8959.3,2120.3
75087,8209.3,1371.3
75087,8459.3,1619.3
75087,8709.3,1868.3
75087,8959.3,2119.3
75087,9209.3,2371.3
75087,8459.3,1623.3
75087,8709.3,1871.3
75087,8959.3,2120.3
75087,9209.3,2371.3
75087,9459.3,2623.3
75087,7709.3,872.31
75087,7959.3,1120.3
75087,8209.3,1369.3
75087,8459.3,1620.3
75087,8709.3,1872.3
75087,7959.3,1120.3
75087,8209.3,1368.3
75087,8459.3,1617.3
75087,8709.3,1868.3
75087,8959.3,2120.3
75087,8209.3,1369.3
75087,8459.3,1617.3
75087,8709.3,1866.3
75087,8959.3,2117.3
75087,9209.3,2369.3
75087,8459.3,1620.3
75087,8709.3,1868.3
75087,8959.3,2117.3
75087,9209.3,2368.3
75087,9459.3,2620.3
75087,8709.3,1872.3
75087,8959.3,2120.3
75087,9209.3,2369.3
75087,9459.3,2620.3
75087,9709.3,2872.3
75087,7959.3,1123.3
75087,8209.3,1371.3
75087,8459.3,1620.3
75087,8709.3,1871.3
75087,8959.3,2123.3
75087,8209.3,1371.3
75087,8459.3,1619.3
75087,8709.3,1868.3
75087,8959.3,2119.3
75087,9209.3,2371.3
75087,8459.3,1620.3
75087,8709.3,1868.3
75087,8959.3,2117.3
75087,9209.3,2368.3
75087,9459.3,2620.3
75087,8709.3,1871.3
75087,8959.3,2119.3
75087,9209.3,2368.3
75087,9459.3,2619.3
75087,9709.3,2871.3
75087,8959.3,2123.3
75087,9209.3,2371.3
75087,9459.3,2620.3
75087,9709.3,2871.3
75087,9959.3,3123.3
75087,8209.3,1375.3
75087,8459.3,1623.3
75087,8709.3,1872.3
75087,8959.3,2123.3
75087,9209.3,2375.3
75087,8459.3,1623.3
75087,8709.3,1871.3
75087,8959.3,2120.3
75087,9209.3,2371.3
75087,9459.3,2623.3
75087,8709.3,1872.3
75087,8959.3,2120.3
75087,9209.3,2369.3
75087,9459.3,2620.3
75087,9709.3,2872.3
75087,8959.3,2123.3
75087,9209.3,2371.3
75087,9459.3,2620.3
75087,9709.3,2871.3
75087,9959.3,3123.3
75087,9209.3,2375.3
75087,9459.3,2623.3
75087,9709.3,2872.3
75087,9959.3,3123.3
75087,10209,3375.3
75087,5459.3,1408.7
75087,5709.3,1156.7
75087,5959.3,905.69
75087,6209.3,656.69
75087,6459.3,408.69
75087,5709.3,1156.7
75087,5959.3,904.69
75087,6209.3,653.69
75087,6459.3,404.69
75087,6709.3,156.69
75087,5959.3,905.69
75087,6209.3,653.69
75087,6459.3,402.69
75087,6709.3,153.69
75087,6959.3,124.31
75087,6209.3,656.69
75087,6459.3,404.69
75087,6709.3,153.69
75087,6959.3,123.31
75087,7209.3,375.31
75087,6459.3,408.69
75087,6709.3,156.69
75087,6959.3,124.31
75087,7209.3,375.31
75087,7459.3,627.31
75087,7209.3,375.31
75087,7459.3,623.31
75087,7709.3,872.31
75087,7959.3,1123.3
75087,8209.3,1375.3
75087,7459.3,623.31
75087,7709.3,871.31
75087,7959.3,1120.3
75087,8209.3,1371.3
75087,8459.3,1623.3
75087,7709.3,872.31
75087,7959.3,1120.3
75087,8209.3,1369.3
75087,8459.3,1620.3
75087,8709.3,1872.3
75087,7959.3,1123.3
75087,8209.3,1371.3
75087,8459.3,1620.3
75087,8709.3,1871.3
75087,8959.3,2123.3
75087,8209.3,1375.3
75087,8459.3,1623.3
75087,8709.3,1872.3
75087,8959.3,2123.3
75087,9209.3,2375.3
75087,7459.3,623.31
75087,7709.3,871.31
75087,7959.3,1120.3
75087,8209.3,1371.3
75087,8459.3,1623.3
75087,7709.3,871.31
75087,7959.3,1119.3
75087,8209.3,1368.3
75087,8459.3,1619.3
75087,8709.3,1871.3
75087,7959.3,1120.3
75087,8209.3,1368.3
75087,8459.3,1617.3
75087,8709.3,1868.3
75087,8959.3,2120.3
75087,8209.3,1371.3
75087,8459.3,1619.3
75087,8709.3,1868.3
75087,8959.3,2119.3
75087,9209.3,2371.3
75087,8459.3,1623.3
75087,8709.3,1871.3
75087,8959.3,2120.3
75087,9209.3,2371.3
75087,9459.3,2623.3
75087,7709.3,872.31
75087,7959.3,1120.3
75087,8209.3,1369.3
75087,8459.3,1620.3
75087,8709.3,1872.3
75087,7959.3,1120.3
75087,8209.3,1368.3
75087,8459.3,1617.3
75087,8709.3,1868.3
75087,8959.3,2120.3
75087,8209.3,1369.3
75087,8459.3,1617.3
75087,8709.3,1866.3
75087,8959.3,2117.3
75087,9209.3,2369.3
75087,8459.3,1620.3
75087,8709.3,1868.3
75087,8959.3,2117.3
75087,9209.3,2368.3
75087,9459.3,2620.3
75087,8709.3,1872.3
75087,8959.3,2120.3
75087,9209.3,2369.3
75087,9459.3,2620.3
75087,9709.3,2872.3
75087,7959.3,1123.3
75087,8209.3,1371.3
75087,8459.3,1620.3
75087,8709.3,1871.3
75087,8959.3,2123.3
75087,8209.3,1371.3
75087,8459.3,1619.3
75087,8709.3,1868.3
75087,8959.3,2119.3
75087,9209.3,2371.3
75087,8459.3,1620.3
75087,8709.3,1868.3
75087,8959.3,2117.3
75087,9209.3,2368.3
75087,9459.3,2620.3
75087,8709.3,1871.3
75087,8959.3,2119.3
75087,9209.3,2368.3
75087,9459.3,2619.3
75087,9709.3,2871.3
75087,8959.3,2123.3
75087,9209.3,2371.3
75087,9459.3,2620.3
75087,9709.3,2871.3
75087,9959.3,3123.3
75087,8209.3,1375.3
75087,8459.3,1623.3
75087,8709.3,1872.3
75087,8959.3,2123.3
75087,9209.3,2375.3
75087,8459.3,1623.3
75087,8709.3,1871.3
75087,8959.3,2120.3
75087,9209.3,2371.3
75087,9459.3,2623.3
75087,8709.3,1872.3
75087,8959.3,2120.3
75087,9209.3,2369.3
75087,9459.3,2620.3
75087,9709.3,2872.3
75087,8959.3,2123.3
75087,9209.3,2371.3
75087,9459.3,2620.3
75087,9709.3,2871.3
75087,9959.3,3123.3
75087,9209.3,2375.3
75087,9459.3,2623.3
75087,9709.3,2872.3
75087,9959.3,3123.3
75087,10209,3375.3
75087,7209.3,375.31
75087,7459.3,623.31
75087,7709.3,872.31
75087,7959.3,1123.3
75087,8209.3,1375.3
75087,7459.3,623.31
75087,7709.3,871.31
75087,7959.3,1120.3
75087,8209.3,1371.3
75087,8459.3,1623.3
75087,7709.3,872.31
75087,7959.3,1120.3
75087,8209.3,1369.3
75087,8459.3,1620.3
75087,8709.3,1872.3
75087,7959.3,1123.3
75087,8209.3,1371.3
75087,8459.3,1620.3
75087,8709.3,1871.3
75087,8959.3,2123.3
75087,8209.3,1375.3
75087,8459.3,1623.3
75087,8709.3,1872.3
75087,8959.3,2123.3
75087,9209.3,2375.3
75087,7459.3,623.31
75087,7709.3,871.31
75087,7959.3,1120.3
75087,8209.3,1371.3
75087,8459.3,1623.3
75087,7709.3,871.31
75087,7959.3,1119.3
75087,8209.3,1368.3
75087,8459.3,1619.3
75087,8709.3,1871.3
75087,7959.3,1120.3
75087,8209.3,1368.3
75087,8459.3,1617.3
75087,8709.3,1868.3
75087,8959.3,2120.3
75087,8209.3,1371.3
75087,8459.3,1619.3
75087,8709.3,1868.3
75087,8959.3,2119.3
75087,9209.3,2371.3
75087,8459.3,1623.3
75087,8709.3,1871.3
75087,8959.3,2120.3
75087,9209.3,2371.3
75087,9459.3,2623.3
75087,7709.3,872.31
75087,7959.3,1120.3
75087,8209.3,1369.3
75087,8459.3,1620.3
75087,8709.3,1872.3
75087,7959.3,1120.3
75087,8209.3,1368.3
75087,8459.3,1617.3
75087,8709.3,1868.3
75087,8959.3,2120.3
75087,8209.3,1369.3
75087,8459.3,1617.3
75087,8709.3,1866.3
75087,8959.3,2117.3
75087,9209.3,2369.3
75087,8459.3,1620.3
75087,8709.3,1868.3
75087,8959.3,2117.3
75087,9209.3,2368.3
75087,9459.3,2620.3
75087,8709.3,1872.3
75087,8959.3,2120.3
75087,9209.3,2369.3
75087,9459.3,2620.3
75087,9709.3,2872.3
75087,7959.3,1123.3
75087,8209.3,1371.3
75087,8459.3,1620.3
75087,8709.3,1871.3
75087,8959.3,2123.3
75087,8209.3,1371.3
75087,8459.3,1619.3
75087,8709.3,1868.3
75087,8959.3,2119.3
75087,9209.3,2371.3
75087,8459.3,1620.3
75087,8709.3,1868.3
75087,8959.3,2117.3
75087,9209.3,2368.3
75087,9459.3,2620.3
75087,8709.3,1871.3
75087,8959.3,2119.3
75087,9209.3,2368.3
75087,9459.3,2619.3
75087,9709.3,2871.3
75087,8959.3,2123.3
75087,9209.3,2371.3
75087,9459.3,2620.3
75087,9709.3,2871.3
75087,9959.3,3123.3
75087,8209.3,1375.3
75087,8459.3,1623.3
75087,8709.3,1872.3
75087,8959.3,2123.3
75087,9209.3,2375.3
75087,8459.3,1623.3
75087,8709.3,1871.3
75087,8959.3,2120.3
75087,9209.3,2371.3
75087,9459.3,2623.3
75087,8709.3,1872.3
75087,8959.3,2120.3
75087,9209.3,2369.3
75087,9459.3,2620.3
75087,9709.3,2872.3
75087,8959.3,2123.3
75087,9209.3,2371.3
75087,9459.3,2620.3
75087,9709.3,2871.3
75087,9959.3,3123.3
75087,9209.3,2375.3
75087,9459.3,2623.3
75087,9709.3,2872.3
75087,9959.3,3123.3
75087,10209,3375.3
75087,7459.3,627.31
75087,7709.3,875.31
75087,7959.3,1124.3
75087,8209.3,1375.3
75087,8459.3,1627.3
75087,7709.3,875.31
75087,7959.3,1123.3
75087,8209.3,1372.3
75087,8459.3,1623.3
75087,8709.3,1875.3
75087,7959.3,1124.3
75087,8209.3,1372.3
75087,8459.3,1621.3
75087,8709.3,1872.3
75087,8959.3,2124.3
75087,8209.3,1375.3
75087,8459.3,1623.3
75087,8709.3,1872.3
75087,8959.3,2123.3
75087,9209.3,2375.3
75087,8459.3,1627.3
75087,8709.3,1875.3
75087,8959.3,2124.3
75087,9209.3,2375.3
75087,9459.3,2627.3
75087,7709.3,875.31
75087,7959.3,1123.3
75087,8209.3,1372.3
75087,8459.3,1623.3
75087,8709.3,1875.3
75087,7959.3,1123.3
75087,8209.3,1371.3
75087,8459.3,1620.3
75087,8709.3,1871.3
75087,8959.3,2123.3
75087,8209.3,1372.3
75087,8459.3,1620.3
75087,8709.3,1869.3
75087,8959.3,2120.3
75087,9209.3,2372.3
75087,8459.3,1623.3
75087,8709.3,1871.3
75087,8959.3,2120.3
75087,9209.3,2371.3
75087,9459.3,2623.3
75087,8709.3,1875.3
75087,8959.3,2123.3
75087,9209.3,2372.3
75087,9459.3,2623.3
75087,9709.3,2875.3
75087,7959.3,1124.3
75087,8209.3,1372.3
75087,8459.3,1621.3
75087,8709.3,1872.3
75087,8959.3,2124.3
75087,8209.3,1372.3
75087,8459.3,1620.3
75087,8709.3,1869.3
75087,8959.3,2120.3
75087,9209.3,2372.3
75087,8459.3,1621.3
75087,8709.3,1869.3
75087,8959.3,2118.3
75087,9209.3,2369.3
75087,9459.3,2621.3
75087,8709.3,1872.3
75087,8959.3,2120.3
75087,9209.3,2369.3
75087,9459.3,2620.3
75087,9709.3,2872.3
75087,8959.3,2124.3
75087,9209.3,2372.3
75087,9459.3,2621.3
75087,9709.3,2872.3
75087,9959.3,3124.3
75087,8209.3,1375.3
75087,8459.3,1623.3
75087,8709.3,1872.3
75087,8959.3,2123.3
75087,9209.3,2375.3
75087,8459.3,1623.3
75087,8709.3,1871.3
75087,8959.3,2120.3
75087,9209.3,2371.3
75087,9459.3,2623.3
75087,8709.3,1872.3
75087,8959.3,2120.3
75087,9209.3,2369.3
75087,9459.3,2620.3
75087,9709.3,2872.3
75087,8959.3,2123.3
75087,9209.3,2371.3
75087,9459.3,2620.3
75087,9709.3,2871.3
75087,9959.3,3123.3
75087,9209.3,2375.3
75087,9459.3,2623.3
75087,9709.3,2872.3
75087,9959.3,3123.3
75087,10209,3375.3
75087,8459.3,1627.3
75087,8709.3,1875.3
75087,8959.3,2124.3
75087,9209.3,2375.3
75087,9459.3,2627.3
75087,8709.3,1875.3
75087,8959.3,2123.3
75087,9209.3,2372.3
75087,9459.3,2623.3
75087,9709.3,2875.3
75087,8959.3,2124.3
75087,9209.3,2372.3
75087,9459.3,2621.3
75087,9709.3,2872.3
75087,9959.3,3124.3
75087,9209.3,2375.3
75087,9459.3,2623.3
75087,9709.3,2872.3
75087,9959.3,3123.3
75087,10209,3375.3
75087,9459.3,2627.3
75087,9709.3,2875.3
75087,9959.3,3124.3
75087,10209,3375.3
75087,10459,3627.3
