42598,1948.8,6257.5
44263,1948.8,5507.5
44263,1948.8,5757.5
44263,1948.8,6007.5
44263,1948.8,6257.5
44263,1948.8,6507.5
44263,1948.8,5757.5
44263,1948.8,6007.5
44263,1948.8,6257.5
44263,1948.8,6507.5
44263,1948.8,6757.5
44263,1948.8,6007.5
44263,1948.8,6257.5
44263,1948.8,6507.5
44263,1948.8,6757.5
44263,1948.8,7007.5
44263,1948.8,6257.5
44263,1948.8,6507.5
44263,1948.8,6757.5
44263,1948.8,7007.5
44263,1948.8,7257.5
44263,1948.8,6507.5
44263,1948.8,6757.5
44263,1948.8,7007.5
44263,1948.8,7257.5
44263,1948.8,7507.5
44263,1948.8,5757.5
44263,1948.8,6007.5
44263,1948.8,6257.5
44263,1948.8,6507.5
44263,1948.8,6757.5
44263,1948.8,6007.5
44263,1948.8,6257.5
44263,1948.8,6507.5
44263,1948.8,6757.5
44263,1948.8,7007.5
44263,1948.8,6257.5
44263,1948.8,6507.5
44263,1948.8,6757.5
44263,1948.8,7007.5
44263,1948.8,7257.5
44263,1948.8,6507.5
44263,1948.8,6757.5
44263,1948.8,7007.5
44263,1948.8,7257.5
44263,1948.8,7507.5
44263,1948.8,6757.5
44263,1948.8,7007.5
44263,1948.8,7257.5
44263,1948.8,7507.5
44263,1948.8,6007.5
44263,1948.8,6257.5
44263,1948.8,6507.5
44263,1948.8,6757.5
44263,1948.8,7007.5
44263,1948.8,6257.5
44263,1948.8,6507.5
44263,1948.8,6757.5
44263,1948.8,7007.5
44263,1948.8,7257.5
44263,1948.8,6507.5
44263,1948.8,6757.5
44263,1948.8,7007.5
44263,1948.8,7257.5
44263,1948.8,7507.5
44263,1948.8,6757.5
44263,1948.8,7007.5
44263,1948.8,7257.5
44263,1948.8,7507.5
44263,1948.8,7007.5
44263,1948.8,7257.5
44263,1948.8,7507.5
44263,1948.8,6257.5
44263,1948.8,6507.5
44263,1948.8,6757.5
44263,1948.8,7007.5
44263,1948.8,7257.5
44263,1948.8,6507.5
44263,1948.8,6757.5
44263,1948.8,7007.5
44263,1948.8,7257.5
44263,1948.8,7507.5
44263,1948.8,6757.5
44263,1948.8,7007.5
44263,1948.8,7257.5
44263,1948.8,7507.5
44263,1948.8,7007.5
44263,1948.8,7257.5
44263,1948.8,7507.5
44263,1948.8,7257.5
44263,1948.8,7507.5
