63683,1948.8,5255.1
63683,1948.8,5255.1
63683,1948.8,5255.1
63683,1948.8,5505.1
63683,1948.8,5255.1
63683,1948.8,5255.1
63683,1948.8,5505.1
63683,1948.8,5255.1
63683,1948.8,5505.1
63683,1948.8,5755.1
63683,1948.8,5255.1
63683,1948.8,5255.1
63683,1948.8,5505.1
63683,1948.8,5255.1
63683,1948.8,5505.1
63683,1948.8,5755.1
63683,1948.8,5255.1
63683,1948.8,5505.1
63683,1948.8,5755.1
63683,1948.8,6005.1
63683,1948.8,5255.1
63683,1948.8,5255.1
63683,1948.8,5505.1
63683,1948.8,5255.1
63683,1948.8,5505.1
63683,1948.8,5755.1
63683,1948.8,5255.1
63683,1948.8,5505.1
63683,1948.8,5755.1
63683,1948.8,6005.1
63683,1948.8,5255.1
63683,1948.8,5505.1
63683,1948.8,5755.1
63683,1948.8,6005.1
63683,1948.8,6255.1
64415,1948.8,4755.1
64415,1948.8,4755.1
64415,1948.8,4755.1
64415,1948.8,5005.1
64415,1948.8,4755.1
64415,1948.8,4755.1
64415,1948.8,5005.1
64415,1948.8,4755.1
64415,1948.8,5005.1
64415,1948.8,5255.1
64415,1948.8,4755.1
64415,1948.8,4755.1
64415,1948.8,5005.1
64415,1948.8,4755.1
64415,1948.8,5005.1
64415,1948.8,5255.1
64415,1948.8,4755.1
64415,1948.8,5005.1
64415,1948.8,5255.1
64415,1948.8,5505.1
64415,1948.8,4755.1
64415,1948.8,4755.1
64415,1948.8,5005.1
64415,1948.8,4755.1
64415,1948.8,5005.1
64415,1948.8,5255.1
64415,1948.8,4755.1
64415,1948.8,5005.1
64415,1948.8,5255.1
64415,1948.8,5505.1
64415,1948.8,4755.1
64415,1948.8,4755.1
64415,1948.8,5005.1
64415,1948.8,4755.1
64415,1948.8,4755.1
64415,1948.8,5005.1
64415,1948.8,4755.1
64415,1948.8,5005.1
64415,1948.8,5255.1
64415,1948.8,4755.1
64415,1948.8,4755.1
64415,1948.8,5005.1
64415,1948.8,4755.1
64415,1948.8,5005.1
64415,1948.8,5255.1
64415,1948.8,4755.1
64415,1948.8,5005.1
64415,1948.8,5255.1
64415,1948.8,5505.1
64415,1948.8,4755.1
64415,1948.8,4755.1
64415,1948.8,5005.1
64415,1948.8,4755.1
64415,1948.8,5005.1
64415,1948.8,5255.1
64415,1948.8,4755.1
64415,1948.8,5005.1
64415,1948.8,5255.1
64415,1948.8,5505.1
64415,1948.8,4755.1
64415,1948.8,5005.1
64415,1948.8,4755.1
64415,1948.8,5005.1
64415,1948.8,5255.1
64415,1948.8,4755.1
64415,1948.8,5005.1
64415,1948.8,5255.1
64415,1948.8,5505.1
64415,1948.8,4755.1
64415,1948.8,4755.1
64415,1948.8,5005.1
64415,1948.8,4755.1
64415,1948.8,5005.1
64415,1948.8,5255.1
64415,1948.8,4755.1
64415,1948.8,4755.1
64415,1948.8,5005.1
64415,1948.8,4755.1
64415,1948.8,5005.1
64415,1948.8,5255.1
64415,1948.8,4755.1
64415,1948.8,5005.1
64415,1948.8,5255.1
64415,1948.8,5505.1
64415,1948.8,4755.1
64415,1948.8,4755.1
64415,1948.8,5005.1
64415,1948.8,4755.1
64415,1948.8,5005.1
64415,1948.8,5255.1
64415,1948.8,4755.1
64415,1948.8,5005.1
64415,1948.8,5255.1
64415,1948.8,5505.1
64415,1948.8,4755.1
64415,1948.8,5005.1
64415,1948.8,4755.1
64415,1948.8,5005.1
64415,1948.8,5255.1
64415,1948.8,4755.1
64415,1948.8,5005.1
64415,1948.8,5255.1
64415,1948.8,5505.1
64415,1948.8,4755.1
64415,1948.8,5005.1
64415,1948.8,5255.1
64415,1948.8,4755.1
64415,1948.8,5005.1
64415,1948.8,5255.1
64415,1948.8,5505.1
64415,1948.8,4755.1
64415,1948.8,4755.1
64415,1948.8,5005.1
64415,1948.8,4755.1
64415,1948.8,5005.1
64415,1948.8,5255.1
64415,1948.8,4755.1
64415,1948.8,5005.1
64415,1948.8,5255.1
64415,1948.8,5505.1
64415,1948.8,4755.1
64415,1948.8,4755.1
64415,1948.8,5005.1
64415,1948.8,4755.1
64415,1948.8,5005.1
64415,1948.8,5255.1
64415,1948.8,4755.1
64415,1948.8,5005.1
64415,1948.8,5255.1
64415,1948.8,5505.1
64415,1948.8,4755.1
64415,1948.8,5005.1
64415,1948.8,4755.1
64415,1948.8,5005.1
64415,1948.8,5255.1
64415,1948.8,4755.1
64415,1948.8,5005.1
64415,1948.8,5255.1
64415,1948.8,5505.1
64415,1948.8,4755.1
64415,1948.8,5005.1
64415,1948.8,5255.1
64415,1948.8,4755.1
64415,1948.8,5005.1
64415,1948.8,5255.1
64415,1948.8,5505.1
64415,1948.8,4755.1
64415,1948.8,5005.1
64415,1948.8,5255.1
64415,1948.8,5505.1
64415,1948.8,4755.1
64415,1948.8,4755.1
64415,1948.8,5005.1
64415,1948.8,4755.1
64415,1948.8,5005.1
64415,1948.8,5255.1
64415,1948.8,4755.1
64415,1948.8,5005.1
64415,1948.8,5255.1
64415,1948.8,5505.1
64415,1948.8,4755.1
64415,1948.8,5005.1
64415,1948.8,4755.1
64415,1948.8,5005.1
64415,1948.8,5255.1
64415,1948.8,4755.1
64415,1948.8,5005.1
64415,1948.8,5255.1
64415,1948.8,5505.1
64415,1948.8,4755.1
64415,1948.8,5005.1
64415,1948.8,5255.1
64415,1948.8,4755.1
64415,1948.8,5005.1
64415,1948.8,5255.1
64415,1948.8,5505.1
64415,1948.8,4755.1
64415,1948.8,5005.1
64415,1948.8,5255.1
64415,1948.8,5505.1
