26252,1948.8,4256
26252,1948.8,4506
26252,1948.8,4256
26252,1948.8,4506
26252,1948.8,4756
26252,1948.8,4256
26252,1948.8,4506
26252,1948.8,4756
26252,1948.8,5006
26252,1948.8,4256
26252,1948.8,4506
26252,1948.8,4756
26252,1948.8,5006
26252,1948.8,5256
26252,1948.8,4506
26252,1948.8,4756
26252,1948.8,5006
26252,1948.8,5256
26252,1948.8,4256
26252,1948.8,4506
26252,1948.8,4756
26252,1948.8,4256
26252,1948.8,4506
26252,1948.8,4756
26252,1948.8,5006
26252,1948.8,4256
26252,1948.8,4506
26252,1948.8,4756
26252,1948.8,5006
26252,1948.8,5256
26252,1948.8,4506
26252,1948.8,4756
26252,1948.8,5006
26252,1948.8,5256
26252,1948.8,4756
26252,1948.8,5006
26252,1948.8,5256
26252,1948.8,4256
26252,1948.8,4506
26252,1948.8,4756
26252,1948.8,5006
26252,1948.8,4256
26252,1948.8,4506
26252,1948.8,4756
26252,1948.8,5006
26252,1948.8,5256
26252,1948.8,4506
26252,1948.8,4756
26252,1948.8,5006
26252,1948.8,5256
26252,1948.8,4756
26252,1948.8,5006
26252,1948.8,5256
26252,1948.8,5006
26252,1948.8,5256
26252,1948.8,4256
26252,1948.8,4506
26252,1948.8,4756
26252,1948.8,5006
26252,1948.8,5256
26252,1948.8,4506
26252,1948.8,4756
26252,1948.8,5006
26252,1948.8,5256
26252,1948.8,4756
26252,1948.8,5006
26252,1948.8,5256
26252,1948.8,5006
26252,1948.8,5256
26252,1948.8,5256
26252,1948.8,4506
26252,1948.8,4756
26252,1948.8,5006
26252,1948.8,5256
26252,1948.8,4756
26252,1948.8,5006
26252,1948.8,5256
26252,1948.8,5006
26252,1948.8,5256
26252,1948.8,5256
26970,1948.8,4256
26970,1948.8,4256
26970,1948.8,4506
26970,1948.8,4256
26970,1948.8,4256
26970,1948.8,4506
26970,1948.8,4256
26970,1948.8,4506
26970,1948.8,5006
26970,1948.8,5256
26970,1948.8,4256
26970,1948.8,4256
26970,1948.8,4506
26970,1948.8,4256
26970,1948.8,4506
26970,1948.8,5006
26970,1948.8,5256
26970,1948.8,5006
26970,1948.8,5256
26970,1948.8,5256
26970,1948.8,4256
26970,1948.8,4506
26970,1948.8,5006
26970,1948.8,5256
26970,1948.8,5006
26970,1948.8,5256
26970,1948.8,5256
26970,1948.8,5006
26970,1948.8,5256
26970,1948.8,5256
26970,1948.8,6506
26970,1948.8,5006
26970,1948.8,5256
26970,1948.8,5006
26970,1948.8,5256
26970,1948.8,5256
26970,1948.8,5006
26970,1948.8,5256
26970,1948.8,5256
26970,1948.8,6506
26970,1948.8,5006
26970,1948.8,5256
26970,1948.8,5256
26970,1948.8,6506
26970,1948.8,6506
26970,1948.8,6756
26970,1948.8,5006
26970,1948.8,5256
26970,1948.8,5006
26970,1948.8,5256
26970,1948.8,5256
26970,1948.8,5006
26970,1948.8,5256
26970,1948.8,5256
26970,1948.8,6506
26970,1948.8,5006
26970,1948.8,5256
26970,1948.8,5256
26970,1948.8,6506
26970,1948.8,6506
26970,1948.8,6756
26970,1948.8,5006
26970,1948.8,5256
26970,1948.8,5256
26970,1948.8,6506
26970,1948.8,6506
26970,1948.8,6756
26970,1948.8,6506
26970,1948.8,6756
26970,1948.8,7006
27687,1948.8,5006
27687,1948.8,5256
27687,1948.8,5506
27687,1948.8,5756
27687,1948.8,5256
27687,1948.8,5506
27687,1948.8,5756
27687,1948.8,5506
27687,1948.8,5756
27687,1948.8,5006
27687,1948.8,5256
27687,1948.8,5506
27687,1948.8,5756
27687,1948.8,5256
27687,1948.8,5506
27687,1948.8,5756
27687,1948.8,5506
27687,1948.8,5756
27687,1948.8,5006
27687,1948.8,5256
27687,1948.8,5506
27687,1948.8,5756
27687,1948.8,5256
27687,1948.8,5506
27687,1948.8,5756
27687,1948.8,5506
27687,1948.8,5756
27687,1948.8,5006
27687,1948.8,5256
27687,1948.8,5506
27687,1948.8,5756
27687,1948.8,5256
27687,1948.8,5506
27687,1948.8,5756
27687,1948.8,5506
27687,1948.8,5756
27687,1948.8,5756
27687,1948.8,5006
27687,1948.8,5256
27687,1948.8,5506
27687,1948.8,5756
27687,1948.8,5256
27687,1948.8,5506
27687,1948.8,5756
27687,1948.8,5506
27687,1948.8,5756
27687,1948.8,5006
27687,1948.8,5256
27687,1948.8,5506
27687,1948.8,5756
27687,1948.8,5256
27687,1948.8,5506
27687,1948.8,5756
27687,1948.8,5506
27687,1948.8,5756
27687,1948.8,5006
27687,1948.8,5256
27687,1948.8,5506
27687,1948.8,5756
27687,1948.8,5256
27687,1948.8,5506
27687,1948.8,5756
27687,1948.8,5506
27687,1948.8,5756
27687,1948.8,5756
27687,1948.8,5006
27687,1948.8,5256
27687,1948.8,5506
27687,1948.8,5756
27687,1948.8,5256
27687,1948.8,5506
27687,1948.8,5756
27687,1948.8,5506
27687,1948.8,5756
27687,1948.8,5006
27687,1948.8,5256
27687,1948.8,5506
27687,1948.8,5756
27687,1948.8,5256
27687,1948.8,5506
27687,1948.8,5756
27687,1948.8,5506
27687,1948.8,5756
27687,1948.8,5756
27687,1948.8,5006
27687,1948.8,5256
27687,1948.8,5506
27687,1948.8,5756
27687,1948.8,5256
27687,1948.8,5506
27687,1948.8,5756
27687,1948.8,5506
27687,1948.8,5756
27687,1948.8,5756
27687,1948.8,5006
27687,1948.8,5256
27687,1948.8,5506
27687,1948.8,5756
27687,1948.8,5256
27687,1948.8,5506
27687,1948.8,5756
27687,1948.8,5506
27687,1948.8,5756
27687,1948.8,5006
27687,1948.8,5256
27687,1948.8,5506
27687,1948.8,5756
27687,1948.8,5256
27687,1948.8,5506
27687,1948.8,5756
27687,1948.8,5506
27687,1948.8,5756
27687,1948.8,5006
27687,1948.8,5256
27687,1948.8,5506
27687,1948.8,5756
27687,1948.8,5256
27687,1948.8,5506
27687,1948.8,5756
27687,1948.8,5506
27687,1948.8,5756
27687,1948.8,5756
27687,1948.8,5006
27687,1948.8,5256
27687,1948.8,5506
27687,1948.8,5756
27687,1948.8,5256
27687,1948.8,5506
27687,1948.8,5756
27687,1948.8,5506
27687,1948.8,5756
27687,1948.8,5006
27687,1948.8,5256
27687,1948.8,5506
27687,1948.8,5756
27687,1948.8,5256
27687,1948.8,5506
27687,1948.8,5756
27687,1948.8,5506
27687,1948.8,5756
27687,1948.8,5756
27687,1948.8,5006
27687,1948.8,5256
27687,1948.8,5506
27687,1948.8,5756
27687,1948.8,5256
27687,1948.8,5506
27687,1948.8,5756
27687,1948.8,5506
27687,1948.8,5756
27687,1948.8,5756
27687,1948.8,5006
27687,1948.8,5256
27687,1948.8,5506
27687,1948.8,5756
27687,1948.8,5256
27687,1948.8,5506
27687,1948.8,5756
27687,1948.8,5506
27687,1948.8,5756
27687,1948.8,5006
27687,1948.8,5256
27687,1948.8,5506
27687,1948.8,5756
27687,1948.8,5256
27687,1948.8,5506
27687,1948.8,5756
27687,1948.8,5506
27687,1948.8,5756
27687,1948.8,5756
27687,1948.8,5006
27687,1948.8,5256
27687,1948.8,5506
27687,1948.8,5756
27687,1948.8,5256
27687,1948.8,5506
27687,1948.8,5756
27687,1948.8,5506
27687,1948.8,5756
27687,1948.8,5756
27687,1948.8,5256
27687,1948.8,5506
27687,1948.8,5756
27687,1948.8,5506
27687,1948.8,5756
27687,1948.8,5756
27687,1948.8,5006
27687,1948.8,5256
27687,1948.8,5506
27687,1948.8,5756
27687,1948.8,5256
27687,1948.8,5506
27687,1948.8,5756
27687,1948.8,5506
27687,1948.8,5756
27687,1948.8,5006
27687,1948.8,5256
27687,1948.8,5506
27687,1948.8,5756
27687,1948.8,5256
27687,1948.8,5506
27687,1948.8,5756
27687,1948.8,5506
27687,1948.8,5756
27687,1948.8,5006
27687,1948.8,5256
27687,1948.8,5506
27687,1948.8,5756
27687,1948.8,5256
27687,1948.8,5506
27687,1948.8,5756
27687,1948.8,5506
27687,1948.8,5756
27687,1948.8,5756
27687,1948.8,5006
27687,1948.8,5256
27687,1948.8,5506
27687,1948.8,5756
27687,1948.8,5256
27687,1948.8,5506
27687,1948.8,5756
27687,1948.8,5506
27687,1948.8,5756
27687,1948.8,5006
27687,1948.8,5256
27687,1948.8,5506
27687,1948.8,5756
27687,1948.8,5256
27687,1948.8,5506
27687,1948.8,5756
27687,1948.8,5506
27687,1948.8,5756
27687,1948.8,5756
27687,1948.8,5006
27687,1948.8,5256
27687,1948.8,5506
27687,1948.8,5756
27687,1948.8,5256
27687,1948.8,5506
27687,1948.8,5756
27687,1948.8,5506
27687,1948.8,5756
27687,1948.8,5756
27687,1948.8,5006
27687,1948.8,5256
27687,1948.8,5506
27687,1948.8,5756
27687,1948.8,5256
27687,1948.8,5506
27687,1948.8,5756
27687,1948.8,5506
27687,1948.8,5756
27687,1948.8,5006
27687,1948.8,5256
27687,1948.8,5506
27687,1948.8,5756
27687,1948.8,5256
27687,1948.8,5506
27687,1948.8,5756
27687,1948.8,5506
27687,1948.8,5756
27687,1948.8,5756
27687,1948.8,5006
27687,1948.8,5256
27687,1948.8,5506
27687,1948.8,5756
27687,1948.8,5256
27687,1948.8,5506
27687,1948.8,5756
27687,1948.8,5506
27687,1948.8,5756
27687,1948.8,5756
27687,1948.8,5256
27687,1948.8,5506
27687,1948.8,5756
27687,1948.8,5506
27687,1948.8,5756
27687,1948.8,5756
27687,1948.8,5006
27687,1948.8,5256
27687,1948.8,5506
27687,1948.8,5756
27687,1948.8,5256
27687,1948.8,5506
27687,1948.8,5756
27687,1948.8,5506
27687,1948.8,5756
27687,1948.8,5006
27687,1948.8,5256
27687,1948.8,5506
27687,1948.8,5756
27687,1948.8,5256
27687,1948.8,5506
27687,1948.8,5756
27687,1948.8,5506
27687,1948.8,5756
27687,1948.8,5756
27687,1948.8,5006
27687,1948.8,5256
27687,1948.8,5506
27687,1948.8,5756
27687,1948.8,5256
27687,1948.8,5506
27687,1948.8,5756
27687,1948.8,5506
27687,1948.8,5756
27687,1948.8,5756
27687,1948.8,5256
27687,1948.8,5506
27687,1948.8,5756
27687,1948.8,5506
27687,1948.8,5756
27687,1948.8,5756
27687,1948.8,5506
27687,1948.8,5756
27687,1948.8,5756
28405,1948.8,6006
28405,1948.8,6256
28405,1948.8,6506
28405,1948.8,6006
28405,1948.8,6256
28405,1948.8,6506
28405,1948.8,6006
28405,1948.8,6256
28405,1948.8,6506
28405,1948.8,6756
28405,1948.8,6006
28405,1948.8,6256
28405,1948.8,6506
28405,1948.8,6006
28405,1948.8,6256
28405,1948.8,6506
28405,1948.8,6756
28405,1948.8,6006
28405,1948.8,6256
28405,1948.8,6506
28405,1948.8,6756
28405,1948.8,7006
28405,1948.8,6006
28405,1948.8,6256
28405,1948.8,6506
28405,1948.8,6006
28405,1948.8,6256
28405,1948.8,6506
28405,1948.8,6006
28405,1948.8,6256
28405,1948.8,6506
28405,1948.8,6756
28405,1948.8,6006
28405,1948.8,6256
28405,1948.8,6506
28405,1948.8,6006
28405,1948.8,6256
28405,1948.8,6506
28405,1948.8,6756
28405,1948.8,6006
28405,1948.8,6256
28405,1948.8,6506
28405,1948.8,6756
28405,1948.8,7006
28405,1948.8,6006
28405,1948.8,6256
28405,1948.8,6506
28405,1948.8,6006
28405,1948.8,6256
28405,1948.8,6506
28405,1948.8,6006
28405,1948.8,6256
28405,1948.8,6506
28405,1948.8,6756
28405,1948.8,6006
28405,1948.8,6256
28405,1948.8,6506
28405,1948.8,6006
28405,1948.8,6256
28405,1948.8,6506
28405,1948.8,6756
28405,1948.8,6006
28405,1948.8,6256
28405,1948.8,6506
28405,1948.8,6756
28405,1948.8,7006
28405,1948.8,6006
28405,1948.8,6256
28405,1948.8,6506
28405,1948.8,6006
28405,1948.8,6256
28405,1948.8,6506
28405,1948.8,6006
28405,1948.8,6256
28405,1948.8,6506
28405,1948.8,6756
28405,1948.8,6006
28405,1948.8,6256
28405,1948.8,6506
28405,1948.8,6006
28405,1948.8,6256
28405,1948.8,6506
28405,1948.8,6756
28405,1948.8,6006
28405,1948.8,6256
28405,1948.8,6506
28405,1948.8,6756
28405,1948.8,7006
28405,1948.8,6006
28405,1948.8,6256
28405,1948.8,6506
28405,1948.8,6006
28405,1948.8,6256
28405,1948.8,6506
28405,1948.8,6756
28405,1948.8,6006
28405,1948.8,6256
28405,1948.8,6506
28405,1948.8,6756
28405,1948.8,7006
28405,1948.8,6256
28405,1948.8,6506
28405,1948.8,6756
28405,1948.8,7006
28405,1948.8,7256
28405,1948.8,6006
28405,1948.8,6256
28405,1948.8,6506
28405,1948.8,6006
28405,1948.8,6256
28405,1948.8,6506
28405,1948.8,6006
28405,1948.8,6256
28405,1948.8,6506
28405,1948.8,6756
28405,1948.8,6006
28405,1948.8,6256
28405,1948.8,6506
28405,1948.8,6006
28405,1948.8,6256
28405,1948.8,6506
28405,1948.8,6756
28405,1948.8,6006
28405,1948.8,6256
28405,1948.8,6506
28405,1948.8,6756
28405,1948.8,7006
28405,1948.8,6006
28405,1948.8,6256
28405,1948.8,6506
28405,1948.8,6006
28405,1948.8,6256
28405,1948.8,6506
28405,1948.8,6006
28405,1948.8,6256
28405,1948.8,6506
28405,1948.8,6756
28405,1948.8,6006
28405,1948.8,6256
28405,1948.8,6506
28405,1948.8,6006
28405,1948.8,6256
28405,1948.8,6506
28405,1948.8,6756
28405,1948.8,6006
28405,1948.8,6256
28405,1948.8,6506
28405,1948.8,6756
28405,1948.8,7006
28405,1948.8,6006
28405,1948.8,6256
28405,1948.8,6506
28405,1948.8,6006
28405,1948.8,6256
28405,1948.8,6506
28405,1948.8,6006
28405,1948.8,6256
28405,1948.8,6506
28405,1948.8,6756
28405,1948.8,6006
28405,1948.8,6256
28405,1948.8,6506
28405,1948.8,6006
28405,1948.8,6256
28405,1948.8,6506
28405,1948.8,6756
28405,1948.8,6006
28405,1948.8,6256
28405,1948.8,6506
28405,1948.8,6756
28405,1948.8,7006
28405,1948.8,6006
28405,1948.8,6256
28405,1948.8,6506
28405,1948.8,6006
28405,1948.8,6256
28405,1948.8,6506
28405,1948.8,6756
28405,1948.8,6006
28405,1948.8,6256
28405,1948.8,6506
28405,1948.8,6756
28405,1948.8,7006
28405,1948.8,6256
28405,1948.8,6506
28405,1948.8,6756
28405,1948.8,7006
28405,1948.8,7256
28405,1948.8,6006
28405,1948.8,6256
28405,1948.8,6506
28405,1948.8,6006
28405,1948.8,6256
28405,1948.8,6506
28405,1948.8,6006
28405,1948.8,6256
28405,1948.8,6506
28405,1948.8,6756
28405,1948.8,6006
28405,1948.8,6256
28405,1948.8,6506
28405,1948.8,6006
28405,1948.8,6256
28405,1948.8,6506
28405,1948.8,6756
28405,1948.8,6006
28405,1948.8,6256
28405,1948.8,6506
28405,1948.8,6756
28405,1948.8,7006
28405,1948.8,6006
28405,1948.8,6256
28405,1948.8,6506
28405,1948.8,6006
28405,1948.8,6256
28405,1948.8,6506
28405,1948.8,6006
28405,1948.8,6256
28405,1948.8,6506
28405,1948.8,6756
28405,1948.8,6006
28405,1948.8,6256
28405,1948.8,6506
28405,1948.8,6006
28405,1948.8,6256
28405,1948.8,6506
28405,1948.8,6756
28405,1948.8,6006
28405,1948.8,6256
28405,1948.8,6506
28405,1948.8,6756
28405,1948.8,7006
28405,1948.8,6006
28405,1948.8,6256
28405,1948.8,6506
28405,1948.8,6006
28405,1948.8,6256
28405,1948.8,6506
28405,1948.8,6756
28405,1948.8,6006
28405,1948.8,6256
28405,1948.8,6506
28405,1948.8,6756
28405,1948.8,7006
28405,1948.8,6256
28405,1948.8,6506
28405,1948.8,6756
28405,1948.8,7006
28405,1948.8,7256
28405,1948.8,6006
28405,1948.8,6256
28405,1948.8,6506
28405,1948.8,6006
28405,1948.8,6256
28405,1948.8,6506
28405,1948.8,6006
28405,1948.8,6256
28405,1948.8,6506
28405,1948.8,6756
28405,1948.8,6006
28405,1948.8,6256
28405,1948.8,6506
28405,1948.8,6006
28405,1948.8,6256
28405,1948.8,6506
28405,1948.8,6756
28405,1948.8,6006
28405,1948.8,6256
28405,1948.8,6506
28405,1948.8,6756
28405,1948.8,7006
28405,1948.8,6006
28405,1948.8,6256
28405,1948.8,6506
28405,1948.8,6006
28405,1948.8,6256
28405,1948.8,6506
28405,1948.8,6756
28405,1948.8,6006
28405,1948.8,6256
28405,1948.8,6506
28405,1948.8,6756
28405,1948.8,7006
28405,1948.8,6256
28405,1948.8,6506
28405,1948.8,6756
28405,1948.8,7006
28405,1948.8,7256
28405,1948.8,6006
28405,1948.8,6256
28405,1948.8,6506
28405,1948.8,6006
28405,1948.8,6256
28405,1948.8,6506
28405,1948.8,6006
28405,1948.8,6256
28405,1948.8,6506
28405,1948.8,6756
28405,1948.8,6006
28405,1948.8,6256
28405,1948.8,6506
28405,1948.8,6006
28405,1948.8,6256
28405,1948.8,6506
28405,1948.8,6756
28405,1948.8,6006
28405,1948.8,6256
28405,1948.8,6506
28405,1948.8,6756
28405,1948.8,7006
28405,1948.8,6006
28405,1948.8,6256
28405,1948.8,6506
28405,1948.8,6006
28405,1948.8,6256
28405,1948.8,6506
28405,1948.8,6006
28405,1948.8,6256
28405,1948.8,6506
28405,1948.8,6756
28405,1948.8,6006
28405,1948.8,6256
28405,1948.8,6506
28405,1948.8,6006
28405,1948.8,6256
28405,1948.8,6506
28405,1948.8,6756
28405,1948.8,6006
28405,1948.8,6256
28405,1948.8,6506
28405,1948.8,6756
28405,1948.8,7006
28405,1948.8,6006
28405,1948.8,6256
28405,1948.8,6506
28405,1948.8,6006
28405,1948.8,6256
28405,1948.8,6506
28405,1948.8,6006
28405,1948.8,6256
28405,1948.8,6506
28405,1948.8,6756
28405,1948.8,6006
28405,1948.8,6256
28405,1948.8,6506
28405,1948.8,6006
28405,1948.8,6256
28405,1948.8,6506
28405,1948.8,6756
28405,1948.8,6006
28405,1948.8,6256
28405,1948.8,6506
28405,1948.8,6756
28405,1948.8,7006
28405,1948.8,6006
28405,1948.8,6256
28405,1948.8,6506
28405,1948.8,6006
28405,1948.8,6256
28405,1948.8,6506
28405,1948.8,6756
28405,1948.8,6006
28405,1948.8,6256
28405,1948.8,6506
28405,1948.8,6756
28405,1948.8,7006
28405,1948.8,6256
28405,1948.8,6506
28405,1948.8,6756
28405,1948.8,7006
28405,1948.8,7256
28405,1948.8,6006
28405,1948.8,6256
28405,1948.8,6506
28405,1948.8,6006
28405,1948.8,6256
28405,1948.8,6506
28405,1948.8,6006
28405,1948.8,6256
28405,1948.8,6506
28405,1948.8,6756
28405,1948.8,6006
28405,1948.8,6256
28405,1948.8,6506
28405,1948.8,6006
28405,1948.8,6256
28405,1948.8,6506
28405,1948.8,6756
28405,1948.8,6006
28405,1948.8,6256
28405,1948.8,6506
28405,1948.8,6756
28405,1948.8,7006
28405,1948.8,6006
28405,1948.8,6256
28405,1948.8,6506
28405,1948.8,6006
28405,1948.8,6256
28405,1948.8,6506
28405,1948.8,6006
28405,1948.8,6256
28405,1948.8,6506
28405,1948.8,6756
28405,1948.8,6006
28405,1948.8,6256
28405,1948.8,6506
28405,1948.8,6006
28405,1948.8,6256
28405,1948.8,6506
28405,1948.8,6756
28405,1948.8,6006
28405,1948.8,6256
28405,1948.8,6506
28405,1948.8,6756
28405,1948.8,7006
28405,1948.8,6006
28405,1948.8,6256
28405,1948.8,6506
28405,1948.8,6006
28405,1948.8,6256
28405,1948.8,6506
28405,1948.8,6756
28405,1948.8,6006
28405,1948.8,6256
28405,1948.8,6506
28405,1948.8,6756
28405,1948.8,7006
28405,1948.8,6256
28405,1948.8,6506
28405,1948.8,6756
28405,1948.8,7006
28405,1948.8,7256
28405,1948.8,6006
28405,1948.8,6256
28405,1948.8,6506
28405,1948.8,6006
28405,1948.8,6256
28405,1948.8,6506
28405,1948.8,6006
28405,1948.8,6256
28405,1948.8,6506
28405,1948.8,6756
28405,1948.8,6006
28405,1948.8,6256
28405,1948.8,6506
28405,1948.8,6006
28405,1948.8,6256
28405,1948.8,6506
28405,1948.8,6756
28405,1948.8,6006
28405,1948.8,6256
28405,1948.8,6506
28405,1948.8,6756
28405,1948.8,7006
28405,1948.8,6006
28405,1948.8,6256
28405,1948.8,6506
28405,1948.8,6006
28405,1948.8,6256
28405,1948.8,6506
28405,1948.8,6756
28405,1948.8,6006
28405,1948.8,6256
28405,1948.8,6506
28405,1948.8,6756
28405,1948.8,7006
28405,1948.8,6256
28405,1948.8,6506
28405,1948.8,6756
28405,1948.8,7006
28405,1948.8,7256
28405,1948.8,6006
28405,1948.8,6256
28405,1948.8,6506
28405,1948.8,6006
28405,1948.8,6256
28405,1948.8,6506
28405,1948.8,6006
28405,1948.8,6256
28405,1948.8,6506
28405,1948.8,6756
28405,1948.8,6006
28405,1948.8,6256
28405,1948.8,6506
28405,1948.8,6006
28405,1948.8,6256
28405,1948.8,6506
28405,1948.8,6756
28405,1948.8,6006
28405,1948.8,6256
28405,1948.8,6506
28405,1948.8,6756
28405,1948.8,7006
28405,1948.8,6006
28405,1948.8,6256
28405,1948.8,6506
28405,1948.8,6006
28405,1948.8,6256
28405,1948.8,6506
28405,1948.8,6006
28405,1948.8,6256
28405,1948.8,6506
28405,1948.8,6756
28405,1948.8,6006
28405,1948.8,6256
28405,1948.8,6506
28405,1948.8,6006
28405,1948.8,6256
28405,1948.8,6506
28405,1948.8,6756
28405,1948.8,6006
28405,1948.8,6256
28405,1948.8,6506
28405,1948.8,6756
28405,1948.8,7006
28405,1948.8,6006
28405,1948.8,6256
28405,1948.8,6506
28405,1948.8,6006
28405,1948.8,6256
28405,1948.8,6506
28405,1948.8,6756
28405,1948.8,6006
28405,1948.8,6256
28405,1948.8,6506
28405,1948.8,6756
28405,1948.8,7006
28405,1948.8,6256
28405,1948.8,6506
28405,1948.8,6756
28405,1948.8,7006
28405,1948.8,7256
28405,1948.8,6006
28405,1948.8,6256
28405,1948.8,6506
28405,1948.8,6006
28405,1948.8,6256
28405,1948.8,6506
28405,1948.8,6006
28405,1948.8,6256
28405,1948.8,6506
28405,1948.8,6756
28405,1948.8,6006
28405,1948.8,6256
28405,1948.8,6506
28405,1948.8,6006
28405,1948.8,6256
28405,1948.8,6506
28405,1948.8,6756
28405,1948.8,6006
28405,1948.8,6256
28405,1948.8,6506
28405,1948.8,6756
28405,1948.8,7006
28405,1948.8,6006
28405,1948.8,6256
28405,1948.8,6506
28405,1948.8,6006
28405,1948.8,6256
28405,1948.8,6506
28405,1948.8,6756
28405,1948.8,6006
28405,1948.8,6256
28405,1948.8,6506
28405,1948.8,6756
28405,1948.8,7006
28405,1948.8,6256
28405,1948.8,6506
28405,1948.8,6756
28405,1948.8,7006
28405,1948.8,7256
28405,1948.8,6006
28405,1948.8,6256
28405,1948.8,6506
28405,1948.8,6006
28405,1948.8,6256
28405,1948.8,6506
28405,1948.8,6756
28405,1948.8,6006
28405,1948.8,6256
28405,1948.8,6506
28405,1948.8,6006
28405,1948.8,6256
28405,1948.8,6506
28405,1948.8,6756
28405,1948.8,6006
28405,1948.8,6256
28405,1948.8,6506
28405,1948.8,6756
28405,1948.8,7006
28405,1948.8,6006
28405,1948.8,6256
28405,1948.8,6506
28405,1948.8,6006
28405,1948.8,6256
28405,1948.8,6506
28405,1948.8,6756
28405,1948.8,6006
28405,1948.8,6256
28405,1948.8,6506
28405,1948.8,6756
28405,1948.8,7006
28405,1948.8,6256
28405,1948.8,6506
28405,1948.8,6756
28405,1948.8,7006
28405,1948.8,7256
28405,1948.8,6006
28405,1948.8,6256
28405,1948.8,6506
28405,1948.8,6006
28405,1948.8,6256
28405,1948.8,6506
28405,1948.8,6006
28405,1948.8,6256
28405,1948.8,6506
28405,1948.8,6756
28405,1948.8,6006
28405,1948.8,6256
28405,1948.8,6506
28405,1948.8,6006
28405,1948.8,6256
28405,1948.8,6506
28405,1948.8,6756
28405,1948.8,6006
28405,1948.8,6256
28405,1948.8,6506
28405,1948.8,6756
28405,1948.8,7006
28405,1948.8,6006
28405,1948.8,6256
28405,1948.8,6506
28405,1948.8,6006
28405,1948.8,6256
28405,1948.8,6506
28405,1948.8,6006
28405,1948.8,6256
28405,1948.8,6506
28405,1948.8,6756
28405,1948.8,6006
28405,1948.8,6256
28405,1948.8,6506
28405,1948.8,6006
28405,1948.8,6256
28405,1948.8,6506
28405,1948.8,6756
28405,1948.8,6006
28405,1948.8,6256
28405,1948.8,6506
28405,1948.8,6756
28405,1948.8,7006
28405,1948.8,6006
28405,1948.8,6256
28405,1948.8,6506
28405,1948.8,6006
28405,1948.8,6256
28405,1948.8,6506
28405,1948.8,6006
28405,1948.8,6256
28405,1948.8,6506
28405,1948.8,6756
28405,1948.8,6006
28405,1948.8,6256
28405,1948.8,6506
28405,1948.8,6006
28405,1948.8,6256
28405,1948.8,6506
28405,1948.8,6756
28405,1948.8,6006
28405,1948.8,6256
28405,1948.8,6506
28405,1948.8,6756
28405,1948.8,7006
28405,1948.8,6006
28405,1948.8,6256
28405,1948.8,6506
28405,1948.8,6006
28405,1948.8,6256
28405,1948.8,6506
28405,1948.8,6756
28405,1948.8,6006
28405,1948.8,6256
28405,1948.8,6506
28405,1948.8,6756
28405,1948.8,7006
28405,1948.8,6256
28405,1948.8,6506
28405,1948.8,6756
28405,1948.8,7006
28405,1948.8,7256
28405,1948.8,6006
28405,1948.8,6256
28405,1948.8,6506
28405,1948.8,6006
28405,1948.8,6256
28405,1948.8,6506
28405,1948.8,6006
28405,1948.8,6256
28405,1948.8,6506
28405,1948.8,6756
28405,1948.8,6006
28405,1948.8,6256
28405,1948.8,6506
28405,1948.8,6006
28405,1948.8,6256
28405,1948.8,6506
28405,1948.8,6756
28405,1948.8,6006
28405,1948.8,6256
28405,1948.8,6506
28405,1948.8,6756
28405,1948.8,7006
28405,1948.8,6006
28405,1948.8,6256
28405,1948.8,6506
28405,1948.8,6006
28405,1948.8,6256
28405,1948.8,6506
28405,1948.8,6006
28405,1948.8,6256
28405,1948.8,6506
28405,1948.8,6756
28405,1948.8,6006
28405,1948.8,6256
28405,1948.8,6506
28405,1948.8,6006
28405,1948.8,6256
28405,1948.8,6506
28405,1948.8,6756
28405,1948.8,6006
28405,1948.8,6256
28405,1948.8,6506
28405,1948.8,6756
28405,1948.8,7006
28405,1948.8,6006
28405,1948.8,6256
28405,1948.8,6506
28405,1948.8,6006
28405,1948.8,6256
28405,1948.8,6506
28405,1948.8,6756
28405,1948.8,6006
28405,1948.8,6256
28405,1948.8,6506
28405,1948.8,6756
28405,1948.8,7006
28405,1948.8,6256
28405,1948.8,6506
28405,1948.8,6756
28405,1948.8,7006
28405,1948.8,7256
28405,1948.8,6006
28405,1948.8,6256
28405,1948.8,6506
28405,1948.8,6006
28405,1948.8,6256
28405,1948.8,6506
28405,1948.8,6006
28405,1948.8,6256
28405,1948.8,6506
28405,1948.8,6756
28405,1948.8,6006
28405,1948.8,6256
28405,1948.8,6506
28405,1948.8,6006
28405,1948.8,6256
28405,1948.8,6506
28405,1948.8,6756
28405,1948.8,6006
28405,1948.8,6256
28405,1948.8,6506
28405,1948.8,6756
28405,1948.8,7006
28405,1948.8,6006
28405,1948.8,6256
28405,1948.8,6506
28405,1948.8,6006
28405,1948.8,6256
28405,1948.8,6506
28405,1948.8,6756
28405,1948.8,6006
28405,1948.8,6256
28405,1948.8,6506
28405,1948.8,6756
28405,1948.8,7006
28405,1948.8,6256
28405,1948.8,6506
28405,1948.8,6756
28405,1948.8,7006
28405,1948.8,7256
28405,1948.8,6006
28405,1948.8,6256
28405,1948.8,6506
28405,1948.8,6006
28405,1948.8,6256
28405,1948.8,6506
28405,1948.8,6006
28405,1948.8,6256
28405,1948.8,6506
28405,1948.8,6756
28405,1948.8,6006
28405,1948.8,6256
28405,1948.8,6506
28405,1948.8,6006
28405,1948.8,6256
28405,1948.8,6506
28405,1948.8,6756
28405,1948.8,6006
28405,1948.8,6256
28405,1948.8,6506
28405,1948.8,6756
28405,1948.8,7006
28405,1948.8,6006
28405,1948.8,6256
28405,1948.8,6506
28405,1948.8,6006
28405,1948.8,6256
28405,1948.8,6506
28405,1948.8,6006
28405,1948.8,6256
28405,1948.8,6506
28405,1948.8,6756
28405,1948.8,6006
28405,1948.8,6256
28405,1948.8,6506
28405,1948.8,6006
28405,1948.8,6256
28405,1948.8,6506
28405,1948.8,6756
28405,1948.8,6006
28405,1948.8,6256
28405,1948.8,6506
28405,1948.8,6756
28405,1948.8,7006
28405,1948.8,6006
28405,1948.8,6256
28405,1948.8,6506
28405,1948.8,6006
28405,1948.8,6256
28405,1948.8,6506
28405,1948.8,6756
28405,1948.8,6006
28405,1948.8,6256
28405,1948.8,6506
28405,1948.8,6756
28405,1948.8,7006
28405,1948.8,6256
28405,1948.8,6506
28405,1948.8,6756
28405,1948.8,7006
28405,1948.8,7256
28405,1948.8,6006
28405,1948.8,6256
28405,1948.8,6506
28405,1948.8,6006
28405,1948.8,6256
28405,1948.8,6506
28405,1948.8,6006
28405,1948.8,6256
28405,1948.8,6506
28405,1948.8,6756
28405,1948.8,6006
28405,1948.8,6256
28405,1948.8,6506
28405,1948.8,6006
28405,1948.8,6256
28405,1948.8,6506
28405,1948.8,6756
28405,1948.8,6006
28405,1948.8,6256
28405,1948.8,6506
28405,1948.8,6756
28405,1948.8,7006
28405,1948.8,6006
28405,1948.8,6256
28405,1948.8,6506
28405,1948.8,6006
28405,1948.8,6256
28405,1948.8,6506
28405,1948.8,6756
28405,1948.8,6006
28405,1948.8,6256
28405,1948.8,6506
28405,1948.8,6756
28405,1948.8,7006
28405,1948.8,6256
28405,1948.8,6506
28405,1948.8,6756
28405,1948.8,7006
28405,1948.8,7256
28405,1948.8,6006
28405,1948.8,6256
28405,1948.8,6506
28405,1948.8,6006
28405,1948.8,6256
28405,1948.8,6506
28405,1948.8,6756
28405,1948.8,6006
28405,1948.8,6256
28405,1948.8,6506
28405,1948.8,6006
28405,1948.8,6256
28405,1948.8,6506
28405,1948.8,6756
28405,1948.8,6006
28405,1948.8,6256
28405,1948.8,6506
28405,1948.8,6756
28405,1948.8,7006
28405,1948.8,6006
28405,1948.8,6256
28405,1948.8,6506
28405,1948.8,6006
28405,1948.8,6256
28405,1948.8,6506
28405,1948.8,6756
28405,1948.8,6006
28405,1948.8,6256
28405,1948.8,6506
28405,1948.8,6756
28405,1948.8,7006
28405,1948.8,6256
28405,1948.8,6506
28405,1948.8,6756
28405,1948.8,7006
28405,1948.8,7256
28405,1948.8,6006
28405,1948.8,6256
28405,1948.8,6506
28405,1948.8,6006
28405,1948.8,6256
28405,1948.8,6506
28405,1948.8,6006
28405,1948.8,6256
28405,1948.8,6506
28405,1948.8,6756
28405,1948.8,6006
28405,1948.8,6256
28405,1948.8,6506
28405,1948.8,6006
28405,1948.8,6256
28405,1948.8,6506
28405,1948.8,6756
28405,1948.8,6006
28405,1948.8,6256
28405,1948.8,6506
28405,1948.8,6756
28405,1948.8,7006
28405,1948.8,6006
28405,1948.8,6256
28405,1948.8,6506
28405,1948.8,6006
28405,1948.8,6256
28405,1948.8,6506
28405,1948.8,6006
28405,1948.8,6256
28405,1948.8,6506
28405,1948.8,6756
28405,1948.8,6006
28405,1948.8,6256
28405,1948.8,6506
28405,1948.8,6006
28405,1948.8,6256
28405,1948.8,6506
28405,1948.8,6756
28405,1948.8,6006
28405,1948.8,6256
28405,1948.8,6506
28405,1948.8,6756
28405,1948.8,7006
28405,1948.8,6006
28405,1948.8,6256
28405,1948.8,6506
28405,1948.8,6006
28405,1948.8,6256
28405,1948.8,6506
28405,1948.8,6756
28405,1948.8,6006
28405,1948.8,6256
28405,1948.8,6506
28405,1948.8,6756
28405,1948.8,7006
28405,1948.8,6256
28405,1948.8,6506
28405,1948.8,6756
28405,1948.8,7006
28405,1948.8,7256
28405,1948.8,6006
28405,1948.8,6256
28405,1948.8,6506
28405,1948.8,6006
28405,1948.8,6256
28405,1948.8,6506
28405,1948.8,6006
28405,1948.8,6256
28405,1948.8,6506
28405,1948.8,6756
28405,1948.8,6006
28405,1948.8,6256
28405,1948.8,6506
28405,1948.8,6006
28405,1948.8,6256
28405,1948.8,6506
28405,1948.8,6756
28405,1948.8,6006
28405,1948.8,6256
28405,1948.8,6506
28405,1948.8,6756
28405,1948.8,7006
28405,1948.8,6006
28405,1948.8,6256
28405,1948.8,6506
28405,1948.8,6006
28405,1948.8,6256
28405,1948.8,6506
28405,1948.8,6756
28405,1948.8,6006
28405,1948.8,6256
28405,1948.8,6506
28405,1948.8,6756
28405,1948.8,7006
28405,1948.8,6256
28405,1948.8,6506
28405,1948.8,6756
28405,1948.8,7006
28405,1948.8,7256
28405,1948.8,6006
28405,1948.8,6256
28405,1948.8,6506
28405,1948.8,6006
28405,1948.8,6256
28405,1948.8,6506
28405,1948.8,6756
28405,1948.8,6006
28405,1948.8,6256
28405,1948.8,6506
28405,1948.8,6006
28405,1948.8,6256
28405,1948.8,6506
28405,1948.8,6756
28405,1948.8,6006
28405,1948.8,6256
28405,1948.8,6506
28405,1948.8,6756
28405,1948.8,7006
28405,1948.8,6006
28405,1948.8,6256
28405,1948.8,6506
28405,1948.8,6006
28405,1948.8,6256
28405,1948.8,6506
28405,1948.8,6756
28405,1948.8,6006
28405,1948.8,6256
28405,1948.8,6506
28405,1948.8,6756
28405,1948.8,7006
28405,1948.8,6256
28405,1948.8,6506
28405,1948.8,6756
28405,1948.8,7006
28405,1948.8,7256
28405,1948.8,6006
28405,1948.8,6256
28405,1948.8,6506
28405,1948.8,6006
28405,1948.8,6256
28405,1948.8,6506
28405,1948.8,6756
28405,1948.8,6006
28405,1948.8,6256
28405,1948.8,6506
28405,1948.8,6756
28405,1948.8,7006
28405,1948.8,6006
28405,1948.8,6256
28405,1948.8,6506
28405,1948.8,6006
28405,1948.8,6256
28405,1948.8,6506
28405,1948.8,6756
28405,1948.8,6006
28405,1948.8,6256
28405,1948.8,6506
28405,1948.8,6756
28405,1948.8,7006
28405,1948.8,6256
28405,1948.8,6506
28405,1948.8,6756
28405,1948.8,7006
28405,1948.8,7256
