35036,1948.8,5132.4
34233,1948.8,4632.4
34233,1948.8,4882.4
34233,1948.8,5132.4
34233,1948.8,5382.4
34233,1948.8,5632.4
33431,1948.8,4132.4
33431,1948.8,4382.4
33431,1948.8,4632.4
33431,1948.8,4882.4
33431,1948.8,5132.4
33431,1948.8,4382.4
33431,1948.8,4632.4
33431,1948.8,4882.4
33431,1948.8,5132.4
33431,1948.8,5382.4
33431,1948.8,4632.4
33431,1948.8,4882.4
33431,1948.8,5132.4
33431,1948.8,5382.4
33431,1948.8,5632.4
33431,1948.8,4882.4
33431,1948.8,5132.4
33431,1948.8,5382.4
33431,1948.8,5632.4
33431,1948.8,5882.4
33431,1948.8,5132.4
33431,1948.8,5382.4
33431,1948.8,5632.4
33431,1948.8,5882.4
33431,1948.8,6132.4
32628,1948.8,3632.4
32628,1948.8,3882.4
32628,1948.8,4132.4
32628,1948.8,3882.4
32628,1948.8,4132.4
32628,1948.8,4132.4
32628,1948.8,5632.4
32628,1948.8,3882.4
32628,1948.8,4132.4
32628,1948.8,4132.4
32628,1948.8,5632.4
32628,1948.8,5632.4
32628,1948.8,5882.4
32628,1948.8,4132.4
32628,1948.8,5632.4
32628,1948.8,5632.4
32628,1948.8,5882.4
32628,1948.8,5632.4
32628,1948.8,5882.4
32628,1948.8,6132.4
32628,1948.8,5632.4
32628,1948.8,5632.4
32628,1948.8,5882.4
32628,1948.8,5632.4
32628,1948.8,5882.4
32628,1948.8,6132.4
32628,1948.8,5632.4
32628,1948.8,5882.4
32628,1948.8,6132.4
32628,1948.8,6382.4
32628,1948.8,5632.4
32628,1948.8,5632.4
32628,1948.8,5882.4
32628,1948.8,5632.4
32628,1948.8,5882.4
32628,1948.8,6132.4
32628,1948.8,5632.4
32628,1948.8,5882.4
32628,1948.8,6132.4
32628,1948.8,6382.4
32628,1948.8,5632.4
32628,1948.8,5882.4
32628,1948.8,6132.4
32628,1948.8,6382.4
32628,1948.8,6632.4
31825,1948.8,3132.4
31825,1948.8,3382.4
31825,1948.8,3632.4
31825,1948.8,3382.4
31825,1948.8,3632.4
31825,1948.8,3632.4
31825,1948.8,3382.4
31825,1948.8,3632.4
31825,1948.8,3632.4
31825,1948.8,3632.4
31825,1948.8,5132.4
31825,1948.8,5382.4
31825,1948.8,5632.4
31825,1948.8,5882.4
31825,1948.8,6132.4
31825,1948.8,3382.4
31825,1948.8,3632.4
31825,1948.8,3632.4
31825,1948.8,3632.4
31825,1948.8,5132.4
31825,1948.8,5382.4
31825,1948.8,5632.4
31825,1948.8,5882.4
31825,1948.8,6132.4
31825,1948.8,5132.4
31825,1948.8,5382.4
31825,1948.8,5632.4
31825,1948.8,5882.4
31825,1948.8,6132.4
31825,1948.8,5382.4
31825,1948.8,5632.4
31825,1948.8,5882.4
31825,1948.8,6132.4
31825,1948.8,6382.4
31825,1948.8,3632.4
31825,1948.8,5132.4
31825,1948.8,5382.4
31825,1948.8,5632.4
31825,1948.8,5882.4
31825,1948.8,6132.4
31825,1948.8,5132.4
31825,1948.8,5382.4
31825,1948.8,5632.4
31825,1948.8,5882.4
31825,1948.8,6132.4
31825,1948.8,5382.4
31825,1948.8,5632.4
31825,1948.8,5882.4
31825,1948.8,6132.4
31825,1948.8,6382.4
31825,1948.8,5132.4
31825,1948.8,5382.4
31825,1948.8,5632.4
31825,1948.8,5882.4
31825,1948.8,6132.4
31825,1948.8,5382.4
31825,1948.8,5632.4
31825,1948.8,5882.4
31825,1948.8,6132.4
31825,1948.8,6382.4
31825,1948.8,5632.4
31825,1948.8,5882.4
31825,1948.8,6132.4
31825,1948.8,6382.4
31825,1948.8,6632.4
31825,1948.8,5132.4
31825,1948.8,5382.4
31825,1948.8,5632.4
31825,1948.8,5882.4
31825,1948.8,6132.4
31825,1948.8,5132.4
31825,1948.8,5382.4
31825,1948.8,5632.4
31825,1948.8,5882.4
31825,1948.8,6132.4
31825,1948.8,5382.4
31825,1948.8,5632.4
31825,1948.8,5882.4
31825,1948.8,6132.4
31825,1948.8,6382.4
31825,1948.8,5132.4
31825,1948.8,5382.4
31825,1948.8,5632.4
31825,1948.8,5882.4
31825,1948.8,6132.4
31825,1948.8,5382.4
31825,1948.8,5632.4
31825,1948.8,5882.4
31825,1948.8,6132.4
31825,1948.8,6382.4
31825,1948.8,5632.4
31825,1948.8,5882.4
31825,1948.8,6132.4
31825,1948.8,6382.4
31825,1948.8,6632.4
31825,1948.8,5132.4
31825,1948.8,5382.4
31825,1948.8,5632.4
31825,1948.8,5882.4
31825,1948.8,6132.4
31825,1948.8,5382.4
31825,1948.8,5632.4
31825,1948.8,5882.4
31825,1948.8,6132.4
31825,1948.8,6382.4
31825,1948.8,5632.4
31825,1948.8,5882.4
31825,1948.8,6132.4
31825,1948.8,6382.4
31825,1948.8,6632.4
31825,1948.8,5882.4
31825,1948.8,6132.4
31825,1948.8,6382.4
31825,1948.8,6632.4
31825,1948.8,5132.4
31825,1948.8,5382.4
31825,1948.8,5632.4
31825,1948.8,5882.4
31825,1948.8,6132.4
31825,1948.8,5132.4
31825,1948.8,5382.4
31825,1948.8,5632.4
31825,1948.8,5882.4
31825,1948.8,6132.4
31825,1948.8,5382.4
31825,1948.8,5632.4
31825,1948.8,5882.4
31825,1948.8,6132.4
31825,1948.8,6382.4
31825,1948.8,5132.4
31825,1948.8,5382.4
31825,1948.8,5632.4
31825,1948.8,5882.4
31825,1948.8,6132.4
31825,1948.8,5382.4
31825,1948.8,5632.4
31825,1948.8,5882.4
31825,1948.8,6132.4
31825,1948.8,6382.4
31825,1948.8,5632.4
31825,1948.8,5882.4
31825,1948.8,6132.4
31825,1948.8,6382.4
31825,1948.8,6632.4
31825,1948.8,5132.4
31825,1948.8,5382.4
31825,1948.8,5632.4
31825,1948.8,5882.4
31825,1948.8,6132.4
31825,1948.8,5382.4
31825,1948.8,5632.4
31825,1948.8,5882.4
31825,1948.8,6132.4
31825,1948.8,6382.4
31825,1948.8,5632.4
31825,1948.8,5882.4
31825,1948.8,6132.4
31825,1948.8,6382.4
31825,1948.8,6632.4
31825,1948.8,5882.4
31825,1948.8,6132.4
31825,1948.8,6382.4
31825,1948.8,6632.4
31825,1948.8,5132.4
31825,1948.8,5382.4
31825,1948.8,5632.4
31825,1948.8,5882.4
31825,1948.8,6132.4
31825,1948.8,5382.4
31825,1948.8,5632.4
31825,1948.8,5882.4
31825,1948.8,6132.4
31825,1948.8,6382.4
31825,1948.8,5632.4
31825,1948.8,5882.4
31825,1948.8,6132.4
31825,1948.8,6382.4
31825,1948.8,6632.4
31825,1948.8,5882.4
31825,1948.8,6132.4
31825,1948.8,6382.4
31825,1948.8,6632.4
31825,1948.8,6132.4
31825,1948.8,6382.4
31825,1948.8,6632.4
31023,1948.8,2632.4
31023,1948.8,2882.4
31023,1948.8,3132.4
31023,1948.8,3382.4
31023,1948.8,3632.4
31023,1948.8,2882.4
31023,1948.8,3132.4
31023,1948.8,3382.4
31023,1948.8,3632.4
31023,1948.8,3882.4
31023,1948.8,3132.4
31023,1948.8,3382.4
31023,1948.8,3632.4
31023,1948.8,3882.4
31023,1948.8,4132.4
31023,1948.8,2882.4
31023,1948.8,3132.4
31023,1948.8,3382.4
31023,1948.8,3632.4
31023,1948.8,3882.4
31023,1948.8,3132.4
31023,1948.8,3382.4
31023,1948.8,3632.4
31023,1948.8,3882.4
31023,1948.8,4132.4
31023,1948.8,3132.4
31023,1948.8,3382.4
31023,1948.8,3632.4
31023,1948.8,3882.4
31023,1948.8,4132.4
31023,1948.8,2882.4
31023,1948.8,3132.4
31023,1948.8,3382.4
31023,1948.8,3632.4
31023,1948.8,3882.4
31023,1948.8,3132.4
31023,1948.8,3382.4
31023,1948.8,3632.4
31023,1948.8,3882.4
31023,1948.8,4132.4
31023,1948.8,3132.4
31023,1948.8,3382.4
31023,1948.8,3632.4
31023,1948.8,3882.4
31023,1948.8,4132.4
31023,1948.8,3132.4
31023,1948.8,3382.4
31023,1948.8,3632.4
31023,1948.8,3882.4
31023,1948.8,4132.4
31023,1948.8,5632.4
31023,1948.8,5632.4
31023,1948.8,5882.4
31023,1948.8,5632.4
31023,1948.8,5882.4
31023,1948.8,6132.4
31023,1948.8,5632.4
31023,1948.8,5882.4
31023,1948.8,6132.4
31023,1948.8,5632.4
31023,1948.8,5882.4
31023,1948.8,6132.4
31023,1948.8,2882.4
31023,1948.8,3132.4
31023,1948.8,3382.4
31023,1948.8,3632.4
31023,1948.8,3882.4
31023,1948.8,3132.4
31023,1948.8,3382.4
31023,1948.8,3632.4
31023,1948.8,3882.4
31023,1948.8,4132.4
31023,1948.8,3132.4
31023,1948.8,3382.4
31023,1948.8,3632.4
31023,1948.8,3882.4
31023,1948.8,4132.4
31023,1948.8,3132.4
31023,1948.8,3382.4
31023,1948.8,3632.4
31023,1948.8,3882.4
31023,1948.8,4132.4
31023,1948.8,5632.4
31023,1948.8,5632.4
31023,1948.8,5882.4
31023,1948.8,5632.4
31023,1948.8,5882.4
31023,1948.8,6132.4
31023,1948.8,5632.4
31023,1948.8,5882.4
31023,1948.8,6132.4
31023,1948.8,5632.4
31023,1948.8,5882.4
31023,1948.8,6132.4
31023,1948.8,5632.4
31023,1948.8,5632.4
31023,1948.8,5882.4
31023,1948.8,5632.4
31023,1948.8,5882.4
31023,1948.8,6132.4
31023,1948.8,5632.4
31023,1948.8,5882.4
31023,1948.8,6132.4
31023,1948.8,5632.4
31023,1948.8,5882.4
31023,1948.8,6132.4
31023,1948.8,5632.4
31023,1948.8,5882.4
31023,1948.8,5632.4
31023,1948.8,5882.4
31023,1948.8,6132.4
31023,1948.8,5632.4
31023,1948.8,5882.4
31023,1948.8,6132.4
31023,1948.8,5632.4
31023,1948.8,5882.4
31023,1948.8,6132.4
31023,1948.8,5882.4
31023,1948.8,6132.4
31023,1948.8,3132.4
31023,1948.8,3382.4
31023,1948.8,3632.4
31023,1948.8,3882.4
31023,1948.8,4132.4
31023,1948.8,5632.4
31023,1948.8,5632.4
31023,1948.8,5882.4
31023,1948.8,5632.4
31023,1948.8,5882.4
31023,1948.8,6132.4
31023,1948.8,5632.4
31023,1948.8,5882.4
31023,1948.8,6132.4
31023,1948.8,5632.4
31023,1948.8,5882.4
31023,1948.8,6132.4
31023,1948.8,5632.4
31023,1948.8,5632.4
31023,1948.8,5882.4
31023,1948.8,5632.4
31023,1948.8,5882.4
31023,1948.8,6132.4
31023,1948.8,5632.4
31023,1948.8,5882.4
31023,1948.8,6132.4
31023,1948.8,5632.4
31023,1948.8,5882.4
31023,1948.8,6132.4
31023,1948.8,5632.4
31023,1948.8,5882.4
31023,1948.8,5632.4
31023,1948.8,5882.4
31023,1948.8,6132.4
31023,1948.8,5632.4
31023,1948.8,5882.4
31023,1948.8,6132.4
31023,1948.8,5632.4
31023,1948.8,5882.4
31023,1948.8,6132.4
31023,1948.8,5882.4
31023,1948.8,6132.4
31023,1948.8,5632.4
31023,1948.8,5632.4
31023,1948.8,5882.4
31023,1948.8,5632.4
31023,1948.8,5882.4
31023,1948.8,6132.4
31023,1948.8,5632.4
31023,1948.8,5882.4
31023,1948.8,6132.4
31023,1948.8,5632.4
31023,1948.8,5882.4
31023,1948.8,6132.4
31023,1948.8,5632.4
31023,1948.8,5882.4
31023,1948.8,5632.4
31023,1948.8,5882.4
31023,1948.8,6132.4
31023,1948.8,5632.4
31023,1948.8,5882.4
31023,1948.8,6132.4
31023,1948.8,5632.4
31023,1948.8,5882.4
31023,1948.8,6132.4
31023,1948.8,5882.4
31023,1948.8,6132.4
31023,1948.8,5632.4
31023,1948.8,5882.4
31023,1948.8,6132.4
31023,1948.8,5632.4
31023,1948.8,5882.4
31023,1948.8,6132.4
31023,1948.8,5632.4
31023,1948.8,5882.4
31023,1948.8,6132.4
31023,1948.8,5882.4
31023,1948.8,6132.4
31023,1948.8,6132.4
31023,1948.8,5632.4
31023,1948.8,5632.4
31023,1948.8,5882.4
31023,1948.8,5632.4
31023,1948.8,5882.4
31023,1948.8,6132.4
31023,1948.8,5632.4
31023,1948.8,5882.4
31023,1948.8,6132.4
31023,1948.8,5632.4
31023,1948.8,5882.4
31023,1948.8,6132.4
31023,1948.8,5632.4
31023,1948.8,5632.4
31023,1948.8,5882.4
31023,1948.8,5632.4
31023,1948.8,5882.4
31023,1948.8,6132.4
31023,1948.8,5632.4
31023,1948.8,5882.4
31023,1948.8,6132.4
31023,1948.8,5632.4
31023,1948.8,5882.4
31023,1948.8,6132.4
31023,1948.8,5632.4
31023,1948.8,5882.4
31023,1948.8,5632.4
31023,1948.8,5882.4
31023,1948.8,6132.4
31023,1948.8,5632.4
31023,1948.8,5882.4
31023,1948.8,6132.4
31023,1948.8,5632.4
31023,1948.8,5882.4
31023,1948.8,6132.4
31023,1948.8,5882.4
31023,1948.8,6132.4
31023,1948.8,5632.4
31023,1948.8,5632.4
31023,1948.8,5882.4
31023,1948.8,5632.4
31023,1948.8,5882.4
31023,1948.8,6132.4
31023,1948.8,5632.4
31023,1948.8,5882.4
31023,1948.8,6132.4
31023,1948.8,5632.4
31023,1948.8,5882.4
31023,1948.8,6132.4
31023,1948.8,5632.4
31023,1948.8,5882.4
31023,1948.8,5632.4
31023,1948.8,5882.4
31023,1948.8,6132.4
31023,1948.8,5632.4
31023,1948.8,5882.4
31023,1948.8,6132.4
31023,1948.8,5632.4
31023,1948.8,5882.4
31023,1948.8,6132.4
31023,1948.8,5882.4
31023,1948.8,6132.4
31023,1948.8,5632.4
31023,1948.8,5882.4
31023,1948.8,6132.4
31023,1948.8,5632.4
31023,1948.8,5882.4
31023,1948.8,6132.4
31023,1948.8,5632.4
31023,1948.8,5882.4
31023,1948.8,6132.4
31023,1948.8,5882.4
31023,1948.8,6132.4
31023,1948.8,6132.4
31023,1948.8,5632.4
31023,1948.8,5632.4
31023,1948.8,5882.4
31023,1948.8,5632.4
31023,1948.8,5882.4
31023,1948.8,6132.4
31023,1948.8,5632.4
31023,1948.8,5882.4
31023,1948.8,6132.4
31023,1948.8,5632.4
31023,1948.8,5882.4
31023,1948.8,6132.4
31023,1948.8,5632.4
31023,1948.8,5882.4
31023,1948.8,5632.4
31023,1948.8,5882.4
31023,1948.8,6132.4
31023,1948.8,5632.4
31023,1948.8,5882.4
31023,1948.8,6132.4
31023,1948.8,5632.4
31023,1948.8,5882.4
31023,1948.8,6132.4
31023,1948.8,5882.4
31023,1948.8,6132.4
31023,1948.8,5632.4
31023,1948.8,5882.4
31023,1948.8,6132.4
31023,1948.8,5632.4
31023,1948.8,5882.4
31023,1948.8,6132.4
31023,1948.8,5632.4
31023,1948.8,5882.4
31023,1948.8,6132.4
31023,1948.8,5882.4
31023,1948.8,6132.4
31023,1948.8,6132.4
31023,1948.8,5632.4
31023,1948.8,5882.4
31023,1948.8,6132.4
31023,1948.8,5632.4
31023,1948.8,5882.4
31023,1948.8,6132.4
31023,1948.8,5882.4
31023,1948.8,6132.4
31023,1948.8,6132.4
31023,1948.8,5632.4
31023,1948.8,5632.4
31023,1948.8,5882.4
31023,1948.8,5632.4
31023,1948.8,5882.4
31023,1948.8,6132.4
31023,1948.8,5632.4
31023,1948.8,5882.4
31023,1948.8,6132.4
31023,1948.8,5632.4
31023,1948.8,5882.4
31023,1948.8,6132.4
31023,1948.8,5632.4
31023,1948.8,5632.4
31023,1948.8,5882.4
31023,1948.8,5632.4
31023,1948.8,5882.4
31023,1948.8,6132.4
31023,1948.8,5632.4
31023,1948.8,5882.4
31023,1948.8,6132.4
31023,1948.8,5632.4
31023,1948.8,5882.4
31023,1948.8,6132.4
31023,1948.8,5632.4
31023,1948.8,5882.4
31023,1948.8,5632.4
31023,1948.8,5882.4
31023,1948.8,6132.4
31023,1948.8,5632.4
31023,1948.8,5882.4
31023,1948.8,6132.4
31023,1948.8,5632.4
31023,1948.8,5882.4
31023,1948.8,6132.4
31023,1948.8,5882.4
31023,1948.8,6132.4
31023,1948.8,5632.4
31023,1948.8,5632.4
31023,1948.8,5882.4
31023,1948.8,5632.4
31023,1948.8,5882.4
31023,1948.8,6132.4
31023,1948.8,5632.4
31023,1948.8,5882.4
31023,1948.8,6132.4
31023,1948.8,5632.4
31023,1948.8,5882.4
31023,1948.8,6132.4
31023,1948.8,5632.4
31023,1948.8,5882.4
31023,1948.8,5632.4
31023,1948.8,5882.4
31023,1948.8,6132.4
31023,1948.8,5632.4
31023,1948.8,5882.4
31023,1948.8,6132.4
31023,1948.8,5632.4
31023,1948.8,5882.4
31023,1948.8,6132.4
31023,1948.8,5882.4
31023,1948.8,6132.4
31023,1948.8,5632.4
31023,1948.8,5882.4
31023,1948.8,6132.4
31023,1948.8,5632.4
31023,1948.8,5882.4
31023,1948.8,6132.4
31023,1948.8,5632.4
31023,1948.8,5882.4
31023,1948.8,6132.4
31023,1948.8,5882.4
31023,1948.8,6132.4
31023,1948.8,6132.4
31023,1948.8,5632.4
31023,1948.8,5632.4
31023,1948.8,5882.4
31023,1948.8,5632.4
31023,1948.8,5882.4
31023,1948.8,6132.4
31023,1948.8,5632.4
31023,1948.8,5882.4
31023,1948.8,6132.4
31023,1948.8,5632.4
31023,1948.8,5882.4
31023,1948.8,6132.4
31023,1948.8,5632.4
31023,1948.8,5882.4
31023,1948.8,5632.4
31023,1948.8,5882.4
31023,1948.8,6132.4
31023,1948.8,5632.4
31023,1948.8,5882.4
31023,1948.8,6132.4
31023,1948.8,5632.4
31023,1948.8,5882.4
31023,1948.8,6132.4
31023,1948.8,5882.4
31023,1948.8,6132.4
31023,1948.8,5632.4
31023,1948.8,5882.4
31023,1948.8,6132.4
31023,1948.8,5632.4
31023,1948.8,5882.4
31023,1948.8,6132.4
31023,1948.8,5632.4
31023,1948.8,5882.4
31023,1948.8,6132.4
31023,1948.8,5882.4
31023,1948.8,6132.4
31023,1948.8,6132.4
31023,1948.8,5632.4
31023,1948.8,5882.4
31023,1948.8,6132.4
31023,1948.8,5632.4
31023,1948.8,5882.4
31023,1948.8,6132.4
31023,1948.8,5882.4
31023,1948.8,6132.4
31023,1948.8,6132.4
31023,1948.8,5632.4
31023,1948.8,5632.4
31023,1948.8,5882.4
31023,1948.8,5632.4
31023,1948.8,5882.4
31023,1948.8,6132.4
31023,1948.8,5632.4
31023,1948.8,5882.4
31023,1948.8,6132.4
31023,1948.8,5632.4
31023,1948.8,5882.4
31023,1948.8,6132.4
31023,1948.8,5632.4
31023,1948.8,5882.4
31023,1948.8,5632.4
31023,1948.8,5882.4
31023,1948.8,6132.4
31023,1948.8,5632.4
31023,1948.8,5882.4
31023,1948.8,6132.4
31023,1948.8,5632.4
31023,1948.8,5882.4
31023,1948.8,6132.4
31023,1948.8,5882.4
31023,1948.8,6132.4
31023,1948.8,5632.4
31023,1948.8,5882.4
31023,1948.8,6132.4
31023,1948.8,5632.4
31023,1948.8,5882.4
31023,1948.8,6132.4
31023,1948.8,5632.4
31023,1948.8,5882.4
31023,1948.8,6132.4
31023,1948.8,5882.4
31023,1948.8,6132.4
31023,1948.8,6132.4
31023,1948.8,5632.4
31023,1948.8,5882.4
31023,1948.8,6132.4
31023,1948.8,5632.4
31023,1948.8,5882.4
31023,1948.8,6132.4
31023,1948.8,5882.4
31023,1948.8,6132.4
31023,1948.8,6132.4
31023,1948.8,5632.4
31023,1948.8,5882.4
31023,1948.8,6132.4
31023,1948.8,5882.4
31023,1948.8,6132.4
31023,1948.8,6132.4
30220,1948.8,2132.4
30220,1948.8,2382.4
30220,1948.8,2632.4
30220,1948.8,2882.4
30220,1948.8,3132.4
30220,1948.8,2382.4
30220,1948.8,2632.4
30220,1948.8,2882.4
30220,1948.8,3132.4
30220,1948.8,3382.4
30220,1948.8,2632.4
30220,1948.8,2882.4
30220,1948.8,3132.4
30220,1948.8,3382.4
30220,1948.8,3632.4
30220,1948.8,2882.4
30220,1948.8,3132.4
30220,1948.8,3382.4
30220,1948.8,3632.4
30220,1948.8,3882.4
30220,1948.8,3132.4
30220,1948.8,3382.4
30220,1948.8,3632.4
30220,1948.8,3882.4
30220,1948.8,4132.4
30220,1948.8,2382.4
30220,1948.8,2632.4
30220,1948.8,2882.4
30220,1948.8,3132.4
30220,1948.8,3382.4
30220,1948.8,2632.4
30220,1948.8,2882.4
30220,1948.8,3132.4
30220,1948.8,3382.4
30220,1948.8,3632.4
30220,1948.8,2882.4
30220,1948.8,3132.4
30220,1948.8,3382.4
30220,1948.8,3632.4
30220,1948.8,3882.4
30220,1948.8,3132.4
30220,1948.8,3382.4
30220,1948.8,3632.4
30220,1948.8,3882.4
30220,1948.8,4132.4
30220,1948.8,3382.4
30220,1948.8,3632.4
30220,1948.8,3882.4
30220,1948.8,4132.4
30220,1948.8,4382.4
30220,1948.8,2632.4
30220,1948.8,2882.4
30220,1948.8,3132.4
30220,1948.8,3382.4
30220,1948.8,3632.4
30220,1948.8,2882.4
30220,1948.8,3132.4
30220,1948.8,3382.4
30220,1948.8,3632.4
30220,1948.8,3882.4
30220,1948.8,3132.4
30220,1948.8,3382.4
30220,1948.8,3632.4
30220,1948.8,3882.4
30220,1948.8,4132.4
30220,1948.8,3382.4
30220,1948.8,3632.4
30220,1948.8,3882.4
30220,1948.8,4132.4
30220,1948.8,4382.4
30220,1948.8,3632.4
30220,1948.8,3882.4
30220,1948.8,4132.4
30220,1948.8,4382.4
30220,1948.8,4632.4
30220,1948.8,2382.4
30220,1948.8,2632.4
30220,1948.8,2882.4
30220,1948.8,3132.4
30220,1948.8,3382.4
30220,1948.8,2632.4
30220,1948.8,2882.4
30220,1948.8,3132.4
30220,1948.8,3382.4
30220,1948.8,3632.4
30220,1948.8,2882.4
30220,1948.8,3132.4
30220,1948.8,3382.4
30220,1948.8,3632.4
30220,1948.8,3882.4
30220,1948.8,3132.4
30220,1948.8,3382.4
30220,1948.8,3632.4
30220,1948.8,3882.4
30220,1948.8,4132.4
30220,1948.8,3382.4
30220,1948.8,3632.4
30220,1948.8,3882.4
30220,1948.8,4132.4
30220,1948.8,4382.4
30220,1948.8,2632.4
30220,1948.8,2882.4
30220,1948.8,3132.4
30220,1948.8,3382.4
30220,1948.8,3632.4
30220,1948.8,2882.4
30220,1948.8,3132.4
30220,1948.8,3382.4
30220,1948.8,3632.4
30220,1948.8,3882.4
30220,1948.8,3132.4
30220,1948.8,3382.4
30220,1948.8,3632.4
30220,1948.8,3882.4
30220,1948.8,4132.4
30220,1948.8,3382.4
30220,1948.8,3632.4
30220,1948.8,3882.4
30220,1948.8,4132.4
30220,1948.8,4382.4
30220,1948.8,3632.4
30220,1948.8,3882.4
30220,1948.8,4132.4
30220,1948.8,4382.4
30220,1948.8,4632.4
30220,1948.8,2632.4
30220,1948.8,2882.4
30220,1948.8,3132.4
30220,1948.8,3382.4
30220,1948.8,3632.4
30220,1948.8,2882.4
30220,1948.8,3132.4
30220,1948.8,3382.4
30220,1948.8,3632.4
30220,1948.8,3882.4
30220,1948.8,3132.4
30220,1948.8,3382.4
30220,1948.8,3632.4
30220,1948.8,3882.4
30220,1948.8,4132.4
30220,1948.8,3382.4
30220,1948.8,3632.4
30220,1948.8,3882.4
30220,1948.8,4132.4
30220,1948.8,4382.4
30220,1948.8,3632.4
30220,1948.8,3882.4
30220,1948.8,4132.4
30220,1948.8,4382.4
30220,1948.8,4632.4
30220,1948.8,2382.4
30220,1948.8,2632.4
30220,1948.8,2882.4
30220,1948.8,3132.4
30220,1948.8,3382.4
30220,1948.8,2632.4
30220,1948.8,2882.4
30220,1948.8,3132.4
30220,1948.8,3382.4
30220,1948.8,3632.4
30220,1948.8,2882.4
30220,1948.8,3132.4
30220,1948.8,3382.4
30220,1948.8,3632.4
30220,1948.8,3882.4
30220,1948.8,3132.4
30220,1948.8,3382.4
30220,1948.8,3632.4
30220,1948.8,3882.4
30220,1948.8,4132.4
30220,1948.8,3382.4
30220,1948.8,3632.4
30220,1948.8,3882.4
30220,1948.8,4132.4
30220,1948.8,4382.4
30220,1948.8,2632.4
30220,1948.8,2882.4
30220,1948.8,3132.4
30220,1948.8,3382.4
30220,1948.8,3632.4
30220,1948.8,2882.4
30220,1948.8,3132.4
30220,1948.8,3382.4
30220,1948.8,3632.4
30220,1948.8,3882.4
30220,1948.8,3132.4
30220,1948.8,3382.4
30220,1948.8,3632.4
30220,1948.8,3882.4
30220,1948.8,4132.4
30220,1948.8,3382.4
30220,1948.8,3632.4
30220,1948.8,3882.4
30220,1948.8,4132.4
30220,1948.8,4382.4
30220,1948.8,3632.4
30220,1948.8,3882.4
30220,1948.8,4132.4
30220,1948.8,4382.4
30220,1948.8,4632.4
30220,1948.8,2632.4
30220,1948.8,2882.4
30220,1948.8,3132.4
30220,1948.8,3382.4
30220,1948.8,3632.4
30220,1948.8,2882.4
30220,1948.8,3132.4
30220,1948.8,3382.4
30220,1948.8,3632.4
30220,1948.8,3882.4
30220,1948.8,3132.4
30220,1948.8,3382.4
30220,1948.8,3632.4
30220,1948.8,3882.4
30220,1948.8,4132.4
30220,1948.8,3382.4
30220,1948.8,3632.4
30220,1948.8,3882.4
30220,1948.8,4132.4
30220,1948.8,4382.4
30220,1948.8,3632.4
30220,1948.8,3882.4
30220,1948.8,4132.4
30220,1948.8,4382.4
30220,1948.8,4632.4
30220,1948.8,2632.4
30220,1948.8,2882.4
30220,1948.8,3132.4
30220,1948.8,3382.4
30220,1948.8,3632.4
30220,1948.8,2882.4
30220,1948.8,3132.4
30220,1948.8,3382.4
30220,1948.8,3632.4
30220,1948.8,3882.4
30220,1948.8,3132.4
30220,1948.8,3382.4
30220,1948.8,3632.4
30220,1948.8,3882.4
30220,1948.8,4132.4
30220,1948.8,3382.4
30220,1948.8,3632.4
30220,1948.8,3882.4
30220,1948.8,4132.4
30220,1948.8,4382.4
30220,1948.8,3632.4
30220,1948.8,3882.4
30220,1948.8,4132.4
30220,1948.8,4382.4
30220,1948.8,4632.4
30220,1948.8,5132.4
30220,1948.8,5382.4
30220,1948.8,5632.4
30220,1948.8,5882.4
30220,1948.8,6132.4
30220,1948.8,5132.4
30220,1948.8,5382.4
30220,1948.8,5632.4
30220,1948.8,5882.4
30220,1948.8,6132.4
30220,1948.8,5382.4
30220,1948.8,5632.4
30220,1948.8,5882.4
30220,1948.8,6132.4
30220,1948.8,6382.4
30220,1948.8,5132.4
30220,1948.8,5382.4
30220,1948.8,5632.4
30220,1948.8,5882.4
30220,1948.8,6132.4
30220,1948.8,5382.4
30220,1948.8,5632.4
30220,1948.8,5882.4
30220,1948.8,6132.4
30220,1948.8,6382.4
30220,1948.8,5632.4
30220,1948.8,5882.4
30220,1948.8,6132.4
30220,1948.8,6382.4
30220,1948.8,6632.4
30220,1948.8,5132.4
30220,1948.8,5382.4
30220,1948.8,5632.4
30220,1948.8,5882.4
30220,1948.8,6132.4
30220,1948.8,5382.4
30220,1948.8,5632.4
30220,1948.8,5882.4
30220,1948.8,6132.4
30220,1948.8,6382.4
30220,1948.8,5632.4
30220,1948.8,5882.4
30220,1948.8,6132.4
30220,1948.8,6382.4
30220,1948.8,6632.4
30220,1948.8,5132.4
30220,1948.8,5382.4
30220,1948.8,5632.4
30220,1948.8,5882.4
30220,1948.8,6132.4
30220,1948.8,5382.4
30220,1948.8,5632.4
30220,1948.8,5882.4
30220,1948.8,6132.4
30220,1948.8,6382.4
30220,1948.8,5632.4
30220,1948.8,5882.4
30220,1948.8,6132.4
30220,1948.8,6382.4
30220,1948.8,6632.4
30220,1948.8,2382.4
30220,1948.8,2632.4
30220,1948.8,2882.4
30220,1948.8,3132.4
30220,1948.8,3382.4
30220,1948.8,2632.4
30220,1948.8,2882.4
30220,1948.8,3132.4
30220,1948.8,3382.4
30220,1948.8,3632.4
30220,1948.8,2882.4
30220,1948.8,3132.4
30220,1948.8,3382.4
30220,1948.8,3632.4
30220,1948.8,3882.4
30220,1948.8,3132.4
30220,1948.8,3382.4
30220,1948.8,3632.4
30220,1948.8,3882.4
30220,1948.8,4132.4
30220,1948.8,3382.4
30220,1948.8,3632.4
30220,1948.8,3882.4
30220,1948.8,4132.4
30220,1948.8,4382.4
30220,1948.8,2632.4
30220,1948.8,2882.4
30220,1948.8,3132.4
30220,1948.8,3382.4
30220,1948.8,3632.4
30220,1948.8,2882.4
30220,1948.8,3132.4
30220,1948.8,3382.4
30220,1948.8,3632.4
30220,1948.8,3882.4
30220,1948.8,3132.4
30220,1948.8,3382.4
30220,1948.8,3632.4
30220,1948.8,3882.4
30220,1948.8,4132.4
30220,1948.8,3382.4
30220,1948.8,3632.4
30220,1948.8,3882.4
30220,1948.8,4132.4
30220,1948.8,4382.4
30220,1948.8,3632.4
30220,1948.8,3882.4
30220,1948.8,4132.4
30220,1948.8,4382.4
30220,1948.8,4632.4
30220,1948.8,2632.4
30220,1948.8,2882.4
30220,1948.8,3132.4
30220,1948.8,3382.4
30220,1948.8,3632.4
30220,1948.8,2882.4
30220,1948.8,3132.4
30220,1948.8,3382.4
30220,1948.8,3632.4
30220,1948.8,3882.4
30220,1948.8,3132.4
30220,1948.8,3382.4
30220,1948.8,3632.4
30220,1948.8,3882.4
30220,1948.8,4132.4
30220,1948.8,3382.4
30220,1948.8,3632.4
30220,1948.8,3882.4
30220,1948.8,4132.4
30220,1948.8,4382.4
30220,1948.8,3632.4
30220,1948.8,3882.4
30220,1948.8,4132.4
30220,1948.8,4382.4
30220,1948.8,4632.4
30220,1948.8,2632.4
30220,1948.8,2882.4
30220,1948.8,3132.4
30220,1948.8,3382.4
30220,1948.8,3632.4
30220,1948.8,2882.4
30220,1948.8,3132.4
30220,1948.8,3382.4
30220,1948.8,3632.4
30220,1948.8,3882.4
30220,1948.8,3132.4
30220,1948.8,3382.4
30220,1948.8,3632.4
30220,1948.8,3882.4
30220,1948.8,4132.4
30220,1948.8,3382.4
30220,1948.8,3632.4
30220,1948.8,3882.4
30220,1948.8,4132.4
30220,1948.8,4382.4
30220,1948.8,3632.4
30220,1948.8,3882.4
30220,1948.8,4132.4
30220,1948.8,4382.4
30220,1948.8,4632.4
30220,1948.8,5132.4
30220,1948.8,5382.4
30220,1948.8,5632.4
30220,1948.8,5882.4
30220,1948.8,6132.4
30220,1948.8,5132.4
30220,1948.8,5382.4
30220,1948.8,5632.4
30220,1948.8,5882.4
30220,1948.8,6132.4
30220,1948.8,5382.4
30220,1948.8,5632.4
30220,1948.8,5882.4
30220,1948.8,6132.4
30220,1948.8,6382.4
30220,1948.8,5132.4
30220,1948.8,5382.4
30220,1948.8,5632.4
30220,1948.8,5882.4
30220,1948.8,6132.4
30220,1948.8,5382.4
30220,1948.8,5632.4
30220,1948.8,5882.4
30220,1948.8,6132.4
30220,1948.8,6382.4
30220,1948.8,5632.4
30220,1948.8,5882.4
30220,1948.8,6132.4
30220,1948.8,6382.4
30220,1948.8,6632.4
30220,1948.8,5132.4
30220,1948.8,5382.4
30220,1948.8,5632.4
30220,1948.8,5882.4
30220,1948.8,6132.4
30220,1948.8,5382.4
30220,1948.8,5632.4
30220,1948.8,5882.4
30220,1948.8,6132.4
30220,1948.8,6382.4
30220,1948.8,5632.4
30220,1948.8,5882.4
30220,1948.8,6132.4
30220,1948.8,6382.4
30220,1948.8,6632.4
30220,1948.8,5132.4
30220,1948.8,5382.4
30220,1948.8,5632.4
30220,1948.8,5882.4
30220,1948.8,6132.4
30220,1948.8,5382.4
30220,1948.8,5632.4
30220,1948.8,5882.4
30220,1948.8,6132.4
30220,1948.8,6382.4
30220,1948.8,5632.4
30220,1948.8,5882.4
30220,1948.8,6132.4
30220,1948.8,6382.4
30220,1948.8,6632.4
30220,1948.8,5132.4
30220,1948.8,5382.4
30220,1948.8,5632.4
30220,1948.8,5882.4
30220,1948.8,6132.4
30220,1948.8,5132.4
30220,1948.8,5382.4
30220,1948.8,5632.4
30220,1948.8,5882.4
30220,1948.8,6132.4
30220,1948.8,5382.4
30220,1948.8,5632.4
30220,1948.8,5882.4
30220,1948.8,6132.4
30220,1948.8,6382.4
30220,1948.8,5132.4
30220,1948.8,5382.4
30220,1948.8,5632.4
30220,1948.8,5882.4
30220,1948.8,6132.4
30220,1948.8,5382.4
30220,1948.8,5632.4
30220,1948.8,5882.4
30220,1948.8,6132.4
30220,1948.8,6382.4
30220,1948.8,5632.4
30220,1948.8,5882.4
30220,1948.8,6132.4
30220,1948.8,6382.4
30220,1948.8,6632.4
30220,1948.8,5132.4
30220,1948.8,5382.4
30220,1948.8,5632.4
30220,1948.8,5882.4
30220,1948.8,6132.4
30220,1948.8,5382.4
30220,1948.8,5632.4
30220,1948.8,5882.4
30220,1948.8,6132.4
30220,1948.8,6382.4
30220,1948.8,5632.4
30220,1948.8,5882.4
30220,1948.8,6132.4
30220,1948.8,6382.4
30220,1948.8,6632.4
30220,1948.8,5132.4
30220,1948.8,5382.4
30220,1948.8,5632.4
30220,1948.8,5882.4
30220,1948.8,6132.4
30220,1948.8,5382.4
30220,1948.8,5632.4
30220,1948.8,5882.4
30220,1948.8,6132.4
30220,1948.8,6382.4
30220,1948.8,5632.4
30220,1948.8,5882.4
30220,1948.8,6132.4
30220,1948.8,6382.4
30220,1948.8,6632.4
30220,1948.8,5132.4
30220,1948.8,5382.4
30220,1948.8,5632.4
30220,1948.8,5882.4
30220,1948.8,6132.4
30220,1948.8,5382.4
30220,1948.8,5632.4
30220,1948.8,5882.4
30220,1948.8,6132.4
30220,1948.8,6382.4
30220,1948.8,5132.4
30220,1948.8,5382.4
30220,1948.8,5632.4
30220,1948.8,5882.4
30220,1948.8,6132.4
30220,1948.8,5382.4
30220,1948.8,5632.4
30220,1948.8,5882.4
30220,1948.8,6132.4
30220,1948.8,6382.4
30220,1948.8,5632.4
30220,1948.8,5882.4
30220,1948.8,6132.4
30220,1948.8,6382.4
30220,1948.8,6632.4
30220,1948.8,5132.4
30220,1948.8,5382.4
30220,1948.8,5632.4
30220,1948.8,5882.4
30220,1948.8,6132.4
30220,1948.8,5382.4
30220,1948.8,5632.4
30220,1948.8,5882.4
30220,1948.8,6132.4
30220,1948.8,6382.4
30220,1948.8,5632.4
30220,1948.8,5882.4
30220,1948.8,6132.4
30220,1948.8,6382.4
30220,1948.8,6632.4
30220,1948.8,5132.4
30220,1948.8,5382.4
30220,1948.8,5632.4
30220,1948.8,5882.4
30220,1948.8,6132.4
30220,1948.8,5382.4
30220,1948.8,5632.4
30220,1948.8,5882.4
30220,1948.8,6132.4
30220,1948.8,6382.4
30220,1948.8,5632.4
30220,1948.8,5882.4
30220,1948.8,6132.4
30220,1948.8,6382.4
30220,1948.8,6632.4
30220,1948.8,5382.4
30220,1948.8,5632.4
30220,1948.8,5882.4
30220,1948.8,6132.4
30220,1948.8,6382.4
30220,1948.8,5632.4
30220,1948.8,5882.4
30220,1948.8,6132.4
30220,1948.8,6382.4
30220,1948.8,6632.4
30220,1948.8,2632.4
30220,1948.8,2882.4
30220,1948.8,3132.4
30220,1948.8,3382.4
30220,1948.8,3632.4
30220,1948.8,2882.4
30220,1948.8,3132.4
30220,1948.8,3382.4
30220,1948.8,3632.4
30220,1948.8,3882.4
30220,1948.8,3132.4
30220,1948.8,3382.4
30220,1948.8,3632.4
30220,1948.8,3882.4
30220,1948.8,4132.4
30220,1948.8,3382.4
30220,1948.8,3632.4
30220,1948.8,3882.4
30220,1948.8,4132.4
30220,1948.8,4382.4
30220,1948.8,3632.4
30220,1948.8,3882.4
30220,1948.8,4132.4
30220,1948.8,4382.4
30220,1948.8,4632.4
30220,1948.8,5132.4
30220,1948.8,5382.4
30220,1948.8,5632.4
30220,1948.8,5882.4
30220,1948.8,6132.4
30220,1948.8,5132.4
30220,1948.8,5382.4
30220,1948.8,5632.4
30220,1948.8,5882.4
30220,1948.8,6132.4
30220,1948.8,5382.4
30220,1948.8,5632.4
30220,1948.8,5882.4
30220,1948.8,6132.4
30220,1948.8,6382.4
30220,1948.8,5132.4
30220,1948.8,5382.4
30220,1948.8,5632.4
30220,1948.8,5882.4
30220,1948.8,6132.4
30220,1948.8,5382.4
30220,1948.8,5632.4
30220,1948.8,5882.4
30220,1948.8,6132.4
30220,1948.8,6382.4
30220,1948.8,5632.4
30220,1948.8,5882.4
30220,1948.8,6132.4
30220,1948.8,6382.4
30220,1948.8,6632.4
30220,1948.8,5132.4
30220,1948.8,5382.4
30220,1948.8,5632.4
30220,1948.8,5882.4
30220,1948.8,6132.4
30220,1948.8,5382.4
30220,1948.8,5632.4
30220,1948.8,5882.4
30220,1948.8,6132.4
30220,1948.8,6382.4
30220,1948.8,5632.4
30220,1948.8,5882.4
30220,1948.8,6132.4
30220,1948.8,6382.4
30220,1948.8,6632.4
30220,1948.8,5132.4
30220,1948.8,5382.4
30220,1948.8,5632.4
30220,1948.8,5882.4
30220,1948.8,6132.4
30220,1948.8,5382.4
30220,1948.8,5632.4
30220,1948.8,5882.4
30220,1948.8,6132.4
30220,1948.8,6382.4
30220,1948.8,5632.4
30220,1948.8,5882.4
30220,1948.8,6132.4
30220,1948.8,6382.4
30220,1948.8,6632.4
30220,1948.8,5132.4
30220,1948.8,5382.4
30220,1948.8,5632.4
30220,1948.8,5882.4
30220,1948.8,6132.4
30220,1948.8,5132.4
30220,1948.8,5382.4
30220,1948.8,5632.4
30220,1948.8,5882.4
30220,1948.8,6132.4
30220,1948.8,5382.4
30220,1948.8,5632.4
30220,1948.8,5882.4
30220,1948.8,6132.4
30220,1948.8,6382.4
30220,1948.8,5132.4
30220,1948.8,5382.4
30220,1948.8,5632.4
30220,1948.8,5882.4
30220,1948.8,6132.4
30220,1948.8,5382.4
30220,1948.8,5632.4
30220,1948.8,5882.4
30220,1948.8,6132.4
30220,1948.8,6382.4
30220,1948.8,5632.4
30220,1948.8,5882.4
30220,1948.8,6132.4
30220,1948.8,6382.4
30220,1948.8,6632.4
30220,1948.8,5132.4
30220,1948.8,5382.4
30220,1948.8,5632.4
30220,1948.8,5882.4
30220,1948.8,6132.4
30220,1948.8,5382.4
30220,1948.8,5632.4
30220,1948.8,5882.4
30220,1948.8,6132.4
30220,1948.8,6382.4
30220,1948.8,5632.4
30220,1948.8,5882.4
30220,1948.8,6132.4
30220,1948.8,6382.4
30220,1948.8,6632.4
30220,1948.8,5132.4
30220,1948.8,5382.4
30220,1948.8,5632.4
30220,1948.8,5882.4
30220,1948.8,6132.4
30220,1948.8,5382.4
30220,1948.8,5632.4
30220,1948.8,5882.4
30220,1948.8,6132.4
30220,1948.8,6382.4
30220,1948.8,5632.4
30220,1948.8,5882.4
30220,1948.8,6132.4
30220,1948.8,6382.4
30220,1948.8,6632.4
30220,1948.8,5132.4
30220,1948.8,5382.4
30220,1948.8,5632.4
30220,1948.8,5882.4
30220,1948.8,6132.4
30220,1948.8,5382.4
30220,1948.8,5632.4
30220,1948.8,5882.4
30220,1948.8,6132.4
30220,1948.8,6382.4
30220,1948.8,5132.4
30220,1948.8,5382.4
30220,1948.8,5632.4
30220,1948.8,5882.4
30220,1948.8,6132.4
30220,1948.8,5382.4
30220,1948.8,5632.4
30220,1948.8,5882.4
30220,1948.8,6132.4
30220,1948.8,6382.4
30220,1948.8,5632.4
30220,1948.8,5882.4
30220,1948.8,6132.4
30220,1948.8,6382.4
30220,1948.8,6632.4
30220,1948.8,5132.4
30220,1948.8,5382.4
30220,1948.8,5632.4
30220,1948.8,5882.4
30220,1948.8,6132.4
30220,1948.8,5382.4
30220,1948.8,5632.4
30220,1948.8,5882.4
30220,1948.8,6132.4
30220,1948.8,6382.4
30220,1948.8,5632.4
30220,1948.8,5882.4
30220,1948.8,6132.4
30220,1948.8,6382.4
30220,1948.8,6632.4
30220,1948.8,5132.4
30220,1948.8,5382.4
30220,1948.8,5632.4
30220,1948.8,5882.4
30220,1948.8,6132.4
30220,1948.8,5382.4
30220,1948.8,5632.4
30220,1948.8,5882.4
30220,1948.8,6132.4
30220,1948.8,6382.4
30220,1948.8,5632.4
30220,1948.8,5882.4
30220,1948.8,6132.4
30220,1948.8,6382.4
30220,1948.8,6632.4
30220,1948.8,5382.4
30220,1948.8,5632.4
30220,1948.8,5882.4
30220,1948.8,6132.4
30220,1948.8,6382.4
30220,1948.8,5632.4
30220,1948.8,5882.4
30220,1948.8,6132.4
30220,1948.8,6382.4
30220,1948.8,6632.4
30220,1948.8,5132.4
30220,1948.8,5382.4
30220,1948.8,5632.4
30220,1948.8,5882.4
30220,1948.8,6132.4
30220,1948.8,5132.4
30220,1948.8,5382.4
30220,1948.8,5632.4
30220,1948.8,5882.4
30220,1948.8,6132.4
30220,1948.8,5382.4
30220,1948.8,5632.4
30220,1948.8,5882.4
30220,1948.8,6132.4
30220,1948.8,6382.4
30220,1948.8,5132.4
30220,1948.8,5382.4
30220,1948.8,5632.4
30220,1948.8,5882.4
30220,1948.8,6132.4
30220,1948.8,5382.4
30220,1948.8,5632.4
30220,1948.8,5882.4
30220,1948.8,6132.4
30220,1948.8,6382.4
30220,1948.8,5632.4
30220,1948.8,5882.4
30220,1948.8,6132.4
30220,1948.8,6382.4
30220,1948.8,6632.4
30220,1948.8,5132.4
30220,1948.8,5382.4
30220,1948.8,5632.4
30220,1948.8,5882.4
30220,1948.8,6132.4
30220,1948.8,5382.4
30220,1948.8,5632.4
30220,1948.8,5882.4
30220,1948.8,6132.4
30220,1948.8,6382.4
30220,1948.8,5632.4
30220,1948.8,5882.4
30220,1948.8,6132.4
30220,1948.8,6382.4
30220,1948.8,6632.4
30220,1948.8,5132.4
30220,1948.8,5382.4
30220,1948.8,5632.4
30220,1948.8,5882.4
30220,1948.8,6132.4
30220,1948.8,5382.4
30220,1948.8,5632.4
30220,1948.8,5882.4
30220,1948.8,6132.4
30220,1948.8,6382.4
30220,1948.8,5632.4
30220,1948.8,5882.4
30220,1948.8,6132.4
30220,1948.8,6382.4
30220,1948.8,6632.4
30220,1948.8,5132.4
30220,1948.8,5382.4
30220,1948.8,5632.4
30220,1948.8,5882.4
30220,1948.8,6132.4
30220,1948.8,5382.4
30220,1948.8,5632.4
30220,1948.8,5882.4
30220,1948.8,6132.4
30220,1948.8,6382.4
30220,1948.8,5132.4
30220,1948.8,5382.4
30220,1948.8,5632.4
30220,1948.8,5882.4
30220,1948.8,6132.4
30220,1948.8,5382.4
30220,1948.8,5632.4
30220,1948.8,5882.4
30220,1948.8,6132.4
30220,1948.8,6382.4
30220,1948.8,5632.4
30220,1948.8,5882.4
30220,1948.8,6132.4
30220,1948.8,6382.4
30220,1948.8,6632.4
30220,1948.8,5132.4
30220,1948.8,5382.4
30220,1948.8,5632.4
30220,1948.8,5882.4
30220,1948.8,6132.4
30220,1948.8,5382.4
30220,1948.8,5632.4
30220,1948.8,5882.4
30220,1948.8,6132.4
30220,1948.8,6382.4
30220,1948.8,5632.4
30220,1948.8,5882.4
30220,1948.8,6132.4
30220,1948.8,6382.4
30220,1948.8,6632.4
30220,1948.8,5132.4
30220,1948.8,5382.4
30220,1948.8,5632.4
30220,1948.8,5882.4
30220,1948.8,6132.4
30220,1948.8,5382.4
30220,1948.8,5632.4
30220,1948.8,5882.4
30220,1948.8,6132.4
30220,1948.8,6382.4
30220,1948.8,5632.4
30220,1948.8,5882.4
30220,1948.8,6132.4
30220,1948.8,6382.4
30220,1948.8,6632.4
30220,1948.8,5382.4
30220,1948.8,5632.4
30220,1948.8,5882.4
30220,1948.8,6132.4
30220,1948.8,6382.4
30220,1948.8,5632.4
30220,1948.8,5882.4
30220,1948.8,6132.4
30220,1948.8,6382.4
30220,1948.8,6632.4
30220,1948.8,5132.4
30220,1948.8,5382.4
30220,1948.8,5632.4
30220,1948.8,5882.4
30220,1948.8,6132.4
30220,1948.8,5382.4
30220,1948.8,5632.4
30220,1948.8,5882.4
30220,1948.8,6132.4
30220,1948.8,6382.4
30220,1948.8,5632.4
30220,1948.8,5882.4
30220,1948.8,6132.4
30220,1948.8,6382.4
30220,1948.8,6632.4
30220,1948.8,5132.4
30220,1948.8,5382.4
30220,1948.8,5632.4
30220,1948.8,5882.4
30220,1948.8,6132.4
30220,1948.8,5382.4
30220,1948.8,5632.4
30220,1948.8,5882.4
30220,1948.8,6132.4
30220,1948.8,6382.4
30220,1948.8,5632.4
30220,1948.8,5882.4
30220,1948.8,6132.4
30220,1948.8,6382.4
30220,1948.8,6632.4
30220,1948.8,5132.4
30220,1948.8,5382.4
30220,1948.8,5632.4
30220,1948.8,5882.4
30220,1948.8,6132.4
30220,1948.8,5382.4
30220,1948.8,5632.4
30220,1948.8,5882.4
30220,1948.8,6132.4
30220,1948.8,6382.4
30220,1948.8,5632.4
30220,1948.8,5882.4
30220,1948.8,6132.4
30220,1948.8,6382.4
30220,1948.8,6632.4
30220,1948.8,5382.4
30220,1948.8,5632.4
30220,1948.8,5882.4
30220,1948.8,6132.4
30220,1948.8,6382.4
30220,1948.8,5632.4
30220,1948.8,5882.4
30220,1948.8,6132.4
30220,1948.8,6382.4
30220,1948.8,6632.4
30220,1948.8,5632.4
30220,1948.8,5882.4
30220,1948.8,6132.4
30220,1948.8,6382.4
30220,1948.8,6632.4
30220,1948.8,5132.4
30220,1948.8,5382.4
30220,1948.8,5632.4
30220,1948.8,5882.4
30220,1948.8,6132.4
30220,1948.8,5132.4
30220,1948.8,5382.4
30220,1948.8,5632.4
30220,1948.8,5882.4
30220,1948.8,6132.4
30220,1948.8,5382.4
30220,1948.8,5632.4
30220,1948.8,5882.4
30220,1948.8,6132.4
30220,1948.8,6382.4
30220,1948.8,5132.4
30220,1948.8,5382.4
30220,1948.8,5632.4
30220,1948.8,5882.4
30220,1948.8,6132.4
30220,1948.8,5382.4
30220,1948.8,5632.4
30220,1948.8,5882.4
30220,1948.8,6132.4
30220,1948.8,6382.4
30220,1948.8,5632.4
30220,1948.8,5882.4
30220,1948.8,6132.4
30220,1948.8,6382.4
30220,1948.8,6632.4
30220,1948.8,5132.4
30220,1948.8,5382.4
30220,1948.8,5632.4
30220,1948.8,5882.4
30220,1948.8,6132.4
30220,1948.8,5382.4
30220,1948.8,5632.4
30220,1948.8,5882.4
30220,1948.8,6132.4
30220,1948.8,6382.4
30220,1948.8,5632.4
30220,1948.8,5882.4
30220,1948.8,6132.4
30220,1948.8,6382.4
30220,1948.8,6632.4
30220,1948.8,5132.4
30220,1948.8,5382.4
30220,1948.8,5632.4
30220,1948.8,5882.4
30220,1948.8,6132.4
30220,1948.8,5382.4
30220,1948.8,5632.4
30220,1948.8,5882.4
30220,1948.8,6132.4
30220,1948.8,6382.4
30220,1948.8,5632.4
30220,1948.8,5882.4
30220,1948.8,6132.4
30220,1948.8,6382.4
30220,1948.8,6632.4
30220,1948.8,5132.4
30220,1948.8,5382.4
30220,1948.8,5632.4
30220,1948.8,5882.4
30220,1948.8,6132.4
30220,1948.8,5132.4
30220,1948.8,5382.4
30220,1948.8,5632.4
30220,1948.8,5882.4
30220,1948.8,6132.4
30220,1948.8,5382.4
30220,1948.8,5632.4
30220,1948.8,5882.4
30220,1948.8,6132.4
30220,1948.8,6382.4
30220,1948.8,5132.4
30220,1948.8,5382.4
30220,1948.8,5632.4
30220,1948.8,5882.4
30220,1948.8,6132.4
30220,1948.8,5382.4
30220,1948.8,5632.4
30220,1948.8,5882.4
30220,1948.8,6132.4
30220,1948.8,6382.4
30220,1948.8,5632.4
30220,1948.8,5882.4
30220,1948.8,6132.4
30220,1948.8,6382.4
30220,1948.8,6632.4
30220,1948.8,5132.4
30220,1948.8,5382.4
30220,1948.8,5632.4
30220,1948.8,5882.4
30220,1948.8,6132.4
30220,1948.8,5382.4
30220,1948.8,5632.4
30220,1948.8,5882.4
30220,1948.8,6132.4
30220,1948.8,6382.4
30220,1948.8,5632.4
30220,1948.8,5882.4
30220,1948.8,6132.4
30220,1948.8,6382.4
30220,1948.8,6632.4
30220,1948.8,5132.4
30220,1948.8,5382.4
30220,1948.8,5632.4
30220,1948.8,5882.4
30220,1948.8,6132.4
30220,1948.8,5382.4
30220,1948.8,5632.4
30220,1948.8,5882.4
30220,1948.8,6132.4
30220,1948.8,6382.4
30220,1948.8,5632.4
30220,1948.8,5882.4
30220,1948.8,6132.4
30220,1948.8,6382.4
30220,1948.8,6632.4
30220,1948.8,5132.4
30220,1948.8,5382.4
30220,1948.8,5632.4
30220,1948.8,5882.4
30220,1948.8,6132.4
30220,1948.8,5382.4
30220,1948.8,5632.4
30220,1948.8,5882.4
30220,1948.8,6132.4
30220,1948.8,6382.4
30220,1948.8,5132.4
30220,1948.8,5382.4
30220,1948.8,5632.4
30220,1948.8,5882.4
30220,1948.8,6132.4
30220,1948.8,5382.4
30220,1948.8,5632.4
30220,1948.8,5882.4
30220,1948.8,6132.4
30220,1948.8,6382.4
30220,1948.8,5632.4
30220,1948.8,5882.4
30220,1948.8,6132.4
30220,1948.8,6382.4
30220,1948.8,6632.4
30220,1948.8,5132.4
30220,1948.8,5382.4
30220,1948.8,5632.4
30220,1948.8,5882.4
30220,1948.8,6132.4
30220,1948.8,5382.4
30220,1948.8,5632.4
30220,1948.8,5882.4
30220,1948.8,6132.4
30220,1948.8,6382.4
30220,1948.8,5632.4
30220,1948.8,5882.4
30220,1948.8,6132.4
30220,1948.8,6382.4
30220,1948.8,6632.4
30220,1948.8,5132.4
30220,1948.8,5382.4
30220,1948.8,5632.4
30220,1948.8,5882.4
30220,1948.8,6132.4
30220,1948.8,5382.4
30220,1948.8,5632.4
30220,1948.8,5882.4
30220,1948.8,6132.4
30220,1948.8,6382.4
30220,1948.8,5632.4
30220,1948.8,5882.4
30220,1948.8,6132.4
30220,1948.8,6382.4
30220,1948.8,6632.4
30220,1948.8,5382.4
30220,1948.8,5632.4
30220,1948.8,5882.4
30220,1948.8,6132.4
30220,1948.8,6382.4
30220,1948.8,5632.4
30220,1948.8,5882.4
30220,1948.8,6132.4
30220,1948.8,6382.4
30220,1948.8,6632.4
30220,1948.8,5132.4
30220,1948.8,5382.4
30220,1948.8,5632.4
30220,1948.8,5882.4
30220,1948.8,6132.4
30220,1948.8,5132.4
30220,1948.8,5382.4
30220,1948.8,5632.4
30220,1948.8,5882.4
30220,1948.8,6132.4
30220,1948.8,5382.4
30220,1948.8,5632.4
30220,1948.8,5882.4
30220,1948.8,6132.4
30220,1948.8,6382.4
30220,1948.8,5132.4
30220,1948.8,5382.4
30220,1948.8,5632.4
30220,1948.8,5882.4
30220,1948.8,6132.4
30220,1948.8,5382.4
30220,1948.8,5632.4
30220,1948.8,5882.4
30220,1948.8,6132.4
30220,1948.8,6382.4
30220,1948.8,5632.4
30220,1948.8,5882.4
30220,1948.8,6132.4
30220,1948.8,6382.4
30220,1948.8,6632.4
30220,1948.8,5132.4
30220,1948.8,5382.4
30220,1948.8,5632.4
30220,1948.8,5882.4
30220,1948.8,6132.4
30220,1948.8,5382.4
30220,1948.8,5632.4
30220,1948.8,5882.4
30220,1948.8,6132.4
30220,1948.8,6382.4
30220,1948.8,5632.4
30220,1948.8,5882.4
30220,1948.8,6132.4
30220,1948.8,6382.4
30220,1948.8,6632.4
30220,1948.8,5132.4
30220,1948.8,5382.4
30220,1948.8,5632.4
30220,1948.8,5882.4
30220,1948.8,6132.4
30220,1948.8,5382.4
30220,1948.8,5632.4
30220,1948.8,5882.4
30220,1948.8,6132.4
30220,1948.8,6382.4
30220,1948.8,5632.4
30220,1948.8,5882.4
30220,1948.8,6132.4
30220,1948.8,6382.4
30220,1948.8,6632.4
30220,1948.8,5132.4
30220,1948.8,5382.4
30220,1948.8,5632.4
30220,1948.8,5882.4
30220,1948.8,6132.4
30220,1948.8,5382.4
30220,1948.8,5632.4
30220,1948.8,5882.4
30220,1948.8,6132.4
30220,1948.8,6382.4
30220,1948.8,5132.4
30220,1948.8,5382.4
30220,1948.8,5632.4
30220,1948.8,5882.4
30220,1948.8,6132.4
30220,1948.8,5382.4
30220,1948.8,5632.4
30220,1948.8,5882.4
30220,1948.8,6132.4
30220,1948.8,6382.4
30220,1948.8,5632.4
30220,1948.8,5882.4
30220,1948.8,6132.4
30220,1948.8,6382.4
30220,1948.8,6632.4
30220,1948.8,5132.4
30220,1948.8,5382.4
30220,1948.8,5632.4
30220,1948.8,5882.4
30220,1948.8,6132.4
30220,1948.8,5382.4
30220,1948.8,5632.4
30220,1948.8,5882.4
30220,1948.8,6132.4
30220,1948.8,6382.4
30220,1948.8,5632.4
30220,1948.8,5882.4
30220,1948.8,6132.4
30220,1948.8,6382.4
30220,1948.8,6632.4
30220,1948.8,5132.4
30220,1948.8,5382.4
30220,1948.8,5632.4
30220,1948.8,5882.4
30220,1948.8,6132.4
30220,1948.8,5382.4
30220,1948.8,5632.4
30220,1948.8,5882.4
30220,1948.8,6132.4
30220,1948.8,6382.4
30220,1948.8,5632.4
30220,1948.8,5882.4
30220,1948.8,6132.4
30220,1948.8,6382.4
30220,1948.8,6632.4
30220,1948.8,5382.4
30220,1948.8,5632.4
30220,1948.8,5882.4
30220,1948.8,6132.4
30220,1948.8,6382.4
30220,1948.8,5632.4
30220,1948.8,5882.4
30220,1948.8,6132.4
30220,1948.8,6382.4
30220,1948.8,6632.4
30220,1948.8,5132.4
30220,1948.8,5382.4
30220,1948.8,5632.4
30220,1948.8,5882.4
30220,1948.8,6132.4
30220,1948.8,5382.4
30220,1948.8,5632.4
30220,1948.8,5882.4
30220,1948.8,6132.4
30220,1948.8,6382.4
30220,1948.8,5632.4
30220,1948.8,5882.4
30220,1948.8,6132.4
30220,1948.8,6382.4
30220,1948.8,6632.4
30220,1948.8,5132.4
30220,1948.8,5382.4
30220,1948.8,5632.4
30220,1948.8,5882.4
30220,1948.8,6132.4
30220,1948.8,5382.4
30220,1948.8,5632.4
30220,1948.8,5882.4
30220,1948.8,6132.4
30220,1948.8,6382.4
30220,1948.8,5632.4
30220,1948.8,5882.4
30220,1948.8,6132.4
30220,1948.8,6382.4
30220,1948.8,6632.4
30220,1948.8,5132.4
30220,1948.8,5382.4
30220,1948.8,5632.4
30220,1948.8,5882.4
30220,1948.8,6132.4
30220,1948.8,5382.4
30220,1948.8,5632.4
30220,1948.8,5882.4
30220,1948.8,6132.4
30220,1948.8,6382.4
30220,1948.8,5632.4
30220,1948.8,5882.4
30220,1948.8,6132.4
30220,1948.8,6382.4
30220,1948.8,6632.4
30220,1948.8,5382.4
30220,1948.8,5632.4
30220,1948.8,5882.4
30220,1948.8,6132.4
30220,1948.8,6382.4
30220,1948.8,5632.4
30220,1948.8,5882.4
30220,1948.8,6132.4
30220,1948.8,6382.4
30220,1948.8,6632.4
30220,1948.8,5632.4
30220,1948.8,5882.4
30220,1948.8,6132.4
30220,1948.8,6382.4
30220,1948.8,6632.4
30220,1948.8,5132.4
30220,1948.8,5382.4
30220,1948.8,5632.4
30220,1948.8,5882.4
30220,1948.8,6132.4
30220,1948.8,5132.4
30220,1948.8,5382.4
30220,1948.8,5632.4
30220,1948.8,5882.4
30220,1948.8,6132.4
30220,1948.8,5382.4
30220,1948.8,5632.4
30220,1948.8,5882.4
30220,1948.8,6132.4
30220,1948.8,6382.4
30220,1948.8,5132.4
30220,1948.8,5382.4
30220,1948.8,5632.4
30220,1948.8,5882.4
30220,1948.8,6132.4
30220,1948.8,5382.4
30220,1948.8,5632.4
30220,1948.8,5882.4
30220,1948.8,6132.4
30220,1948.8,6382.4
30220,1948.8,5632.4
30220,1948.8,5882.4
30220,1948.8,6132.4
30220,1948.8,6382.4
30220,1948.8,6632.4
30220,1948.8,5132.4
30220,1948.8,5382.4
30220,1948.8,5632.4
30220,1948.8,5882.4
30220,1948.8,6132.4
30220,1948.8,5382.4
30220,1948.8,5632.4
30220,1948.8,5882.4
30220,1948.8,6132.4
30220,1948.8,6382.4
30220,1948.8,5632.4
30220,1948.8,5882.4
30220,1948.8,6132.4
30220,1948.8,6382.4
30220,1948.8,6632.4
30220,1948.8,5132.4
30220,1948.8,5382.4
30220,1948.8,5632.4
30220,1948.8,5882.4
30220,1948.8,6132.4
30220,1948.8,5382.4
30220,1948.8,5632.4
30220,1948.8,5882.4
30220,1948.8,6132.4
30220,1948.8,6382.4
30220,1948.8,5632.4
30220,1948.8,5882.4
30220,1948.8,6132.4
30220,1948.8,6382.4
30220,1948.8,6632.4
30220,1948.8,5132.4
30220,1948.8,5382.4
30220,1948.8,5632.4
30220,1948.8,5882.4
30220,1948.8,6132.4
30220,1948.8,5382.4
30220,1948.8,5632.4
30220,1948.8,5882.4
30220,1948.8,6132.4
30220,1948.8,6382.4
30220,1948.8,5132.4
30220,1948.8,5382.4
30220,1948.8,5632.4
30220,1948.8,5882.4
30220,1948.8,6132.4
30220,1948.8,5382.4
30220,1948.8,5632.4
30220,1948.8,5882.4
30220,1948.8,6132.4
30220,1948.8,6382.4
30220,1948.8,5632.4
30220,1948.8,5882.4
30220,1948.8,6132.4
30220,1948.8,6382.4
30220,1948.8,6632.4
30220,1948.8,5132.4
30220,1948.8,5382.4
30220,1948.8,5632.4
30220,1948.8,5882.4
30220,1948.8,6132.4
30220,1948.8,5382.4
30220,1948.8,5632.4
30220,1948.8,5882.4
30220,1948.8,6132.4
30220,1948.8,6382.4
30220,1948.8,5632.4
30220,1948.8,5882.4
30220,1948.8,6132.4
30220,1948.8,6382.4
30220,1948.8,6632.4
30220,1948.8,5132.4
30220,1948.8,5382.4
30220,1948.8,5632.4
30220,1948.8,5882.4
30220,1948.8,6132.4
30220,1948.8,5382.4
30220,1948.8,5632.4
30220,1948.8,5882.4
30220,1948.8,6132.4
30220,1948.8,6382.4
30220,1948.8,5632.4
30220,1948.8,5882.4
30220,1948.8,6132.4
30220,1948.8,6382.4
30220,1948.8,6632.4
30220,1948.8,5382.4
30220,1948.8,5632.4
30220,1948.8,5882.4
30220,1948.8,6132.4
30220,1948.8,6382.4
30220,1948.8,5632.4
30220,1948.8,5882.4
30220,1948.8,6132.4
30220,1948.8,6382.4
30220,1948.8,6632.4
30220,1948.8,5132.4
30220,1948.8,5382.4
30220,1948.8,5632.4
30220,1948.8,5882.4
30220,1948.8,6132.4
30220,1948.8,5382.4
30220,1948.8,5632.4
30220,1948.8,5882.4
30220,1948.8,6132.4
30220,1948.8,6382.4
30220,1948.8,5632.4
30220,1948.8,5882.4
30220,1948.8,6132.4
30220,1948.8,6382.4
30220,1948.8,6632.4
30220,1948.8,5132.4
30220,1948.8,5382.4
30220,1948.8,5632.4
30220,1948.8,5882.4
30220,1948.8,6132.4
30220,1948.8,5382.4
30220,1948.8,5632.4
30220,1948.8,5882.4
30220,1948.8,6132.4
30220,1948.8,6382.4
30220,1948.8,5632.4
30220,1948.8,5882.4
30220,1948.8,6132.4
30220,1948.8,6382.4
30220,1948.8,6632.4
30220,1948.8,5132.4
30220,1948.8,5382.4
30220,1948.8,5632.4
30220,1948.8,5882.4
30220,1948.8,6132.4
30220,1948.8,5382.4
30220,1948.8,5632.4
30220,1948.8,5882.4
30220,1948.8,6132.4
30220,1948.8,6382.4
30220,1948.8,5632.4
30220,1948.8,5882.4
30220,1948.8,6132.4
30220,1948.8,6382.4
30220,1948.8,6632.4
30220,1948.8,5382.4
30220,1948.8,5632.4
30220,1948.8,5882.4
30220,1948.8,6132.4
30220,1948.8,6382.4
30220,1948.8,5632.4
30220,1948.8,5882.4
30220,1948.8,6132.4
30220,1948.8,6382.4
30220,1948.8,6632.4
30220,1948.8,5632.4
30220,1948.8,5882.4
30220,1948.8,6132.4
30220,1948.8,6382.4
30220,1948.8,6632.4
30220,1948.8,5132.4
30220,1948.8,5382.4
30220,1948.8,5632.4
30220,1948.8,5882.4
30220,1948.8,6132.4
30220,1948.8,5382.4
30220,1948.8,5632.4
30220,1948.8,5882.4
30220,1948.8,6132.4
30220,1948.8,6382.4
30220,1948.8,5632.4
30220,1948.8,5882.4
30220,1948.8,6132.4
30220,1948.8,6382.4
30220,1948.8,6632.4
30220,1948.8,5132.4
30220,1948.8,5382.4
30220,1948.8,5632.4
30220,1948.8,5882.4
30220,1948.8,6132.4
30220,1948.8,5382.4
30220,1948.8,5632.4
30220,1948.8,5882.4
30220,1948.8,6132.4
30220,1948.8,6382.4
30220,1948.8,5632.4
30220,1948.8,5882.4
30220,1948.8,6132.4
30220,1948.8,6382.4
30220,1948.8,6632.4
30220,1948.8,5382.4
30220,1948.8,5632.4
30220,1948.8,5882.4
30220,1948.8,6132.4
30220,1948.8,6382.4
30220,1948.8,5632.4
30220,1948.8,5882.4
30220,1948.8,6132.4
30220,1948.8,6382.4
30220,1948.8,6632.4
30220,1948.8,5632.4
30220,1948.8,5882.4
30220,1948.8,6132.4
30220,1948.8,6382.4
30220,1948.8,6632.4
30220,1948.8,5132.4
30220,1948.8,5382.4
30220,1948.8,5632.4
30220,1948.8,5882.4
30220,1948.8,6132.4
30220,1948.8,5132.4
30220,1948.8,5382.4
30220,1948.8,5632.4
30220,1948.8,5882.4
30220,1948.8,6132.4
30220,1948.8,5382.4
30220,1948.8,5632.4
30220,1948.8,5882.4
30220,1948.8,6132.4
30220,1948.8,6382.4
30220,1948.8,5132.4
30220,1948.8,5382.4
30220,1948.8,5632.4
30220,1948.8,5882.4
30220,1948.8,6132.4
30220,1948.8,5382.4
30220,1948.8,5632.4
30220,1948.8,5882.4
30220,1948.8,6132.4
30220,1948.8,6382.4
30220,1948.8,5632.4
30220,1948.8,5882.4
30220,1948.8,6132.4
30220,1948.8,6382.4
30220,1948.8,6632.4
30220,1948.8,5132.4
30220,1948.8,5382.4
30220,1948.8,5632.4
30220,1948.8,5882.4
30220,1948.8,6132.4
30220,1948.8,5382.4
30220,1948.8,5632.4
30220,1948.8,5882.4
30220,1948.8,6132.4
30220,1948.8,6382.4
30220,1948.8,5632.4
30220,1948.8,5882.4
30220,1948.8,6132.4
30220,1948.8,6382.4
30220,1948.8,6632.4
30220,1948.8,5132.4
30220,1948.8,5382.4
30220,1948.8,5632.4
30220,1948.8,5882.4
30220,1948.8,6132.4
30220,1948.8,5382.4
30220,1948.8,5632.4
30220,1948.8,5882.4
30220,1948.8,6132.4
30220,1948.8,6382.4
30220,1948.8,5632.4
30220,1948.8,5882.4
30220,1948.8,6132.4
30220,1948.8,6382.4
30220,1948.8,6632.4
30220,1948.8,5132.4
30220,1948.8,5382.4
30220,1948.8,5632.4
30220,1948.8,5882.4
30220,1948.8,6132.4
30220,1948.8,5132.4
30220,1948.8,5382.4
30220,1948.8,5632.4
30220,1948.8,5882.4
30220,1948.8,6132.4
30220,1948.8,5382.4
30220,1948.8,5632.4
30220,1948.8,5882.4
30220,1948.8,6132.4
30220,1948.8,6382.4
30220,1948.8,5132.4
30220,1948.8,5382.4
30220,1948.8,5632.4
30220,1948.8,5882.4
30220,1948.8,6132.4
30220,1948.8,5382.4
30220,1948.8,5632.4
30220,1948.8,5882.4
30220,1948.8,6132.4
30220,1948.8,6382.4
30220,1948.8,5632.4
30220,1948.8,5882.4
30220,1948.8,6132.4
30220,1948.8,6382.4
30220,1948.8,6632.4
30220,1948.8,5132.4
30220,1948.8,5382.4
30220,1948.8,5632.4
30220,1948.8,5882.4
30220,1948.8,6132.4
30220,1948.8,5382.4
30220,1948.8,5632.4
30220,1948.8,5882.4
30220,1948.8,6132.4
30220,1948.8,6382.4
30220,1948.8,5632.4
30220,1948.8,5882.4
30220,1948.8,6132.4
30220,1948.8,6382.4
30220,1948.8,6632.4
30220,1948.8,5132.4
30220,1948.8,5382.4
30220,1948.8,5632.4
30220,1948.8,5882.4
30220,1948.8,6132.4
30220,1948.8,5382.4
30220,1948.8,5632.4
30220,1948.8,5882.4
30220,1948.8,6132.4
30220,1948.8,6382.4
30220,1948.8,5632.4
30220,1948.8,5882.4
30220,1948.8,6132.4
30220,1948.8,6382.4
30220,1948.8,6632.4
30220,1948.8,5132.4
30220,1948.8,5382.4
30220,1948.8,5632.4
30220,1948.8,5882.4
30220,1948.8,6132.4
30220,1948.8,5382.4
30220,1948.8,5632.4
30220,1948.8,5882.4
30220,1948.8,6132.4
30220,1948.8,6382.4
30220,1948.8,5132.4
30220,1948.8,5382.4
30220,1948.8,5632.4
30220,1948.8,5882.4
30220,1948.8,6132.4
30220,1948.8,5382.4
30220,1948.8,5632.4
30220,1948.8,5882.4
30220,1948.8,6132.4
30220,1948.8,6382.4
30220,1948.8,5632.4
30220,1948.8,5882.4
30220,1948.8,6132.4
30220,1948.8,6382.4
30220,1948.8,6632.4
30220,1948.8,5132.4
30220,1948.8,5382.4
30220,1948.8,5632.4
30220,1948.8,5882.4
30220,1948.8,6132.4
30220,1948.8,5382.4
30220,1948.8,5632.4
30220,1948.8,5882.4
30220,1948.8,6132.4
30220,1948.8,6382.4
30220,1948.8,5632.4
30220,1948.8,5882.4
30220,1948.8,6132.4
30220,1948.8,6382.4
30220,1948.8,6632.4
30220,1948.8,5132.4
30220,1948.8,5382.4
30220,1948.8,5632.4
30220,1948.8,5882.4
30220,1948.8,6132.4
30220,1948.8,5382.4
30220,1948.8,5632.4
30220,1948.8,5882.4
30220,1948.8,6132.4
30220,1948.8,6382.4
30220,1948.8,5632.4
30220,1948.8,5882.4
30220,1948.8,6132.4
30220,1948.8,6382.4
30220,1948.8,6632.4
30220,1948.8,5382.4
30220,1948.8,5632.4
30220,1948.8,5882.4
30220,1948.8,6132.4
30220,1948.8,6382.4
30220,1948.8,5632.4
30220,1948.8,5882.4
30220,1948.8,6132.4
30220,1948.8,6382.4
30220,1948.8,6632.4
30220,1948.8,5132.4
30220,1948.8,5382.4
30220,1948.8,5632.4
30220,1948.8,5882.4
30220,1948.8,6132.4
30220,1948.8,5132.4
30220,1948.8,5382.4
30220,1948.8,5632.4
30220,1948.8,5882.4
30220,1948.8,6132.4
30220,1948.8,5382.4
30220,1948.8,5632.4
30220,1948.8,5882.4
30220,1948.8,6132.4
30220,1948.8,6382.4
30220,1948.8,5132.4
30220,1948.8,5382.4
30220,1948.8,5632.4
30220,1948.8,5882.4
30220,1948.8,6132.4
30220,1948.8,5382.4
30220,1948.8,5632.4
30220,1948.8,5882.4
30220,1948.8,6132.4
30220,1948.8,6382.4
30220,1948.8,5632.4
30220,1948.8,5882.4
30220,1948.8,6132.4
30220,1948.8,6382.4
30220,1948.8,6632.4
30220,1948.8,5132.4
30220,1948.8,5382.4
30220,1948.8,5632.4
30220,1948.8,5882.4
30220,1948.8,6132.4
30220,1948.8,5382.4
30220,1948.8,5632.4
30220,1948.8,5882.4
30220,1948.8,6132.4
30220,1948.8,6382.4
30220,1948.8,5632.4
30220,1948.8,5882.4
30220,1948.8,6132.4
30220,1948.8,6382.4
30220,1948.8,6632.4
30220,1948.8,5132.4
30220,1948.8,5382.4
30220,1948.8,5632.4
30220,1948.8,5882.4
30220,1948.8,6132.4
30220,1948.8,5382.4
30220,1948.8,5632.4
30220,1948.8,5882.4
30220,1948.8,6132.4
30220,1948.8,6382.4
30220,1948.8,5632.4
30220,1948.8,5882.4
30220,1948.8,6132.4
30220,1948.8,6382.4
30220,1948.8,6632.4
30220,1948.8,5132.4
30220,1948.8,5382.4
30220,1948.8,5632.4
30220,1948.8,5882.4
30220,1948.8,6132.4
30220,1948.8,5382.4
30220,1948.8,5632.4
30220,1948.8,5882.4
30220,1948.8,6132.4
30220,1948.8,6382.4
30220,1948.8,5132.4
30220,1948.8,5382.4
30220,1948.8,5632.4
30220,1948.8,5882.4
30220,1948.8,6132.4
30220,1948.8,5382.4
30220,1948.8,5632.4
30220,1948.8,5882.4
30220,1948.8,6132.4
30220,1948.8,6382.4
30220,1948.8,5632.4
30220,1948.8,5882.4
30220,1948.8,6132.4
30220,1948.8,6382.4
30220,1948.8,6632.4
30220,1948.8,5132.4
30220,1948.8,5382.4
30220,1948.8,5632.4
30220,1948.8,5882.4
30220,1948.8,6132.4
30220,1948.8,5382.4
30220,1948.8,5632.4
30220,1948.8,5882.4
30220,1948.8,6132.4
30220,1948.8,6382.4
30220,1948.8,5632.4
30220,1948.8,5882.4
30220,1948.8,6132.4
30220,1948.8,6382.4
30220,1948.8,6632.4
30220,1948.8,5132.4
30220,1948.8,5382.4
30220,1948.8,5632.4
30220,1948.8,5882.4
30220,1948.8,6132.4
30220,1948.8,5382.4
30220,1948.8,5632.4
30220,1948.8,5882.4
30220,1948.8,6132.4
30220,1948.8,6382.4
30220,1948.8,5632.4
30220,1948.8,5882.4
30220,1948.8,6132.4
30220,1948.8,6382.4
30220,1948.8,6632.4
30220,1948.8,5382.4
30220,1948.8,5632.4
30220,1948.8,5882.4
30220,1948.8,6132.4
30220,1948.8,6382.4
30220,1948.8,5632.4
30220,1948.8,5882.4
30220,1948.8,6132.4
30220,1948.8,6382.4
30220,1948.8,6632.4
30220,1948.8,5132.4
30220,1948.8,5382.4
30220,1948.8,5632.4
30220,1948.8,5882.4
30220,1948.8,6132.4
30220,1948.8,5382.4
30220,1948.8,5632.4
30220,1948.8,5882.4
30220,1948.8,6132.4
30220,1948.8,6382.4
30220,1948.8,5632.4
30220,1948.8,5882.4
30220,1948.8,6132.4
30220,1948.8,6382.4
30220,1948.8,6632.4
30220,1948.8,5132.4
30220,1948.8,5382.4
30220,1948.8,5632.4
30220,1948.8,5882.4
30220,1948.8,6132.4
30220,1948.8,5382.4
30220,1948.8,5632.4
30220,1948.8,5882.4
30220,1948.8,6132.4
30220,1948.8,6382.4
30220,1948.8,5632.4
30220,1948.8,5882.4
30220,1948.8,6132.4
30220,1948.8,6382.4
30220,1948.8,6632.4
30220,1948.8,5132.4
30220,1948.8,5382.4
30220,1948.8,5632.4
30220,1948.8,5882.4
30220,1948.8,6132.4
30220,1948.8,5382.4
30220,1948.8,5632.4
30220,1948.8,5882.4
30220,1948.8,6132.4
30220,1948.8,6382.4
30220,1948.8,5632.4
30220,1948.8,5882.4
30220,1948.8,6132.4
30220,1948.8,6382.4
30220,1948.8,6632.4
30220,1948.8,5382.4
30220,1948.8,5632.4
30220,1948.8,5882.4
30220,1948.8,6132.4
30220,1948.8,6382.4
30220,1948.8,5632.4
30220,1948.8,5882.4
30220,1948.8,6132.4
30220,1948.8,6382.4
30220,1948.8,6632.4
30220,1948.8,5632.4
30220,1948.8,5882.4
30220,1948.8,6132.4
30220,1948.8,6382.4
30220,1948.8,6632.4
30220,1948.8,5132.4
30220,1948.8,5382.4
30220,1948.8,5632.4
30220,1948.8,5882.4
30220,1948.8,6132.4
30220,1948.8,5132.4
30220,1948.8,5382.4
30220,1948.8,5632.4
30220,1948.8,5882.4
30220,1948.8,6132.4
30220,1948.8,5382.4
30220,1948.8,5632.4
30220,1948.8,5882.4
30220,1948.8,6132.4
30220,1948.8,6382.4
30220,1948.8,5132.4
30220,1948.8,5382.4
30220,1948.8,5632.4
30220,1948.8,5882.4
30220,1948.8,6132.4
30220,1948.8,5382.4
30220,1948.8,5632.4
30220,1948.8,5882.4
30220,1948.8,6132.4
30220,1948.8,6382.4
30220,1948.8,5632.4
30220,1948.8,5882.4
30220,1948.8,6132.4
30220,1948.8,6382.4
30220,1948.8,6632.4
30220,1948.8,5132.4
30220,1948.8,5382.4
30220,1948.8,5632.4
30220,1948.8,5882.4
30220,1948.8,6132.4
30220,1948.8,5382.4
30220,1948.8,5632.4
30220,1948.8,5882.4
30220,1948.8,6132.4
30220,1948.8,6382.4
30220,1948.8,5632.4
30220,1948.8,5882.4
30220,1948.8,6132.4
30220,1948.8,6382.4
30220,1948.8,6632.4
30220,1948.8,5132.4
30220,1948.8,5382.4
30220,1948.8,5632.4
30220,1948.8,5882.4
30220,1948.8,6132.4
30220,1948.8,5382.4
30220,1948.8,5632.4
30220,1948.8,5882.4
30220,1948.8,6132.4
30220,1948.8,6382.4
30220,1948.8,5632.4
30220,1948.8,5882.4
30220,1948.8,6132.4
30220,1948.8,6382.4
30220,1948.8,6632.4
30220,1948.8,5132.4
30220,1948.8,5382.4
30220,1948.8,5632.4
30220,1948.8,5882.4
30220,1948.8,6132.4
30220,1948.8,5382.4
30220,1948.8,5632.4
30220,1948.8,5882.4
30220,1948.8,6132.4
30220,1948.8,6382.4
30220,1948.8,5132.4
30220,1948.8,5382.4
30220,1948.8,5632.4
30220,1948.8,5882.4
30220,1948.8,6132.4
30220,1948.8,5382.4
30220,1948.8,5632.4
30220,1948.8,5882.4
30220,1948.8,6132.4
30220,1948.8,6382.4
30220,1948.8,5632.4
30220,1948.8,5882.4
30220,1948.8,6132.4
30220,1948.8,6382.4
30220,1948.8,6632.4
30220,1948.8,5132.4
30220,1948.8,5382.4
30220,1948.8,5632.4
30220,1948.8,5882.4
30220,1948.8,6132.4
30220,1948.8,5382.4
30220,1948.8,5632.4
30220,1948.8,5882.4
30220,1948.8,6132.4
30220,1948.8,6382.4
30220,1948.8,5632.4
30220,1948.8,5882.4
30220,1948.8,6132.4
30220,1948.8,6382.4
30220,1948.8,6632.4
30220,1948.8,5132.4
30220,1948.8,5382.4
30220,1948.8,5632.4
30220,1948.8,5882.4
30220,1948.8,6132.4
30220,1948.8,5382.4
30220,1948.8,5632.4
30220,1948.8,5882.4
30220,1948.8,6132.4
30220,1948.8,6382.4
30220,1948.8,5632.4
30220,1948.8,5882.4
30220,1948.8,6132.4
30220,1948.8,6382.4
30220,1948.8,6632.4
30220,1948.8,5382.4
30220,1948.8,5632.4
30220,1948.8,5882.4
30220,1948.8,6132.4
30220,1948.8,6382.4
30220,1948.8,5632.4
30220,1948.8,5882.4
30220,1948.8,6132.4
30220,1948.8,6382.4
30220,1948.8,6632.4
30220,1948.8,5132.4
30220,1948.8,5382.4
30220,1948.8,5632.4
30220,1948.8,5882.4
30220,1948.8,6132.4
30220,1948.8,5382.4
30220,1948.8,5632.4
30220,1948.8,5882.4
30220,1948.8,6132.4
30220,1948.8,6382.4
30220,1948.8,5632.4
30220,1948.8,5882.4
30220,1948.8,6132.4
30220,1948.8,6382.4
30220,1948.8,6632.4
30220,1948.8,5132.4
30220,1948.8,5382.4
30220,1948.8,5632.4
30220,1948.8,5882.4
30220,1948.8,6132.4
30220,1948.8,5382.4
30220,1948.8,5632.4
30220,1948.8,5882.4
30220,1948.8,6132.4
30220,1948.8,6382.4
30220,1948.8,5632.4
30220,1948.8,5882.4
30220,1948.8,6132.4
30220,1948.8,6382.4
30220,1948.8,6632.4
30220,1948.8,5132.4
30220,1948.8,5382.4
30220,1948.8,5632.4
30220,1948.8,5882.4
30220,1948.8,6132.4
30220,1948.8,5382.4
30220,1948.8,5632.4
30220,1948.8,5882.4
30220,1948.8,6132.4
30220,1948.8,6382.4
30220,1948.8,5632.4
30220,1948.8,5882.4
30220,1948.8,6132.4
30220,1948.8,6382.4
30220,1948.8,6632.4
30220,1948.8,5382.4
30220,1948.8,5632.4
30220,1948.8,5882.4
30220,1948.8,6132.4
30220,1948.8,6382.4
30220,1948.8,5632.4
30220,1948.8,5882.4
30220,1948.8,6132.4
30220,1948.8,6382.4
30220,1948.8,6632.4
30220,1948.8,5632.4
30220,1948.8,5882.4
30220,1948.8,6132.4
30220,1948.8,6382.4
30220,1948.8,6632.4
30220,1948.8,5132.4
30220,1948.8,5382.4
30220,1948.8,5632.4
30220,1948.8,5882.4
30220,1948.8,6132.4
30220,1948.8,5382.4
30220,1948.8,5632.4
30220,1948.8,5882.4
30220,1948.8,6132.4
30220,1948.8,6382.4
30220,1948.8,5632.4
30220,1948.8,5882.4
30220,1948.8,6132.4
30220,1948.8,6382.4
30220,1948.8,6632.4
30220,1948.8,5132.4
30220,1948.8,5382.4
30220,1948.8,5632.4
30220,1948.8,5882.4
30220,1948.8,6132.4
30220,1948.8,5382.4
30220,1948.8,5632.4
30220,1948.8,5882.4
30220,1948.8,6132.4
30220,1948.8,6382.4
30220,1948.8,5632.4
30220,1948.8,5882.4
30220,1948.8,6132.4
30220,1948.8,6382.4
30220,1948.8,6632.4
30220,1948.8,5382.4
30220,1948.8,5632.4
30220,1948.8,5882.4
30220,1948.8,6132.4
30220,1948.8,6382.4
30220,1948.8,5632.4
30220,1948.8,5882.4
30220,1948.8,6132.4
30220,1948.8,6382.4
30220,1948.8,6632.4
30220,1948.8,5632.4
30220,1948.8,5882.4
30220,1948.8,6132.4
30220,1948.8,6382.4
30220,1948.8,6632.4
30220,1948.8,5132.4
30220,1948.8,5382.4
30220,1948.8,5632.4
30220,1948.8,5882.4
30220,1948.8,6132.4
30220,1948.8,5132.4
30220,1948.8,5382.4
30220,1948.8,5632.4
30220,1948.8,5882.4
30220,1948.8,6132.4
30220,1948.8,5382.4
30220,1948.8,5632.4
30220,1948.8,5882.4
30220,1948.8,6132.4
30220,1948.8,6382.4
30220,1948.8,5132.4
30220,1948.8,5382.4
30220,1948.8,5632.4
30220,1948.8,5882.4
30220,1948.8,6132.4
30220,1948.8,5382.4
30220,1948.8,5632.4
30220,1948.8,5882.4
30220,1948.8,6132.4
30220,1948.8,6382.4
30220,1948.8,5632.4
30220,1948.8,5882.4
30220,1948.8,6132.4
30220,1948.8,6382.4
30220,1948.8,6632.4
30220,1948.8,5132.4
30220,1948.8,5382.4
30220,1948.8,5632.4
30220,1948.8,5882.4
30220,1948.8,6132.4
30220,1948.8,5382.4
30220,1948.8,5632.4
30220,1948.8,5882.4
30220,1948.8,6132.4
30220,1948.8,6382.4
30220,1948.8,5632.4
30220,1948.8,5882.4
30220,1948.8,6132.4
30220,1948.8,6382.4
30220,1948.8,6632.4
30220,1948.8,5132.4
30220,1948.8,5382.4
30220,1948.8,5632.4
30220,1948.8,5882.4
30220,1948.8,6132.4
30220,1948.8,5382.4
30220,1948.8,5632.4
30220,1948.8,5882.4
30220,1948.8,6132.4
30220,1948.8,6382.4
30220,1948.8,5632.4
30220,1948.8,5882.4
30220,1948.8,6132.4
30220,1948.8,6382.4
30220,1948.8,6632.4
30220,1948.8,5132.4
30220,1948.8,5382.4
30220,1948.8,5632.4
30220,1948.8,5882.4
30220,1948.8,6132.4
30220,1948.8,5382.4
30220,1948.8,5632.4
30220,1948.8,5882.4
30220,1948.8,6132.4
30220,1948.8,6382.4
30220,1948.8,5132.4
30220,1948.8,5382.4
30220,1948.8,5632.4
30220,1948.8,5882.4
30220,1948.8,6132.4
30220,1948.8,5382.4
30220,1948.8,5632.4
30220,1948.8,5882.4
30220,1948.8,6132.4
30220,1948.8,6382.4
30220,1948.8,5632.4
30220,1948.8,5882.4
30220,1948.8,6132.4
30220,1948.8,6382.4
30220,1948.8,6632.4
30220,1948.8,5132.4
30220,1948.8,5382.4
30220,1948.8,5632.4
30220,1948.8,5882.4
30220,1948.8,6132.4
30220,1948.8,5382.4
30220,1948.8,5632.4
30220,1948.8,5882.4
30220,1948.8,6132.4
30220,1948.8,6382.4
30220,1948.8,5632.4
30220,1948.8,5882.4
30220,1948.8,6132.4
30220,1948.8,6382.4
30220,1948.8,6632.4
30220,1948.8,5132.4
30220,1948.8,5382.4
30220,1948.8,5632.4
30220,1948.8,5882.4
30220,1948.8,6132.4
30220,1948.8,5382.4
30220,1948.8,5632.4
30220,1948.8,5882.4
30220,1948.8,6132.4
30220,1948.8,6382.4
30220,1948.8,5632.4
30220,1948.8,5882.4
30220,1948.8,6132.4
30220,1948.8,6382.4
30220,1948.8,6632.4
30220,1948.8,5382.4
30220,1948.8,5632.4
30220,1948.8,5882.4
30220,1948.8,6132.4
30220,1948.8,6382.4
30220,1948.8,5632.4
30220,1948.8,5882.4
30220,1948.8,6132.4
30220,1948.8,6382.4
30220,1948.8,6632.4
30220,1948.8,5132.4
30220,1948.8,5382.4
30220,1948.8,5632.4
30220,1948.8,5882.4
30220,1948.8,6132.4
30220,1948.8,5382.4
30220,1948.8,5632.4
30220,1948.8,5882.4
30220,1948.8,6132.4
30220,1948.8,6382.4
30220,1948.8,5632.4
30220,1948.8,5882.4
30220,1948.8,6132.4
30220,1948.8,6382.4
30220,1948.8,6632.4
30220,1948.8,5132.4
30220,1948.8,5382.4
30220,1948.8,5632.4
30220,1948.8,5882.4
30220,1948.8,6132.4
30220,1948.8,5382.4
30220,1948.8,5632.4
30220,1948.8,5882.4
30220,1948.8,6132.4
30220,1948.8,6382.4
30220,1948.8,5632.4
30220,1948.8,5882.4
30220,1948.8,6132.4
30220,1948.8,6382.4
30220,1948.8,6632.4
30220,1948.8,5132.4
30220,1948.8,5382.4
30220,1948.8,5632.4
30220,1948.8,5882.4
30220,1948.8,6132.4
30220,1948.8,5382.4
30220,1948.8,5632.4
30220,1948.8,5882.4
30220,1948.8,6132.4
30220,1948.8,6382.4
30220,1948.8,5632.4
30220,1948.8,5882.4
30220,1948.8,6132.4
30220,1948.8,6382.4
30220,1948.8,6632.4
30220,1948.8,5382.4
30220,1948.8,5632.4
30220,1948.8,5882.4
30220,1948.8,6132.4
30220,1948.8,6382.4
30220,1948.8,5632.4
30220,1948.8,5882.4
30220,1948.8,6132.4
30220,1948.8,6382.4
30220,1948.8,6632.4
30220,1948.8,5632.4
30220,1948.8,5882.4
30220,1948.8,6132.4
30220,1948.8,6382.4
30220,1948.8,6632.4
30220,1948.8,5132.4
30220,1948.8,5382.4
30220,1948.8,5632.4
30220,1948.8,5882.4
30220,1948.8,6132.4
30220,1948.8,5382.4
30220,1948.8,5632.4
30220,1948.8,5882.4
30220,1948.8,6132.4
30220,1948.8,6382.4
30220,1948.8,5632.4
30220,1948.8,5882.4
30220,1948.8,6132.4
30220,1948.8,6382.4
30220,1948.8,6632.4
30220,1948.8,5132.4
30220,1948.8,5382.4
30220,1948.8,5632.4
30220,1948.8,5882.4
30220,1948.8,6132.4
30220,1948.8,5382.4
30220,1948.8,5632.4
30220,1948.8,5882.4
30220,1948.8,6132.4
30220,1948.8,6382.4
30220,1948.8,5632.4
30220,1948.8,5882.4
30220,1948.8,6132.4
30220,1948.8,6382.4
30220,1948.8,6632.4
30220,1948.8,5382.4
30220,1948.8,5632.4
30220,1948.8,5882.4
30220,1948.8,6132.4
30220,1948.8,6382.4
30220,1948.8,5632.4
30220,1948.8,5882.4
30220,1948.8,6132.4
30220,1948.8,6382.4
30220,1948.8,6632.4
30220,1948.8,5632.4
30220,1948.8,5882.4
30220,1948.8,6132.4
30220,1948.8,6382.4
30220,1948.8,6632.4
30220,1948.8,5132.4
30220,1948.8,5382.4
30220,1948.8,5632.4
30220,1948.8,5882.4
30220,1948.8,6132.4
30220,1948.8,5382.4
30220,1948.8,5632.4
30220,1948.8,5882.4
30220,1948.8,6132.4
30220,1948.8,6382.4
30220,1948.8,5632.4
30220,1948.8,5882.4
30220,1948.8,6132.4
30220,1948.8,6382.4
30220,1948.8,6632.4
30220,1948.8,5382.4
30220,1948.8,5632.4
30220,1948.8,5882.4
30220,1948.8,6132.4
30220,1948.8,6382.4
30220,1948.8,5632.4
30220,1948.8,5882.4
30220,1948.8,6132.4
30220,1948.8,6382.4
30220,1948.8,6632.4
30220,1948.8,5632.4
30220,1948.8,5882.4
30220,1948.8,6132.4
30220,1948.8,6382.4
30220,1948.8,6632.4
