-11245,1948.8,5132.4
-10442,1948.8,4882.4
-10442,1948.8,5132.4
-10442,1948.8,5382.4
-10442,1948.8,5632.4
-9639.2,1948.8,4882.4
-9639.2,1948.8,5132.4
-9639.2,1948.8,5382.4
-9639.2,1948.8,4882.4
-9639.2,1948.8,5132.4
-9639.2,1948.8,5382.4
-9639.2,1948.8,5632.4
-9639.2,1948.8,4882.4
-9639.2,1948.8,5132.4
-9639.2,1948.8,5382.4
-9639.2,1948.8,5632.4
-9639.2,1948.8,5882.4
-9639.2,1948.8,5132.4
-9639.2,1948.8,5382.4
-9639.2,1948.8,5632.4
-9639.2,1948.8,5882.4
-9639.2,1948.8,6132.4
-8836.6,1948.8,5382.4
-8836.6,1948.8,5382.4
-8836.6,1948.8,5632.4
-8836.6,1948.8,5382.4
-8836.6,1948.8,5632.4
-8836.6,1948.8,5882.4
-8836.6,1948.8,5382.4
-8836.6,1948.8,5382.4
-8836.6,1948.8,5632.4
-8836.6,1948.8,5382.4
-8836.6,1948.8,5632.4
-8836.6,1948.8,5882.4
-8836.6,1948.8,5382.4
-8836.6,1948.8,5632.4
-8836.6,1948.8,5882.4
-8836.6,1948.8,6132.4
-8836.6,1948.8,5382.4
-8836.6,1948.8,5382.4
-8836.6,1948.8,5632.4
-8836.6,1948.8,5382.4
-8836.6,1948.8,5632.4
-8836.6,1948.8,5882.4
-8836.6,1948.8,5382.4
-8836.6,1948.8,5632.4
-8836.6,1948.8,5882.4
-8836.6,1948.8,6132.4
-8836.6,1948.8,5382.4
-8836.6,1948.8,5632.4
-8836.6,1948.8,5882.4
-8836.6,1948.8,6132.4
-8836.6,1948.8,6382.4
-8836.6,1948.8,5382.4
-8836.6,1948.8,5632.4
-8836.6,1948.8,5382.4
-8836.6,1948.8,5632.4
-8836.6,1948.8,5882.4
-8836.6,1948.8,5382.4
-8836.6,1948.8,5632.4
-8836.6,1948.8,5882.4
-8836.6,1948.8,6132.4
-8836.6,1948.8,5382.4
-8836.6,1948.8,5632.4
-8836.6,1948.8,5882.4
-8836.6,1948.8,6132.4
-8836.6,1948.8,6382.4
-8836.6,1948.8,5632.4
-8836.6,1948.8,5882.4
-8836.6,1948.8,6132.4
-8836.6,1948.8,6382.4
-8836.6,1948.8,6632.4
-8033.9,1948.8,5882.4
-8033.9,1948.8,5882.4
-8033.9,1948.8,5882.4
-8033.9,1948.8,6132.4
-8033.9,1948.8,5882.4
-8033.9,1948.8,5882.4
-8033.9,1948.8,6132.4
-8033.9,1948.8,5882.4
-8033.9,1948.8,6132.4
-8033.9,1948.8,6382.4
-8033.9,1948.8,5882.4
-8033.9,1948.8,5882.4
-8033.9,1948.8,5882.4
-8033.9,1948.8,6132.4
-8033.9,1948.8,5882.4
-8033.9,1948.8,5882.4
-8033.9,1948.8,6132.4
-8033.9,1948.8,5882.4
-8033.9,1948.8,6132.4
-8033.9,1948.8,6382.4
-8033.9,1948.8,5882.4
-8033.9,1948.8,5882.4
-8033.9,1948.8,6132.4
-8033.9,1948.8,5882.4
-8033.9,1948.8,6132.4
-8033.9,1948.8,6382.4
-8033.9,1948.8,5882.4
-8033.9,1948.8,6132.4
-8033.9,1948.8,6382.4
-8033.9,1948.8,6632.4
-8033.9,1948.8,5882.4
-8033.9,1948.8,5882.4
-8033.9,1948.8,5882.4
-8033.9,1948.8,6132.4
-8033.9,1948.8,5882.4
-8033.9,1948.8,5882.4
-8033.9,1948.8,6132.4
-8033.9,1948.8,5882.4
-8033.9,1948.8,6132.4
-8033.9,1948.8,6382.4
-8033.9,1948.8,5882.4
-8033.9,1948.8,5882.4
-8033.9,1948.8,6132.4
-8033.9,1948.8,5882.4
-8033.9,1948.8,6132.4
-8033.9,1948.8,6382.4
-8033.9,1948.8,5882.4
-8033.9,1948.8,6132.4
-8033.9,1948.8,6382.4
-8033.9,1948.8,6632.4
-8033.9,1948.8,5882.4
-8033.9,1948.8,5882.4
-8033.9,1948.8,6132.4
-8033.9,1948.8,5882.4
-8033.9,1948.8,6132.4
-8033.9,1948.8,6382.4
-8033.9,1948.8,5882.4
-8033.9,1948.8,6132.4
-8033.9,1948.8,6382.4
-8033.9,1948.8,6632.4
-8033.9,1948.8,5882.4
-8033.9,1948.8,6132.4
-8033.9,1948.8,6382.4
-8033.9,1948.8,6632.4
-8033.9,1948.8,6882.4
-8033.9,1948.8,5882.4
-8033.9,1948.8,5882.4
-8033.9,1948.8,6132.4
-8033.9,1948.8,5882.4
-8033.9,1948.8,5882.4
-8033.9,1948.8,6132.4
-8033.9,1948.8,5882.4
-8033.9,1948.8,6132.4
-8033.9,1948.8,6382.4
-8033.9,1948.8,5882.4
-8033.9,1948.8,5882.4
-8033.9,1948.8,6132.4
-8033.9,1948.8,5882.4
-8033.9,1948.8,6132.4
-8033.9,1948.8,6382.4
-8033.9,1948.8,5882.4
-8033.9,1948.8,6132.4
-8033.9,1948.8,6382.4
-8033.9,1948.8,6632.4
-8033.9,1948.8,5882.4
-8033.9,1948.8,5882.4
-8033.9,1948.8,6132.4
-8033.9,1948.8,5882.4
-8033.9,1948.8,6132.4
-8033.9,1948.8,6382.4
-8033.9,1948.8,5882.4
-8033.9,1948.8,6132.4
-8033.9,1948.8,6382.4
-8033.9,1948.8,6632.4
-8033.9,1948.8,5882.4
-8033.9,1948.8,6132.4
-8033.9,1948.8,6382.4
-8033.9,1948.8,6632.4
-8033.9,1948.8,6882.4
-8033.9,1948.8,5882.4
-8033.9,1948.8,6132.4
-8033.9,1948.8,5882.4
-8033.9,1948.8,6132.4
-8033.9,1948.8,6382.4
-8033.9,1948.8,5882.4
-8033.9,1948.8,6132.4
-8033.9,1948.8,6382.4
-8033.9,1948.8,6632.4
-8033.9,1948.8,5882.4
-8033.9,1948.8,6132.4
-8033.9,1948.8,6382.4
-8033.9,1948.8,6632.4
-8033.9,1948.8,6882.4
-8033.9,1948.8,6132.4
-8033.9,1948.8,6382.4
-8033.9,1948.8,6632.4
-8033.9,1948.8,6882.4
-8033.9,1948.8,7132.4
-7231.3,1948.8,6382.4
-7231.3,1948.8,6382.4
-7231.3,1948.8,6382.4
-7231.3,1948.8,6382.4
-7231.3,1948.8,6632.4
-7231.3,1948.8,6382.4
-7231.3,1948.8,6382.4
-7231.3,1948.8,6382.4
-7231.3,1948.8,6632.4
-7231.3,1948.8,6382.4
-7231.3,1948.8,6382.4
-7231.3,1948.8,6632.4
-7231.3,1948.8,6382.4
-7231.3,1948.8,6632.4
-7231.3,1948.8,6882.4
-7231.3,1948.8,6382.4
-7231.3,1948.8,6382.4
-7231.3,1948.8,6382.4
-7231.3,1948.8,6382.4
-7231.3,1948.8,6632.4
-7231.3,1948.8,6382.4
-7231.3,1948.8,6382.4
-7231.3,1948.8,6382.4
-7231.3,1948.8,6632.4
-7231.3,1948.8,6382.4
-7231.3,1948.8,6382.4
-7231.3,1948.8,6632.4
-7231.3,1948.8,6382.4
-7231.3,1948.8,6632.4
-7231.3,1948.8,6882.4
-7231.3,1948.8,6382.4
-7231.3,1948.8,6382.4
-7231.3,1948.8,6382.4
-7231.3,1948.8,6632.4
-7231.3,1948.8,6382.4
-7231.3,1948.8,6382.4
-7231.3,1948.8,6632.4
-7231.3,1948.8,6382.4
-7231.3,1948.8,6632.4
-7231.3,1948.8,6882.4
-7231.3,1948.8,6382.4
-7231.3,1948.8,6382.4
-7231.3,1948.8,6632.4
-7231.3,1948.8,6382.4
-7231.3,1948.8,6632.4
-7231.3,1948.8,6882.4
-7231.3,1948.8,6382.4
-7231.3,1948.8,6632.4
-7231.3,1948.8,6882.4
-7231.3,1948.8,7132.4
-7231.3,1948.8,6382.4
-7231.3,1948.8,6382.4
-7231.3,1948.8,6382.4
-7231.3,1948.8,6382.4
-7231.3,1948.8,6632.4
-7231.3,1948.8,6382.4
-7231.3,1948.8,6382.4
-7231.3,1948.8,6382.4
-7231.3,1948.8,6632.4
-7231.3,1948.8,6382.4
-7231.3,1948.8,6382.4
-7231.3,1948.8,6632.4
-7231.3,1948.8,6382.4
-7231.3,1948.8,6632.4
-7231.3,1948.8,6882.4
-7231.3,1948.8,6382.4
-7231.3,1948.8,6382.4
-7231.3,1948.8,6382.4
-7231.3,1948.8,6632.4
-7231.3,1948.8,6382.4
-7231.3,1948.8,6382.4
-7231.3,1948.8,6632.4
-7231.3,1948.8,6382.4
-7231.3,1948.8,6632.4
-7231.3,1948.8,6882.4
-7231.3,1948.8,6382.4
-7231.3,1948.8,6382.4
-7231.3,1948.8,6632.4
-7231.3,1948.8,6382.4
-7231.3,1948.8,6632.4
-7231.3,1948.8,6882.4
-7231.3,1948.8,6382.4
-7231.3,1948.8,6632.4
-7231.3,1948.8,6882.4
-7231.3,1948.8,7132.4
-7231.3,1948.8,6382.4
-7231.3,1948.8,6382.4
-7231.3,1948.8,6382.4
-7231.3,1948.8,6632.4
-7231.3,1948.8,6382.4
-7231.3,1948.8,6382.4
-7231.3,1948.8,6632.4
-7231.3,1948.8,6382.4
-7231.3,1948.8,6632.4
-7231.3,1948.8,6882.4
-7231.3,1948.8,6382.4
-7231.3,1948.8,6382.4
-7231.3,1948.8,6632.4
-7231.3,1948.8,6382.4
-7231.3,1948.8,6632.4
-7231.3,1948.8,6882.4
-7231.3,1948.8,6382.4
-7231.3,1948.8,6632.4
-7231.3,1948.8,6882.4
-7231.3,1948.8,7132.4
-7231.3,1948.8,6382.4
-7231.3,1948.8,6382.4
-7231.3,1948.8,6632.4
-7231.3,1948.8,6382.4
-7231.3,1948.8,6632.4
-7231.3,1948.8,6882.4
-7231.3,1948.8,6382.4
-7231.3,1948.8,6632.4
-7231.3,1948.8,6882.4
-7231.3,1948.8,7132.4
-7231.3,1948.8,6382.4
-7231.3,1948.8,6632.4
-7231.3,1948.8,6882.4
-7231.3,1948.8,7132.4
-7231.3,1948.8,7382.4
-7231.3,1948.8,6382.4
-7231.3,1948.8,6382.4
-7231.3,1948.8,6382.4
-7231.3,1948.8,6632.4
-7231.3,1948.8,6382.4
-7231.3,1948.8,6382.4
-7231.3,1948.8,6382.4
-7231.3,1948.8,6632.4
-7231.3,1948.8,6382.4
-7231.3,1948.8,6382.4
-7231.3,1948.8,6632.4
-7231.3,1948.8,6382.4
-7231.3,1948.8,6632.4
-7231.3,1948.8,6882.4
-7231.3,1948.8,6382.4
-7231.3,1948.8,6382.4
-7231.3,1948.8,6382.4
-7231.3,1948.8,6632.4
-7231.3,1948.8,6382.4
-7231.3,1948.8,6382.4
-7231.3,1948.8,6632.4
-7231.3,1948.8,6382.4
-7231.3,1948.8,6632.4
-7231.3,1948.8,6882.4
-7231.3,1948.8,6382.4
-7231.3,1948.8,6382.4
-7231.3,1948.8,6632.4
-7231.3,1948.8,6382.4
-7231.3,1948.8,6632.4
-7231.3,1948.8,6882.4
-7231.3,1948.8,6382.4
-7231.3,1948.8,6632.4
-7231.3,1948.8,6882.4
-7231.3,1948.8,7132.4
-7231.3,1948.8,6382.4
-7231.3,1948.8,6382.4
-7231.3,1948.8,6382.4
-7231.3,1948.8,6632.4
-7231.3,1948.8,6382.4
-7231.3,1948.8,6382.4
-7231.3,1948.8,6632.4
-7231.3,1948.8,6382.4
-7231.3,1948.8,6632.4
-7231.3,1948.8,6882.4
-7231.3,1948.8,6382.4
-7231.3,1948.8,6382.4
-7231.3,1948.8,6632.4
-7231.3,1948.8,6382.4
-7231.3,1948.8,6632.4
-7231.3,1948.8,6882.4
-7231.3,1948.8,6382.4
-7231.3,1948.8,6632.4
-7231.3,1948.8,6882.4
-7231.3,1948.8,7132.4
-7231.3,1948.8,6382.4
-7231.3,1948.8,6382.4
-7231.3,1948.8,6632.4
-7231.3,1948.8,6382.4
-7231.3,1948.8,6632.4
-7231.3,1948.8,6882.4
-7231.3,1948.8,6382.4
-7231.3,1948.8,6632.4
-7231.3,1948.8,6882.4
-7231.3,1948.8,7132.4
-7231.3,1948.8,6382.4
-7231.3,1948.8,6632.4
-7231.3,1948.8,6882.4
-7231.3,1948.8,7132.4
-7231.3,1948.8,7382.4
-7231.3,1948.8,6382.4
-7231.3,1948.8,6382.4
-7231.3,1948.8,6632.4
-7231.3,1948.8,6382.4
-7231.3,1948.8,6382.4
-7231.3,1948.8,6632.4
-7231.3,1948.8,6382.4
-7231.3,1948.8,6632.4
-7231.3,1948.8,6882.4
-7231.3,1948.8,6382.4
-7231.3,1948.8,6382.4
-7231.3,1948.8,6632.4
-7231.3,1948.8,6382.4
-7231.3,1948.8,6632.4
-7231.3,1948.8,6882.4
-7231.3,1948.8,6382.4
-7231.3,1948.8,6632.4
-7231.3,1948.8,6882.4
-7231.3,1948.8,7132.4
-7231.3,1948.8,6382.4
-7231.3,1948.8,6382.4
-7231.3,1948.8,6632.4
-7231.3,1948.8,6382.4
-7231.3,1948.8,6632.4
-7231.3,1948.8,6882.4
-7231.3,1948.8,6382.4
-7231.3,1948.8,6632.4
-7231.3,1948.8,6882.4
-7231.3,1948.8,7132.4
-7231.3,1948.8,6382.4
-7231.3,1948.8,6632.4
-7231.3,1948.8,6882.4
-7231.3,1948.8,7132.4
-7231.3,1948.8,7382.4
-7231.3,1948.8,6382.4
-7231.3,1948.8,6632.4
-7231.3,1948.8,6382.4
-7231.3,1948.8,6632.4
-7231.3,1948.8,6882.4
-7231.3,1948.8,6382.4
-7231.3,1948.8,6632.4
-7231.3,1948.8,6882.4
-7231.3,1948.8,7132.4
-7231.3,1948.8,6382.4
-7231.3,1948.8,6632.4
-7231.3,1948.8,6882.4
-7231.3,1948.8,7132.4
-7231.3,1948.8,7382.4
-7231.3,1948.8,6632.4
-7231.3,1948.8,6882.4
-7231.3,1948.8,7132.4
-7231.3,1948.8,7382.4
-7231.3,1948.8,7632.4
-6428.6,1948.8,6882.4
-6428.6,1948.8,6882.4
-6428.6,1948.8,6882.4
-6428.6,1948.8,6882.4
-6428.6,1948.8,6882.4
-6428.6,1948.8,7132.4
-6428.6,1948.8,6882.4
-6428.6,1948.8,6882.4
-6428.6,1948.8,6882.4
-6428.6,1948.8,6882.4
-6428.6,1948.8,7132.4
-6428.6,1948.8,6882.4
-6428.6,1948.8,6882.4
-6428.6,1948.8,6882.4
-6428.6,1948.8,7132.4
-6428.6,1948.8,6882.4
-6428.6,1948.8,6882.4
-6428.6,1948.8,7132.4
-6428.6,1948.8,6882.4
-6428.6,1948.8,7132.4
-6428.6,1948.8,7382.4
-6428.6,1948.8,6882.4
-6428.6,1948.8,6882.4
-6428.6,1948.8,6882.4
-6428.6,1948.8,6882.4
-6428.6,1948.8,6882.4
-6428.6,1948.8,7132.4
-6428.6,1948.8,6882.4
-6428.6,1948.8,6882.4
-6428.6,1948.8,6882.4
-6428.6,1948.8,6882.4
-6428.6,1948.8,7132.4
-6428.6,1948.8,6882.4
-6428.6,1948.8,6882.4
-6428.6,1948.8,6882.4
-6428.6,1948.8,7132.4
-6428.6,1948.8,6882.4
-6428.6,1948.8,6882.4
-6428.6,1948.8,7132.4
-6428.6,1948.8,6882.4
-6428.6,1948.8,7132.4
-6428.6,1948.8,7382.4
-6428.6,1948.8,6882.4
-6428.6,1948.8,6882.4
-6428.6,1948.8,6882.4
-6428.6,1948.8,6882.4
-6428.6,1948.8,7132.4
-6428.6,1948.8,6882.4
-6428.6,1948.8,6882.4
-6428.6,1948.8,6882.4
-6428.6,1948.8,7132.4
-6428.6,1948.8,6882.4
-6428.6,1948.8,6882.4
-6428.6,1948.8,7132.4
-6428.6,1948.8,6882.4
-6428.6,1948.8,7132.4
-6428.6,1948.8,7382.4
-6428.6,1948.8,6882.4
-6428.6,1948.8,6882.4
-6428.6,1948.8,6882.4
-6428.6,1948.8,7132.4
-6428.6,1948.8,6882.4
-6428.6,1948.8,6882.4
-6428.6,1948.8,7132.4
-6428.6,1948.8,6882.4
-6428.6,1948.8,7132.4
-6428.6,1948.8,7382.4
-6428.6,1948.8,6882.4
-6428.6,1948.8,6882.4
-6428.6,1948.8,7132.4
-6428.6,1948.8,6882.4
-6428.6,1948.8,7132.4
-6428.6,1948.8,7382.4
-6428.6,1948.8,6882.4
-6428.6,1948.8,7132.4
-6428.6,1948.8,7382.4
-6428.6,1948.8,7632.4
-6428.6,1948.8,6882.4
-6428.6,1948.8,6882.4
-6428.6,1948.8,6882.4
-6428.6,1948.8,6882.4
-6428.6,1948.8,6882.4
-6428.6,1948.8,7132.4
-6428.6,1948.8,6882.4
-6428.6,1948.8,6882.4
-6428.6,1948.8,6882.4
-6428.6,1948.8,6882.4
-6428.6,1948.8,7132.4
-6428.6,1948.8,6882.4
-6428.6,1948.8,6882.4
-6428.6,1948.8,6882.4
-6428.6,1948.8,7132.4
-6428.6,1948.8,6882.4
-6428.6,1948.8,6882.4
-6428.6,1948.8,7132.4
-6428.6,1948.8,6882.4
-6428.6,1948.8,7132.4
-6428.6,1948.8,7382.4
-6428.6,1948.8,6882.4
-6428.6,1948.8,6882.4
-6428.6,1948.8,6882.4
-6428.6,1948.8,6882.4
-6428.6,1948.8,7132.4
-6428.6,1948.8,6882.4
-6428.6,1948.8,6882.4
-6428.6,1948.8,6882.4
-6428.6,1948.8,7132.4
-6428.6,1948.8,6882.4
-6428.6,1948.8,6882.4
-6428.6,1948.8,7132.4
-6428.6,1948.8,6882.4
-6428.6,1948.8,7132.4
-6428.6,1948.8,7382.4
-6428.6,1948.8,6882.4
-6428.6,1948.8,6882.4
-6428.6,1948.8,6882.4
-6428.6,1948.8,7132.4
-6428.6,1948.8,6882.4
-6428.6,1948.8,6882.4
-6428.6,1948.8,7132.4
-6428.6,1948.8,6882.4
-6428.6,1948.8,7132.4
-6428.6,1948.8,7382.4
-6428.6,1948.8,6882.4
-6428.6,1948.8,6882.4
-6428.6,1948.8,7132.4
-6428.6,1948.8,6882.4
-6428.6,1948.8,7132.4
-6428.6,1948.8,7382.4
-6428.6,1948.8,6882.4
-6428.6,1948.8,7132.4
-6428.6,1948.8,7382.4
-6428.6,1948.8,7632.4
-6428.6,1948.8,6882.4
-6428.6,1948.8,6882.4
-6428.6,1948.8,6882.4
-6428.6,1948.8,6882.4
-6428.6,1948.8,7132.4
-6428.6,1948.8,6882.4
-6428.6,1948.8,6882.4
-6428.6,1948.8,6882.4
-6428.6,1948.8,7132.4
-6428.6,1948.8,6882.4
-6428.6,1948.8,6882.4
-6428.6,1948.8,7132.4
-6428.6,1948.8,6882.4
-6428.6,1948.8,7132.4
-6428.6,1948.8,7382.4
-6428.6,1948.8,6882.4
-6428.6,1948.8,6882.4
-6428.6,1948.8,6882.4
-6428.6,1948.8,7132.4
-6428.6,1948.8,6882.4
-6428.6,1948.8,6882.4
-6428.6,1948.8,7132.4
-6428.6,1948.8,6882.4
-6428.6,1948.8,7132.4
-6428.6,1948.8,7382.4
-6428.6,1948.8,6882.4
-6428.6,1948.8,6882.4
-6428.6,1948.8,7132.4
-6428.6,1948.8,6882.4
-6428.6,1948.8,7132.4
-6428.6,1948.8,7382.4
-6428.6,1948.8,6882.4
-6428.6,1948.8,7132.4
-6428.6,1948.8,7382.4
-6428.6,1948.8,7632.4
-6428.6,1948.8,6882.4
-6428.6,1948.8,6882.4
-6428.6,1948.8,6882.4
-6428.6,1948.8,7132.4
-6428.6,1948.8,6882.4
-6428.6,1948.8,6882.4
-6428.6,1948.8,7132.4
-6428.6,1948.8,6882.4
-6428.6,1948.8,7132.4
-6428.6,1948.8,7382.4
-6428.6,1948.8,6882.4
-6428.6,1948.8,6882.4
-6428.6,1948.8,7132.4
-6428.6,1948.8,6882.4
-6428.6,1948.8,7132.4
-6428.6,1948.8,7382.4
-6428.6,1948.8,6882.4
-6428.6,1948.8,7132.4
-6428.6,1948.8,7382.4
-6428.6,1948.8,7632.4
-6428.6,1948.8,6882.4
-6428.6,1948.8,6882.4
-6428.6,1948.8,7132.4
-6428.6,1948.8,6882.4
-6428.6,1948.8,7132.4
-6428.6,1948.8,7382.4
-6428.6,1948.8,6882.4
-6428.6,1948.8,7132.4
-6428.6,1948.8,7382.4
-6428.6,1948.8,7632.4
-6428.6,1948.8,6882.4
-6428.6,1948.8,7132.4
-6428.6,1948.8,7382.4
-6428.6,1948.8,7632.4
-6428.6,1948.8,7882.4
-6428.6,1948.8,6882.4
-6428.6,1948.8,6882.4
-6428.6,1948.8,6882.4
-6428.6,1948.8,6882.4
-6428.6,1948.8,7132.4
-6428.6,1948.8,6882.4
-6428.6,1948.8,6882.4
-6428.6,1948.8,6882.4
-6428.6,1948.8,6882.4
-6428.6,1948.8,7132.4
-6428.6,1948.8,6882.4
-6428.6,1948.8,6882.4
-6428.6,1948.8,6882.4
-6428.6,1948.8,7132.4
-6428.6,1948.8,6882.4
-6428.6,1948.8,6882.4
-6428.6,1948.8,7132.4
-6428.6,1948.8,6882.4
-6428.6,1948.8,7132.4
-6428.6,1948.8,7382.4
-6428.6,1948.8,6882.4
-6428.6,1948.8,6882.4
-6428.6,1948.8,6882.4
-6428.6,1948.8,6882.4
-6428.6,1948.8,7132.4
-6428.6,1948.8,6882.4
-6428.6,1948.8,6882.4
-6428.6,1948.8,6882.4
-6428.6,1948.8,7132.4
-6428.6,1948.8,6882.4
-6428.6,1948.8,6882.4
-6428.6,1948.8,7132.4
-6428.6,1948.8,6882.4
-6428.6,1948.8,7132.4
-6428.6,1948.8,7382.4
-6428.6,1948.8,6882.4
-6428.6,1948.8,6882.4
-6428.6,1948.8,6882.4
-6428.6,1948.8,7132.4
-6428.6,1948.8,6882.4
-6428.6,1948.8,6882.4
-6428.6,1948.8,7132.4
-6428.6,1948.8,6882.4
-6428.6,1948.8,7132.4
-6428.6,1948.8,7382.4
-6428.6,1948.8,6882.4
-6428.6,1948.8,6882.4
-6428.6,1948.8,7132.4
-6428.6,1948.8,6882.4
-6428.6,1948.8,7132.4
-6428.6,1948.8,7382.4
-6428.6,1948.8,6882.4
-6428.6,1948.8,7132.4
-6428.6,1948.8,7382.4
-6428.6,1948.8,7632.4
-6428.6,1948.8,6882.4
-6428.6,1948.8,6882.4
-6428.6,1948.8,6882.4
-6428.6,1948.8,6882.4
-6428.6,1948.8,7132.4
-6428.6,1948.8,6882.4
-6428.6,1948.8,6882.4
-6428.6,1948.8,6882.4
-6428.6,1948.8,7132.4
-6428.6,1948.8,6882.4
-6428.6,1948.8,6882.4
-6428.6,1948.8,7132.4
-6428.6,1948.8,6882.4
-6428.6,1948.8,7132.4
-6428.6,1948.8,7382.4
-6428.6,1948.8,6882.4
-6428.6,1948.8,6882.4
-6428.6,1948.8,6882.4
-6428.6,1948.8,7132.4
-6428.6,1948.8,6882.4
-6428.6,1948.8,6882.4
-6428.6,1948.8,7132.4
-6428.6,1948.8,6882.4
-6428.6,1948.8,7132.4
-6428.6,1948.8,7382.4
-6428.6,1948.8,6882.4
-6428.6,1948.8,6882.4
-6428.6,1948.8,7132.4
-6428.6,1948.8,6882.4
-6428.6,1948.8,7132.4
-6428.6,1948.8,7382.4
-6428.6,1948.8,6882.4
-6428.6,1948.8,7132.4
-6428.6,1948.8,7382.4
-6428.6,1948.8,7632.4
-6428.6,1948.8,6882.4
-6428.6,1948.8,6882.4
-6428.6,1948.8,6882.4
-6428.6,1948.8,7132.4
-6428.6,1948.8,6882.4
-6428.6,1948.8,6882.4
-6428.6,1948.8,7132.4
-6428.6,1948.8,6882.4
-6428.6,1948.8,7132.4
-6428.6,1948.8,7382.4
-6428.6,1948.8,6882.4
-6428.6,1948.8,6882.4
-6428.6,1948.8,7132.4
-6428.6,1948.8,6882.4
-6428.6,1948.8,7132.4
-6428.6,1948.8,7382.4
-6428.6,1948.8,6882.4
-6428.6,1948.8,7132.4
-6428.6,1948.8,7382.4
-6428.6,1948.8,7632.4
-6428.6,1948.8,6882.4
-6428.6,1948.8,6882.4
-6428.6,1948.8,7132.4
-6428.6,1948.8,6882.4
-6428.6,1948.8,7132.4
-6428.6,1948.8,7382.4
-6428.6,1948.8,6882.4
-6428.6,1948.8,7132.4
-6428.6,1948.8,7382.4
-6428.6,1948.8,7632.4
-6428.6,1948.8,6882.4
-6428.6,1948.8,7132.4
-6428.6,1948.8,7382.4
-6428.6,1948.8,7632.4
-6428.6,1948.8,7882.4
-6428.6,1948.8,6882.4
-6428.6,1948.8,6882.4
-6428.6,1948.8,6882.4
-6428.6,1948.8,7132.4
-6428.6,1948.8,6882.4
-6428.6,1948.8,6882.4
-6428.6,1948.8,6882.4
-6428.6,1948.8,7132.4
-6428.6,1948.8,6882.4
-6428.6,1948.8,6882.4
-6428.6,1948.8,7132.4
-6428.6,1948.8,6882.4
-6428.6,1948.8,7132.4
-6428.6,1948.8,7382.4
-6428.6,1948.8,6882.4
-6428.6,1948.8,6882.4
-6428.6,1948.8,6882.4
-6428.6,1948.8,7132.4
-6428.6,1948.8,6882.4
-6428.6,1948.8,6882.4
-6428.6,1948.8,7132.4
-6428.6,1948.8,6882.4
-6428.6,1948.8,7132.4
-6428.6,1948.8,7382.4
-6428.6,1948.8,6882.4
-6428.6,1948.8,6882.4
-6428.6,1948.8,7132.4
-6428.6,1948.8,6882.4
-6428.6,1948.8,7132.4
-6428.6,1948.8,7382.4
-6428.6,1948.8,6882.4
-6428.6,1948.8,7132.4
-6428.6,1948.8,7382.4
-6428.6,1948.8,7632.4
-6428.6,1948.8,6882.4
-6428.6,1948.8,6882.4
-6428.6,1948.8,6882.4
-6428.6,1948.8,7132.4
-6428.6,1948.8,6882.4
-6428.6,1948.8,6882.4
-6428.6,1948.8,7132.4
-6428.6,1948.8,6882.4
-6428.6,1948.8,7132.4
-6428.6,1948.8,7382.4
-6428.6,1948.8,6882.4
-6428.6,1948.8,6882.4
-6428.6,1948.8,7132.4
-6428.6,1948.8,6882.4
-6428.6,1948.8,7132.4
-6428.6,1948.8,7382.4
-6428.6,1948.8,6882.4
-6428.6,1948.8,7132.4
-6428.6,1948.8,7382.4
-6428.6,1948.8,7632.4
-6428.6,1948.8,6882.4
-6428.6,1948.8,6882.4
-6428.6,1948.8,7132.4
-6428.6,1948.8,6882.4
-6428.6,1948.8,7132.4
-6428.6,1948.8,7382.4
-6428.6,1948.8,6882.4
-6428.6,1948.8,7132.4
-6428.6,1948.8,7382.4
-6428.6,1948.8,7632.4
-6428.6,1948.8,6882.4
-6428.6,1948.8,7132.4
-6428.6,1948.8,7382.4
-6428.6,1948.8,7632.4
-6428.6,1948.8,7882.4
-6428.6,1948.8,6882.4
-6428.6,1948.8,6882.4
-6428.6,1948.8,7132.4
-6428.6,1948.8,6882.4
-6428.6,1948.8,6882.4
-6428.6,1948.8,7132.4
-6428.6,1948.8,6882.4
-6428.6,1948.8,7132.4
-6428.6,1948.8,7382.4
-6428.6,1948.8,6882.4
-6428.6,1948.8,6882.4
-6428.6,1948.8,7132.4
-6428.6,1948.8,6882.4
-6428.6,1948.8,7132.4
-6428.6,1948.8,7382.4
-6428.6,1948.8,6882.4
-6428.6,1948.8,7132.4
-6428.6,1948.8,7382.4
-6428.6,1948.8,7632.4
-6428.6,1948.8,6882.4
-6428.6,1948.8,6882.4
-6428.6,1948.8,7132.4
-6428.6,1948.8,6882.4
-6428.6,1948.8,7132.4
-6428.6,1948.8,7382.4
-6428.6,1948.8,6882.4
-6428.6,1948.8,7132.4
-6428.6,1948.8,7382.4
-6428.6,1948.8,7632.4
-6428.6,1948.8,6882.4
-6428.6,1948.8,7132.4
-6428.6,1948.8,7382.4
-6428.6,1948.8,7632.4
-6428.6,1948.8,7882.4
-6428.6,1948.8,6882.4
-6428.6,1948.8,7132.4
-6428.6,1948.8,6882.4
-6428.6,1948.8,7132.4
-6428.6,1948.8,7382.4
-6428.6,1948.8,6882.4
-6428.6,1948.8,7132.4
-6428.6,1948.8,7382.4
-6428.6,1948.8,7632.4
-6428.6,1948.8,6882.4
-6428.6,1948.8,7132.4
-6428.6,1948.8,7382.4
-6428.6,1948.8,7632.4
-6428.6,1948.8,7882.4
-6428.6,1948.8,7132.4
-6428.6,1948.8,7382.4
-6428.6,1948.8,7632.4
-6428.6,1948.8,7882.4
-6428.6,1948.8,8132.4
