45052,1948.8,7697.1
45052,1948.8,7697.1
45052,1948.8,7947.1
45052,1948.8,7697.1
45052,1948.8,7697.1
45052,1948.8,7947.1
45052,1948.8,7697.1
45052,1948.8,7947.1
45052,1948.8,8197.1
45052,1948.8,7697.1
45052,1948.8,7697.1
45052,1948.8,7947.1
45052,1948.8,7697.1
45052,1948.8,7947.1
45052,1948.8,8197.1
45052,1948.8,7697.1
45052,1948.8,7947.1
45052,1948.8,8197.1
45052,1948.8,8447.1
45052,1948.8,7697.1
45052,1948.8,7697.1
45052,1948.8,7947.1
45052,1948.8,7697.1
45052,1948.8,7947.1
45052,1948.8,8197.1
45052,1948.8,7697.1
45052,1948.8,7947.1
45052,1948.8,8197.1
45052,1948.8,8447.1
45052,1948.8,7697.1
45052,1948.8,7947.1
45052,1948.8,8197.1
45052,1948.8,8447.1
45052,1948.8,8697.1
45052,1948.8,7697.1
45052,1948.8,7947.1
45052,1948.8,7697.1
45052,1948.8,7947.1
45052,1948.8,8197.1
45052,1948.8,7697.1
45052,1948.8,7947.1
45052,1948.8,8197.1
45052,1948.8,8447.1
45052,1948.8,7697.1
45052,1948.8,7947.1
45052,1948.8,8197.1
45052,1948.8,8447.1
45052,1948.8,8697.1
45052,1948.8,7947.1
45052,1948.8,8197.1
45052,1948.8,8447.1
45052,1948.8,8697.1
