53103,1948.8,5153.6
52235,1948.8,4653.6
52235,1948.8,4903.6
51367,1948.8,4153.6
51367,1948.8,4403.6
51367,1948.8,4653.6
51367,1948.8,4403.6
51367,1948.8,4653.6
50499,1948.8,3653.6
50499,1948.8,3903.6
50499,1948.8,4153.6
50499,1948.8,4403.6
50499,1948.8,4653.6
50499,1948.8,3903.6
50499,1948.8,4153.6
50499,1948.8,4403.6
50499,1948.8,4653.6
50499,1948.8,4903.6
50499,1948.8,4153.6
50499,1948.8,4403.6
50499,1948.8,4653.6
50499,1948.8,4903.6
50499,1948.8,5153.6
50499,1948.8,3903.6
50499,1948.8,4153.6
50499,1948.8,4403.6
50499,1948.8,4653.6
50499,1948.8,4903.6
50499,1948.8,4153.6
50499,1948.8,4403.6
50499,1948.8,4653.6
50499,1948.8,4903.6
50499,1948.8,5153.6
49631,1948.8,3153.6
49631,1948.8,3403.6
49631,1948.8,3653.6
49631,1948.8,3903.6
49631,1948.8,4153.6
49631,1948.8,3403.6
49631,1948.8,3653.6
49631,1948.8,3903.6
49631,1948.8,4153.6
49631,1948.8,4403.6
49631,1948.8,3653.6
49631,1948.8,3903.6
49631,1948.8,4153.6
49631,1948.8,4403.6
49631,1948.8,4653.6
49631,1948.8,3903.6
49631,1948.8,4153.6
49631,1948.8,4403.6
49631,1948.8,4653.6
49631,1948.8,4903.6
49631,1948.8,4153.6
49631,1948.8,4403.6
49631,1948.8,4653.6
49631,1948.8,4903.6
49631,1948.8,5153.6
49631,1948.8,3403.6
49631,1948.8,3653.6
49631,1948.8,3903.6
49631,1948.8,4153.6
49631,1948.8,4403.6
49631,1948.8,3653.6
49631,1948.8,3903.6
49631,1948.8,4153.6
49631,1948.8,4403.6
49631,1948.8,4653.6
49631,1948.8,3903.6
49631,1948.8,4153.6
49631,1948.8,4403.6
49631,1948.8,4653.6
49631,1948.8,4903.6
49631,1948.8,4153.6
49631,1948.8,4403.6
49631,1948.8,4653.6
49631,1948.8,4903.6
49631,1948.8,5153.6
49631,1948.8,4403.6
49631,1948.8,4653.6
49631,1948.8,4903.6
49631,1948.8,5153.6
49631,1948.8,5403.6
49631,1948.8,3653.6
49631,1948.8,3903.6
49631,1948.8,4153.6
49631,1948.8,4403.6
49631,1948.8,4653.6
49631,1948.8,3903.6
49631,1948.8,4153.6
49631,1948.8,4403.6
49631,1948.8,4653.6
49631,1948.8,4903.6
49631,1948.8,4153.6
49631,1948.8,4403.6
49631,1948.8,4653.6
49631,1948.8,4903.6
49631,1948.8,5153.6
49631,1948.8,4403.6
49631,1948.8,4653.6
49631,1948.8,4903.6
49631,1948.8,5153.6
49631,1948.8,5403.6
49631,1948.8,4653.6
49631,1948.8,4903.6
49631,1948.8,5153.6
49631,1948.8,5403.6
49631,1948.8,5653.6
49631,1948.8,3403.6
49631,1948.8,3653.6
49631,1948.8,3903.6
49631,1948.8,4153.6
49631,1948.8,4403.6
49631,1948.8,3653.6
49631,1948.8,3903.6
49631,1948.8,4153.6
49631,1948.8,4403.6
49631,1948.8,4653.6
49631,1948.8,3903.6
49631,1948.8,4153.6
49631,1948.8,4403.6
49631,1948.8,4653.6
49631,1948.8,4903.6
49631,1948.8,4153.6
49631,1948.8,4403.6
49631,1948.8,4653.6
49631,1948.8,4903.6
49631,1948.8,5153.6
49631,1948.8,4403.6
49631,1948.8,4653.6
49631,1948.8,4903.6
49631,1948.8,5153.6
49631,1948.8,5403.6
49631,1948.8,3653.6
49631,1948.8,3903.6
49631,1948.8,4153.6
49631,1948.8,4403.6
49631,1948.8,4653.6
49631,1948.8,3903.6
49631,1948.8,4153.6
49631,1948.8,4403.6
49631,1948.8,4653.6
49631,1948.8,4903.6
49631,1948.8,4153.6
49631,1948.8,4403.6
49631,1948.8,4653.6
49631,1948.8,4903.6
49631,1948.8,5153.6
49631,1948.8,4403.6
49631,1948.8,4653.6
49631,1948.8,4903.6
49631,1948.8,5153.6
49631,1948.8,5403.6
49631,1948.8,4653.6
49631,1948.8,4903.6
49631,1948.8,5153.6
49631,1948.8,5403.6
49631,1948.8,5653.6
48763,1948.8,2653.6
48763,1948.8,2903.6
48763,1948.8,3153.6
48763,1948.8,3403.6
48763,1948.8,3653.6
48763,1948.8,2903.6
48763,1948.8,3153.6
48763,1948.8,3403.6
48763,1948.8,3653.6
48763,1948.8,3903.6
48763,1948.8,3153.6
48763,1948.8,3403.6
48763,1948.8,3653.6
48763,1948.8,3903.6
48763,1948.8,4153.6
48763,1948.8,3403.6
48763,1948.8,3653.6
48763,1948.8,3903.6
48763,1948.8,4153.6
48763,1948.8,4403.6
48763,1948.8,3653.6
48763,1948.8,3903.6
48763,1948.8,4153.6
48763,1948.8,4403.6
48763,1948.8,4653.6
48763,1948.8,2903.6
48763,1948.8,3153.6
48763,1948.8,3403.6
48763,1948.8,3653.6
48763,1948.8,3903.6
48763,1948.8,3153.6
48763,1948.8,3403.6
48763,1948.8,3653.6
48763,1948.8,3903.6
48763,1948.8,4153.6
48763,1948.8,3403.6
48763,1948.8,3653.6
48763,1948.8,3903.6
48763,1948.8,4153.6
48763,1948.8,4403.6
48763,1948.8,3653.6
48763,1948.8,3903.6
48763,1948.8,4153.6
48763,1948.8,4403.6
48763,1948.8,4653.6
48763,1948.8,3903.6
48763,1948.8,4153.6
48763,1948.8,4403.6
48763,1948.8,4653.6
48763,1948.8,4903.6
48763,1948.8,3153.6
48763,1948.8,3403.6
48763,1948.8,3653.6
48763,1948.8,3903.6
48763,1948.8,4153.6
48763,1948.8,3403.6
48763,1948.8,3653.6
48763,1948.8,3903.6
48763,1948.8,4153.6
48763,1948.8,4403.6
48763,1948.8,3653.6
48763,1948.8,3903.6
48763,1948.8,4153.6
48763,1948.8,4403.6
48763,1948.8,4653.6
48763,1948.8,3903.6
48763,1948.8,4153.6
48763,1948.8,4403.6
48763,1948.8,4653.6
48763,1948.8,4903.6
48763,1948.8,4153.6
48763,1948.8,4403.6
48763,1948.8,4653.6
48763,1948.8,4903.6
48763,1948.8,5153.6
48763,1948.8,3403.6
48763,1948.8,3653.6
48763,1948.8,3903.6
48763,1948.8,4153.6
48763,1948.8,4403.6
48763,1948.8,3653.6
48763,1948.8,3903.6
48763,1948.8,4153.6
48763,1948.8,4403.6
48763,1948.8,4653.6
48763,1948.8,3903.6
48763,1948.8,4153.6
48763,1948.8,4403.6
48763,1948.8,4653.6
48763,1948.8,4903.6
48763,1948.8,4153.6
48763,1948.8,4403.6
48763,1948.8,4653.6
48763,1948.8,4903.6
48763,1948.8,5153.6
48763,1948.8,4403.6
48763,1948.8,4653.6
48763,1948.8,4903.6
48763,1948.8,5153.6
48763,1948.8,5403.6
48763,1948.8,3653.6
48763,1948.8,3903.6
48763,1948.8,4153.6
48763,1948.8,4403.6
48763,1948.8,4653.6
48763,1948.8,3903.6
48763,1948.8,4153.6
48763,1948.8,4403.6
48763,1948.8,4653.6
48763,1948.8,4903.6
48763,1948.8,4153.6
48763,1948.8,4403.6
48763,1948.8,4653.6
48763,1948.8,4903.6
48763,1948.8,5153.6
48763,1948.8,4403.6
48763,1948.8,4653.6
48763,1948.8,4903.6
48763,1948.8,5153.6
48763,1948.8,5403.6
48763,1948.8,4653.6
48763,1948.8,4903.6
48763,1948.8,5153.6
48763,1948.8,5403.6
48763,1948.8,5653.6
48763,1948.8,2903.6
48763,1948.8,3153.6
48763,1948.8,3403.6
48763,1948.8,3653.6
48763,1948.8,3903.6
48763,1948.8,3153.6
48763,1948.8,3403.6
48763,1948.8,3653.6
48763,1948.8,3903.6
48763,1948.8,4153.6
48763,1948.8,3403.6
48763,1948.8,3653.6
48763,1948.8,3903.6
48763,1948.8,4153.6
48763,1948.8,4403.6
48763,1948.8,3653.6
48763,1948.8,3903.6
48763,1948.8,4153.6
48763,1948.8,4403.6
48763,1948.8,4653.6
48763,1948.8,3903.6
48763,1948.8,4153.6
48763,1948.8,4403.6
48763,1948.8,4653.6
48763,1948.8,4903.6
48763,1948.8,3153.6
48763,1948.8,3403.6
48763,1948.8,3653.6
48763,1948.8,3903.6
48763,1948.8,4153.6
48763,1948.8,3403.6
48763,1948.8,3653.6
48763,1948.8,3903.6
48763,1948.8,4153.6
48763,1948.8,4403.6
48763,1948.8,3653.6
48763,1948.8,3903.6
48763,1948.8,4153.6
48763,1948.8,4403.6
48763,1948.8,4653.6
48763,1948.8,3903.6
48763,1948.8,4153.6
48763,1948.8,4403.6
48763,1948.8,4653.6
48763,1948.8,4903.6
48763,1948.8,4153.6
48763,1948.8,4403.6
48763,1948.8,4653.6
48763,1948.8,4903.6
48763,1948.8,5153.6
48763,1948.8,3403.6
48763,1948.8,3653.6
48763,1948.8,3903.6
48763,1948.8,4153.6
48763,1948.8,4403.6
48763,1948.8,3653.6
48763,1948.8,3903.6
48763,1948.8,4153.6
48763,1948.8,4403.6
48763,1948.8,4653.6
48763,1948.8,3903.6
48763,1948.8,4153.6
48763,1948.8,4403.6
48763,1948.8,4653.6
48763,1948.8,4903.6
48763,1948.8,4153.6
48763,1948.8,4403.6
48763,1948.8,4653.6
48763,1948.8,4903.6
48763,1948.8,5153.6
48763,1948.8,4403.6
48763,1948.8,4653.6
48763,1948.8,4903.6
48763,1948.8,5153.6
48763,1948.8,5403.6
48763,1948.8,3653.6
48763,1948.8,3903.6
48763,1948.8,4153.6
48763,1948.8,4403.6
48763,1948.8,4653.6
48763,1948.8,3903.6
48763,1948.8,4153.6
48763,1948.8,4403.6
48763,1948.8,4653.6
48763,1948.8,4903.6
48763,1948.8,4153.6
48763,1948.8,4403.6
48763,1948.8,4653.6
48763,1948.8,4903.6
48763,1948.8,5153.6
48763,1948.8,4403.6
48763,1948.8,4653.6
48763,1948.8,4903.6
48763,1948.8,5153.6
48763,1948.8,5403.6
48763,1948.8,4653.6
48763,1948.8,4903.6
48763,1948.8,5153.6
48763,1948.8,5403.6
48763,1948.8,5653.6
48763,1948.8,3903.6
48763,1948.8,4153.6
48763,1948.8,4403.6
48763,1948.8,4653.6
48763,1948.8,4903.6
48763,1948.8,4153.6
48763,1948.8,4403.6
48763,1948.8,4653.6
48763,1948.8,4903.6
48763,1948.8,5153.6
48763,1948.8,4403.6
48763,1948.8,4653.6
48763,1948.8,4903.6
48763,1948.8,5153.6
48763,1948.8,5403.6
48763,1948.8,4653.6
48763,1948.8,4903.6
48763,1948.8,5153.6
48763,1948.8,5403.6
48763,1948.8,5653.6
48763,1948.8,4903.6
48763,1948.8,5153.6
48763,1948.8,5403.6
48763,1948.8,5653.6
48763,1948.8,5903.6
48763,1948.8,3153.6
48763,1948.8,3403.6
48763,1948.8,3653.6
48763,1948.8,3903.6
48763,1948.8,4153.6
48763,1948.8,3403.6
48763,1948.8,3653.6
48763,1948.8,3903.6
48763,1948.8,4153.6
48763,1948.8,4403.6
48763,1948.8,3653.6
48763,1948.8,3903.6
48763,1948.8,4153.6
48763,1948.8,4403.6
48763,1948.8,4653.6
48763,1948.8,3903.6
48763,1948.8,4153.6
48763,1948.8,4403.6
48763,1948.8,4653.6
48763,1948.8,4903.6
48763,1948.8,4153.6
48763,1948.8,4403.6
48763,1948.8,4653.6
48763,1948.8,4903.6
48763,1948.8,5153.6
48763,1948.8,3403.6
48763,1948.8,3653.6
48763,1948.8,3903.6
48763,1948.8,4153.6
48763,1948.8,4403.6
48763,1948.8,3653.6
48763,1948.8,3903.6
48763,1948.8,4153.6
48763,1948.8,4403.6
48763,1948.8,4653.6
48763,1948.8,3903.6
48763,1948.8,4153.6
48763,1948.8,4403.6
48763,1948.8,4653.6
48763,1948.8,4903.6
48763,1948.8,4153.6
48763,1948.8,4403.6
48763,1948.8,4653.6
48763,1948.8,4903.6
48763,1948.8,5153.6
48763,1948.8,4403.6
48763,1948.8,4653.6
48763,1948.8,4903.6
48763,1948.8,5153.6
48763,1948.8,5403.6
48763,1948.8,3653.6
48763,1948.8,3903.6
48763,1948.8,4153.6
48763,1948.8,4403.6
48763,1948.8,4653.6
48763,1948.8,3903.6
48763,1948.8,4153.6
48763,1948.8,4403.6
48763,1948.8,4653.6
48763,1948.8,4903.6
48763,1948.8,4153.6
48763,1948.8,4403.6
48763,1948.8,4653.6
48763,1948.8,4903.6
48763,1948.8,5153.6
48763,1948.8,4403.6
48763,1948.8,4653.6
48763,1948.8,4903.6
48763,1948.8,5153.6
48763,1948.8,5403.6
48763,1948.8,4653.6
48763,1948.8,4903.6
48763,1948.8,5153.6
48763,1948.8,5403.6
48763,1948.8,5653.6
48763,1948.8,3903.6
48763,1948.8,4153.6
48763,1948.8,4403.6
48763,1948.8,4653.6
48763,1948.8,4903.6
48763,1948.8,4153.6
48763,1948.8,4403.6
48763,1948.8,4653.6
48763,1948.8,4903.6
48763,1948.8,5153.6
48763,1948.8,4403.6
48763,1948.8,4653.6
48763,1948.8,4903.6
48763,1948.8,5153.6
48763,1948.8,5403.6
48763,1948.8,4653.6
48763,1948.8,4903.6
48763,1948.8,5153.6
48763,1948.8,5403.6
48763,1948.8,5653.6
48763,1948.8,4903.6
48763,1948.8,5153.6
48763,1948.8,5403.6
48763,1948.8,5653.6
48763,1948.8,5903.6
48763,1948.8,4153.6
48763,1948.8,4403.6
48763,1948.8,4653.6
48763,1948.8,4903.6
48763,1948.8,5153.6
48763,1948.8,4403.6
48763,1948.8,4653.6
48763,1948.8,4903.6
48763,1948.8,5153.6
48763,1948.8,5403.6
48763,1948.8,4653.6
48763,1948.8,4903.6
48763,1948.8,5153.6
48763,1948.8,5403.6
48763,1948.8,5653.6
48763,1948.8,4903.6
48763,1948.8,5153.6
48763,1948.8,5403.6
48763,1948.8,5653.6
48763,1948.8,5903.6
48763,1948.8,5153.6
48763,1948.8,5403.6
48763,1948.8,5653.6
48763,1948.8,5903.6
48763,1948.8,6153.6
48763,1948.8,2903.6
48763,1948.8,3153.6
48763,1948.8,3403.6
48763,1948.8,3653.6
48763,1948.8,3903.6
48763,1948.8,3153.6
48763,1948.8,3403.6
48763,1948.8,3653.6
48763,1948.8,3903.6
48763,1948.8,4153.6
48763,1948.8,3403.6
48763,1948.8,3653.6
48763,1948.8,3903.6
48763,1948.8,4153.6
48763,1948.8,4403.6
48763,1948.8,3653.6
48763,1948.8,3903.6
48763,1948.8,4153.6
48763,1948.8,4403.6
48763,1948.8,4653.6
48763,1948.8,3903.6
48763,1948.8,4153.6
48763,1948.8,4403.6
48763,1948.8,4653.6
48763,1948.8,4903.6
48763,1948.8,3153.6
48763,1948.8,3403.6
48763,1948.8,3653.6
48763,1948.8,3903.6
48763,1948.8,4153.6
48763,1948.8,3403.6
48763,1948.8,3653.6
48763,1948.8,3903.6
48763,1948.8,4153.6
48763,1948.8,4403.6
48763,1948.8,3653.6
48763,1948.8,3903.6
48763,1948.8,4153.6
48763,1948.8,4403.6
48763,1948.8,4653.6
48763,1948.8,3903.6
48763,1948.8,4153.6
48763,1948.8,4403.6
48763,1948.8,4653.6
48763,1948.8,4903.6
48763,1948.8,4153.6
48763,1948.8,4403.6
48763,1948.8,4653.6
48763,1948.8,4903.6
48763,1948.8,5153.6
48763,1948.8,3403.6
48763,1948.8,3653.6
48763,1948.8,3903.6
48763,1948.8,4153.6
48763,1948.8,4403.6
48763,1948.8,3653.6
48763,1948.8,3903.6
48763,1948.8,4153.6
48763,1948.8,4403.6
48763,1948.8,4653.6
48763,1948.8,3903.6
48763,1948.8,4153.6
48763,1948.8,4403.6
48763,1948.8,4653.6
48763,1948.8,4903.6
48763,1948.8,4153.6
48763,1948.8,4403.6
48763,1948.8,4653.6
48763,1948.8,4903.6
48763,1948.8,5153.6
48763,1948.8,4403.6
48763,1948.8,4653.6
48763,1948.8,4903.6
48763,1948.8,5153.6
48763,1948.8,5403.6
48763,1948.8,3653.6
48763,1948.8,3903.6
48763,1948.8,4153.6
48763,1948.8,4403.6
48763,1948.8,4653.6
48763,1948.8,3903.6
48763,1948.8,4153.6
48763,1948.8,4403.6
48763,1948.8,4653.6
48763,1948.8,4903.6
48763,1948.8,4153.6
48763,1948.8,4403.6
48763,1948.8,4653.6
48763,1948.8,4903.6
48763,1948.8,5153.6
48763,1948.8,4403.6
48763,1948.8,4653.6
48763,1948.8,4903.6
48763,1948.8,5153.6
48763,1948.8,5403.6
48763,1948.8,4653.6
48763,1948.8,4903.6
48763,1948.8,5153.6
48763,1948.8,5403.6
48763,1948.8,5653.6
48763,1948.8,3903.6
48763,1948.8,4153.6
48763,1948.8,4403.6
48763,1948.8,4653.6
48763,1948.8,4903.6
48763,1948.8,4153.6
48763,1948.8,4403.6
48763,1948.8,4653.6
48763,1948.8,4903.6
48763,1948.8,5153.6
48763,1948.8,4403.6
48763,1948.8,4653.6
48763,1948.8,4903.6
48763,1948.8,5153.6
48763,1948.8,5403.6
48763,1948.8,4653.6
48763,1948.8,4903.6
48763,1948.8,5153.6
48763,1948.8,5403.6
48763,1948.8,5653.6
48763,1948.8,4903.6
48763,1948.8,5153.6
48763,1948.8,5403.6
48763,1948.8,5653.6
48763,1948.8,5903.6
48763,1948.8,3153.6
48763,1948.8,3403.6
48763,1948.8,3653.6
48763,1948.8,3903.6
48763,1948.8,4153.6
48763,1948.8,3403.6
48763,1948.8,3653.6
48763,1948.8,3903.6
48763,1948.8,4153.6
48763,1948.8,4403.6
48763,1948.8,3653.6
48763,1948.8,3903.6
48763,1948.8,4153.6
48763,1948.8,4403.6
48763,1948.8,4653.6
48763,1948.8,3903.6
48763,1948.8,4153.6
48763,1948.8,4403.6
48763,1948.8,4653.6
48763,1948.8,4903.6
48763,1948.8,4153.6
48763,1948.8,4403.6
48763,1948.8,4653.6
48763,1948.8,4903.6
48763,1948.8,5153.6
48763,1948.8,3403.6
48763,1948.8,3653.6
48763,1948.8,3903.6
48763,1948.8,4153.6
48763,1948.8,4403.6
48763,1948.8,3653.6
48763,1948.8,3903.6
48763,1948.8,4153.6
48763,1948.8,4403.6
48763,1948.8,4653.6
48763,1948.8,3903.6
48763,1948.8,4153.6
48763,1948.8,4403.6
48763,1948.8,4653.6
48763,1948.8,4903.6
48763,1948.8,4153.6
48763,1948.8,4403.6
48763,1948.8,4653.6
48763,1948.8,4903.6
48763,1948.8,5153.6
48763,1948.8,4403.6
48763,1948.8,4653.6
48763,1948.8,4903.6
48763,1948.8,5153.6
48763,1948.8,5403.6
48763,1948.8,3653.6
48763,1948.8,3903.6
48763,1948.8,4153.6
48763,1948.8,4403.6
48763,1948.8,4653.6
48763,1948.8,3903.6
48763,1948.8,4153.6
48763,1948.8,4403.6
48763,1948.8,4653.6
48763,1948.8,4903.6
48763,1948.8,4153.6
48763,1948.8,4403.6
48763,1948.8,4653.6
48763,1948.8,4903.6
48763,1948.8,5153.6
48763,1948.8,4403.6
48763,1948.8,4653.6
48763,1948.8,4903.6
48763,1948.8,5153.6
48763,1948.8,5403.6
48763,1948.8,4653.6
48763,1948.8,4903.6
48763,1948.8,5153.6
48763,1948.8,5403.6
48763,1948.8,5653.6
48763,1948.8,3903.6
48763,1948.8,4153.6
48763,1948.8,4403.6
48763,1948.8,4653.6
48763,1948.8,4903.6
48763,1948.8,4153.6
48763,1948.8,4403.6
48763,1948.8,4653.6
48763,1948.8,4903.6
48763,1948.8,5153.6
48763,1948.8,4403.6
48763,1948.8,4653.6
48763,1948.8,4903.6
48763,1948.8,5153.6
48763,1948.8,5403.6
48763,1948.8,4653.6
48763,1948.8,4903.6
48763,1948.8,5153.6
48763,1948.8,5403.6
48763,1948.8,5653.6
48763,1948.8,4903.6
48763,1948.8,5153.6
48763,1948.8,5403.6
48763,1948.8,5653.6
48763,1948.8,5903.6
48763,1948.8,4153.6
48763,1948.8,4403.6
48763,1948.8,4653.6
48763,1948.8,4903.6
48763,1948.8,5153.6
48763,1948.8,4403.6
48763,1948.8,4653.6
48763,1948.8,4903.6
48763,1948.8,5153.6
48763,1948.8,5403.6
48763,1948.8,4653.6
48763,1948.8,4903.6
48763,1948.8,5153.6
48763,1948.8,5403.6
48763,1948.8,5653.6
48763,1948.8,4903.6
48763,1948.8,5153.6
48763,1948.8,5403.6
48763,1948.8,5653.6
48763,1948.8,5903.6
48763,1948.8,5153.6
48763,1948.8,5403.6
48763,1948.8,5653.6
48763,1948.8,5903.6
48763,1948.8,6153.6
47895,1948.8,2153.6
47895,1948.8,2403.6
47895,1948.8,2653.6
47895,1948.8,2903.6
47895,1948.8,3153.6
47895,1948.8,2403.6
47895,1948.8,2653.6
47895,1948.8,2903.6
47895,1948.8,3153.6
47895,1948.8,3403.6
47895,1948.8,2653.6
47895,1948.8,2903.6
47895,1948.8,3153.6
47895,1948.8,3403.6
47895,1948.8,3653.6
47895,1948.8,2903.6
47895,1948.8,3153.6
47895,1948.8,3403.6
47895,1948.8,3653.6
47895,1948.8,3903.6
47895,1948.8,3153.6
47895,1948.8,3403.6
47895,1948.8,3653.6
47895,1948.8,3903.6
47895,1948.8,4153.6
47895,1948.8,2403.6
47895,1948.8,2653.6
47895,1948.8,2903.6
47895,1948.8,3153.6
47895,1948.8,3403.6
47895,1948.8,2653.6
47895,1948.8,2903.6
47895,1948.8,3153.6
47895,1948.8,3403.6
47895,1948.8,3653.6
47895,1948.8,2903.6
47895,1948.8,3153.6
47895,1948.8,3403.6
47895,1948.8,3653.6
47895,1948.8,3903.6
47895,1948.8,3153.6
47895,1948.8,3403.6
47895,1948.8,3653.6
47895,1948.8,3903.6
47895,1948.8,4153.6
47895,1948.8,3403.6
47895,1948.8,3653.6
47895,1948.8,3903.6
47895,1948.8,4153.6
47895,1948.8,4403.6
47895,1948.8,2653.6
47895,1948.8,2903.6
47895,1948.8,3153.6
47895,1948.8,3403.6
47895,1948.8,3653.6
47895,1948.8,2903.6
47895,1948.8,3153.6
47895,1948.8,3403.6
47895,1948.8,3653.6
47895,1948.8,3903.6
47895,1948.8,3153.6
47895,1948.8,3403.6
47895,1948.8,3653.6
47895,1948.8,3903.6
47895,1948.8,4153.6
47895,1948.8,3403.6
47895,1948.8,3653.6
47895,1948.8,3903.6
47895,1948.8,4153.6
47895,1948.8,4403.6
47895,1948.8,3653.6
47895,1948.8,3903.6
47895,1948.8,4153.6
47895,1948.8,4403.6
47895,1948.8,4653.6
47895,1948.8,2903.6
47895,1948.8,3153.6
47895,1948.8,3403.6
47895,1948.8,3653.6
47895,1948.8,3903.6
47895,1948.8,3153.6
47895,1948.8,3403.6
47895,1948.8,3653.6
47895,1948.8,3903.6
47895,1948.8,4153.6
47895,1948.8,3403.6
47895,1948.8,3653.6
47895,1948.8,3903.6
47895,1948.8,4153.6
47895,1948.8,4403.6
47895,1948.8,3653.6
47895,1948.8,3903.6
47895,1948.8,4153.6
47895,1948.8,4403.6
47895,1948.8,4653.6
47895,1948.8,3903.6
47895,1948.8,4153.6
47895,1948.8,4403.6
47895,1948.8,4653.6
47895,1948.8,4903.6
47895,1948.8,3153.6
47895,1948.8,3403.6
47895,1948.8,3653.6
47895,1948.8,3903.6
47895,1948.8,4153.6
47895,1948.8,3403.6
47895,1948.8,3653.6
47895,1948.8,3903.6
47895,1948.8,4153.6
47895,1948.8,4403.6
47895,1948.8,3653.6
47895,1948.8,3903.6
47895,1948.8,4153.6
47895,1948.8,4403.6
47895,1948.8,4653.6
47895,1948.8,3903.6
47895,1948.8,4153.6
47895,1948.8,4403.6
47895,1948.8,4653.6
47895,1948.8,4903.6
47895,1948.8,4153.6
47895,1948.8,4403.6
47895,1948.8,4653.6
47895,1948.8,4903.6
47895,1948.8,5153.6
47895,1948.8,2403.6
47895,1948.8,2653.6
47895,1948.8,2903.6
47895,1948.8,3153.6
47895,1948.8,3403.6
47895,1948.8,2653.6
47895,1948.8,2903.6
47895,1948.8,3153.6
47895,1948.8,3403.6
47895,1948.8,3653.6
47895,1948.8,2903.6
47895,1948.8,3153.6
47895,1948.8,3403.6
47895,1948.8,3653.6
47895,1948.8,3903.6
47895,1948.8,3153.6
47895,1948.8,3403.6
47895,1948.8,3653.6
47895,1948.8,3903.6
47895,1948.8,4153.6
47895,1948.8,3403.6
47895,1948.8,3653.6
47895,1948.8,3903.6
47895,1948.8,4153.6
47895,1948.8,4403.6
47895,1948.8,2653.6
47895,1948.8,2903.6
47895,1948.8,3153.6
47895,1948.8,3403.6
47895,1948.8,3653.6
47895,1948.8,2903.6
47895,1948.8,3153.6
47895,1948.8,3403.6
47895,1948.8,3653.6
47895,1948.8,3903.6
47895,1948.8,3153.6
47895,1948.8,3403.6
47895,1948.8,3653.6
47895,1948.8,3903.6
47895,1948.8,4153.6
47895,1948.8,3403.6
47895,1948.8,3653.6
47895,1948.8,3903.6
47895,1948.8,4153.6
47895,1948.8,4403.6
47895,1948.8,3653.6
47895,1948.8,3903.6
47895,1948.8,4153.6
47895,1948.8,4403.6
47895,1948.8,4653.6
47895,1948.8,2903.6
47895,1948.8,3153.6
47895,1948.8,3403.6
47895,1948.8,3653.6
47895,1948.8,3903.6
47895,1948.8,3153.6
47895,1948.8,3403.6
47895,1948.8,3653.6
47895,1948.8,3903.6
47895,1948.8,4153.6
47895,1948.8,3403.6
47895,1948.8,3653.6
47895,1948.8,3903.6
47895,1948.8,4153.6
47895,1948.8,4403.6
47895,1948.8,3653.6
47895,1948.8,3903.6
47895,1948.8,4153.6
47895,1948.8,4403.6
47895,1948.8,4653.6
47895,1948.8,3903.6
47895,1948.8,4153.6
47895,1948.8,4403.6
47895,1948.8,4653.6
47895,1948.8,4903.6
47895,1948.8,3153.6
47895,1948.8,3403.6
47895,1948.8,3653.6
47895,1948.8,3903.6
47895,1948.8,4153.6
47895,1948.8,3403.6
47895,1948.8,3653.6
47895,1948.8,3903.6
47895,1948.8,4153.6
47895,1948.8,4403.6
47895,1948.8,3653.6
47895,1948.8,3903.6
47895,1948.8,4153.6
47895,1948.8,4403.6
47895,1948.8,4653.6
47895,1948.8,3903.6
47895,1948.8,4153.6
47895,1948.8,4403.6
47895,1948.8,4653.6
47895,1948.8,4903.6
47895,1948.8,4153.6
47895,1948.8,4403.6
47895,1948.8,4653.6
47895,1948.8,4903.6
47895,1948.8,5153.6
47895,1948.8,3403.6
47895,1948.8,3653.6
47895,1948.8,3903.6
47895,1948.8,4153.6
47895,1948.8,4403.6
47895,1948.8,3653.6
47895,1948.8,3903.6
47895,1948.8,4153.6
47895,1948.8,4403.6
47895,1948.8,4653.6
47895,1948.8,3903.6
47895,1948.8,4153.6
47895,1948.8,4403.6
47895,1948.8,4653.6
47895,1948.8,4903.6
47895,1948.8,4153.6
47895,1948.8,4403.6
47895,1948.8,4653.6
47895,1948.8,4903.6
47895,1948.8,5153.6
47895,1948.8,4403.6
47895,1948.8,4653.6
47895,1948.8,4903.6
47895,1948.8,5153.6
47895,1948.8,5403.6
47895,1948.8,2653.6
47895,1948.8,2903.6
47895,1948.8,3153.6
47895,1948.8,3403.6
47895,1948.8,3653.6
47895,1948.8,2903.6
47895,1948.8,3153.6
47895,1948.8,3403.6
47895,1948.8,3653.6
47895,1948.8,3903.6
47895,1948.8,3153.6
47895,1948.8,3403.6
47895,1948.8,3653.6
47895,1948.8,3903.6
47895,1948.8,4153.6
47895,1948.8,3403.6
47895,1948.8,3653.6
47895,1948.8,3903.6
47895,1948.8,4153.6
47895,1948.8,4403.6
47895,1948.8,3653.6
47895,1948.8,3903.6
47895,1948.8,4153.6
47895,1948.8,4403.6
47895,1948.8,4653.6
47895,1948.8,2903.6
47895,1948.8,3153.6
47895,1948.8,3403.6
47895,1948.8,3653.6
47895,1948.8,3903.6
47895,1948.8,3153.6
47895,1948.8,3403.6
47895,1948.8,3653.6
47895,1948.8,3903.6
47895,1948.8,4153.6
47895,1948.8,3403.6
47895,1948.8,3653.6
47895,1948.8,3903.6
47895,1948.8,4153.6
47895,1948.8,4403.6
47895,1948.8,3653.6
47895,1948.8,3903.6
47895,1948.8,4153.6
47895,1948.8,4403.6
47895,1948.8,4653.6
47895,1948.8,3903.6
47895,1948.8,4153.6
47895,1948.8,4403.6
47895,1948.8,4653.6
47895,1948.8,4903.6
47895,1948.8,3153.6
47895,1948.8,3403.6
47895,1948.8,3653.6
47895,1948.8,3903.6
47895,1948.8,4153.6
47895,1948.8,3403.6
47895,1948.8,3653.6
47895,1948.8,3903.6
47895,1948.8,4153.6
47895,1948.8,4403.6
47895,1948.8,3653.6
47895,1948.8,3903.6
47895,1948.8,4153.6
47895,1948.8,4403.6
47895,1948.8,4653.6
47895,1948.8,3903.6
47895,1948.8,4153.6
47895,1948.8,4403.6
47895,1948.8,4653.6
47895,1948.8,4903.6
47895,1948.8,4153.6
47895,1948.8,4403.6
47895,1948.8,4653.6
47895,1948.8,4903.6
47895,1948.8,5153.6
47895,1948.8,3403.6
47895,1948.8,3653.6
47895,1948.8,3903.6
47895,1948.8,4153.6
47895,1948.8,4403.6
47895,1948.8,3653.6
47895,1948.8,3903.6
47895,1948.8,4153.6
47895,1948.8,4403.6
47895,1948.8,4653.6
47895,1948.8,3903.6
47895,1948.8,4153.6
47895,1948.8,4403.6
47895,1948.8,4653.6
47895,1948.8,4903.6
47895,1948.8,4153.6
47895,1948.8,4403.6
47895,1948.8,4653.6
47895,1948.8,4903.6
47895,1948.8,5153.6
47895,1948.8,4403.6
47895,1948.8,4653.6
47895,1948.8,4903.6
47895,1948.8,5153.6
47895,1948.8,5403.6
47895,1948.8,3653.6
47895,1948.8,3903.6
47895,1948.8,4153.6
47895,1948.8,4403.6
47895,1948.8,4653.6
47895,1948.8,3903.6
47895,1948.8,4153.6
47895,1948.8,4403.6
47895,1948.8,4653.6
47895,1948.8,4903.6
47895,1948.8,4153.6
47895,1948.8,4403.6
47895,1948.8,4653.6
47895,1948.8,4903.6
47895,1948.8,5153.6
47895,1948.8,4403.6
47895,1948.8,4653.6
47895,1948.8,4903.6
47895,1948.8,5153.6
47895,1948.8,5403.6
47895,1948.8,4653.6
47895,1948.8,4903.6
47895,1948.8,5153.6
47895,1948.8,5403.6
47895,1948.8,5653.6
47895,1948.8,2903.6
47895,1948.8,3153.6
47895,1948.8,3403.6
47895,1948.8,3653.6
47895,1948.8,3903.6
47895,1948.8,3153.6
47895,1948.8,3403.6
47895,1948.8,3653.6
47895,1948.8,3903.6
47895,1948.8,4153.6
47895,1948.8,3403.6
47895,1948.8,3653.6
47895,1948.8,3903.6
47895,1948.8,4153.6
47895,1948.8,4403.6
47895,1948.8,3653.6
47895,1948.8,3903.6
47895,1948.8,4153.6
47895,1948.8,4403.6
47895,1948.8,4653.6
47895,1948.8,3903.6
47895,1948.8,4153.6
47895,1948.8,4403.6
47895,1948.8,4653.6
47895,1948.8,4903.6
47895,1948.8,3153.6
47895,1948.8,3403.6
47895,1948.8,3653.6
47895,1948.8,3903.6
47895,1948.8,4153.6
47895,1948.8,3403.6
47895,1948.8,3653.6
47895,1948.8,3903.6
47895,1948.8,4153.6
47895,1948.8,4403.6
47895,1948.8,3653.6
47895,1948.8,3903.6
47895,1948.8,4153.6
47895,1948.8,4403.6
47895,1948.8,4653.6
47895,1948.8,3903.6
47895,1948.8,4153.6
47895,1948.8,4403.6
47895,1948.8,4653.6
47895,1948.8,4903.6
47895,1948.8,4153.6
47895,1948.8,4403.6
47895,1948.8,4653.6
47895,1948.8,4903.6
47895,1948.8,5153.6
47895,1948.8,3403.6
47895,1948.8,3653.6
47895,1948.8,3903.6
47895,1948.8,4153.6
47895,1948.8,4403.6
47895,1948.8,3653.6
47895,1948.8,3903.6
47895,1948.8,4153.6
47895,1948.8,4403.6
47895,1948.8,4653.6
47895,1948.8,3903.6
47895,1948.8,4153.6
47895,1948.8,4403.6
47895,1948.8,4653.6
47895,1948.8,4903.6
47895,1948.8,4153.6
47895,1948.8,4403.6
47895,1948.8,4653.6
47895,1948.8,4903.6
47895,1948.8,5153.6
47895,1948.8,4403.6
47895,1948.8,4653.6
47895,1948.8,4903.6
47895,1948.8,5153.6
47895,1948.8,5403.6
47895,1948.8,3653.6
47895,1948.8,3903.6
47895,1948.8,4153.6
47895,1948.8,4403.6
47895,1948.8,4653.6
47895,1948.8,3903.6
47895,1948.8,4153.6
47895,1948.8,4403.6
47895,1948.8,4653.6
47895,1948.8,4903.6
47895,1948.8,4153.6
47895,1948.8,4403.6
47895,1948.8,4653.6
47895,1948.8,4903.6
47895,1948.8,5153.6
47895,1948.8,4403.6
47895,1948.8,4653.6
47895,1948.8,4903.6
47895,1948.8,5153.6
47895,1948.8,5403.6
47895,1948.8,4653.6
47895,1948.8,4903.6
47895,1948.8,5153.6
47895,1948.8,5403.6
47895,1948.8,5653.6
47895,1948.8,3903.6
47895,1948.8,4153.6
47895,1948.8,4403.6
47895,1948.8,4653.6
47895,1948.8,4903.6
47895,1948.8,4153.6
47895,1948.8,4403.6
47895,1948.8,4653.6
47895,1948.8,4903.6
47895,1948.8,5153.6
47895,1948.8,4403.6
47895,1948.8,4653.6
47895,1948.8,4903.6
47895,1948.8,5153.6
47895,1948.8,5403.6
47895,1948.8,4653.6
47895,1948.8,4903.6
47895,1948.8,5153.6
47895,1948.8,5403.6
47895,1948.8,5653.6
47895,1948.8,4903.6
47895,1948.8,5153.6
47895,1948.8,5403.6
47895,1948.8,5653.6
47895,1948.8,5903.6
47895,1948.8,3153.6
47895,1948.8,3403.6
47895,1948.8,3653.6
47895,1948.8,3903.6
47895,1948.8,4153.6
47895,1948.8,3403.6
47895,1948.8,3653.6
47895,1948.8,3903.6
47895,1948.8,4153.6
47895,1948.8,4403.6
47895,1948.8,3653.6
47895,1948.8,3903.6
47895,1948.8,4153.6
47895,1948.8,4403.6
47895,1948.8,4653.6
47895,1948.8,3903.6
47895,1948.8,4153.6
47895,1948.8,4403.6
47895,1948.8,4653.6
47895,1948.8,4903.6
47895,1948.8,4153.6
47895,1948.8,4403.6
47895,1948.8,4653.6
47895,1948.8,4903.6
47895,1948.8,5153.6
47895,1948.8,3403.6
47895,1948.8,3653.6
47895,1948.8,3903.6
47895,1948.8,4153.6
47895,1948.8,4403.6
47895,1948.8,3653.6
47895,1948.8,3903.6
47895,1948.8,4153.6
47895,1948.8,4403.6
47895,1948.8,4653.6
47895,1948.8,3903.6
47895,1948.8,4153.6
47895,1948.8,4403.6
47895,1948.8,4653.6
47895,1948.8,4903.6
47895,1948.8,4153.6
47895,1948.8,4403.6
47895,1948.8,4653.6
47895,1948.8,4903.6
47895,1948.8,5153.6
47895,1948.8,4403.6
47895,1948.8,4653.6
47895,1948.8,4903.6
47895,1948.8,5153.6
47895,1948.8,5403.6
47895,1948.8,3653.6
47895,1948.8,3903.6
47895,1948.8,4153.6
47895,1948.8,4403.6
47895,1948.8,4653.6
47895,1948.8,3903.6
47895,1948.8,4153.6
47895,1948.8,4403.6
47895,1948.8,4653.6
47895,1948.8,4903.6
47895,1948.8,4153.6
47895,1948.8,4403.6
47895,1948.8,4653.6
47895,1948.8,4903.6
47895,1948.8,5153.6
47895,1948.8,4403.6
47895,1948.8,4653.6
47895,1948.8,4903.6
47895,1948.8,5153.6
47895,1948.8,5403.6
47895,1948.8,4653.6
47895,1948.8,4903.6
47895,1948.8,5153.6
47895,1948.8,5403.6
47895,1948.8,5653.6
47895,1948.8,3903.6
47895,1948.8,4153.6
47895,1948.8,4403.6
47895,1948.8,4653.6
47895,1948.8,4903.6
47895,1948.8,4153.6
47895,1948.8,4403.6
47895,1948.8,4653.6
47895,1948.8,4903.6
47895,1948.8,5153.6
47895,1948.8,4403.6
47895,1948.8,4653.6
47895,1948.8,4903.6
47895,1948.8,5153.6
47895,1948.8,5403.6
47895,1948.8,4653.6
47895,1948.8,4903.6
47895,1948.8,5153.6
47895,1948.8,5403.6
47895,1948.8,5653.6
47895,1948.8,4903.6
47895,1948.8,5153.6
47895,1948.8,5403.6
47895,1948.8,5653.6
47895,1948.8,5903.6
47895,1948.8,4153.6
47895,1948.8,4403.6
47895,1948.8,4653.6
47895,1948.8,4903.6
47895,1948.8,5153.6
47895,1948.8,4403.6
47895,1948.8,4653.6
47895,1948.8,4903.6
47895,1948.8,5153.6
47895,1948.8,5403.6
47895,1948.8,4653.6
47895,1948.8,4903.6
47895,1948.8,5153.6
47895,1948.8,5403.6
47895,1948.8,5653.6
47895,1948.8,4903.6
47895,1948.8,5153.6
47895,1948.8,5403.6
47895,1948.8,5653.6
47895,1948.8,5903.6
47895,1948.8,5153.6
47895,1948.8,5403.6
47895,1948.8,5653.6
47895,1948.8,5903.6
47895,1948.8,6153.6
47895,1948.8,2403.6
47895,1948.8,2653.6
47895,1948.8,2903.6
47895,1948.8,3153.6
47895,1948.8,3403.6
47895,1948.8,2653.6
47895,1948.8,2903.6
47895,1948.8,3153.6
47895,1948.8,3403.6
47895,1948.8,3653.6
47895,1948.8,2903.6
47895,1948.8,3153.6
47895,1948.8,3403.6
47895,1948.8,3653.6
47895,1948.8,3903.6
47895,1948.8,3153.6
47895,1948.8,3403.6
47895,1948.8,3653.6
47895,1948.8,3903.6
47895,1948.8,4153.6
47895,1948.8,3403.6
47895,1948.8,3653.6
47895,1948.8,3903.6
47895,1948.8,4153.6
47895,1948.8,4403.6
47895,1948.8,2653.6
47895,1948.8,2903.6
47895,1948.8,3153.6
47895,1948.8,3403.6
47895,1948.8,3653.6
47895,1948.8,2903.6
47895,1948.8,3153.6
47895,1948.8,3403.6
47895,1948.8,3653.6
47895,1948.8,3903.6
47895,1948.8,3153.6
47895,1948.8,3403.6
47895,1948.8,3653.6
47895,1948.8,3903.6
47895,1948.8,4153.6
47895,1948.8,3403.6
47895,1948.8,3653.6
47895,1948.8,3903.6
47895,1948.8,4153.6
47895,1948.8,4403.6
47895,1948.8,3653.6
47895,1948.8,3903.6
47895,1948.8,4153.6
47895,1948.8,4403.6
47895,1948.8,4653.6
47895,1948.8,2903.6
47895,1948.8,3153.6
47895,1948.8,3403.6
47895,1948.8,3653.6
47895,1948.8,3903.6
47895,1948.8,3153.6
47895,1948.8,3403.6
47895,1948.8,3653.6
47895,1948.8,3903.6
47895,1948.8,4153.6
47895,1948.8,3403.6
47895,1948.8,3653.6
47895,1948.8,3903.6
47895,1948.8,4153.6
47895,1948.8,4403.6
47895,1948.8,3653.6
47895,1948.8,3903.6
47895,1948.8,4153.6
47895,1948.8,4403.6
47895,1948.8,4653.6
47895,1948.8,3903.6
47895,1948.8,4153.6
47895,1948.8,4403.6
47895,1948.8,4653.6
47895,1948.8,4903.6
47895,1948.8,3153.6
47895,1948.8,3403.6
47895,1948.8,3653.6
47895,1948.8,3903.6
47895,1948.8,4153.6
47895,1948.8,3403.6
47895,1948.8,3653.6
47895,1948.8,3903.6
47895,1948.8,4153.6
47895,1948.8,4403.6
47895,1948.8,3653.6
47895,1948.8,3903.6
47895,1948.8,4153.6
47895,1948.8,4403.6
47895,1948.8,4653.6
47895,1948.8,3903.6
47895,1948.8,4153.6
47895,1948.8,4403.6
47895,1948.8,4653.6
47895,1948.8,4903.6
47895,1948.8,4153.6
47895,1948.8,4403.6
47895,1948.8,4653.6
47895,1948.8,4903.6
47895,1948.8,5153.6
47895,1948.8,3403.6
47895,1948.8,3653.6
47895,1948.8,3903.6
47895,1948.8,4153.6
47895,1948.8,4403.6
47895,1948.8,3653.6
47895,1948.8,3903.6
47895,1948.8,4153.6
47895,1948.8,4403.6
47895,1948.8,4653.6
47895,1948.8,3903.6
47895,1948.8,4153.6
47895,1948.8,4403.6
47895,1948.8,4653.6
47895,1948.8,4903.6
47895,1948.8,4153.6
47895,1948.8,4403.6
47895,1948.8,4653.6
47895,1948.8,4903.6
47895,1948.8,5153.6
47895,1948.8,4403.6
47895,1948.8,4653.6
47895,1948.8,4903.6
47895,1948.8,5153.6
47895,1948.8,5403.6
47895,1948.8,2653.6
47895,1948.8,2903.6
47895,1948.8,3153.6
47895,1948.8,3403.6
47895,1948.8,3653.6
47895,1948.8,2903.6
47895,1948.8,3153.6
47895,1948.8,3403.6
47895,1948.8,3653.6
47895,1948.8,3903.6
47895,1948.8,3153.6
47895,1948.8,3403.6
47895,1948.8,3653.6
47895,1948.8,3903.6
47895,1948.8,4153.6
47895,1948.8,3403.6
47895,1948.8,3653.6
47895,1948.8,3903.6
47895,1948.8,4153.6
47895,1948.8,4403.6
47895,1948.8,3653.6
47895,1948.8,3903.6
47895,1948.8,4153.6
47895,1948.8,4403.6
47895,1948.8,4653.6
47895,1948.8,2903.6
47895,1948.8,3153.6
47895,1948.8,3403.6
47895,1948.8,3653.6
47895,1948.8,3903.6
47895,1948.8,3153.6
47895,1948.8,3403.6
47895,1948.8,3653.6
47895,1948.8,3903.6
47895,1948.8,4153.6
47895,1948.8,3403.6
47895,1948.8,3653.6
47895,1948.8,3903.6
47895,1948.8,4153.6
47895,1948.8,4403.6
47895,1948.8,3653.6
47895,1948.8,3903.6
47895,1948.8,4153.6
47895,1948.8,4403.6
47895,1948.8,4653.6
47895,1948.8,3903.6
47895,1948.8,4153.6
47895,1948.8,4403.6
47895,1948.8,4653.6
47895,1948.8,4903.6
47895,1948.8,3153.6
47895,1948.8,3403.6
47895,1948.8,3653.6
47895,1948.8,3903.6
47895,1948.8,4153.6
47895,1948.8,3403.6
47895,1948.8,3653.6
47895,1948.8,3903.6
47895,1948.8,4153.6
47895,1948.8,4403.6
47895,1948.8,3653.6
47895,1948.8,3903.6
47895,1948.8,4153.6
47895,1948.8,4403.6
47895,1948.8,4653.6
47895,1948.8,3903.6
47895,1948.8,4153.6
47895,1948.8,4403.6
47895,1948.8,4653.6
47895,1948.8,4903.6
47895,1948.8,4153.6
47895,1948.8,4403.6
47895,1948.8,4653.6
47895,1948.8,4903.6
47895,1948.8,5153.6
47895,1948.8,3403.6
47895,1948.8,3653.6
47895,1948.8,3903.6
47895,1948.8,4153.6
47895,1948.8,4403.6
47895,1948.8,3653.6
47895,1948.8,3903.6
47895,1948.8,4153.6
47895,1948.8,4403.6
47895,1948.8,4653.6
47895,1948.8,3903.6
47895,1948.8,4153.6
47895,1948.8,4403.6
47895,1948.8,4653.6
47895,1948.8,4903.6
47895,1948.8,4153.6
47895,1948.8,4403.6
47895,1948.8,4653.6
47895,1948.8,4903.6
47895,1948.8,5153.6
47895,1948.8,4403.6
47895,1948.8,4653.6
47895,1948.8,4903.6
47895,1948.8,5153.6
47895,1948.8,5403.6
47895,1948.8,3653.6
47895,1948.8,3903.6
47895,1948.8,4153.6
47895,1948.8,4403.6
47895,1948.8,4653.6
47895,1948.8,3903.6
47895,1948.8,4153.6
47895,1948.8,4403.6
47895,1948.8,4653.6
47895,1948.8,4903.6
47895,1948.8,4153.6
47895,1948.8,4403.6
47895,1948.8,4653.6
47895,1948.8,4903.6
47895,1948.8,5153.6
47895,1948.8,4403.6
47895,1948.8,4653.6
47895,1948.8,4903.6
47895,1948.8,5153.6
47895,1948.8,5403.6
47895,1948.8,4653.6
47895,1948.8,4903.6
47895,1948.8,5153.6
47895,1948.8,5403.6
47895,1948.8,5653.6
47895,1948.8,2903.6
47895,1948.8,3153.6
47895,1948.8,3403.6
47895,1948.8,3653.6
47895,1948.8,3903.6
47895,1948.8,3153.6
47895,1948.8,3403.6
47895,1948.8,3653.6
47895,1948.8,3903.6
47895,1948.8,4153.6
47895,1948.8,3403.6
47895,1948.8,3653.6
47895,1948.8,3903.6
47895,1948.8,4153.6
47895,1948.8,4403.6
47895,1948.8,3653.6
47895,1948.8,3903.6
47895,1948.8,4153.6
47895,1948.8,4403.6
47895,1948.8,4653.6
47895,1948.8,3903.6
47895,1948.8,4153.6
47895,1948.8,4403.6
47895,1948.8,4653.6
47895,1948.8,4903.6
47895,1948.8,3153.6
47895,1948.8,3403.6
47895,1948.8,3653.6
47895,1948.8,3903.6
47895,1948.8,4153.6
47895,1948.8,3403.6
47895,1948.8,3653.6
47895,1948.8,3903.6
47895,1948.8,4153.6
47895,1948.8,4403.6
47895,1948.8,3653.6
47895,1948.8,3903.6
47895,1948.8,4153.6
47895,1948.8,4403.6
47895,1948.8,4653.6
47895,1948.8,3903.6
47895,1948.8,4153.6
47895,1948.8,4403.6
47895,1948.8,4653.6
47895,1948.8,4903.6
47895,1948.8,4153.6
47895,1948.8,4403.6
47895,1948.8,4653.6
47895,1948.8,4903.6
47895,1948.8,5153.6
47895,1948.8,3403.6
47895,1948.8,3653.6
47895,1948.8,3903.6
47895,1948.8,4153.6
47895,1948.8,4403.6
47895,1948.8,3653.6
47895,1948.8,3903.6
47895,1948.8,4153.6
47895,1948.8,4403.6
47895,1948.8,4653.6
47895,1948.8,3903.6
47895,1948.8,4153.6
47895,1948.8,4403.6
47895,1948.8,4653.6
47895,1948.8,4903.6
47895,1948.8,4153.6
47895,1948.8,4403.6
47895,1948.8,4653.6
47895,1948.8,4903.6
47895,1948.8,5153.6
47895,1948.8,4403.6
47895,1948.8,4653.6
47895,1948.8,4903.6
47895,1948.8,5153.6
47895,1948.8,5403.6
47895,1948.8,3653.6
47895,1948.8,3903.6
47895,1948.8,4153.6
47895,1948.8,4403.6
47895,1948.8,4653.6
47895,1948.8,3903.6
47895,1948.8,4153.6
47895,1948.8,4403.6
47895,1948.8,4653.6
47895,1948.8,4903.6
47895,1948.8,4153.6
47895,1948.8,4403.6
47895,1948.8,4653.6
47895,1948.8,4903.6
47895,1948.8,5153.6
47895,1948.8,4403.6
47895,1948.8,4653.6
47895,1948.8,4903.6
47895,1948.8,5153.6
47895,1948.8,5403.6
47895,1948.8,4653.6
47895,1948.8,4903.6
47895,1948.8,5153.6
47895,1948.8,5403.6
47895,1948.8,5653.6
47895,1948.8,3903.6
47895,1948.8,4153.6
47895,1948.8,4403.6
47895,1948.8,4653.6
47895,1948.8,4903.6
47895,1948.8,4153.6
47895,1948.8,4403.6
47895,1948.8,4653.6
47895,1948.8,4903.6
47895,1948.8,5153.6
47895,1948.8,4403.6
47895,1948.8,4653.6
47895,1948.8,4903.6
47895,1948.8,5153.6
47895,1948.8,5403.6
47895,1948.8,4653.6
47895,1948.8,4903.6
47895,1948.8,5153.6
47895,1948.8,5403.6
47895,1948.8,5653.6
47895,1948.8,4903.6
47895,1948.8,5153.6
47895,1948.8,5403.6
47895,1948.8,5653.6
47895,1948.8,5903.6
47895,1948.8,3153.6
47895,1948.8,3403.6
47895,1948.8,3653.6
47895,1948.8,3903.6
47895,1948.8,4153.6
47895,1948.8,3403.6
47895,1948.8,3653.6
47895,1948.8,3903.6
47895,1948.8,4153.6
47895,1948.8,4403.6
47895,1948.8,3653.6
47895,1948.8,3903.6
47895,1948.8,4153.6
47895,1948.8,4403.6
47895,1948.8,4653.6
47895,1948.8,3903.6
47895,1948.8,4153.6
47895,1948.8,4403.6
47895,1948.8,4653.6
47895,1948.8,4903.6
47895,1948.8,4153.6
47895,1948.8,4403.6
47895,1948.8,4653.6
47895,1948.8,4903.6
47895,1948.8,5153.6
47895,1948.8,3403.6
47895,1948.8,3653.6
47895,1948.8,3903.6
47895,1948.8,4153.6
47895,1948.8,4403.6
47895,1948.8,3653.6
47895,1948.8,3903.6
47895,1948.8,4153.6
47895,1948.8,4403.6
47895,1948.8,4653.6
47895,1948.8,3903.6
47895,1948.8,4153.6
47895,1948.8,4403.6
47895,1948.8,4653.6
47895,1948.8,4903.6
47895,1948.8,4153.6
47895,1948.8,4403.6
47895,1948.8,4653.6
47895,1948.8,4903.6
47895,1948.8,5153.6
47895,1948.8,4403.6
47895,1948.8,4653.6
47895,1948.8,4903.6
47895,1948.8,5153.6
47895,1948.8,5403.6
47895,1948.8,3653.6
47895,1948.8,3903.6
47895,1948.8,4153.6
47895,1948.8,4403.6
47895,1948.8,4653.6
47895,1948.8,3903.6
47895,1948.8,4153.6
47895,1948.8,4403.6
47895,1948.8,4653.6
47895,1948.8,4903.6
47895,1948.8,4153.6
47895,1948.8,4403.6
47895,1948.8,4653.6
47895,1948.8,4903.6
47895,1948.8,5153.6
47895,1948.8,4403.6
47895,1948.8,4653.6
47895,1948.8,4903.6
47895,1948.8,5153.6
47895,1948.8,5403.6
47895,1948.8,4653.6
47895,1948.8,4903.6
47895,1948.8,5153.6
47895,1948.8,5403.6
47895,1948.8,5653.6
47895,1948.8,3903.6
47895,1948.8,4153.6
47895,1948.8,4403.6
47895,1948.8,4653.6
47895,1948.8,4903.6
47895,1948.8,4153.6
47895,1948.8,4403.6
47895,1948.8,4653.6
47895,1948.8,4903.6
47895,1948.8,5153.6
47895,1948.8,4403.6
47895,1948.8,4653.6
47895,1948.8,4903.6
47895,1948.8,5153.6
47895,1948.8,5403.6
47895,1948.8,4653.6
47895,1948.8,4903.6
47895,1948.8,5153.6
47895,1948.8,5403.6
47895,1948.8,5653.6
47895,1948.8,4903.6
47895,1948.8,5153.6
47895,1948.8,5403.6
47895,1948.8,5653.6
47895,1948.8,5903.6
47895,1948.8,4153.6
47895,1948.8,4403.6
47895,1948.8,4653.6
47895,1948.8,4903.6
47895,1948.8,5153.6
47895,1948.8,4403.6
47895,1948.8,4653.6
47895,1948.8,4903.6
47895,1948.8,5153.6
47895,1948.8,5403.6
47895,1948.8,4653.6
47895,1948.8,4903.6
47895,1948.8,5153.6
47895,1948.8,5403.6
47895,1948.8,5653.6
47895,1948.8,4903.6
47895,1948.8,5153.6
47895,1948.8,5403.6
47895,1948.8,5653.6
47895,1948.8,5903.6
47895,1948.8,5153.6
47895,1948.8,5403.6
47895,1948.8,5653.6
47895,1948.8,5903.6
47895,1948.8,6153.6
47895,1948.8,3403.6
47895,1948.8,3653.6
47895,1948.8,3903.6
47895,1948.8,4153.6
47895,1948.8,4403.6
47895,1948.8,3653.6
47895,1948.8,3903.6
47895,1948.8,4153.6
47895,1948.8,4403.6
47895,1948.8,4653.6
47895,1948.8,3903.6
47895,1948.8,4153.6
47895,1948.8,4403.6
47895,1948.8,4653.6
47895,1948.8,4903.6
47895,1948.8,4153.6
47895,1948.8,4403.6
47895,1948.8,4653.6
47895,1948.8,4903.6
47895,1948.8,5153.6
47895,1948.8,4403.6
47895,1948.8,4653.6
47895,1948.8,4903.6
47895,1948.8,5153.6
47895,1948.8,5403.6
47895,1948.8,3653.6
47895,1948.8,3903.6
47895,1948.8,4153.6
47895,1948.8,4403.6
47895,1948.8,4653.6
47895,1948.8,3903.6
47895,1948.8,4153.6
47895,1948.8,4403.6
47895,1948.8,4653.6
47895,1948.8,4903.6
47895,1948.8,4153.6
47895,1948.8,4403.6
47895,1948.8,4653.6
47895,1948.8,4903.6
47895,1948.8,5153.6
47895,1948.8,4403.6
47895,1948.8,4653.6
47895,1948.8,4903.6
47895,1948.8,5153.6
47895,1948.8,5403.6
47895,1948.8,4653.6
47895,1948.8,4903.6
47895,1948.8,5153.6
47895,1948.8,5403.6
47895,1948.8,5653.6
47895,1948.8,3903.6
47895,1948.8,4153.6
47895,1948.8,4403.6
47895,1948.8,4653.6
47895,1948.8,4903.6
47895,1948.8,4153.6
47895,1948.8,4403.6
47895,1948.8,4653.6
47895,1948.8,4903.6
47895,1948.8,5153.6
47895,1948.8,4403.6
47895,1948.8,4653.6
47895,1948.8,4903.6
47895,1948.8,5153.6
47895,1948.8,5403.6
47895,1948.8,4653.6
47895,1948.8,4903.6
47895,1948.8,5153.6
47895,1948.8,5403.6
47895,1948.8,5653.6
47895,1948.8,4903.6
47895,1948.8,5153.6
47895,1948.8,5403.6
47895,1948.8,5653.6
47895,1948.8,5903.6
47895,1948.8,4153.6
47895,1948.8,4403.6
47895,1948.8,4653.6
47895,1948.8,4903.6
47895,1948.8,5153.6
47895,1948.8,4403.6
47895,1948.8,4653.6
47895,1948.8,4903.6
47895,1948.8,5153.6
47895,1948.8,5403.6
47895,1948.8,4653.6
47895,1948.8,4903.6
47895,1948.8,5153.6
47895,1948.8,5403.6
47895,1948.8,5653.6
47895,1948.8,4903.6
47895,1948.8,5153.6
47895,1948.8,5403.6
47895,1948.8,5653.6
47895,1948.8,5903.6
47895,1948.8,5153.6
47895,1948.8,5403.6
47895,1948.8,5653.6
47895,1948.8,5903.6
47895,1948.8,6153.6
47895,1948.8,4403.6
47895,1948.8,4653.6
47895,1948.8,4903.6
47895,1948.8,5153.6
47895,1948.8,5403.6
47895,1948.8,4653.6
47895,1948.8,4903.6
47895,1948.8,5153.6
47895,1948.8,5403.6
47895,1948.8,5653.6
47895,1948.8,4903.6
47895,1948.8,5153.6
47895,1948.8,5403.6
47895,1948.8,5653.6
47895,1948.8,5903.6
47895,1948.8,5153.6
47895,1948.8,5403.6
47895,1948.8,5653.6
47895,1948.8,5903.6
47895,1948.8,6153.6
47895,1948.8,5403.6
47895,1948.8,5653.6
47895,1948.8,5903.6
47895,1948.8,6153.6
47895,1948.8,6403.6
47895,1948.8,2653.6
47895,1948.8,2903.6
47895,1948.8,3153.6
47895,1948.8,3403.6
47895,1948.8,3653.6
47895,1948.8,2903.6
47895,1948.8,3153.6
47895,1948.8,3403.6
47895,1948.8,3653.6
47895,1948.8,3903.6
47895,1948.8,3153.6
47895,1948.8,3403.6
47895,1948.8,3653.6
47895,1948.8,3903.6
47895,1948.8,4153.6
47895,1948.8,3403.6
47895,1948.8,3653.6
47895,1948.8,3903.6
47895,1948.8,4153.6
47895,1948.8,4403.6
47895,1948.8,3653.6
47895,1948.8,3903.6
47895,1948.8,4153.6
47895,1948.8,4403.6
47895,1948.8,4653.6
47895,1948.8,2903.6
47895,1948.8,3153.6
47895,1948.8,3403.6
47895,1948.8,3653.6
47895,1948.8,3903.6
47895,1948.8,3153.6
47895,1948.8,3403.6
47895,1948.8,3653.6
47895,1948.8,3903.6
47895,1948.8,4153.6
47895,1948.8,3403.6
47895,1948.8,3653.6
47895,1948.8,3903.6
47895,1948.8,4153.6
47895,1948.8,4403.6
47895,1948.8,3653.6
47895,1948.8,3903.6
47895,1948.8,4153.6
47895,1948.8,4403.6
47895,1948.8,4653.6
47895,1948.8,3903.6
47895,1948.8,4153.6
47895,1948.8,4403.6
47895,1948.8,4653.6
47895,1948.8,4903.6
47895,1948.8,3153.6
47895,1948.8,3403.6
47895,1948.8,3653.6
47895,1948.8,3903.6
47895,1948.8,4153.6
47895,1948.8,3403.6
47895,1948.8,3653.6
47895,1948.8,3903.6
47895,1948.8,4153.6
47895,1948.8,4403.6
47895,1948.8,3653.6
47895,1948.8,3903.6
47895,1948.8,4153.6
47895,1948.8,4403.6
47895,1948.8,4653.6
47895,1948.8,3903.6
47895,1948.8,4153.6
47895,1948.8,4403.6
47895,1948.8,4653.6
47895,1948.8,4903.6
47895,1948.8,4153.6
47895,1948.8,4403.6
47895,1948.8,4653.6
47895,1948.8,4903.6
47895,1948.8,5153.6
47895,1948.8,3403.6
47895,1948.8,3653.6
47895,1948.8,3903.6
47895,1948.8,4153.6
47895,1948.8,4403.6
47895,1948.8,3653.6
47895,1948.8,3903.6
47895,1948.8,4153.6
47895,1948.8,4403.6
47895,1948.8,4653.6
47895,1948.8,3903.6
47895,1948.8,4153.6
47895,1948.8,4403.6
47895,1948.8,4653.6
47895,1948.8,4903.6
47895,1948.8,4153.6
47895,1948.8,4403.6
47895,1948.8,4653.6
47895,1948.8,4903.6
47895,1948.8,5153.6
47895,1948.8,4403.6
47895,1948.8,4653.6
47895,1948.8,4903.6
47895,1948.8,5153.6
47895,1948.8,5403.6
47895,1948.8,3653.6
47895,1948.8,3903.6
47895,1948.8,4153.6
47895,1948.8,4403.6
47895,1948.8,4653.6
47895,1948.8,3903.6
47895,1948.8,4153.6
47895,1948.8,4403.6
47895,1948.8,4653.6
47895,1948.8,4903.6
47895,1948.8,4153.6
47895,1948.8,4403.6
47895,1948.8,4653.6
47895,1948.8,4903.6
47895,1948.8,5153.6
47895,1948.8,4403.6
47895,1948.8,4653.6
47895,1948.8,4903.6
47895,1948.8,5153.6
47895,1948.8,5403.6
47895,1948.8,4653.6
47895,1948.8,4903.6
47895,1948.8,5153.6
47895,1948.8,5403.6
47895,1948.8,5653.6
47895,1948.8,2903.6
47895,1948.8,3153.6
47895,1948.8,3403.6
47895,1948.8,3653.6
47895,1948.8,3903.6
47895,1948.8,3153.6
47895,1948.8,3403.6
47895,1948.8,3653.6
47895,1948.8,3903.6
47895,1948.8,4153.6
47895,1948.8,3403.6
47895,1948.8,3653.6
47895,1948.8,3903.6
47895,1948.8,4153.6
47895,1948.8,4403.6
47895,1948.8,3653.6
47895,1948.8,3903.6
47895,1948.8,4153.6
47895,1948.8,4403.6
47895,1948.8,4653.6
47895,1948.8,3903.6
47895,1948.8,4153.6
47895,1948.8,4403.6
47895,1948.8,4653.6
47895,1948.8,4903.6
47895,1948.8,3153.6
47895,1948.8,3403.6
47895,1948.8,3653.6
47895,1948.8,3903.6
47895,1948.8,4153.6
47895,1948.8,3403.6
47895,1948.8,3653.6
47895,1948.8,3903.6
47895,1948.8,4153.6
47895,1948.8,4403.6
47895,1948.8,3653.6
47895,1948.8,3903.6
47895,1948.8,4153.6
47895,1948.8,4403.6
47895,1948.8,4653.6
47895,1948.8,3903.6
47895,1948.8,4153.6
47895,1948.8,4403.6
47895,1948.8,4653.6
47895,1948.8,4903.6
47895,1948.8,4153.6
47895,1948.8,4403.6
47895,1948.8,4653.6
47895,1948.8,4903.6
47895,1948.8,5153.6
47895,1948.8,3403.6
47895,1948.8,3653.6
47895,1948.8,3903.6
47895,1948.8,4153.6
47895,1948.8,4403.6
47895,1948.8,3653.6
47895,1948.8,3903.6
47895,1948.8,4153.6
47895,1948.8,4403.6
47895,1948.8,4653.6
47895,1948.8,3903.6
47895,1948.8,4153.6
47895,1948.8,4403.6
47895,1948.8,4653.6
47895,1948.8,4903.6
47895,1948.8,4153.6
47895,1948.8,4403.6
47895,1948.8,4653.6
47895,1948.8,4903.6
47895,1948.8,5153.6
47895,1948.8,4403.6
47895,1948.8,4653.6
47895,1948.8,4903.6
47895,1948.8,5153.6
47895,1948.8,5403.6
47895,1948.8,3653.6
47895,1948.8,3903.6
47895,1948.8,4153.6
47895,1948.8,4403.6
47895,1948.8,4653.6
47895,1948.8,3903.6
47895,1948.8,4153.6
47895,1948.8,4403.6
47895,1948.8,4653.6
47895,1948.8,4903.6
47895,1948.8,4153.6
47895,1948.8,4403.6
47895,1948.8,4653.6
47895,1948.8,4903.6
47895,1948.8,5153.6
47895,1948.8,4403.6
47895,1948.8,4653.6
47895,1948.8,4903.6
47895,1948.8,5153.6
47895,1948.8,5403.6
47895,1948.8,4653.6
47895,1948.8,4903.6
47895,1948.8,5153.6
47895,1948.8,5403.6
47895,1948.8,5653.6
47895,1948.8,3903.6
47895,1948.8,4153.6
47895,1948.8,4403.6
47895,1948.8,4653.6
47895,1948.8,4903.6
47895,1948.8,4153.6
47895,1948.8,4403.6
47895,1948.8,4653.6
47895,1948.8,4903.6
47895,1948.8,5153.6
47895,1948.8,4403.6
47895,1948.8,4653.6
47895,1948.8,4903.6
47895,1948.8,5153.6
47895,1948.8,5403.6
47895,1948.8,4653.6
47895,1948.8,4903.6
47895,1948.8,5153.6
47895,1948.8,5403.6
47895,1948.8,5653.6
47895,1948.8,4903.6
47895,1948.8,5153.6
47895,1948.8,5403.6
47895,1948.8,5653.6
47895,1948.8,5903.6
47895,1948.8,3153.6
47895,1948.8,3403.6
47895,1948.8,3653.6
47895,1948.8,3903.6
47895,1948.8,4153.6
47895,1948.8,3403.6
47895,1948.8,3653.6
47895,1948.8,3903.6
47895,1948.8,4153.6
47895,1948.8,4403.6
47895,1948.8,3653.6
47895,1948.8,3903.6
47895,1948.8,4153.6
47895,1948.8,4403.6
47895,1948.8,4653.6
47895,1948.8,3903.6
47895,1948.8,4153.6
47895,1948.8,4403.6
47895,1948.8,4653.6
47895,1948.8,4903.6
47895,1948.8,4153.6
47895,1948.8,4403.6
47895,1948.8,4653.6
47895,1948.8,4903.6
47895,1948.8,5153.6
47895,1948.8,3403.6
47895,1948.8,3653.6
47895,1948.8,3903.6
47895,1948.8,4153.6
47895,1948.8,4403.6
47895,1948.8,3653.6
47895,1948.8,3903.6
47895,1948.8,4153.6
47895,1948.8,4403.6
47895,1948.8,4653.6
47895,1948.8,3903.6
47895,1948.8,4153.6
47895,1948.8,4403.6
47895,1948.8,4653.6
47895,1948.8,4903.6
47895,1948.8,4153.6
47895,1948.8,4403.6
47895,1948.8,4653.6
47895,1948.8,4903.6
47895,1948.8,5153.6
47895,1948.8,4403.6
47895,1948.8,4653.6
47895,1948.8,4903.6
47895,1948.8,5153.6
47895,1948.8,5403.6
47895,1948.8,3653.6
47895,1948.8,3903.6
47895,1948.8,4153.6
47895,1948.8,4403.6
47895,1948.8,4653.6
47895,1948.8,3903.6
47895,1948.8,4153.6
47895,1948.8,4403.6
47895,1948.8,4653.6
47895,1948.8,4903.6
47895,1948.8,4153.6
47895,1948.8,4403.6
47895,1948.8,4653.6
47895,1948.8,4903.6
47895,1948.8,5153.6
47895,1948.8,4403.6
47895,1948.8,4653.6
47895,1948.8,4903.6
47895,1948.8,5153.6
47895,1948.8,5403.6
47895,1948.8,4653.6
47895,1948.8,4903.6
47895,1948.8,5153.6
47895,1948.8,5403.6
47895,1948.8,5653.6
47895,1948.8,3903.6
47895,1948.8,4153.6
47895,1948.8,4403.6
47895,1948.8,4653.6
47895,1948.8,4903.6
47895,1948.8,4153.6
47895,1948.8,4403.6
47895,1948.8,4653.6
47895,1948.8,4903.6
47895,1948.8,5153.6
47895,1948.8,4403.6
47895,1948.8,4653.6
47895,1948.8,4903.6
47895,1948.8,5153.6
47895,1948.8,5403.6
47895,1948.8,4653.6
47895,1948.8,4903.6
47895,1948.8,5153.6
47895,1948.8,5403.6
47895,1948.8,5653.6
47895,1948.8,4903.6
47895,1948.8,5153.6
47895,1948.8,5403.6
47895,1948.8,5653.6
47895,1948.8,5903.6
47895,1948.8,4153.6
47895,1948.8,4403.6
47895,1948.8,4653.6
47895,1948.8,4903.6
47895,1948.8,5153.6
47895,1948.8,4403.6
47895,1948.8,4653.6
47895,1948.8,4903.6
47895,1948.8,5153.6
47895,1948.8,5403.6
47895,1948.8,4653.6
47895,1948.8,4903.6
47895,1948.8,5153.6
47895,1948.8,5403.6
47895,1948.8,5653.6
47895,1948.8,4903.6
47895,1948.8,5153.6
47895,1948.8,5403.6
47895,1948.8,5653.6
47895,1948.8,5903.6
47895,1948.8,5153.6
47895,1948.8,5403.6
47895,1948.8,5653.6
47895,1948.8,5903.6
47895,1948.8,6153.6
47895,1948.8,3403.6
47895,1948.8,3653.6
47895,1948.8,3903.6
47895,1948.8,4153.6
47895,1948.8,4403.6
47895,1948.8,3653.6
47895,1948.8,3903.6
47895,1948.8,4153.6
47895,1948.8,4403.6
47895,1948.8,4653.6
47895,1948.8,3903.6
47895,1948.8,4153.6
47895,1948.8,4403.6
47895,1948.8,4653.6
47895,1948.8,4903.6
47895,1948.8,4153.6
47895,1948.8,4403.6
47895,1948.8,4653.6
47895,1948.8,4903.6
47895,1948.8,5153.6
47895,1948.8,4403.6
47895,1948.8,4653.6
47895,1948.8,4903.6
47895,1948.8,5153.6
47895,1948.8,5403.6
47895,1948.8,3653.6
47895,1948.8,3903.6
47895,1948.8,4153.6
47895,1948.8,4403.6
47895,1948.8,4653.6
47895,1948.8,3903.6
47895,1948.8,4153.6
47895,1948.8,4403.6
47895,1948.8,4653.6
47895,1948.8,4903.6
47895,1948.8,4153.6
47895,1948.8,4403.6
47895,1948.8,4653.6
47895,1948.8,4903.6
47895,1948.8,5153.6
47895,1948.8,4403.6
47895,1948.8,4653.6
47895,1948.8,4903.6
47895,1948.8,5153.6
47895,1948.8,5403.6
47895,1948.8,4653.6
47895,1948.8,4903.6
47895,1948.8,5153.6
47895,1948.8,5403.6
47895,1948.8,5653.6
47895,1948.8,3903.6
47895,1948.8,4153.6
47895,1948.8,4403.6
47895,1948.8,4653.6
47895,1948.8,4903.6
47895,1948.8,4153.6
47895,1948.8,4403.6
47895,1948.8,4653.6
47895,1948.8,4903.6
47895,1948.8,5153.6
47895,1948.8,4403.6
47895,1948.8,4653.6
47895,1948.8,4903.6
47895,1948.8,5153.6
47895,1948.8,5403.6
47895,1948.8,4653.6
47895,1948.8,4903.6
47895,1948.8,5153.6
47895,1948.8,5403.6
47895,1948.8,5653.6
47895,1948.8,4903.6
47895,1948.8,5153.6
47895,1948.8,5403.6
47895,1948.8,5653.6
47895,1948.8,5903.6
47895,1948.8,4153.6
47895,1948.8,4403.6
47895,1948.8,4653.6
47895,1948.8,4903.6
47895,1948.8,5153.6
47895,1948.8,4403.6
47895,1948.8,4653.6
47895,1948.8,4903.6
47895,1948.8,5153.6
47895,1948.8,5403.6
47895,1948.8,4653.6
47895,1948.8,4903.6
47895,1948.8,5153.6
47895,1948.8,5403.6
47895,1948.8,5653.6
47895,1948.8,4903.6
47895,1948.8,5153.6
47895,1948.8,5403.6
47895,1948.8,5653.6
47895,1948.8,5903.6
47895,1948.8,5153.6
47895,1948.8,5403.6
47895,1948.8,5653.6
47895,1948.8,5903.6
47895,1948.8,6153.6
47895,1948.8,4403.6
47895,1948.8,4653.6
47895,1948.8,4903.6
47895,1948.8,5153.6
47895,1948.8,5403.6
47895,1948.8,4653.6
47895,1948.8,4903.6
47895,1948.8,5153.6
47895,1948.8,5403.6
47895,1948.8,5653.6
47895,1948.8,4903.6
47895,1948.8,5153.6
47895,1948.8,5403.6
47895,1948.8,5653.6
47895,1948.8,5903.6
47895,1948.8,5153.6
47895,1948.8,5403.6
47895,1948.8,5653.6
47895,1948.8,5903.6
47895,1948.8,6153.6
47895,1948.8,5403.6
47895,1948.8,5653.6
47895,1948.8,5903.6
47895,1948.8,6153.6
47895,1948.8,6403.6
47895,1948.8,3653.6
47895,1948.8,3903.6
47895,1948.8,4153.6
47895,1948.8,4403.6
47895,1948.8,4653.6
47895,1948.8,3903.6
47895,1948.8,4153.6
47895,1948.8,4403.6
47895,1948.8,4653.6
47895,1948.8,4903.6
47895,1948.8,4153.6
47895,1948.8,4403.6
47895,1948.8,4653.6
47895,1948.8,4903.6
47895,1948.8,5153.6
47895,1948.8,4403.6
47895,1948.8,4653.6
47895,1948.8,4903.6
47895,1948.8,5153.6
47895,1948.8,5403.6
47895,1948.8,4653.6
47895,1948.8,4903.6
47895,1948.8,5153.6
47895,1948.8,5403.6
47895,1948.8,5653.6
47895,1948.8,3903.6
47895,1948.8,4153.6
47895,1948.8,4403.6
47895,1948.8,4653.6
47895,1948.8,4903.6
47895,1948.8,4153.6
47895,1948.8,4403.6
47895,1948.8,4653.6
47895,1948.8,4903.6
47895,1948.8,5153.6
47895,1948.8,4403.6
47895,1948.8,4653.6
47895,1948.8,4903.6
47895,1948.8,5153.6
47895,1948.8,5403.6
47895,1948.8,4653.6
47895,1948.8,4903.6
47895,1948.8,5153.6
47895,1948.8,5403.6
47895,1948.8,5653.6
47895,1948.8,4903.6
47895,1948.8,5153.6
47895,1948.8,5403.6
47895,1948.8,5653.6
47895,1948.8,5903.6
47895,1948.8,4153.6
47895,1948.8,4403.6
47895,1948.8,4653.6
47895,1948.8,4903.6
47895,1948.8,5153.6
47895,1948.8,4403.6
47895,1948.8,4653.6
47895,1948.8,4903.6
47895,1948.8,5153.6
47895,1948.8,5403.6
47895,1948.8,4653.6
47895,1948.8,4903.6
47895,1948.8,5153.6
47895,1948.8,5403.6
47895,1948.8,5653.6
47895,1948.8,4903.6
47895,1948.8,5153.6
47895,1948.8,5403.6
47895,1948.8,5653.6
47895,1948.8,5903.6
47895,1948.8,5153.6
47895,1948.8,5403.6
47895,1948.8,5653.6
47895,1948.8,5903.6
47895,1948.8,6153.6
47895,1948.8,4403.6
47895,1948.8,4653.6
47895,1948.8,4903.6
47895,1948.8,5153.6
47895,1948.8,5403.6
47895,1948.8,4653.6
47895,1948.8,4903.6
47895,1948.8,5153.6
47895,1948.8,5403.6
47895,1948.8,5653.6
47895,1948.8,4903.6
47895,1948.8,5153.6
47895,1948.8,5403.6
47895,1948.8,5653.6
47895,1948.8,5903.6
47895,1948.8,5153.6
47895,1948.8,5403.6
47895,1948.8,5653.6
47895,1948.8,5903.6
47895,1948.8,6153.6
47895,1948.8,5403.6
47895,1948.8,5653.6
47895,1948.8,5903.6
47895,1948.8,6153.6
47895,1948.8,6403.6
47895,1948.8,4653.6
47895,1948.8,4903.6
47895,1948.8,5153.6
47895,1948.8,5403.6
47895,1948.8,5653.6
47895,1948.8,4903.6
47895,1948.8,5153.6
47895,1948.8,5403.6
47895,1948.8,5653.6
47895,1948.8,5903.6
47895,1948.8,5153.6
47895,1948.8,5403.6
47895,1948.8,5653.6
47895,1948.8,5903.6
47895,1948.8,6153.6
47895,1948.8,5403.6
47895,1948.8,5653.6
47895,1948.8,5903.6
47895,1948.8,6153.6
47895,1948.8,6403.6
47895,1948.8,5653.6
47895,1948.8,5903.6
47895,1948.8,6153.6
47895,1948.8,6403.6
47895,1948.8,6653.6
47895,1948.8,2403.6
47895,1948.8,2653.6
47895,1948.8,2903.6
47895,1948.8,3153.6
47895,1948.8,3403.6
47895,1948.8,2653.6
47895,1948.8,2903.6
47895,1948.8,3153.6
47895,1948.8,3403.6
47895,1948.8,3653.6
47895,1948.8,2903.6
47895,1948.8,3153.6
47895,1948.8,3403.6
47895,1948.8,3653.6
47895,1948.8,3903.6
47895,1948.8,3153.6
47895,1948.8,3403.6
47895,1948.8,3653.6
47895,1948.8,3903.6
47895,1948.8,4153.6
47895,1948.8,3403.6
47895,1948.8,3653.6
47895,1948.8,3903.6
47895,1948.8,4153.6
47895,1948.8,4403.6
47895,1948.8,2653.6
47895,1948.8,2903.6
47895,1948.8,3153.6
47895,1948.8,3403.6
47895,1948.8,3653.6
47895,1948.8,2903.6
47895,1948.8,3153.6
47895,1948.8,3403.6
47895,1948.8,3653.6
47895,1948.8,3903.6
47895,1948.8,3153.6
47895,1948.8,3403.6
47895,1948.8,3653.6
47895,1948.8,3903.6
47895,1948.8,4153.6
47895,1948.8,3403.6
47895,1948.8,3653.6
47895,1948.8,3903.6
47895,1948.8,4153.6
47895,1948.8,4403.6
47895,1948.8,3653.6
47895,1948.8,3903.6
47895,1948.8,4153.6
47895,1948.8,4403.6
47895,1948.8,4653.6
47895,1948.8,2903.6
47895,1948.8,3153.6
47895,1948.8,3403.6
47895,1948.8,3653.6
47895,1948.8,3903.6
47895,1948.8,3153.6
47895,1948.8,3403.6
47895,1948.8,3653.6
47895,1948.8,3903.6
47895,1948.8,4153.6
47895,1948.8,3403.6
47895,1948.8,3653.6
47895,1948.8,3903.6
47895,1948.8,4153.6
47895,1948.8,4403.6
47895,1948.8,3653.6
47895,1948.8,3903.6
47895,1948.8,4153.6
47895,1948.8,4403.6
47895,1948.8,4653.6
47895,1948.8,3903.6
47895,1948.8,4153.6
47895,1948.8,4403.6
47895,1948.8,4653.6
47895,1948.8,4903.6
47895,1948.8,3153.6
47895,1948.8,3403.6
47895,1948.8,3653.6
47895,1948.8,3903.6
47895,1948.8,4153.6
47895,1948.8,3403.6
47895,1948.8,3653.6
47895,1948.8,3903.6
47895,1948.8,4153.6
47895,1948.8,4403.6
47895,1948.8,3653.6
47895,1948.8,3903.6
47895,1948.8,4153.6
47895,1948.8,4403.6
47895,1948.8,4653.6
47895,1948.8,3903.6
47895,1948.8,4153.6
47895,1948.8,4403.6
47895,1948.8,4653.6
47895,1948.8,4903.6
47895,1948.8,4153.6
47895,1948.8,4403.6
47895,1948.8,4653.6
47895,1948.8,4903.6
47895,1948.8,5153.6
47895,1948.8,3403.6
47895,1948.8,3653.6
47895,1948.8,3903.6
47895,1948.8,4153.6
47895,1948.8,4403.6
47895,1948.8,3653.6
47895,1948.8,3903.6
47895,1948.8,4153.6
47895,1948.8,4403.6
47895,1948.8,4653.6
47895,1948.8,3903.6
47895,1948.8,4153.6
47895,1948.8,4403.6
47895,1948.8,4653.6
47895,1948.8,4903.6
47895,1948.8,4153.6
47895,1948.8,4403.6
47895,1948.8,4653.6
47895,1948.8,4903.6
47895,1948.8,5153.6
47895,1948.8,4403.6
47895,1948.8,4653.6
47895,1948.8,4903.6
47895,1948.8,5153.6
47895,1948.8,5403.6
47895,1948.8,2653.6
47895,1948.8,2903.6
47895,1948.8,3153.6
47895,1948.8,3403.6
47895,1948.8,3653.6
47895,1948.8,2903.6
47895,1948.8,3153.6
47895,1948.8,3403.6
47895,1948.8,3653.6
47895,1948.8,3903.6
47895,1948.8,3153.6
47895,1948.8,3403.6
47895,1948.8,3653.6
47895,1948.8,3903.6
47895,1948.8,4153.6
47895,1948.8,3403.6
47895,1948.8,3653.6
47895,1948.8,3903.6
47895,1948.8,4153.6
47895,1948.8,4403.6
47895,1948.8,3653.6
47895,1948.8,3903.6
47895,1948.8,4153.6
47895,1948.8,4403.6
47895,1948.8,4653.6
47895,1948.8,2903.6
47895,1948.8,3153.6
47895,1948.8,3403.6
47895,1948.8,3653.6
47895,1948.8,3903.6
47895,1948.8,3153.6
47895,1948.8,3403.6
47895,1948.8,3653.6
47895,1948.8,3903.6
47895,1948.8,4153.6
47895,1948.8,3403.6
47895,1948.8,3653.6
47895,1948.8,3903.6
47895,1948.8,4153.6
47895,1948.8,4403.6
47895,1948.8,3653.6
47895,1948.8,3903.6
47895,1948.8,4153.6
47895,1948.8,4403.6
47895,1948.8,4653.6
47895,1948.8,3903.6
47895,1948.8,4153.6
47895,1948.8,4403.6
47895,1948.8,4653.6
47895,1948.8,4903.6
47895,1948.8,3153.6
47895,1948.8,3403.6
47895,1948.8,3653.6
47895,1948.8,3903.6
47895,1948.8,4153.6
47895,1948.8,3403.6
47895,1948.8,3653.6
47895,1948.8,3903.6
47895,1948.8,4153.6
47895,1948.8,4403.6
47895,1948.8,3653.6
47895,1948.8,3903.6
47895,1948.8,4153.6
47895,1948.8,4403.6
47895,1948.8,4653.6
47895,1948.8,3903.6
47895,1948.8,4153.6
47895,1948.8,4403.6
47895,1948.8,4653.6
47895,1948.8,4903.6
47895,1948.8,4153.6
47895,1948.8,4403.6
47895,1948.8,4653.6
47895,1948.8,4903.6
47895,1948.8,5153.6
47895,1948.8,3403.6
47895,1948.8,3653.6
47895,1948.8,3903.6
47895,1948.8,4153.6
47895,1948.8,4403.6
47895,1948.8,3653.6
47895,1948.8,3903.6
47895,1948.8,4153.6
47895,1948.8,4403.6
47895,1948.8,4653.6
47895,1948.8,3903.6
47895,1948.8,4153.6
47895,1948.8,4403.6
47895,1948.8,4653.6
47895,1948.8,4903.6
47895,1948.8,4153.6
47895,1948.8,4403.6
47895,1948.8,4653.6
47895,1948.8,4903.6
47895,1948.8,5153.6
47895,1948.8,4403.6
47895,1948.8,4653.6
47895,1948.8,4903.6
47895,1948.8,5153.6
47895,1948.8,5403.6
47895,1948.8,3653.6
47895,1948.8,3903.6
47895,1948.8,4153.6
47895,1948.8,4403.6
47895,1948.8,4653.6
47895,1948.8,3903.6
47895,1948.8,4153.6
47895,1948.8,4403.6
47895,1948.8,4653.6
47895,1948.8,4903.6
47895,1948.8,4153.6
47895,1948.8,4403.6
47895,1948.8,4653.6
47895,1948.8,4903.6
47895,1948.8,5153.6
47895,1948.8,4403.6
47895,1948.8,4653.6
47895,1948.8,4903.6
47895,1948.8,5153.6
47895,1948.8,5403.6
47895,1948.8,4653.6
47895,1948.8,4903.6
47895,1948.8,5153.6
47895,1948.8,5403.6
47895,1948.8,5653.6
47895,1948.8,2903.6
47895,1948.8,3153.6
47895,1948.8,3403.6
47895,1948.8,3653.6
47895,1948.8,3903.6
47895,1948.8,3153.6
47895,1948.8,3403.6
47895,1948.8,3653.6
47895,1948.8,3903.6
47895,1948.8,4153.6
47895,1948.8,3403.6
47895,1948.8,3653.6
47895,1948.8,3903.6
47895,1948.8,4153.6
47895,1948.8,4403.6
47895,1948.8,3653.6
47895,1948.8,3903.6
47895,1948.8,4153.6
47895,1948.8,4403.6
47895,1948.8,4653.6
47895,1948.8,3903.6
47895,1948.8,4153.6
47895,1948.8,4403.6
47895,1948.8,4653.6
47895,1948.8,4903.6
47895,1948.8,3153.6
47895,1948.8,3403.6
47895,1948.8,3653.6
47895,1948.8,3903.6
47895,1948.8,4153.6
47895,1948.8,3403.6
47895,1948.8,3653.6
47895,1948.8,3903.6
47895,1948.8,4153.6
47895,1948.8,4403.6
47895,1948.8,3653.6
47895,1948.8,3903.6
47895,1948.8,4153.6
47895,1948.8,4403.6
47895,1948.8,4653.6
47895,1948.8,3903.6
47895,1948.8,4153.6
47895,1948.8,4403.6
47895,1948.8,4653.6
47895,1948.8,4903.6
47895,1948.8,4153.6
47895,1948.8,4403.6
47895,1948.8,4653.6
47895,1948.8,4903.6
47895,1948.8,5153.6
47895,1948.8,3403.6
47895,1948.8,3653.6
47895,1948.8,3903.6
47895,1948.8,4153.6
47895,1948.8,4403.6
47895,1948.8,3653.6
47895,1948.8,3903.6
47895,1948.8,4153.6
47895,1948.8,4403.6
47895,1948.8,4653.6
47895,1948.8,3903.6
47895,1948.8,4153.6
47895,1948.8,4403.6
47895,1948.8,4653.6
47895,1948.8,4903.6
47895,1948.8,4153.6
47895,1948.8,4403.6
47895,1948.8,4653.6
47895,1948.8,4903.6
47895,1948.8,5153.6
47895,1948.8,4403.6
47895,1948.8,4653.6
47895,1948.8,4903.6
47895,1948.8,5153.6
47895,1948.8,5403.6
47895,1948.8,3653.6
47895,1948.8,3903.6
47895,1948.8,4153.6
47895,1948.8,4403.6
47895,1948.8,4653.6
47895,1948.8,3903.6
47895,1948.8,4153.6
47895,1948.8,4403.6
47895,1948.8,4653.6
47895,1948.8,4903.6
47895,1948.8,4153.6
47895,1948.8,4403.6
47895,1948.8,4653.6
47895,1948.8,4903.6
47895,1948.8,5153.6
47895,1948.8,4403.6
47895,1948.8,4653.6
47895,1948.8,4903.6
47895,1948.8,5153.6
47895,1948.8,5403.6
47895,1948.8,4653.6
47895,1948.8,4903.6
47895,1948.8,5153.6
47895,1948.8,5403.6
47895,1948.8,5653.6
47895,1948.8,3903.6
47895,1948.8,4153.6
47895,1948.8,4403.6
47895,1948.8,4653.6
47895,1948.8,4903.6
47895,1948.8,4153.6
47895,1948.8,4403.6
47895,1948.8,4653.6
47895,1948.8,4903.6
47895,1948.8,5153.6
47895,1948.8,4403.6
47895,1948.8,4653.6
47895,1948.8,4903.6
47895,1948.8,5153.6
47895,1948.8,5403.6
47895,1948.8,4653.6
47895,1948.8,4903.6
47895,1948.8,5153.6
47895,1948.8,5403.6
47895,1948.8,5653.6
47895,1948.8,4903.6
47895,1948.8,5153.6
47895,1948.8,5403.6
47895,1948.8,5653.6
47895,1948.8,5903.6
47895,1948.8,3153.6
47895,1948.8,3403.6
47895,1948.8,3653.6
47895,1948.8,3903.6
47895,1948.8,4153.6
47895,1948.8,3403.6
47895,1948.8,3653.6
47895,1948.8,3903.6
47895,1948.8,4153.6
47895,1948.8,4403.6
47895,1948.8,3653.6
47895,1948.8,3903.6
47895,1948.8,4153.6
47895,1948.8,4403.6
47895,1948.8,4653.6
47895,1948.8,3903.6
47895,1948.8,4153.6
47895,1948.8,4403.6
47895,1948.8,4653.6
47895,1948.8,4903.6
47895,1948.8,4153.6
47895,1948.8,4403.6
47895,1948.8,4653.6
47895,1948.8,4903.6
47895,1948.8,5153.6
47895,1948.8,3403.6
47895,1948.8,3653.6
47895,1948.8,3903.6
47895,1948.8,4153.6
47895,1948.8,4403.6
47895,1948.8,3653.6
47895,1948.8,3903.6
47895,1948.8,4153.6
47895,1948.8,4403.6
47895,1948.8,4653.6
47895,1948.8,3903.6
47895,1948.8,4153.6
47895,1948.8,4403.6
47895,1948.8,4653.6
47895,1948.8,4903.6
47895,1948.8,4153.6
47895,1948.8,4403.6
47895,1948.8,4653.6
47895,1948.8,4903.6
47895,1948.8,5153.6
47895,1948.8,4403.6
47895,1948.8,4653.6
47895,1948.8,4903.6
47895,1948.8,5153.6
47895,1948.8,5403.6
47895,1948.8,3653.6
47895,1948.8,3903.6
47895,1948.8,4153.6
47895,1948.8,4403.6
47895,1948.8,4653.6
47895,1948.8,3903.6
47895,1948.8,4153.6
47895,1948.8,4403.6
47895,1948.8,4653.6
47895,1948.8,4903.6
47895,1948.8,4153.6
47895,1948.8,4403.6
47895,1948.8,4653.6
47895,1948.8,4903.6
47895,1948.8,5153.6
47895,1948.8,4403.6
47895,1948.8,4653.6
47895,1948.8,4903.6
47895,1948.8,5153.6
47895,1948.8,5403.6
47895,1948.8,4653.6
47895,1948.8,4903.6
47895,1948.8,5153.6
47895,1948.8,5403.6
47895,1948.8,5653.6
47895,1948.8,3903.6
47895,1948.8,4153.6
47895,1948.8,4403.6
47895,1948.8,4653.6
47895,1948.8,4903.6
47895,1948.8,4153.6
47895,1948.8,4403.6
47895,1948.8,4653.6
47895,1948.8,4903.6
47895,1948.8,5153.6
47895,1948.8,4403.6
47895,1948.8,4653.6
47895,1948.8,4903.6
47895,1948.8,5153.6
47895,1948.8,5403.6
47895,1948.8,4653.6
47895,1948.8,4903.6
47895,1948.8,5153.6
47895,1948.8,5403.6
47895,1948.8,5653.6
47895,1948.8,4903.6
47895,1948.8,5153.6
47895,1948.8,5403.6
47895,1948.8,5653.6
47895,1948.8,5903.6
47895,1948.8,4153.6
47895,1948.8,4403.6
47895,1948.8,4653.6
47895,1948.8,4903.6
47895,1948.8,5153.6
47895,1948.8,4403.6
47895,1948.8,4653.6
47895,1948.8,4903.6
47895,1948.8,5153.6
47895,1948.8,5403.6
47895,1948.8,4653.6
47895,1948.8,4903.6
47895,1948.8,5153.6
47895,1948.8,5403.6
47895,1948.8,5653.6
47895,1948.8,4903.6
47895,1948.8,5153.6
47895,1948.8,5403.6
47895,1948.8,5653.6
47895,1948.8,5903.6
47895,1948.8,5153.6
47895,1948.8,5403.6
47895,1948.8,5653.6
47895,1948.8,5903.6
47895,1948.8,6153.6
47895,1948.8,3403.6
47895,1948.8,3653.6
47895,1948.8,3903.6
47895,1948.8,4153.6
47895,1948.8,4403.6
47895,1948.8,3653.6
47895,1948.8,3903.6
47895,1948.8,4153.6
47895,1948.8,4403.6
47895,1948.8,4653.6
47895,1948.8,3903.6
47895,1948.8,4153.6
47895,1948.8,4403.6
47895,1948.8,4653.6
47895,1948.8,4903.6
47895,1948.8,4153.6
47895,1948.8,4403.6
47895,1948.8,4653.6
47895,1948.8,4903.6
47895,1948.8,5153.6
47895,1948.8,4403.6
47895,1948.8,4653.6
47895,1948.8,4903.6
47895,1948.8,5153.6
47895,1948.8,5403.6
47895,1948.8,3653.6
47895,1948.8,3903.6
47895,1948.8,4153.6
47895,1948.8,4403.6
47895,1948.8,4653.6
47895,1948.8,3903.6
47895,1948.8,4153.6
47895,1948.8,4403.6
47895,1948.8,4653.6
47895,1948.8,4903.6
47895,1948.8,4153.6
47895,1948.8,4403.6
47895,1948.8,4653.6
47895,1948.8,4903.6
47895,1948.8,5153.6
47895,1948.8,4403.6
47895,1948.8,4653.6
47895,1948.8,4903.6
47895,1948.8,5153.6
47895,1948.8,5403.6
47895,1948.8,4653.6
47895,1948.8,4903.6
47895,1948.8,5153.6
47895,1948.8,5403.6
47895,1948.8,5653.6
47895,1948.8,3903.6
47895,1948.8,4153.6
47895,1948.8,4403.6
47895,1948.8,4653.6
47895,1948.8,4903.6
47895,1948.8,4153.6
47895,1948.8,4403.6
47895,1948.8,4653.6
47895,1948.8,4903.6
47895,1948.8,5153.6
47895,1948.8,4403.6
47895,1948.8,4653.6
47895,1948.8,4903.6
47895,1948.8,5153.6
47895,1948.8,5403.6
47895,1948.8,4653.6
47895,1948.8,4903.6
47895,1948.8,5153.6
47895,1948.8,5403.6
47895,1948.8,5653.6
47895,1948.8,4903.6
47895,1948.8,5153.6
47895,1948.8,5403.6
47895,1948.8,5653.6
47895,1948.8,5903.6
47895,1948.8,4153.6
47895,1948.8,4403.6
47895,1948.8,4653.6
47895,1948.8,4903.6
47895,1948.8,5153.6
47895,1948.8,4403.6
47895,1948.8,4653.6
47895,1948.8,4903.6
47895,1948.8,5153.6
47895,1948.8,5403.6
47895,1948.8,4653.6
47895,1948.8,4903.6
47895,1948.8,5153.6
47895,1948.8,5403.6
47895,1948.8,5653.6
47895,1948.8,4903.6
47895,1948.8,5153.6
47895,1948.8,5403.6
47895,1948.8,5653.6
47895,1948.8,5903.6
47895,1948.8,5153.6
47895,1948.8,5403.6
47895,1948.8,5653.6
47895,1948.8,5903.6
47895,1948.8,6153.6
47895,1948.8,4403.6
47895,1948.8,4653.6
47895,1948.8,4903.6
47895,1948.8,5153.6
47895,1948.8,5403.6
47895,1948.8,4653.6
47895,1948.8,4903.6
47895,1948.8,5153.6
47895,1948.8,5403.6
47895,1948.8,5653.6
47895,1948.8,4903.6
47895,1948.8,5153.6
47895,1948.8,5403.6
47895,1948.8,5653.6
47895,1948.8,5903.6
47895,1948.8,5153.6
47895,1948.8,5403.6
47895,1948.8,5653.6
47895,1948.8,5903.6
47895,1948.8,6153.6
47895,1948.8,5403.6
47895,1948.8,5653.6
47895,1948.8,5903.6
47895,1948.8,6153.6
47895,1948.8,6403.6
47895,1948.8,2653.6
47895,1948.8,2903.6
47895,1948.8,3153.6
47895,1948.8,3403.6
47895,1948.8,3653.6
47895,1948.8,2903.6
47895,1948.8,3153.6
47895,1948.8,3403.6
47895,1948.8,3653.6
47895,1948.8,3903.6
47895,1948.8,3153.6
47895,1948.8,3403.6
47895,1948.8,3653.6
47895,1948.8,3903.6
47895,1948.8,4153.6
47895,1948.8,3403.6
47895,1948.8,3653.6
47895,1948.8,3903.6
47895,1948.8,4153.6
47895,1948.8,4403.6
47895,1948.8,3653.6
47895,1948.8,3903.6
47895,1948.8,4153.6
47895,1948.8,4403.6
47895,1948.8,4653.6
47895,1948.8,2903.6
47895,1948.8,3153.6
47895,1948.8,3403.6
47895,1948.8,3653.6
47895,1948.8,3903.6
47895,1948.8,3153.6
47895,1948.8,3403.6
47895,1948.8,3653.6
47895,1948.8,3903.6
47895,1948.8,4153.6
47895,1948.8,3403.6
47895,1948.8,3653.6
47895,1948.8,3903.6
47895,1948.8,4153.6
47895,1948.8,4403.6
47895,1948.8,3653.6
47895,1948.8,3903.6
47895,1948.8,4153.6
47895,1948.8,4403.6
47895,1948.8,4653.6
47895,1948.8,3903.6
47895,1948.8,4153.6
47895,1948.8,4403.6
47895,1948.8,4653.6
47895,1948.8,4903.6
47895,1948.8,3153.6
47895,1948.8,3403.6
47895,1948.8,3653.6
47895,1948.8,3903.6
47895,1948.8,4153.6
47895,1948.8,3403.6
47895,1948.8,3653.6
47895,1948.8,3903.6
47895,1948.8,4153.6
47895,1948.8,4403.6
47895,1948.8,3653.6
47895,1948.8,3903.6
47895,1948.8,4153.6
47895,1948.8,4403.6
47895,1948.8,4653.6
47895,1948.8,3903.6
47895,1948.8,4153.6
47895,1948.8,4403.6
47895,1948.8,4653.6
47895,1948.8,4903.6
47895,1948.8,4153.6
47895,1948.8,4403.6
47895,1948.8,4653.6
47895,1948.8,4903.6
47895,1948.8,5153.6
47895,1948.8,3403.6
47895,1948.8,3653.6
47895,1948.8,3903.6
47895,1948.8,4153.6
47895,1948.8,4403.6
47895,1948.8,3653.6
47895,1948.8,3903.6
47895,1948.8,4153.6
47895,1948.8,4403.6
47895,1948.8,4653.6
47895,1948.8,3903.6
47895,1948.8,4153.6
47895,1948.8,4403.6
47895,1948.8,4653.6
47895,1948.8,4903.6
47895,1948.8,4153.6
47895,1948.8,4403.6
47895,1948.8,4653.6
47895,1948.8,4903.6
47895,1948.8,5153.6
47895,1948.8,4403.6
47895,1948.8,4653.6
47895,1948.8,4903.6
47895,1948.8,5153.6
47895,1948.8,5403.6
47895,1948.8,3653.6
47895,1948.8,3903.6
47895,1948.8,4153.6
47895,1948.8,4403.6
47895,1948.8,4653.6
47895,1948.8,3903.6
47895,1948.8,4153.6
47895,1948.8,4403.6
47895,1948.8,4653.6
47895,1948.8,4903.6
47895,1948.8,4153.6
47895,1948.8,4403.6
47895,1948.8,4653.6
47895,1948.8,4903.6
47895,1948.8,5153.6
47895,1948.8,4403.6
47895,1948.8,4653.6
47895,1948.8,4903.6
47895,1948.8,5153.6
47895,1948.8,5403.6
47895,1948.8,4653.6
47895,1948.8,4903.6
47895,1948.8,5153.6
47895,1948.8,5403.6
47895,1948.8,5653.6
47895,1948.8,2903.6
47895,1948.8,3153.6
47895,1948.8,3403.6
47895,1948.8,3653.6
47895,1948.8,3903.6
47895,1948.8,3153.6
47895,1948.8,3403.6
47895,1948.8,3653.6
47895,1948.8,3903.6
47895,1948.8,4153.6
47895,1948.8,3403.6
47895,1948.8,3653.6
47895,1948.8,3903.6
47895,1948.8,4153.6
47895,1948.8,4403.6
47895,1948.8,3653.6
47895,1948.8,3903.6
47895,1948.8,4153.6
47895,1948.8,4403.6
47895,1948.8,4653.6
47895,1948.8,3903.6
47895,1948.8,4153.6
47895,1948.8,4403.6
47895,1948.8,4653.6
47895,1948.8,4903.6
47895,1948.8,3153.6
47895,1948.8,3403.6
47895,1948.8,3653.6
47895,1948.8,3903.6
47895,1948.8,4153.6
47895,1948.8,3403.6
47895,1948.8,3653.6
47895,1948.8,3903.6
47895,1948.8,4153.6
47895,1948.8,4403.6
47895,1948.8,3653.6
47895,1948.8,3903.6
47895,1948.8,4153.6
47895,1948.8,4403.6
47895,1948.8,4653.6
47895,1948.8,3903.6
47895,1948.8,4153.6
47895,1948.8,4403.6
47895,1948.8,4653.6
47895,1948.8,4903.6
47895,1948.8,4153.6
47895,1948.8,4403.6
47895,1948.8,4653.6
47895,1948.8,4903.6
47895,1948.8,5153.6
47895,1948.8,3403.6
47895,1948.8,3653.6
47895,1948.8,3903.6
47895,1948.8,4153.6
47895,1948.8,4403.6
47895,1948.8,3653.6
47895,1948.8,3903.6
47895,1948.8,4153.6
47895,1948.8,4403.6
47895,1948.8,4653.6
47895,1948.8,3903.6
47895,1948.8,4153.6
47895,1948.8,4403.6
47895,1948.8,4653.6
47895,1948.8,4903.6
47895,1948.8,4153.6
47895,1948.8,4403.6
47895,1948.8,4653.6
47895,1948.8,4903.6
47895,1948.8,5153.6
47895,1948.8,4403.6
47895,1948.8,4653.6
47895,1948.8,4903.6
47895,1948.8,5153.6
47895,1948.8,5403.6
47895,1948.8,3653.6
47895,1948.8,3903.6
47895,1948.8,4153.6
47895,1948.8,4403.6
47895,1948.8,4653.6
47895,1948.8,3903.6
47895,1948.8,4153.6
47895,1948.8,4403.6
47895,1948.8,4653.6
47895,1948.8,4903.6
47895,1948.8,4153.6
47895,1948.8,4403.6
47895,1948.8,4653.6
47895,1948.8,4903.6
47895,1948.8,5153.6
47895,1948.8,4403.6
47895,1948.8,4653.6
47895,1948.8,4903.6
47895,1948.8,5153.6
47895,1948.8,5403.6
47895,1948.8,4653.6
47895,1948.8,4903.6
47895,1948.8,5153.6
47895,1948.8,5403.6
47895,1948.8,5653.6
47895,1948.8,3903.6
47895,1948.8,4153.6
47895,1948.8,4403.6
47895,1948.8,4653.6
47895,1948.8,4903.6
47895,1948.8,4153.6
47895,1948.8,4403.6
47895,1948.8,4653.6
47895,1948.8,4903.6
47895,1948.8,5153.6
47895,1948.8,4403.6
47895,1948.8,4653.6
47895,1948.8,4903.6
47895,1948.8,5153.6
47895,1948.8,5403.6
47895,1948.8,4653.6
47895,1948.8,4903.6
47895,1948.8,5153.6
47895,1948.8,5403.6
47895,1948.8,5653.6
47895,1948.8,4903.6
47895,1948.8,5153.6
47895,1948.8,5403.6
47895,1948.8,5653.6
47895,1948.8,5903.6
47895,1948.8,3153.6
47895,1948.8,3403.6
47895,1948.8,3653.6
47895,1948.8,3903.6
47895,1948.8,4153.6
47895,1948.8,3403.6
47895,1948.8,3653.6
47895,1948.8,3903.6
47895,1948.8,4153.6
47895,1948.8,4403.6
47895,1948.8,3653.6
47895,1948.8,3903.6
47895,1948.8,4153.6
47895,1948.8,4403.6
47895,1948.8,4653.6
47895,1948.8,3903.6
47895,1948.8,4153.6
47895,1948.8,4403.6
47895,1948.8,4653.6
47895,1948.8,4903.6
47895,1948.8,4153.6
47895,1948.8,4403.6
47895,1948.8,4653.6
47895,1948.8,4903.6
47895,1948.8,5153.6
47895,1948.8,3403.6
47895,1948.8,3653.6
47895,1948.8,3903.6
47895,1948.8,4153.6
47895,1948.8,4403.6
47895,1948.8,3653.6
47895,1948.8,3903.6
47895,1948.8,4153.6
47895,1948.8,4403.6
47895,1948.8,4653.6
47895,1948.8,3903.6
47895,1948.8,4153.6
47895,1948.8,4403.6
47895,1948.8,4653.6
47895,1948.8,4903.6
47895,1948.8,4153.6
47895,1948.8,4403.6
47895,1948.8,4653.6
47895,1948.8,4903.6
47895,1948.8,5153.6
47895,1948.8,4403.6
47895,1948.8,4653.6
47895,1948.8,4903.6
47895,1948.8,5153.6
47895,1948.8,5403.6
47895,1948.8,3653.6
47895,1948.8,3903.6
47895,1948.8,4153.6
47895,1948.8,4403.6
47895,1948.8,4653.6
47895,1948.8,3903.6
47895,1948.8,4153.6
47895,1948.8,4403.6
47895,1948.8,4653.6
47895,1948.8,4903.6
47895,1948.8,4153.6
47895,1948.8,4403.6
47895,1948.8,4653.6
47895,1948.8,4903.6
47895,1948.8,5153.6
47895,1948.8,4403.6
47895,1948.8,4653.6
47895,1948.8,4903.6
47895,1948.8,5153.6
47895,1948.8,5403.6
47895,1948.8,4653.6
47895,1948.8,4903.6
47895,1948.8,5153.6
47895,1948.8,5403.6
47895,1948.8,5653.6
47895,1948.8,3903.6
47895,1948.8,4153.6
47895,1948.8,4403.6
47895,1948.8,4653.6
47895,1948.8,4903.6
47895,1948.8,4153.6
47895,1948.8,4403.6
47895,1948.8,4653.6
47895,1948.8,4903.6
47895,1948.8,5153.6
47895,1948.8,4403.6
47895,1948.8,4653.6
47895,1948.8,4903.6
47895,1948.8,5153.6
47895,1948.8,5403.6
47895,1948.8,4653.6
47895,1948.8,4903.6
47895,1948.8,5153.6
47895,1948.8,5403.6
47895,1948.8,5653.6
47895,1948.8,4903.6
47895,1948.8,5153.6
47895,1948.8,5403.6
47895,1948.8,5653.6
47895,1948.8,5903.6
47895,1948.8,4153.6
47895,1948.8,4403.6
47895,1948.8,4653.6
47895,1948.8,4903.6
47895,1948.8,5153.6
47895,1948.8,4403.6
47895,1948.8,4653.6
47895,1948.8,4903.6
47895,1948.8,5153.6
47895,1948.8,5403.6
47895,1948.8,4653.6
47895,1948.8,4903.6
47895,1948.8,5153.6
47895,1948.8,5403.6
47895,1948.8,5653.6
47895,1948.8,4903.6
47895,1948.8,5153.6
47895,1948.8,5403.6
47895,1948.8,5653.6
47895,1948.8,5903.6
47895,1948.8,5153.6
47895,1948.8,5403.6
47895,1948.8,5653.6
47895,1948.8,5903.6
47895,1948.8,6153.6
47895,1948.8,3403.6
47895,1948.8,3653.6
47895,1948.8,3903.6
47895,1948.8,4153.6
47895,1948.8,4403.6
47895,1948.8,3653.6
47895,1948.8,3903.6
47895,1948.8,4153.6
47895,1948.8,4403.6
47895,1948.8,4653.6
47895,1948.8,3903.6
47895,1948.8,4153.6
47895,1948.8,4403.6
47895,1948.8,4653.6
47895,1948.8,4903.6
47895,1948.8,4153.6
47895,1948.8,4403.6
47895,1948.8,4653.6
47895,1948.8,4903.6
47895,1948.8,5153.6
47895,1948.8,4403.6
47895,1948.8,4653.6
47895,1948.8,4903.6
47895,1948.8,5153.6
47895,1948.8,5403.6
47895,1948.8,3653.6
47895,1948.8,3903.6
47895,1948.8,4153.6
47895,1948.8,4403.6
47895,1948.8,4653.6
47895,1948.8,3903.6
47895,1948.8,4153.6
47895,1948.8,4403.6
47895,1948.8,4653.6
47895,1948.8,4903.6
47895,1948.8,4153.6
47895,1948.8,4403.6
47895,1948.8,4653.6
47895,1948.8,4903.6
47895,1948.8,5153.6
47895,1948.8,4403.6
47895,1948.8,4653.6
47895,1948.8,4903.6
47895,1948.8,5153.6
47895,1948.8,5403.6
47895,1948.8,4653.6
47895,1948.8,4903.6
47895,1948.8,5153.6
47895,1948.8,5403.6
47895,1948.8,5653.6
47895,1948.8,3903.6
47895,1948.8,4153.6
47895,1948.8,4403.6
47895,1948.8,4653.6
47895,1948.8,4903.6
47895,1948.8,4153.6
47895,1948.8,4403.6
47895,1948.8,4653.6
47895,1948.8,4903.6
47895,1948.8,5153.6
47895,1948.8,4403.6
47895,1948.8,4653.6
47895,1948.8,4903.6
47895,1948.8,5153.6
47895,1948.8,5403.6
47895,1948.8,4653.6
47895,1948.8,4903.6
47895,1948.8,5153.6
47895,1948.8,5403.6
47895,1948.8,5653.6
47895,1948.8,4903.6
47895,1948.8,5153.6
47895,1948.8,5403.6
47895,1948.8,5653.6
47895,1948.8,5903.6
47895,1948.8,4153.6
47895,1948.8,4403.6
47895,1948.8,4653.6
47895,1948.8,4903.6
47895,1948.8,5153.6
47895,1948.8,4403.6
47895,1948.8,4653.6
47895,1948.8,4903.6
47895,1948.8,5153.6
47895,1948.8,5403.6
47895,1948.8,4653.6
47895,1948.8,4903.6
47895,1948.8,5153.6
47895,1948.8,5403.6
47895,1948.8,5653.6
47895,1948.8,4903.6
47895,1948.8,5153.6
47895,1948.8,5403.6
47895,1948.8,5653.6
47895,1948.8,5903.6
47895,1948.8,5153.6
47895,1948.8,5403.6
47895,1948.8,5653.6
47895,1948.8,5903.6
47895,1948.8,6153.6
47895,1948.8,4403.6
47895,1948.8,4653.6
47895,1948.8,4903.6
47895,1948.8,5153.6
47895,1948.8,5403.6
47895,1948.8,4653.6
47895,1948.8,4903.6
47895,1948.8,5153.6
47895,1948.8,5403.6
47895,1948.8,5653.6
47895,1948.8,4903.6
47895,1948.8,5153.6
47895,1948.8,5403.6
47895,1948.8,5653.6
47895,1948.8,5903.6
47895,1948.8,5153.6
47895,1948.8,5403.6
47895,1948.8,5653.6
47895,1948.8,5903.6
47895,1948.8,6153.6
47895,1948.8,5403.6
47895,1948.8,5653.6
47895,1948.8,5903.6
47895,1948.8,6153.6
47895,1948.8,6403.6
47895,1948.8,3653.6
47895,1948.8,3903.6
47895,1948.8,4153.6
47895,1948.8,4403.6
47895,1948.8,4653.6
47895,1948.8,3903.6
47895,1948.8,4153.6
47895,1948.8,4403.6
47895,1948.8,4653.6
47895,1948.8,4903.6
47895,1948.8,4153.6
47895,1948.8,4403.6
47895,1948.8,4653.6
47895,1948.8,4903.6
47895,1948.8,5153.6
47895,1948.8,4403.6
47895,1948.8,4653.6
47895,1948.8,4903.6
47895,1948.8,5153.6
47895,1948.8,5403.6
47895,1948.8,4653.6
47895,1948.8,4903.6
47895,1948.8,5153.6
47895,1948.8,5403.6
47895,1948.8,5653.6
47895,1948.8,3903.6
47895,1948.8,4153.6
47895,1948.8,4403.6
47895,1948.8,4653.6
47895,1948.8,4903.6
47895,1948.8,4153.6
47895,1948.8,4403.6
47895,1948.8,4653.6
47895,1948.8,4903.6
47895,1948.8,5153.6
47895,1948.8,4403.6
47895,1948.8,4653.6
47895,1948.8,4903.6
47895,1948.8,5153.6
47895,1948.8,5403.6
47895,1948.8,4653.6
47895,1948.8,4903.6
47895,1948.8,5153.6
47895,1948.8,5403.6
47895,1948.8,5653.6
47895,1948.8,4903.6
47895,1948.8,5153.6
47895,1948.8,5403.6
47895,1948.8,5653.6
47895,1948.8,5903.6
47895,1948.8,4153.6
47895,1948.8,4403.6
47895,1948.8,4653.6
47895,1948.8,4903.6
47895,1948.8,5153.6
47895,1948.8,4403.6
47895,1948.8,4653.6
47895,1948.8,4903.6
47895,1948.8,5153.6
47895,1948.8,5403.6
47895,1948.8,4653.6
47895,1948.8,4903.6
47895,1948.8,5153.6
47895,1948.8,5403.6
47895,1948.8,5653.6
47895,1948.8,4903.6
47895,1948.8,5153.6
47895,1948.8,5403.6
47895,1948.8,5653.6
47895,1948.8,5903.6
47895,1948.8,5153.6
47895,1948.8,5403.6
47895,1948.8,5653.6
47895,1948.8,5903.6
47895,1948.8,6153.6
47895,1948.8,4403.6
47895,1948.8,4653.6
47895,1948.8,4903.6
47895,1948.8,5153.6
47895,1948.8,5403.6
47895,1948.8,4653.6
47895,1948.8,4903.6
47895,1948.8,5153.6
47895,1948.8,5403.6
47895,1948.8,5653.6
47895,1948.8,4903.6
47895,1948.8,5153.6
47895,1948.8,5403.6
47895,1948.8,5653.6
47895,1948.8,5903.6
47895,1948.8,5153.6
47895,1948.8,5403.6
47895,1948.8,5653.6
47895,1948.8,5903.6
47895,1948.8,6153.6
47895,1948.8,5403.6
47895,1948.8,5653.6
47895,1948.8,5903.6
47895,1948.8,6153.6
47895,1948.8,6403.6
47895,1948.8,4653.6
47895,1948.8,4903.6
47895,1948.8,5153.6
47895,1948.8,5403.6
47895,1948.8,5653.6
47895,1948.8,4903.6
47895,1948.8,5153.6
47895,1948.8,5403.6
47895,1948.8,5653.6
47895,1948.8,5903.6
47895,1948.8,5153.6
47895,1948.8,5403.6
47895,1948.8,5653.6
47895,1948.8,5903.6
47895,1948.8,6153.6
47895,1948.8,5403.6
47895,1948.8,5653.6
47895,1948.8,5903.6
47895,1948.8,6153.6
47895,1948.8,6403.6
47895,1948.8,5653.6
47895,1948.8,5903.6
47895,1948.8,6153.6
47895,1948.8,6403.6
47895,1948.8,6653.6
