51964,1948.8,6164.5
51246,1948.8,4164.5
51246,1948.8,4414.5
51246,1948.8,4664.5
51246,1948.8,4164.5
51246,1948.8,4414.5
51246,1948.8,4664.5
51246,1948.8,4914.5
51246,1948.8,4164.5
51246,1948.8,4414.5
51246,1948.8,4664.5
51246,1948.8,4914.5
51246,1948.8,5164.5
51246,1948.8,4414.5
51246,1948.8,4664.5
51246,1948.8,4914.5
51246,1948.8,5164.5
51246,1948.8,4664.5
51246,1948.8,4914.5
51246,1948.8,5164.5
51246,1948.8,4164.5
51246,1948.8,4414.5
51246,1948.8,4664.5
51246,1948.8,4914.5
51246,1948.8,4164.5
51246,1948.8,4414.5
51246,1948.8,4664.5
51246,1948.8,4914.5
51246,1948.8,5164.5
51246,1948.8,4414.5
51246,1948.8,4664.5
51246,1948.8,4914.5
51246,1948.8,5164.5
51246,1948.8,4664.5
51246,1948.8,4914.5
51246,1948.8,5164.5
51246,1948.8,4914.5
51246,1948.8,5164.5
51246,1948.8,4164.5
51246,1948.8,4414.5
51246,1948.8,4664.5
51246,1948.8,4914.5
51246,1948.8,5164.5
51246,1948.8,4414.5
51246,1948.8,4664.5
51246,1948.8,4914.5
51246,1948.8,5164.5
51246,1948.8,4664.5
51246,1948.8,4914.5
51246,1948.8,5164.5
51246,1948.8,4914.5
51246,1948.8,5164.5
51246,1948.8,5164.5
51246,1948.8,4414.5
51246,1948.8,4664.5
51246,1948.8,4914.5
51246,1948.8,5164.5
51246,1948.8,4664.5
51246,1948.8,4914.5
51246,1948.8,5164.5
51246,1948.8,4914.5
51246,1948.8,5164.5
51246,1948.8,5164.5
51246,1948.8,4664.5
51246,1948.8,4914.5
51246,1948.8,5164.5
51246,1948.8,4914.5
51246,1948.8,5164.5
51246,1948.8,5164.5
50529,1948.8,4164.5
50529,1948.8,4164.5
50529,1948.8,4414.5
50529,1948.8,4164.5
50529,1948.8,4414.5
50529,1948.8,4914.5
50529,1948.8,5164.5
50529,1948.8,4914.5
50529,1948.8,5164.5
50529,1948.8,5164.5
50529,1948.8,4164.5
50529,1948.8,4414.5
50529,1948.8,4914.5
50529,1948.8,5164.5
50529,1948.8,4914.5
50529,1948.8,5164.5
50529,1948.8,5164.5
50529,1948.8,4914.5
50529,1948.8,5164.5
50529,1948.8,5164.5
50529,1948.8,4914.5
50529,1948.8,5164.5
50529,1948.8,4914.5
50529,1948.8,5164.5
50529,1948.8,5164.5
50529,1948.8,4914.5
50529,1948.8,5164.5
50529,1948.8,5164.5
50529,1948.8,4914.5
50529,1948.8,5164.5
50529,1948.8,5164.5
50529,1948.8,4914.5
50529,1948.8,5164.5
50529,1948.8,4914.5
50529,1948.8,5164.5
50529,1948.8,5164.5
50529,1948.8,4914.5
50529,1948.8,5164.5
50529,1948.8,5164.5
50529,1948.8,4914.5
50529,1948.8,5164.5
50529,1948.8,5164.5
50529,1948.8,4914.5
50529,1948.8,5164.5
50529,1948.8,5164.5
50529,1948.8,4914.5
50529,1948.8,5164.5
50529,1948.8,5164.5
50529,1948.8,4914.5
50529,1948.8,5164.5
50529,1948.8,5164.5
50529,1948.8,4914.5
50529,1948.8,5164.5
50529,1948.8,5164.5
50529,1948.8,4914.5
50529,1948.8,5164.5
50529,1948.8,5164.5
49812,1948.8,4914.5
49812,1948.8,5164.5
49812,1948.8,5414.5
49812,1948.8,5664.5
49812,1948.8,5164.5
49812,1948.8,5414.5
49812,1948.8,5664.5
49812,1948.8,5414.5
49812,1948.8,5664.5
49812,1948.8,4914.5
49812,1948.8,5164.5
49812,1948.8,5414.5
49812,1948.8,5664.5
49812,1948.8,5164.5
49812,1948.8,5414.5
49812,1948.8,5664.5
49812,1948.8,5414.5
49812,1948.8,5664.5
49812,1948.8,4914.5
49812,1948.8,5164.5
49812,1948.8,5414.5
49812,1948.8,5664.5
49812,1948.8,5164.5
49812,1948.8,5414.5
49812,1948.8,5664.5
49812,1948.8,5414.5
49812,1948.8,5664.5
49812,1948.8,5664.5
49812,1948.8,4914.5
49812,1948.8,5164.5
49812,1948.8,5414.5
49812,1948.8,5664.5
49812,1948.8,5164.5
49812,1948.8,5414.5
49812,1948.8,5664.5
49812,1948.8,5414.5
49812,1948.8,5664.5
49812,1948.8,4914.5
49812,1948.8,5164.5
49812,1948.8,5414.5
49812,1948.8,5664.5
49812,1948.8,5164.5
49812,1948.8,5414.5
49812,1948.8,5664.5
49812,1948.8,5414.5
49812,1948.8,5664.5
49812,1948.8,4914.5
49812,1948.8,5164.5
49812,1948.8,5414.5
49812,1948.8,5664.5
49812,1948.8,5164.5
49812,1948.8,5414.5
49812,1948.8,5664.5
49812,1948.8,5414.5
49812,1948.8,5664.5
49812,1948.8,5664.5
49812,1948.8,4914.5
49812,1948.8,5164.5
49812,1948.8,5414.5
49812,1948.8,5664.5
49812,1948.8,5164.5
49812,1948.8,5414.5
49812,1948.8,5664.5
49812,1948.8,5414.5
49812,1948.8,5664.5
49812,1948.8,4914.5
49812,1948.8,5164.5
49812,1948.8,5414.5
49812,1948.8,5664.5
49812,1948.8,5164.5
49812,1948.8,5414.5
49812,1948.8,5664.5
49812,1948.8,5414.5
49812,1948.8,5664.5
49812,1948.8,5664.5
49812,1948.8,4914.5
49812,1948.8,5164.5
49812,1948.8,5414.5
49812,1948.8,5664.5
49812,1948.8,5164.5
49812,1948.8,5414.5
49812,1948.8,5664.5
49812,1948.8,5414.5
49812,1948.8,5664.5
49812,1948.8,5664.5
49812,1948.8,4914.5
49812,1948.8,5164.5
49812,1948.8,5414.5
49812,1948.8,5664.5
49812,1948.8,5164.5
49812,1948.8,5414.5
49812,1948.8,5664.5
49812,1948.8,5414.5
49812,1948.8,5664.5
49812,1948.8,4914.5
49812,1948.8,5164.5
49812,1948.8,5414.5
49812,1948.8,5664.5
49812,1948.8,5164.5
49812,1948.8,5414.5
49812,1948.8,5664.5
49812,1948.8,5414.5
49812,1948.8,5664.5
49812,1948.8,4914.5
49812,1948.8,5164.5
49812,1948.8,5414.5
49812,1948.8,5664.5
49812,1948.8,5164.5
49812,1948.8,5414.5
49812,1948.8,5664.5
49812,1948.8,5414.5
49812,1948.8,5664.5
49812,1948.8,5664.5
49812,1948.8,4914.5
49812,1948.8,5164.5
49812,1948.8,5414.5
49812,1948.8,5664.5
49812,1948.8,5164.5
49812,1948.8,5414.5
49812,1948.8,5664.5
49812,1948.8,5414.5
49812,1948.8,5664.5
49812,1948.8,4914.5
49812,1948.8,5164.5
49812,1948.8,5414.5
49812,1948.8,5664.5
49812,1948.8,5164.5
49812,1948.8,5414.5
49812,1948.8,5664.5
49812,1948.8,5414.5
49812,1948.8,5664.5
49812,1948.8,5664.5
49812,1948.8,4914.5
49812,1948.8,5164.5
49812,1948.8,5414.5
49812,1948.8,5664.5
49812,1948.8,5164.5
49812,1948.8,5414.5
49812,1948.8,5664.5
49812,1948.8,5414.5
49812,1948.8,5664.5
49812,1948.8,5664.5
49812,1948.8,4914.5
49812,1948.8,5164.5
49812,1948.8,5414.5
49812,1948.8,5664.5
49812,1948.8,5164.5
49812,1948.8,5414.5
49812,1948.8,5664.5
49812,1948.8,5414.5
49812,1948.8,5664.5
49812,1948.8,4914.5
49812,1948.8,5164.5
49812,1948.8,5414.5
49812,1948.8,5664.5
49812,1948.8,5164.5
49812,1948.8,5414.5
49812,1948.8,5664.5
49812,1948.8,5414.5
49812,1948.8,5664.5
49812,1948.8,5664.5
49812,1948.8,4914.5
49812,1948.8,5164.5
49812,1948.8,5414.5
49812,1948.8,5664.5
49812,1948.8,5164.5
49812,1948.8,5414.5
49812,1948.8,5664.5
49812,1948.8,5414.5
49812,1948.8,5664.5
49812,1948.8,5664.5
49812,1948.8,5164.5
49812,1948.8,5414.5
49812,1948.8,5664.5
49812,1948.8,5414.5
49812,1948.8,5664.5
49812,1948.8,5664.5
49812,1948.8,4914.5
49812,1948.8,5164.5
49812,1948.8,5414.5
49812,1948.8,5664.5
49812,1948.8,5164.5
49812,1948.8,5414.5
49812,1948.8,5664.5
49812,1948.8,5414.5
49812,1948.8,5664.5
49812,1948.8,4914.5
49812,1948.8,5164.5
49812,1948.8,5414.5
49812,1948.8,5664.5
49812,1948.8,5164.5
49812,1948.8,5414.5
49812,1948.8,5664.5
49812,1948.8,5414.5
49812,1948.8,5664.5
49812,1948.8,4914.5
49812,1948.8,5164.5
49812,1948.8,5414.5
49812,1948.8,5664.5
49812,1948.8,5164.5
49812,1948.8,5414.5
49812,1948.8,5664.5
49812,1948.8,5414.5
49812,1948.8,5664.5
49812,1948.8,5664.5
49812,1948.8,4914.5
49812,1948.8,5164.5
49812,1948.8,5414.5
49812,1948.8,5664.5
49812,1948.8,5164.5
49812,1948.8,5414.5
49812,1948.8,5664.5
49812,1948.8,5414.5
49812,1948.8,5664.5
49812,1948.8,4914.5
49812,1948.8,5164.5
49812,1948.8,5414.5
49812,1948.8,5664.5
49812,1948.8,5164.5
49812,1948.8,5414.5
49812,1948.8,5664.5
49812,1948.8,5414.5
49812,1948.8,5664.5
49812,1948.8,5664.5
49812,1948.8,4914.5
49812,1948.8,5164.5
49812,1948.8,5414.5
49812,1948.8,5664.5
49812,1948.8,5164.5
49812,1948.8,5414.5
49812,1948.8,5664.5
49812,1948.8,5414.5
49812,1948.8,5664.5
49812,1948.8,5664.5
49812,1948.8,4914.5
49812,1948.8,5164.5
49812,1948.8,5414.5
49812,1948.8,5664.5
49812,1948.8,5164.5
49812,1948.8,5414.5
49812,1948.8,5664.5
49812,1948.8,5414.5
49812,1948.8,5664.5
49812,1948.8,4914.5
49812,1948.8,5164.5
49812,1948.8,5414.5
49812,1948.8,5664.5
49812,1948.8,5164.5
49812,1948.8,5414.5
49812,1948.8,5664.5
49812,1948.8,5414.5
49812,1948.8,5664.5
49812,1948.8,5664.5
49812,1948.8,4914.5
49812,1948.8,5164.5
49812,1948.8,5414.5
49812,1948.8,5664.5
49812,1948.8,5164.5
49812,1948.8,5414.5
49812,1948.8,5664.5
49812,1948.8,5414.5
49812,1948.8,5664.5
49812,1948.8,5664.5
49812,1948.8,5164.5
49812,1948.8,5414.5
49812,1948.8,5664.5
49812,1948.8,5414.5
49812,1948.8,5664.5
49812,1948.8,5664.5
49812,1948.8,4914.5
49812,1948.8,5164.5
49812,1948.8,5414.5
49812,1948.8,5664.5
49812,1948.8,5164.5
49812,1948.8,5414.5
49812,1948.8,5664.5
49812,1948.8,5414.5
49812,1948.8,5664.5
49812,1948.8,4914.5
49812,1948.8,5164.5
49812,1948.8,5414.5
49812,1948.8,5664.5
49812,1948.8,5164.5
49812,1948.8,5414.5
49812,1948.8,5664.5
49812,1948.8,5414.5
49812,1948.8,5664.5
49812,1948.8,5664.5
49812,1948.8,4914.5
49812,1948.8,5164.5
49812,1948.8,5414.5
49812,1948.8,5664.5
49812,1948.8,5164.5
49812,1948.8,5414.5
49812,1948.8,5664.5
49812,1948.8,5414.5
49812,1948.8,5664.5
49812,1948.8,5664.5
49812,1948.8,5164.5
49812,1948.8,5414.5
49812,1948.8,5664.5
49812,1948.8,5414.5
49812,1948.8,5664.5
49812,1948.8,5664.5
49812,1948.8,5414.5
49812,1948.8,5664.5
49812,1948.8,5664.5
49812,1948.8,4914.5
49812,1948.8,5164.5
49812,1948.8,5414.5
49812,1948.8,5664.5
49812,1948.8,5164.5
49812,1948.8,5414.5
49812,1948.8,5664.5
49812,1948.8,5414.5
49812,1948.8,5664.5
49812,1948.8,4914.5
49812,1948.8,5164.5
49812,1948.8,5414.5
49812,1948.8,5664.5
49812,1948.8,5164.5
49812,1948.8,5414.5
49812,1948.8,5664.5
49812,1948.8,5414.5
49812,1948.8,5664.5
49812,1948.8,5664.5
49812,1948.8,4914.5
49812,1948.8,5164.5
49812,1948.8,5414.5
49812,1948.8,5664.5
49812,1948.8,5164.5
49812,1948.8,5414.5
49812,1948.8,5664.5
49812,1948.8,5414.5
49812,1948.8,5664.5
49812,1948.8,4914.5
49812,1948.8,5164.5
49812,1948.8,5414.5
49812,1948.8,5664.5
49812,1948.8,5164.5
49812,1948.8,5414.5
49812,1948.8,5664.5
49812,1948.8,5414.5
49812,1948.8,5664.5
49812,1948.8,5664.5
49812,1948.8,4914.5
49812,1948.8,5164.5
49812,1948.8,5414.5
49812,1948.8,5664.5
49812,1948.8,5164.5
49812,1948.8,5414.5
49812,1948.8,5664.5
49812,1948.8,5414.5
49812,1948.8,5664.5
49812,1948.8,5664.5
49812,1948.8,4914.5
49812,1948.8,5164.5
49812,1948.8,5414.5
49812,1948.8,5664.5
49812,1948.8,5164.5
49812,1948.8,5414.5
49812,1948.8,5664.5
49812,1948.8,5414.5
49812,1948.8,5664.5
49812,1948.8,4914.5
49812,1948.8,5164.5
49812,1948.8,5414.5
49812,1948.8,5664.5
49812,1948.8,5164.5
49812,1948.8,5414.5
49812,1948.8,5664.5
49812,1948.8,5414.5
49812,1948.8,5664.5
49812,1948.8,5664.5
49812,1948.8,4914.5
49812,1948.8,5164.5
49812,1948.8,5414.5
49812,1948.8,5664.5
49812,1948.8,5164.5
49812,1948.8,5414.5
49812,1948.8,5664.5
49812,1948.8,5414.5
49812,1948.8,5664.5
49812,1948.8,5664.5
49812,1948.8,5164.5
49812,1948.8,5414.5
49812,1948.8,5664.5
49812,1948.8,5414.5
49812,1948.8,5664.5
49812,1948.8,5664.5
49812,1948.8,4914.5
49812,1948.8,5164.5
49812,1948.8,5414.5
49812,1948.8,5664.5
49812,1948.8,5164.5
49812,1948.8,5414.5
49812,1948.8,5664.5
49812,1948.8,5414.5
49812,1948.8,5664.5
49812,1948.8,4914.5
49812,1948.8,5164.5
49812,1948.8,5414.5
49812,1948.8,5664.5
49812,1948.8,5164.5
49812,1948.8,5414.5
49812,1948.8,5664.5
49812,1948.8,5414.5
49812,1948.8,5664.5
49812,1948.8,5664.5
49812,1948.8,4914.5
49812,1948.8,5164.5
49812,1948.8,5414.5
49812,1948.8,5664.5
49812,1948.8,5164.5
49812,1948.8,5414.5
49812,1948.8,5664.5
49812,1948.8,5414.5
49812,1948.8,5664.5
49812,1948.8,5664.5
49812,1948.8,5164.5
49812,1948.8,5414.5
49812,1948.8,5664.5
49812,1948.8,5414.5
49812,1948.8,5664.5
49812,1948.8,5664.5
49812,1948.8,5414.5
49812,1948.8,5664.5
49812,1948.8,5664.5
