24608,1948.8,5199.1
24608,1948.8,5199.1
24608,1948.8,5449.1
24608,1948.8,5199.1
24608,1948.8,5449.1
24608,1948.8,5699.1
24608,1948.8,5199.1
24608,1948.8,5199.1
24608,1948.8,5449.1
24608,1948.8,5199.1
24608,1948.8,5449.1
24608,1948.8,5699.1
24608,1948.8,5199.1
24608,1948.8,5449.1
24608,1948.8,5699.1
24608,1948.8,5949.1
24608,1948.8,5199.1
24608,1948.8,5199.1
24608,1948.8,5449.1
24608,1948.8,5199.1
24608,1948.8,5449.1
24608,1948.8,5699.1
24608,1948.8,5199.1
24608,1948.8,5449.1
24608,1948.8,5699.1
24608,1948.8,5949.1
24608,1948.8,5199.1
24608,1948.8,5449.1
24608,1948.8,5699.1
24608,1948.8,5949.1
24608,1948.8,6199.1
24608,1948.8,5199.1
24608,1948.8,5449.1
24608,1948.8,5199.1
24608,1948.8,5449.1
24608,1948.8,5699.1
24608,1948.8,5199.1
24608,1948.8,5449.1
24608,1948.8,5699.1
24608,1948.8,5949.1
24608,1948.8,5199.1
24608,1948.8,5449.1
24608,1948.8,5699.1
24608,1948.8,5949.1
24608,1948.8,6199.1
24608,1948.8,5449.1
24608,1948.8,5699.1
24608,1948.8,5949.1
24608,1948.8,6199.1
24608,1948.8,5199.1
24608,1948.8,5449.1
24608,1948.8,5699.1
24608,1948.8,5199.1
24608,1948.8,5449.1
24608,1948.8,5699.1
24608,1948.8,5949.1
24608,1948.8,5199.1
24608,1948.8,5449.1
24608,1948.8,5699.1
24608,1948.8,5949.1
24608,1948.8,6199.1
24608,1948.8,5449.1
24608,1948.8,5699.1
24608,1948.8,5949.1
24608,1948.8,6199.1
24608,1948.8,5699.1
24608,1948.8,5949.1
24608,1948.8,6199.1
25476,1948.8,4699.1
25476,1948.8,4699.1
25476,1948.8,4949.1
25476,1948.8,4699.1
25476,1948.8,4949.1
25476,1948.8,5199.1
25476,1948.8,4699.1
25476,1948.8,4699.1
25476,1948.8,4949.1
25476,1948.8,4699.1
25476,1948.8,4949.1
25476,1948.8,5199.1
25476,1948.8,4699.1
25476,1948.8,4949.1
25476,1948.8,5199.1
25476,1948.8,5449.1
25476,1948.8,4699.1
25476,1948.8,4699.1
25476,1948.8,4949.1
25476,1948.8,4699.1
25476,1948.8,4949.1
25476,1948.8,5199.1
25476,1948.8,4699.1
25476,1948.8,4949.1
25476,1948.8,5199.1
25476,1948.8,5449.1
25476,1948.8,4699.1
25476,1948.8,4949.1
25476,1948.8,4699.1
25476,1948.8,4949.1
25476,1948.8,5199.1
25476,1948.8,4699.1
25476,1948.8,4949.1
25476,1948.8,5199.1
25476,1948.8,5449.1
25476,1948.8,4699.1
25476,1948.8,4949.1
25476,1948.8,5199.1
25476,1948.8,4699.1
25476,1948.8,4949.1
25476,1948.8,5199.1
25476,1948.8,5449.1
25476,1948.8,4699.1
25476,1948.8,4699.1
25476,1948.8,4949.1
25476,1948.8,4699.1
25476,1948.8,4949.1
25476,1948.8,5199.1
25476,1948.8,4699.1
25476,1948.8,4949.1
25476,1948.8,5199.1
25476,1948.8,5449.1
25476,1948.8,4699.1
25476,1948.8,4699.1
25476,1948.8,4949.1
25476,1948.8,4699.1
25476,1948.8,4949.1
25476,1948.8,5199.1
25476,1948.8,4699.1
25476,1948.8,4949.1
25476,1948.8,5199.1
25476,1948.8,5449.1
25476,1948.8,4699.1
25476,1948.8,4949.1
25476,1948.8,4699.1
25476,1948.8,4949.1
25476,1948.8,5199.1
25476,1948.8,4699.1
25476,1948.8,4949.1
25476,1948.8,5199.1
25476,1948.8,5449.1
25476,1948.8,4699.1
25476,1948.8,4949.1
25476,1948.8,5199.1
25476,1948.8,4699.1
25476,1948.8,4949.1
25476,1948.8,5199.1
25476,1948.8,5449.1
25476,1948.8,4699.1
25476,1948.8,4949.1
25476,1948.8,5199.1
25476,1948.8,5449.1
25476,1948.8,4699.1
25476,1948.8,4699.1
25476,1948.8,4949.1
25476,1948.8,4699.1
25476,1948.8,4949.1
25476,1948.8,5199.1
25476,1948.8,4699.1
25476,1948.8,4949.1
25476,1948.8,5199.1
25476,1948.8,5449.1
25476,1948.8,4699.1
25476,1948.8,4949.1
25476,1948.8,4699.1
25476,1948.8,4949.1
25476,1948.8,5199.1
25476,1948.8,4699.1
25476,1948.8,4949.1
25476,1948.8,5199.1
25476,1948.8,5449.1
25476,1948.8,4699.1
25476,1948.8,4949.1
25476,1948.8,5199.1
25476,1948.8,4699.1
25476,1948.8,4949.1
25476,1948.8,5199.1
25476,1948.8,5449.1
25476,1948.8,4699.1
25476,1948.8,4949.1
25476,1948.8,5199.1
25476,1948.8,5449.1
25476,1948.8,4699.1
25476,1948.8,4949.1
25476,1948.8,4699.1
25476,1948.8,4949.1
25476,1948.8,5199.1
25476,1948.8,4699.1
25476,1948.8,4949.1
25476,1948.8,5199.1
25476,1948.8,5449.1
25476,1948.8,4699.1
25476,1948.8,4949.1
25476,1948.8,5199.1
25476,1948.8,4699.1
25476,1948.8,4949.1
25476,1948.8,5199.1
25476,1948.8,5449.1
25476,1948.8,4699.1
25476,1948.8,4949.1
25476,1948.8,5199.1
25476,1948.8,5449.1
25476,1948.8,4699.1
25476,1948.8,4949.1
25476,1948.8,5199.1
25476,1948.8,4699.1
25476,1948.8,4949.1
25476,1948.8,5199.1
25476,1948.8,5449.1
25476,1948.8,4699.1
25476,1948.8,4949.1
25476,1948.8,5199.1
25476,1948.8,5449.1
26344,1948.8,5449.1
26344,1948.8,5699.1
26344,1948.8,5949.1
26344,1948.8,6199.1
26344,1948.8,5699.1
26344,1948.8,5949.1
26344,1948.8,6199.1
26344,1948.8,5949.1
26344,1948.8,6199.1
26344,1948.8,6199.1
26344,1948.8,5449.1
26344,1948.8,5699.1
26344,1948.8,5949.1
26344,1948.8,6199.1
26344,1948.8,5699.1
26344,1948.8,5949.1
26344,1948.8,6199.1
26344,1948.8,5949.1
26344,1948.8,6199.1
26344,1948.8,6199.1
26344,1948.8,5449.1
26344,1948.8,5699.1
26344,1948.8,5949.1
26344,1948.8,6199.1
26344,1948.8,5699.1
26344,1948.8,5949.1
26344,1948.8,6199.1
26344,1948.8,5949.1
26344,1948.8,6199.1
26344,1948.8,6199.1
26344,1948.8,5699.1
26344,1948.8,5949.1
26344,1948.8,6199.1
26344,1948.8,5949.1
26344,1948.8,6199.1
26344,1948.8,6199.1
27212,1948.8,4699.1
27212,1948.8,4699.1
27212,1948.8,4699.1
27212,1948.8,4949.1
27212,1948.8,4699.1
27212,1948.8,4699.1
27212,1948.8,4949.1
27212,1948.8,4699.1
27212,1948.8,4949.1
27212,1948.8,5199.1
27212,1948.8,4699.1
27212,1948.8,4699.1
27212,1948.8,4699.1
27212,1948.8,4949.1
27212,1948.8,4699.1
27212,1948.8,4699.1
27212,1948.8,4949.1
27212,1948.8,4699.1
27212,1948.8,4949.1
27212,1948.8,5199.1
27212,1948.8,4699.1
27212,1948.8,4699.1
27212,1948.8,4949.1
27212,1948.8,4699.1
27212,1948.8,4949.1
27212,1948.8,5199.1
27212,1948.8,4699.1
27212,1948.8,4949.1
27212,1948.8,5199.1
27212,1948.8,5449.1
27212,1948.8,4699.1
27212,1948.8,4699.1
27212,1948.8,4699.1
27212,1948.8,4949.1
27212,1948.8,4699.1
27212,1948.8,4699.1
27212,1948.8,4949.1
27212,1948.8,4699.1
27212,1948.8,4949.1
27212,1948.8,5199.1
27212,1948.8,4699.1
27212,1948.8,4699.1
27212,1948.8,4949.1
27212,1948.8,4699.1
27212,1948.8,4949.1
27212,1948.8,5199.1
27212,1948.8,4699.1
27212,1948.8,4949.1
27212,1948.8,5199.1
27212,1948.8,5449.1
27212,1948.8,4699.1
27212,1948.8,4699.1
27212,1948.8,4949.1
27212,1948.8,4699.1
27212,1948.8,4699.1
27212,1948.8,4949.1
27212,1948.8,4699.1
27212,1948.8,4949.1
27212,1948.8,5199.1
27212,1948.8,4699.1
27212,1948.8,4699.1
27212,1948.8,4949.1
27212,1948.8,4699.1
27212,1948.8,4949.1
27212,1948.8,5199.1
27212,1948.8,4699.1
27212,1948.8,4949.1
27212,1948.8,5199.1
27212,1948.8,5449.1
27212,1948.8,4699.1
27212,1948.8,4699.1
27212,1948.8,4949.1
27212,1948.8,4699.1
27212,1948.8,4949.1
27212,1948.8,5199.1
27212,1948.8,4699.1
27212,1948.8,4699.1
27212,1948.8,4949.1
27212,1948.8,4699.1
27212,1948.8,4949.1
27212,1948.8,5199.1
27212,1948.8,4699.1
27212,1948.8,4949.1
27212,1948.8,5199.1
27212,1948.8,5449.1
27212,1948.8,4699.1
27212,1948.8,4699.1
27212,1948.8,4699.1
27212,1948.8,4949.1
27212,1948.8,4699.1
27212,1948.8,4699.1
27212,1948.8,4949.1
27212,1948.8,4699.1
27212,1948.8,4949.1
27212,1948.8,5199.1
27212,1948.8,4699.1
27212,1948.8,4699.1
27212,1948.8,4949.1
27212,1948.8,4699.1
27212,1948.8,4949.1
27212,1948.8,5199.1
27212,1948.8,4699.1
27212,1948.8,4949.1
27212,1948.8,5199.1
27212,1948.8,5449.1
27212,1948.8,4699.1
27212,1948.8,4699.1
27212,1948.8,4699.1
27212,1948.8,4949.1
27212,1948.8,4699.1
27212,1948.8,4699.1
27212,1948.8,4949.1
27212,1948.8,4699.1
27212,1948.8,4949.1
27212,1948.8,5199.1
27212,1948.8,4699.1
27212,1948.8,4699.1
27212,1948.8,4949.1
27212,1948.8,4699.1
27212,1948.8,4949.1
27212,1948.8,5199.1
27212,1948.8,4699.1
27212,1948.8,4949.1
27212,1948.8,5199.1
27212,1948.8,5449.1
27212,1948.8,4699.1
27212,1948.8,4699.1
27212,1948.8,4949.1
27212,1948.8,4699.1
27212,1948.8,4699.1
27212,1948.8,4949.1
27212,1948.8,4699.1
27212,1948.8,4949.1
27212,1948.8,5199.1
27212,1948.8,4699.1
27212,1948.8,4699.1
27212,1948.8,4949.1
27212,1948.8,4699.1
27212,1948.8,4949.1
27212,1948.8,5199.1
27212,1948.8,4699.1
27212,1948.8,4949.1
27212,1948.8,5199.1
27212,1948.8,5449.1
27212,1948.8,4699.1
27212,1948.8,4699.1
27212,1948.8,4949.1
27212,1948.8,4699.1
27212,1948.8,4949.1
27212,1948.8,5199.1
27212,1948.8,4699.1
27212,1948.8,4699.1
27212,1948.8,4949.1
27212,1948.8,4699.1
27212,1948.8,4949.1
27212,1948.8,5199.1
27212,1948.8,4699.1
27212,1948.8,4949.1
27212,1948.8,5199.1
27212,1948.8,5449.1
27212,1948.8,4699.1
27212,1948.8,4699.1
27212,1948.8,4949.1
27212,1948.8,4699.1
27212,1948.8,4949.1
27212,1948.8,5199.1
27212,1948.8,4699.1
27212,1948.8,4949.1
27212,1948.8,5199.1
27212,1948.8,5449.1
27212,1948.8,4699.1
27212,1948.8,4699.1
27212,1948.8,4699.1
27212,1948.8,4949.1
27212,1948.8,4699.1
27212,1948.8,4699.1
27212,1948.8,4949.1
27212,1948.8,4699.1
27212,1948.8,4949.1
27212,1948.8,5199.1
27212,1948.8,4699.1
27212,1948.8,4699.1
27212,1948.8,4949.1
27212,1948.8,4699.1
27212,1948.8,4949.1
27212,1948.8,5199.1
27212,1948.8,4699.1
27212,1948.8,4949.1
27212,1948.8,5199.1
27212,1948.8,5449.1
27212,1948.8,4699.1
27212,1948.8,4699.1
27212,1948.8,4949.1
27212,1948.8,4699.1
27212,1948.8,4699.1
27212,1948.8,4949.1
27212,1948.8,4699.1
27212,1948.8,4949.1
27212,1948.8,5199.1
27212,1948.8,4699.1
27212,1948.8,4699.1
27212,1948.8,4949.1
27212,1948.8,4699.1
27212,1948.8,4949.1
27212,1948.8,5199.1
27212,1948.8,4699.1
27212,1948.8,4949.1
27212,1948.8,5199.1
27212,1948.8,5449.1
27212,1948.8,4699.1
27212,1948.8,4699.1
27212,1948.8,4949.1
27212,1948.8,4699.1
27212,1948.8,4949.1
27212,1948.8,5199.1
27212,1948.8,4699.1
27212,1948.8,4699.1
27212,1948.8,4949.1
27212,1948.8,4699.1
27212,1948.8,4949.1
27212,1948.8,5199.1
27212,1948.8,4699.1
27212,1948.8,4949.1
27212,1948.8,5199.1
27212,1948.8,5449.1
27212,1948.8,4699.1
27212,1948.8,4699.1
27212,1948.8,4949.1
27212,1948.8,4699.1
27212,1948.8,4949.1
27212,1948.8,5199.1
27212,1948.8,4699.1
27212,1948.8,4949.1
27212,1948.8,5199.1
27212,1948.8,5449.1
27212,1948.8,4699.1
27212,1948.8,4699.1
27212,1948.8,4949.1
27212,1948.8,4699.1
27212,1948.8,4699.1
27212,1948.8,4949.1
27212,1948.8,4699.1
27212,1948.8,4949.1
27212,1948.8,5199.1
27212,1948.8,4699.1
27212,1948.8,4699.1
27212,1948.8,4949.1
27212,1948.8,4699.1
27212,1948.8,4949.1
27212,1948.8,5199.1
27212,1948.8,4699.1
27212,1948.8,4949.1
27212,1948.8,5199.1
27212,1948.8,5449.1
27212,1948.8,4699.1
27212,1948.8,4699.1
27212,1948.8,4949.1
27212,1948.8,4699.1
27212,1948.8,4949.1
27212,1948.8,5199.1
27212,1948.8,4699.1
27212,1948.8,4699.1
27212,1948.8,4949.1
27212,1948.8,4699.1
27212,1948.8,4949.1
27212,1948.8,5199.1
27212,1948.8,4699.1
27212,1948.8,4949.1
27212,1948.8,5199.1
27212,1948.8,5449.1
27212,1948.8,4699.1
27212,1948.8,4699.1
27212,1948.8,4949.1
27212,1948.8,4699.1
27212,1948.8,4949.1
27212,1948.8,5199.1
27212,1948.8,4699.1
27212,1948.8,4949.1
27212,1948.8,5199.1
27212,1948.8,5449.1
27212,1948.8,4699.1
27212,1948.8,4699.1
27212,1948.8,4949.1
27212,1948.8,4699.1
27212,1948.8,4949.1
27212,1948.8,5199.1
27212,1948.8,4699.1
27212,1948.8,4699.1
27212,1948.8,4949.1
27212,1948.8,4699.1
27212,1948.8,4949.1
27212,1948.8,5199.1
27212,1948.8,4699.1
27212,1948.8,4949.1
27212,1948.8,5199.1
27212,1948.8,5449.1
27212,1948.8,4699.1
27212,1948.8,4699.1
27212,1948.8,4949.1
27212,1948.8,4699.1
27212,1948.8,4949.1
27212,1948.8,5199.1
27212,1948.8,4699.1
27212,1948.8,4949.1
27212,1948.8,5199.1
27212,1948.8,5449.1
27212,1948.8,4699.1
27212,1948.8,4699.1
27212,1948.8,4699.1
27212,1948.8,4949.1
27212,1948.8,4699.1
27212,1948.8,4699.1
27212,1948.8,4949.1
27212,1948.8,4699.1
27212,1948.8,4949.1
27212,1948.8,5199.1
27212,1948.8,4699.1
27212,1948.8,4699.1
27212,1948.8,4949.1
27212,1948.8,4699.1
27212,1948.8,4949.1
27212,1948.8,5199.1
27212,1948.8,4699.1
27212,1948.8,4949.1
27212,1948.8,5199.1
27212,1948.8,5449.1
27212,1948.8,4699.1
27212,1948.8,4699.1
27212,1948.8,4699.1
27212,1948.8,4949.1
27212,1948.8,4699.1
27212,1948.8,4699.1
27212,1948.8,4949.1
27212,1948.8,4699.1
27212,1948.8,4949.1
27212,1948.8,5199.1
27212,1948.8,4699.1
27212,1948.8,4699.1
27212,1948.8,4949.1
27212,1948.8,4699.1
27212,1948.8,4949.1
27212,1948.8,5199.1
27212,1948.8,4699.1
27212,1948.8,4949.1
27212,1948.8,5199.1
27212,1948.8,5449.1
27212,1948.8,4699.1
27212,1948.8,4699.1
27212,1948.8,4949.1
27212,1948.8,4699.1
27212,1948.8,4699.1
27212,1948.8,4949.1
27212,1948.8,4699.1
27212,1948.8,4949.1
27212,1948.8,5199.1
27212,1948.8,4699.1
27212,1948.8,4699.1
27212,1948.8,4949.1
27212,1948.8,4699.1
27212,1948.8,4949.1
27212,1948.8,5199.1
27212,1948.8,4699.1
27212,1948.8,4949.1
27212,1948.8,5199.1
27212,1948.8,5449.1
27212,1948.8,4699.1
27212,1948.8,4699.1
27212,1948.8,4949.1
27212,1948.8,4699.1
27212,1948.8,4949.1
27212,1948.8,5199.1
27212,1948.8,4699.1
27212,1948.8,4699.1
27212,1948.8,4949.1
27212,1948.8,4699.1
27212,1948.8,4949.1
27212,1948.8,5199.1
27212,1948.8,4699.1
27212,1948.8,4949.1
27212,1948.8,5199.1
27212,1948.8,5449.1
27212,1948.8,4699.1
27212,1948.8,4699.1
27212,1948.8,4949.1
27212,1948.8,4699.1
27212,1948.8,4949.1
27212,1948.8,5199.1
27212,1948.8,4699.1
27212,1948.8,4949.1
27212,1948.8,5199.1
27212,1948.8,5449.1
27212,1948.8,4699.1
27212,1948.8,4699.1
27212,1948.8,4699.1
27212,1948.8,4949.1
27212,1948.8,4699.1
27212,1948.8,4699.1
27212,1948.8,4949.1
27212,1948.8,4699.1
27212,1948.8,4949.1
27212,1948.8,5199.1
27212,1948.8,4699.1
27212,1948.8,4699.1
27212,1948.8,4949.1
27212,1948.8,4699.1
27212,1948.8,4949.1
27212,1948.8,5199.1
27212,1948.8,4699.1
27212,1948.8,4949.1
27212,1948.8,5199.1
27212,1948.8,5449.1
27212,1948.8,4699.1
27212,1948.8,4699.1
27212,1948.8,4949.1
27212,1948.8,4699.1
27212,1948.8,4699.1
27212,1948.8,4949.1
27212,1948.8,4699.1
27212,1948.8,4949.1
27212,1948.8,5199.1
27212,1948.8,4699.1
27212,1948.8,4699.1
27212,1948.8,4949.1
27212,1948.8,4699.1
27212,1948.8,4949.1
27212,1948.8,5199.1
27212,1948.8,4699.1
27212,1948.8,4949.1
27212,1948.8,5199.1
27212,1948.8,5449.1
27212,1948.8,4699.1
27212,1948.8,4699.1
27212,1948.8,4949.1
27212,1948.8,4699.1
27212,1948.8,4949.1
27212,1948.8,5199.1
27212,1948.8,4699.1
27212,1948.8,4699.1
27212,1948.8,4949.1
27212,1948.8,4699.1
27212,1948.8,4949.1
27212,1948.8,5199.1
27212,1948.8,4699.1
27212,1948.8,4949.1
27212,1948.8,5199.1
27212,1948.8,5449.1
27212,1948.8,4699.1
27212,1948.8,4699.1
27212,1948.8,4949.1
27212,1948.8,4699.1
27212,1948.8,4949.1
27212,1948.8,5199.1
27212,1948.8,4699.1
27212,1948.8,4949.1
27212,1948.8,5199.1
27212,1948.8,5449.1
27212,1948.8,4699.1
27212,1948.8,4699.1
27212,1948.8,4949.1
27212,1948.8,4699.1
27212,1948.8,4699.1
27212,1948.8,4949.1
27212,1948.8,4699.1
27212,1948.8,4949.1
27212,1948.8,5199.1
27212,1948.8,4699.1
27212,1948.8,4699.1
27212,1948.8,4949.1
27212,1948.8,4699.1
27212,1948.8,4949.1
27212,1948.8,5199.1
27212,1948.8,4699.1
27212,1948.8,4949.1
27212,1948.8,5199.1
27212,1948.8,5449.1
27212,1948.8,4699.1
27212,1948.8,4699.1
27212,1948.8,4949.1
27212,1948.8,4699.1
27212,1948.8,4949.1
27212,1948.8,5199.1
27212,1948.8,4699.1
27212,1948.8,4699.1
27212,1948.8,4949.1
27212,1948.8,4699.1
27212,1948.8,4949.1
27212,1948.8,5199.1
27212,1948.8,4699.1
27212,1948.8,4949.1
27212,1948.8,5199.1
27212,1948.8,5449.1
27212,1948.8,4699.1
27212,1948.8,4699.1
27212,1948.8,4949.1
27212,1948.8,4699.1
27212,1948.8,4949.1
27212,1948.8,5199.1
27212,1948.8,4699.1
27212,1948.8,4949.1
27212,1948.8,5199.1
27212,1948.8,5449.1
27212,1948.8,4699.1
27212,1948.8,4699.1
27212,1948.8,4949.1
27212,1948.8,4699.1
27212,1948.8,4949.1
27212,1948.8,5199.1
27212,1948.8,4699.1
27212,1948.8,4699.1
27212,1948.8,4949.1
27212,1948.8,4699.1
27212,1948.8,4949.1
27212,1948.8,5199.1
27212,1948.8,4699.1
27212,1948.8,4949.1
27212,1948.8,5199.1
27212,1948.8,5449.1
27212,1948.8,4699.1
27212,1948.8,4699.1
27212,1948.8,4949.1
27212,1948.8,4699.1
27212,1948.8,4949.1
27212,1948.8,5199.1
27212,1948.8,4699.1
27212,1948.8,4949.1
27212,1948.8,5199.1
27212,1948.8,5449.1
27212,1948.8,4699.1
27212,1948.8,4699.1
27212,1948.8,4949.1
27212,1948.8,4699.1
27212,1948.8,4949.1
27212,1948.8,5199.1
27212,1948.8,4699.1
27212,1948.8,4949.1
27212,1948.8,5199.1
27212,1948.8,5449.1
27212,1948.8,4699.1
27212,1948.8,4699.1
27212,1948.8,4699.1
27212,1948.8,4949.1
27212,1948.8,4699.1
27212,1948.8,4699.1
27212,1948.8,4949.1
27212,1948.8,4699.1
27212,1948.8,4949.1
27212,1948.8,5199.1
27212,1948.8,4699.1
27212,1948.8,4699.1
27212,1948.8,4949.1
27212,1948.8,4699.1
27212,1948.8,4949.1
27212,1948.8,5199.1
27212,1948.8,4699.1
27212,1948.8,4949.1
27212,1948.8,5199.1
27212,1948.8,5449.1
27212,1948.8,4699.1
27212,1948.8,4699.1
27212,1948.8,4949.1
27212,1948.8,4699.1
27212,1948.8,4699.1
27212,1948.8,4949.1
27212,1948.8,4699.1
27212,1948.8,4949.1
27212,1948.8,5199.1
27212,1948.8,4699.1
27212,1948.8,4699.1
27212,1948.8,4949.1
27212,1948.8,4699.1
27212,1948.8,4949.1
27212,1948.8,5199.1
27212,1948.8,4699.1
27212,1948.8,4949.1
27212,1948.8,5199.1
27212,1948.8,5449.1
27212,1948.8,4699.1
27212,1948.8,4699.1
27212,1948.8,4949.1
27212,1948.8,4699.1
27212,1948.8,4949.1
27212,1948.8,5199.1
27212,1948.8,4699.1
27212,1948.8,4699.1
27212,1948.8,4949.1
27212,1948.8,4699.1
27212,1948.8,4949.1
27212,1948.8,5199.1
27212,1948.8,4699.1
27212,1948.8,4949.1
27212,1948.8,5199.1
27212,1948.8,5449.1
27212,1948.8,4699.1
27212,1948.8,4699.1
27212,1948.8,4949.1
27212,1948.8,4699.1
27212,1948.8,4949.1
27212,1948.8,5199.1
27212,1948.8,4699.1
27212,1948.8,4949.1
27212,1948.8,5199.1
27212,1948.8,5449.1
27212,1948.8,4699.1
27212,1948.8,4699.1
27212,1948.8,4949.1
27212,1948.8,4699.1
27212,1948.8,4699.1
27212,1948.8,4949.1
27212,1948.8,4699.1
27212,1948.8,4949.1
27212,1948.8,5199.1
27212,1948.8,4699.1
27212,1948.8,4699.1
27212,1948.8,4949.1
27212,1948.8,4699.1
27212,1948.8,4949.1
27212,1948.8,5199.1
27212,1948.8,4699.1
27212,1948.8,4949.1
27212,1948.8,5199.1
27212,1948.8,5449.1
27212,1948.8,4699.1
27212,1948.8,4699.1
27212,1948.8,4949.1
27212,1948.8,4699.1
27212,1948.8,4949.1
27212,1948.8,5199.1
27212,1948.8,4699.1
27212,1948.8,4699.1
27212,1948.8,4949.1
27212,1948.8,4699.1
27212,1948.8,4949.1
27212,1948.8,5199.1
27212,1948.8,4699.1
27212,1948.8,4949.1
27212,1948.8,5199.1
27212,1948.8,5449.1
27212,1948.8,4699.1
27212,1948.8,4699.1
27212,1948.8,4949.1
27212,1948.8,4699.1
27212,1948.8,4949.1
27212,1948.8,5199.1
27212,1948.8,4699.1
27212,1948.8,4949.1
27212,1948.8,5199.1
27212,1948.8,5449.1
27212,1948.8,4699.1
27212,1948.8,4699.1
27212,1948.8,4949.1
27212,1948.8,4699.1
27212,1948.8,4949.1
27212,1948.8,5199.1
27212,1948.8,4699.1
27212,1948.8,4699.1
27212,1948.8,4949.1
27212,1948.8,4699.1
27212,1948.8,4949.1
27212,1948.8,5199.1
27212,1948.8,4699.1
27212,1948.8,4949.1
27212,1948.8,5199.1
27212,1948.8,5449.1
27212,1948.8,4699.1
27212,1948.8,4699.1
27212,1948.8,4949.1
27212,1948.8,4699.1
27212,1948.8,4949.1
27212,1948.8,5199.1
27212,1948.8,4699.1
27212,1948.8,4949.1
27212,1948.8,5199.1
27212,1948.8,5449.1
27212,1948.8,4699.1
27212,1948.8,4699.1
27212,1948.8,4949.1
27212,1948.8,4699.1
27212,1948.8,4949.1
27212,1948.8,5199.1
27212,1948.8,4699.1
27212,1948.8,4949.1
27212,1948.8,5199.1
27212,1948.8,5449.1
27212,1948.8,4699.1
27212,1948.8,4699.1
27212,1948.8,4949.1
27212,1948.8,4699.1
27212,1948.8,4699.1
27212,1948.8,4949.1
27212,1948.8,4699.1
27212,1948.8,4949.1
27212,1948.8,5199.1
27212,1948.8,4699.1
27212,1948.8,4699.1
27212,1948.8,4949.1
27212,1948.8,4699.1
27212,1948.8,4949.1
27212,1948.8,5199.1
27212,1948.8,4699.1
27212,1948.8,4949.1
27212,1948.8,5199.1
27212,1948.8,5449.1
27212,1948.8,4699.1
27212,1948.8,4699.1
27212,1948.8,4949.1
27212,1948.8,4699.1
27212,1948.8,4949.1
27212,1948.8,5199.1
27212,1948.8,4699.1
27212,1948.8,4699.1
27212,1948.8,4949.1
27212,1948.8,4699.1
27212,1948.8,4949.1
27212,1948.8,5199.1
27212,1948.8,4699.1
27212,1948.8,4949.1
27212,1948.8,5199.1
27212,1948.8,5449.1
27212,1948.8,4699.1
27212,1948.8,4699.1
27212,1948.8,4949.1
27212,1948.8,4699.1
27212,1948.8,4949.1
27212,1948.8,5199.1
27212,1948.8,4699.1
27212,1948.8,4949.1
27212,1948.8,5199.1
27212,1948.8,5449.1
27212,1948.8,4699.1
27212,1948.8,4699.1
27212,1948.8,4949.1
27212,1948.8,4699.1
27212,1948.8,4949.1
27212,1948.8,5199.1
27212,1948.8,4699.1
27212,1948.8,4699.1
27212,1948.8,4949.1
27212,1948.8,4699.1
27212,1948.8,4949.1
27212,1948.8,5199.1
27212,1948.8,4699.1
27212,1948.8,4949.1
27212,1948.8,5199.1
27212,1948.8,5449.1
27212,1948.8,4699.1
27212,1948.8,4699.1
27212,1948.8,4949.1
27212,1948.8,4699.1
27212,1948.8,4949.1
27212,1948.8,5199.1
27212,1948.8,4699.1
27212,1948.8,4949.1
27212,1948.8,5199.1
27212,1948.8,5449.1
27212,1948.8,4699.1
27212,1948.8,4699.1
27212,1948.8,4949.1
27212,1948.8,4699.1
27212,1948.8,4949.1
27212,1948.8,5199.1
27212,1948.8,4699.1
27212,1948.8,4949.1
27212,1948.8,5199.1
27212,1948.8,5449.1
27212,1948.8,4699.1
27212,1948.8,4699.1
27212,1948.8,4949.1
27212,1948.8,4699.1
27212,1948.8,4949.1
27212,1948.8,5199.1
27212,1948.8,4699.1
27212,1948.8,4699.1
27212,1948.8,4949.1
27212,1948.8,4699.1
27212,1948.8,4949.1
27212,1948.8,5199.1
27212,1948.8,4699.1
27212,1948.8,4949.1
27212,1948.8,5199.1
27212,1948.8,5449.1
27212,1948.8,4699.1
27212,1948.8,4699.1
27212,1948.8,4949.1
27212,1948.8,4699.1
27212,1948.8,4949.1
27212,1948.8,5199.1
27212,1948.8,4699.1
27212,1948.8,4949.1
27212,1948.8,5199.1
27212,1948.8,5449.1
27212,1948.8,4699.1
27212,1948.8,4699.1
27212,1948.8,4949.1
27212,1948.8,4699.1
27212,1948.8,4949.1
27212,1948.8,5199.1
27212,1948.8,4699.1
27212,1948.8,4949.1
27212,1948.8,5199.1
27212,1948.8,5449.1
