24043,1948.8,5649.3
24043,1948.8,5899.3
24043,1948.8,6149.3
24043,1948.8,5649.3
24043,1948.8,5899.3
24043,1948.8,6149.3
24043,1948.8,6399.3
24043,1948.8,5649.3
24043,1948.8,5899.3
24043,1948.8,6149.3
24043,1948.8,6399.3
24043,1948.8,6649.3
24043,1948.8,5899.3
24043,1948.8,6149.3
24043,1948.8,6399.3
24043,1948.8,6649.3
24043,1948.8,6149.3
24043,1948.8,6399.3
24043,1948.8,6649.3
24043,1948.8,5649.3
24043,1948.8,5899.3
24043,1948.8,6149.3
24043,1948.8,6399.3
24043,1948.8,5649.3
24043,1948.8,5899.3
24043,1948.8,6149.3
24043,1948.8,6399.3
24043,1948.8,6649.3
24043,1948.8,5899.3
24043,1948.8,6149.3
24043,1948.8,6399.3
24043,1948.8,6649.3
24043,1948.8,6149.3
24043,1948.8,6399.3
24043,1948.8,6649.3
24043,1948.8,6399.3
24043,1948.8,6649.3
24043,1948.8,5649.3
24043,1948.8,5899.3
24043,1948.8,6149.3
24043,1948.8,6399.3
24043,1948.8,6649.3
24043,1948.8,5899.3
24043,1948.8,6149.3
24043,1948.8,6399.3
24043,1948.8,6649.3
24043,1948.8,6149.3
24043,1948.8,6399.3
24043,1948.8,6649.3
24043,1948.8,6399.3
24043,1948.8,6649.3
24043,1948.8,6649.3
24043,1948.8,5899.3
24043,1948.8,6149.3
24043,1948.8,6399.3
24043,1948.8,6649.3
24043,1948.8,6149.3
24043,1948.8,6399.3
24043,1948.8,6649.3
24043,1948.8,6399.3
24043,1948.8,6649.3
24043,1948.8,6649.3
24043,1948.8,6149.3
24043,1948.8,6399.3
24043,1948.8,6649.3
24043,1948.8,6399.3
24043,1948.8,6649.3
24043,1948.8,6649.3
24768,1948.8,5399.3
24768,1948.8,5649.3
24768,1948.8,5399.3
24768,1948.8,5649.3
24768,1948.8,5899.3
24768,1948.8,5399.3
24768,1948.8,5649.3
24768,1948.8,5899.3
24768,1948.8,6399.3
24768,1948.8,6399.3
24768,1948.8,5399.3
24768,1948.8,5649.3
24768,1948.8,5899.3
24768,1948.8,6399.3
24768,1948.8,6399.3
24768,1948.8,6399.3
24768,1948.8,6399.3
24768,1948.8,6399.3
24768,1948.8,6399.3
24768,1948.8,6399.3
24768,1948.8,6399.3
24768,1948.8,6399.3
24768,1948.8,6399.3
24768,1948.8,6399.3
24768,1948.8,6399.3
24768,1948.8,6399.3
24768,1948.8,6399.3
24768,1948.8,6399.3
24768,1948.8,6399.3
25493,1948.8,6149.3
25493,1948.8,6399.3
25493,1948.8,6649.3
25493,1948.8,6899.3
25493,1948.8,6399.3
25493,1948.8,6649.3
25493,1948.8,6899.3
25493,1948.8,6649.3
25493,1948.8,6899.3
25493,1948.8,6899.3
25493,1948.8,6149.3
25493,1948.8,6399.3
25493,1948.8,6649.3
25493,1948.8,6899.3
25493,1948.8,6399.3
25493,1948.8,6649.3
25493,1948.8,6899.3
25493,1948.8,6649.3
25493,1948.8,6899.3
25493,1948.8,6899.3
25493,1948.8,6149.3
25493,1948.8,6399.3
25493,1948.8,6649.3
25493,1948.8,6899.3
25493,1948.8,6399.3
25493,1948.8,6649.3
25493,1948.8,6899.3
25493,1948.8,6649.3
25493,1948.8,6899.3
25493,1948.8,6899.3
25493,1948.8,6149.3
25493,1948.8,6399.3
25493,1948.8,6649.3
25493,1948.8,6899.3
25493,1948.8,6399.3
25493,1948.8,6649.3
25493,1948.8,6899.3
25493,1948.8,6649.3
25493,1948.8,6899.3
25493,1948.8,6899.3
25493,1948.8,6149.3
25493,1948.8,6399.3
25493,1948.8,6649.3
25493,1948.8,6899.3
25493,1948.8,6399.3
25493,1948.8,6649.3
25493,1948.8,6899.3
25493,1948.8,6649.3
25493,1948.8,6899.3
25493,1948.8,6899.3
25493,1948.8,6149.3
25493,1948.8,6399.3
25493,1948.8,6649.3
25493,1948.8,6899.3
25493,1948.8,6399.3
25493,1948.8,6649.3
25493,1948.8,6899.3
25493,1948.8,6649.3
25493,1948.8,6899.3
25493,1948.8,6899.3
25493,1948.8,6149.3
25493,1948.8,6399.3
25493,1948.8,6649.3
25493,1948.8,6899.3
25493,1948.8,6399.3
25493,1948.8,6649.3
25493,1948.8,6899.3
25493,1948.8,6649.3
25493,1948.8,6899.3
25493,1948.8,6899.3
25493,1948.8,6149.3
25493,1948.8,6399.3
25493,1948.8,6649.3
25493,1948.8,6899.3
25493,1948.8,6399.3
25493,1948.8,6649.3
25493,1948.8,6899.3
25493,1948.8,6649.3
25493,1948.8,6899.3
25493,1948.8,6899.3
25493,1948.8,6399.3
25493,1948.8,6649.3
25493,1948.8,6899.3
25493,1948.8,6649.3
25493,1948.8,6899.3
25493,1948.8,6899.3
25493,1948.8,6149.3
25493,1948.8,6399.3
25493,1948.8,6649.3
25493,1948.8,6899.3
25493,1948.8,6399.3
25493,1948.8,6649.3
25493,1948.8,6899.3
25493,1948.8,6649.3
25493,1948.8,6899.3
25493,1948.8,6899.3
25493,1948.8,6149.3
25493,1948.8,6399.3
25493,1948.8,6649.3
25493,1948.8,6899.3
25493,1948.8,6399.3
25493,1948.8,6649.3
25493,1948.8,6899.3
25493,1948.8,6649.3
25493,1948.8,6899.3
25493,1948.8,6899.3
25493,1948.8,6149.3
25493,1948.8,6399.3
25493,1948.8,6649.3
25493,1948.8,6899.3
25493,1948.8,6399.3
25493,1948.8,6649.3
25493,1948.8,6899.3
25493,1948.8,6649.3
25493,1948.8,6899.3
25493,1948.8,6899.3
25493,1948.8,6149.3
25493,1948.8,6399.3
25493,1948.8,6649.3
25493,1948.8,6899.3
25493,1948.8,6399.3
25493,1948.8,6649.3
25493,1948.8,6899.3
25493,1948.8,6649.3
25493,1948.8,6899.3
25493,1948.8,6899.3
25493,1948.8,6149.3
25493,1948.8,6399.3
25493,1948.8,6649.3
25493,1948.8,6899.3
25493,1948.8,6399.3
25493,1948.8,6649.3
25493,1948.8,6899.3
25493,1948.8,6649.3
25493,1948.8,6899.3
25493,1948.8,6899.3
25493,1948.8,6399.3
25493,1948.8,6649.3
25493,1948.8,6899.3
25493,1948.8,6649.3
25493,1948.8,6899.3
25493,1948.8,6899.3
25493,1948.8,6149.3
25493,1948.8,6399.3
25493,1948.8,6649.3
25493,1948.8,6899.3
25493,1948.8,6399.3
25493,1948.8,6649.3
25493,1948.8,6899.3
25493,1948.8,6649.3
25493,1948.8,6899.3
25493,1948.8,6899.3
25493,1948.8,6149.3
25493,1948.8,6399.3
25493,1948.8,6649.3
25493,1948.8,6899.3
25493,1948.8,6399.3
25493,1948.8,6649.3
25493,1948.8,6899.3
25493,1948.8,6649.3
25493,1948.8,6899.3
25493,1948.8,6899.3
25493,1948.8,6399.3
25493,1948.8,6649.3
25493,1948.8,6899.3
25493,1948.8,6649.3
25493,1948.8,6899.3
25493,1948.8,6899.3
25493,1948.8,6649.3
25493,1948.8,6899.3
25493,1948.8,6899.3
25493,1948.8,6149.3
25493,1948.8,6399.3
25493,1948.8,6649.3
25493,1948.8,6899.3
25493,1948.8,6399.3
25493,1948.8,6649.3
25493,1948.8,6899.3
25493,1948.8,6649.3
25493,1948.8,6899.3
25493,1948.8,6899.3
25493,1948.8,6149.3
25493,1948.8,6399.3
25493,1948.8,6649.3
25493,1948.8,6899.3
25493,1948.8,6399.3
25493,1948.8,6649.3
25493,1948.8,6899.3
25493,1948.8,6649.3
25493,1948.8,6899.3
25493,1948.8,6899.3
25493,1948.8,6149.3
25493,1948.8,6399.3
25493,1948.8,6649.3
25493,1948.8,6899.3
25493,1948.8,6399.3
25493,1948.8,6649.3
25493,1948.8,6899.3
25493,1948.8,6649.3
25493,1948.8,6899.3
25493,1948.8,6899.3
25493,1948.8,6149.3
25493,1948.8,6399.3
25493,1948.8,6649.3
25493,1948.8,6899.3
25493,1948.8,6399.3
25493,1948.8,6649.3
25493,1948.8,6899.3
25493,1948.8,6649.3
25493,1948.8,6899.3
25493,1948.8,6899.3
25493,1948.8,6149.3
25493,1948.8,6399.3
25493,1948.8,6649.3
25493,1948.8,6899.3
25493,1948.8,6399.3
25493,1948.8,6649.3
25493,1948.8,6899.3
25493,1948.8,6649.3
25493,1948.8,6899.3
25493,1948.8,6899.3
25493,1948.8,6399.3
25493,1948.8,6649.3
25493,1948.8,6899.3
25493,1948.8,6649.3
25493,1948.8,6899.3
25493,1948.8,6899.3
25493,1948.8,6149.3
25493,1948.8,6399.3
25493,1948.8,6649.3
25493,1948.8,6899.3
25493,1948.8,6399.3
25493,1948.8,6649.3
25493,1948.8,6899.3
25493,1948.8,6649.3
25493,1948.8,6899.3
25493,1948.8,6899.3
25493,1948.8,6149.3
25493,1948.8,6399.3
25493,1948.8,6649.3
25493,1948.8,6899.3
25493,1948.8,6399.3
25493,1948.8,6649.3
25493,1948.8,6899.3
25493,1948.8,6649.3
25493,1948.8,6899.3
25493,1948.8,6899.3
25493,1948.8,6399.3
25493,1948.8,6649.3
25493,1948.8,6899.3
25493,1948.8,6649.3
25493,1948.8,6899.3
25493,1948.8,6899.3
25493,1948.8,6649.3
25493,1948.8,6899.3
25493,1948.8,6899.3
25493,1948.8,6149.3
25493,1948.8,6399.3
25493,1948.8,6649.3
25493,1948.8,6899.3
25493,1948.8,6399.3
25493,1948.8,6649.3
25493,1948.8,6899.3
25493,1948.8,6649.3
25493,1948.8,6899.3
25493,1948.8,6899.3
25493,1948.8,6149.3
25493,1948.8,6399.3
25493,1948.8,6649.3
25493,1948.8,6899.3
25493,1948.8,6399.3
25493,1948.8,6649.3
25493,1948.8,6899.3
25493,1948.8,6649.3
25493,1948.8,6899.3
25493,1948.8,6899.3
25493,1948.8,6399.3
25493,1948.8,6649.3
25493,1948.8,6899.3
25493,1948.8,6649.3
25493,1948.8,6899.3
25493,1948.8,6899.3
25493,1948.8,6649.3
25493,1948.8,6899.3
25493,1948.8,6899.3
25493,1948.8,6899.3
25493,1948.8,6149.3
25493,1948.8,6399.3
25493,1948.8,6649.3
25493,1948.8,6899.3
25493,1948.8,6399.3
25493,1948.8,6649.3
25493,1948.8,6899.3
25493,1948.8,6649.3
25493,1948.8,6899.3
25493,1948.8,6899.3
25493,1948.8,6149.3
25493,1948.8,6399.3
25493,1948.8,6649.3
25493,1948.8,6899.3
25493,1948.8,6399.3
25493,1948.8,6649.3
25493,1948.8,6899.3
25493,1948.8,6649.3
25493,1948.8,6899.3
25493,1948.8,6899.3
25493,1948.8,6149.3
25493,1948.8,6399.3
25493,1948.8,6649.3
25493,1948.8,6899.3
25493,1948.8,6399.3
25493,1948.8,6649.3
25493,1948.8,6899.3
25493,1948.8,6649.3
25493,1948.8,6899.3
25493,1948.8,6899.3
25493,1948.8,6149.3
25493,1948.8,6399.3
25493,1948.8,6649.3
25493,1948.8,6899.3
25493,1948.8,6399.3
25493,1948.8,6649.3
25493,1948.8,6899.3
25493,1948.8,6649.3
25493,1948.8,6899.3
25493,1948.8,6899.3
25493,1948.8,6399.3
25493,1948.8,6649.3
25493,1948.8,6899.3
25493,1948.8,6649.3
25493,1948.8,6899.3
25493,1948.8,6899.3
25493,1948.8,6149.3
25493,1948.8,6399.3
25493,1948.8,6649.3
25493,1948.8,6899.3
25493,1948.8,6399.3
25493,1948.8,6649.3
25493,1948.8,6899.3
25493,1948.8,6649.3
25493,1948.8,6899.3
25493,1948.8,6899.3
25493,1948.8,6149.3
25493,1948.8,6399.3
25493,1948.8,6649.3
25493,1948.8,6899.3
25493,1948.8,6399.3
25493,1948.8,6649.3
25493,1948.8,6899.3
25493,1948.8,6649.3
25493,1948.8,6899.3
25493,1948.8,6899.3
25493,1948.8,6399.3
25493,1948.8,6649.3
25493,1948.8,6899.3
25493,1948.8,6649.3
25493,1948.8,6899.3
25493,1948.8,6899.3
25493,1948.8,6649.3
25493,1948.8,6899.3
25493,1948.8,6899.3
25493,1948.8,6149.3
25493,1948.8,6399.3
25493,1948.8,6649.3
25493,1948.8,6899.3
25493,1948.8,6399.3
25493,1948.8,6649.3
25493,1948.8,6899.3
25493,1948.8,6649.3
25493,1948.8,6899.3
25493,1948.8,6899.3
25493,1948.8,6149.3
25493,1948.8,6399.3
25493,1948.8,6649.3
25493,1948.8,6899.3
25493,1948.8,6399.3
25493,1948.8,6649.3
25493,1948.8,6899.3
25493,1948.8,6649.3
25493,1948.8,6899.3
25493,1948.8,6899.3
25493,1948.8,6399.3
25493,1948.8,6649.3
25493,1948.8,6899.3
25493,1948.8,6649.3
25493,1948.8,6899.3
25493,1948.8,6899.3
25493,1948.8,6649.3
25493,1948.8,6899.3
25493,1948.8,6899.3
25493,1948.8,6899.3
25493,1948.8,6149.3
25493,1948.8,6399.3
25493,1948.8,6649.3
25493,1948.8,6899.3
25493,1948.8,6399.3
25493,1948.8,6649.3
25493,1948.8,6899.3
25493,1948.8,6649.3
25493,1948.8,6899.3
25493,1948.8,6899.3
25493,1948.8,6399.3
25493,1948.8,6649.3
25493,1948.8,6899.3
25493,1948.8,6649.3
25493,1948.8,6899.3
25493,1948.8,6899.3
25493,1948.8,6649.3
25493,1948.8,6899.3
25493,1948.8,6899.3
25493,1948.8,6899.3
