39027,1948.8,7047.2
39027,1948.8,7047.2
39027,1948.8,7297.2
39027,1948.8,7047.2
39027,1948.8,7297.2
39027,1948.8,7547.2
39027,1948.8,7047.2
39027,1948.8,7047.2
39027,1948.8,7297.2
39027,1948.8,7047.2
39027,1948.8,7297.2
39027,1948.8,7547.2
39027,1948.8,7047.2
39027,1948.8,7297.2
39027,1948.8,7547.2
39027,1948.8,7797.2
39027,1948.8,7047.2
39027,1948.8,7047.2
39027,1948.8,7297.2
39027,1948.8,7047.2
39027,1948.8,7297.2
39027,1948.8,7547.2
39027,1948.8,7047.2
39027,1948.8,7297.2
39027,1948.8,7547.2
39027,1948.8,7797.2
39027,1948.8,7047.2
39027,1948.8,7297.2
39027,1948.8,7547.2
39027,1948.8,7797.2
39027,1948.8,8047.2
39027,1948.8,7047.2
39027,1948.8,7297.2
39027,1948.8,7047.2
39027,1948.8,7297.2
39027,1948.8,7547.2
39027,1948.8,7047.2
39027,1948.8,7297.2
39027,1948.8,7547.2
39027,1948.8,7797.2
39027,1948.8,7047.2
39027,1948.8,7297.2
39027,1948.8,7547.2
39027,1948.8,7797.2
39027,1948.8,8047.2
39027,1948.8,7297.2
39027,1948.8,7547.2
39027,1948.8,7797.2
39027,1948.8,8047.2
39027,1948.8,8297.2
39027,1948.8,7047.2
39027,1948.8,7297.2
39027,1948.8,7547.2
39027,1948.8,7047.2
39027,1948.8,7297.2
39027,1948.8,7547.2
39027,1948.8,7797.2
39027,1948.8,7047.2
39027,1948.8,7297.2
39027,1948.8,7547.2
39027,1948.8,7797.2
39027,1948.8,8047.2
39027,1948.8,7297.2
39027,1948.8,7547.2
39027,1948.8,7797.2
39027,1948.8,8047.2
39027,1948.8,8297.2
39027,1948.8,7547.2
39027,1948.8,7797.2
39027,1948.8,8047.2
39027,1948.8,8297.2
39828,1948.8,7297.2
39828,1948.8,7297.2
39828,1948.8,7297.2
39828,1948.8,7297.2
39828,1948.8,7297.2
39828,1948.8,7297.2
39828,1948.8,7297.2
39828,1948.8,7297.2
39828,1948.8,7297.2
39828,1948.8,7297.2
39828,1948.8,7297.2
39828,1948.8,7297.2
39828,1948.8,7297.2
39828,1948.8,7297.2
39828,1948.8,7297.2
39828,1948.8,7297.2
39828,1948.8,7297.2
39828,1948.8,7297.2
39828,1948.8,8047.2
39828,1948.8,8297.2
39828,1948.8,8547.2
40629,1948.8,7047.2
40629,1948.8,7047.2
40629,1948.8,7047.2
40629,1948.8,7297.2
40629,1948.8,7047.2
40629,1948.8,7047.2
40629,1948.8,7297.2
40629,1948.8,7047.2
40629,1948.8,7297.2
40629,1948.8,7547.2
40629,1948.8,7047.2
40629,1948.8,7047.2
40629,1948.8,7047.2
40629,1948.8,7297.2
40629,1948.8,7047.2
40629,1948.8,7047.2
40629,1948.8,7297.2
40629,1948.8,7047.2
40629,1948.8,7297.2
40629,1948.8,7547.2
40629,1948.8,7047.2
40629,1948.8,7047.2
40629,1948.8,7297.2
40629,1948.8,7047.2
40629,1948.8,7297.2
40629,1948.8,7547.2
40629,1948.8,7047.2
40629,1948.8,7047.2
40629,1948.8,7047.2
40629,1948.8,7297.2
40629,1948.8,7047.2
40629,1948.8,7047.2
40629,1948.8,7297.2
40629,1948.8,7047.2
40629,1948.8,7297.2
40629,1948.8,7547.2
40629,1948.8,7047.2
40629,1948.8,7047.2
40629,1948.8,7297.2
40629,1948.8,7047.2
40629,1948.8,7297.2
40629,1948.8,7547.2
40629,1948.8,7047.2
40629,1948.8,7047.2
40629,1948.8,7297.2
40629,1948.8,7047.2
40629,1948.8,7047.2
40629,1948.8,7297.2
40629,1948.8,7047.2
40629,1948.8,7297.2
40629,1948.8,7547.2
40629,1948.8,7047.2
40629,1948.8,7047.2
40629,1948.8,7297.2
40629,1948.8,7047.2
40629,1948.8,7297.2
40629,1948.8,7547.2
40629,1948.8,7047.2
40629,1948.8,7047.2
40629,1948.8,7297.2
40629,1948.8,7047.2
40629,1948.8,7297.2
40629,1948.8,7547.2
40629,1948.8,7047.2
40629,1948.8,7047.2
40629,1948.8,7297.2
40629,1948.8,7047.2
40629,1948.8,7297.2
40629,1948.8,7547.2
40629,1948.8,7047.2
40629,1948.8,7047.2
40629,1948.8,7047.2
40629,1948.8,7297.2
40629,1948.8,7047.2
40629,1948.8,7047.2
40629,1948.8,7297.2
40629,1948.8,7047.2
40629,1948.8,7297.2
40629,1948.8,7547.2
40629,1948.8,7047.2
40629,1948.8,7047.2
40629,1948.8,7297.2
40629,1948.8,7047.2
40629,1948.8,7297.2
40629,1948.8,7547.2
40629,1948.8,7047.2
40629,1948.8,7047.2
40629,1948.8,7047.2
40629,1948.8,7297.2
40629,1948.8,7047.2
40629,1948.8,7047.2
40629,1948.8,7297.2
40629,1948.8,7047.2
40629,1948.8,7297.2
40629,1948.8,7547.2
40629,1948.8,7047.2
40629,1948.8,7047.2
40629,1948.8,7297.2
40629,1948.8,7047.2
40629,1948.8,7297.2
40629,1948.8,7547.2
40629,1948.8,7047.2
40629,1948.8,7047.2
40629,1948.8,7297.2
40629,1948.8,7047.2
40629,1948.8,7047.2
40629,1948.8,7297.2
40629,1948.8,7047.2
40629,1948.8,7297.2
40629,1948.8,7547.2
40629,1948.8,7047.2
40629,1948.8,7047.2
40629,1948.8,7297.2
40629,1948.8,7047.2
40629,1948.8,7297.2
40629,1948.8,7547.2
40629,1948.8,7047.2
40629,1948.8,7047.2
40629,1948.8,7297.2
40629,1948.8,7047.2
40629,1948.8,7297.2
40629,1948.8,7547.2
40629,1948.8,7047.2
40629,1948.8,7047.2
40629,1948.8,7297.2
40629,1948.8,7047.2
40629,1948.8,7297.2
40629,1948.8,7547.2
40629,1948.8,7047.2
40629,1948.8,7047.2
40629,1948.8,7297.2
40629,1948.8,7047.2
40629,1948.8,7297.2
40629,1948.8,7547.2
40629,1948.8,7047.2
40629,1948.8,7047.2
40629,1948.8,7047.2
40629,1948.8,7297.2
40629,1948.8,7047.2
40629,1948.8,7047.2
40629,1948.8,7297.2
40629,1948.8,7047.2
40629,1948.8,7297.2
40629,1948.8,7547.2
40629,1948.8,7047.2
40629,1948.8,7047.2
40629,1948.8,7297.2
40629,1948.8,7047.2
40629,1948.8,7297.2
40629,1948.8,7547.2
40629,1948.8,7047.2
40629,1948.8,7047.2
40629,1948.8,7297.2
40629,1948.8,7047.2
40629,1948.8,7047.2
40629,1948.8,7297.2
40629,1948.8,7047.2
40629,1948.8,7297.2
40629,1948.8,7547.2
40629,1948.8,7047.2
40629,1948.8,7047.2
40629,1948.8,7297.2
40629,1948.8,7047.2
40629,1948.8,7297.2
40629,1948.8,7547.2
40629,1948.8,7047.2
40629,1948.8,7047.2
40629,1948.8,7297.2
40629,1948.8,7047.2
40629,1948.8,7297.2
40629,1948.8,7547.2
40629,1948.8,7047.2
40629,1948.8,7047.2
40629,1948.8,7297.2
40629,1948.8,7047.2
40629,1948.8,7297.2
40629,1948.8,7547.2
40629,1948.8,7047.2
40629,1948.8,7047.2
40629,1948.8,7297.2
40629,1948.8,7047.2
40629,1948.8,7297.2
40629,1948.8,7547.2
40629,1948.8,7047.2
40629,1948.8,7047.2
40629,1948.8,7297.2
40629,1948.8,7047.2
40629,1948.8,7047.2
40629,1948.8,7297.2
40629,1948.8,7047.2
40629,1948.8,7297.2
40629,1948.8,7547.2
40629,1948.8,7047.2
40629,1948.8,7047.2
40629,1948.8,7297.2
40629,1948.8,7047.2
40629,1948.8,7297.2
40629,1948.8,7547.2
40629,1948.8,7047.2
40629,1948.8,7047.2
40629,1948.8,7297.2
40629,1948.8,7047.2
40629,1948.8,7297.2
40629,1948.8,7547.2
40629,1948.8,7047.2
40629,1948.8,7047.2
40629,1948.8,7297.2
40629,1948.8,7047.2
40629,1948.8,7297.2
40629,1948.8,7547.2
40629,1948.8,7047.2
40629,1948.8,7047.2
40629,1948.8,7297.2
40629,1948.8,7047.2
40629,1948.8,7297.2
40629,1948.8,7547.2
40629,1948.8,7047.2
40629,1948.8,7047.2
40629,1948.8,7297.2
40629,1948.8,7047.2
40629,1948.8,7297.2
40629,1948.8,7547.2
40629,1948.8,7047.2
40629,1948.8,7047.2
40629,1948.8,7297.2
40629,1948.8,7047.2
40629,1948.8,7297.2
40629,1948.8,7547.2
40629,1948.8,7047.2
40629,1948.8,7047.2
40629,1948.8,7297.2
40629,1948.8,7047.2
40629,1948.8,7297.2
40629,1948.8,7547.2
40629,1948.8,8297.2
