53923,1948.8,4390.9
53923,1948.8,4640.9
53923,1948.8,4890.9
53923,1948.8,4390.9
53923,1948.8,4640.9
53923,1948.8,4890.9
53923,1948.8,5140.9
53923,1948.8,4390.9
53923,1948.8,4640.9
53923,1948.8,4890.9
53923,1948.8,5140.9
53923,1948.8,5390.9
53923,1948.8,4640.9
53923,1948.8,4890.9
53923,1948.8,5140.9
53923,1948.8,5390.9
53923,1948.8,5640.9
53923,1948.8,4890.9
53923,1948.8,5140.9
53923,1948.8,5390.9
53923,1948.8,5640.9
53923,1948.8,4390.9
53923,1948.8,4640.9
53923,1948.8,4890.9
53923,1948.8,5140.9
53923,1948.8,4390.9
53923,1948.8,4640.9
53923,1948.8,4890.9
53923,1948.8,5140.9
53923,1948.8,5390.9
53923,1948.8,4640.9
53923,1948.8,4890.9
53923,1948.8,5140.9
53923,1948.8,5390.9
53923,1948.8,5640.9
53923,1948.8,4890.9
53923,1948.8,5140.9
53923,1948.8,5390.9
53923,1948.8,5640.9
53923,1948.8,5140.9
53923,1948.8,5390.9
53923,1948.8,5640.9
53923,1948.8,4390.9
53923,1948.8,4640.9
53923,1948.8,4890.9
53923,1948.8,5140.9
53923,1948.8,5390.9
53923,1948.8,4640.9
53923,1948.8,4890.9
53923,1948.8,5140.9
53923,1948.8,5390.9
53923,1948.8,5640.9
53923,1948.8,4890.9
53923,1948.8,5140.9
53923,1948.8,5390.9
53923,1948.8,5640.9
53923,1948.8,5140.9
53923,1948.8,5390.9
53923,1948.8,5640.9
53923,1948.8,5390.9
53923,1948.8,5640.9
53923,1948.8,4640.9
53923,1948.8,4890.9
53923,1948.8,5140.9
53923,1948.8,5390.9
53923,1948.8,5640.9
53923,1948.8,4890.9
53923,1948.8,5140.9
53923,1948.8,5390.9
53923,1948.8,5640.9
53923,1948.8,5140.9
53923,1948.8,5390.9
53923,1948.8,5640.9
53923,1948.8,5390.9
53923,1948.8,5640.9
53923,1948.8,5640.9
53923,1948.8,4890.9
53923,1948.8,5140.9
53923,1948.8,5390.9
53923,1948.8,5640.9
53923,1948.8,5140.9
53923,1948.8,5390.9
53923,1948.8,5640.9
53923,1948.8,5390.9
53923,1948.8,5640.9
53923,1948.8,5640.9
53313,1948.8,4140.9
53313,1948.8,4390.9
53313,1948.8,4140.9
53313,1948.8,4390.9
53313,1948.8,4640.9
53313,1948.8,4140.9
53313,1948.8,4390.9
53313,1948.8,4640.9
53313,1948.8,5390.9
53313,1948.8,6140.9
53313,1948.8,6390.9
53313,1948.8,4140.9
53313,1948.8,4390.9
53313,1948.8,4640.9
53313,1948.8,5390.9
53313,1948.8,6140.9
53313,1948.8,6390.9
53313,1948.8,5390.9
53313,1948.8,6140.9
53313,1948.8,6390.9
53313,1948.8,6140.9
53313,1948.8,6390.9
53313,1948.8,6640.9
53313,1948.8,5390.9
53313,1948.8,6140.9
53313,1948.8,6390.9
53313,1948.8,5390.9
53313,1948.8,6140.9
53313,1948.8,6390.9
53313,1948.8,6140.9
53313,1948.8,6390.9
53313,1948.8,6640.9
53313,1948.8,5390.9
53313,1948.8,6140.9
53313,1948.8,6390.9
53313,1948.8,6140.9
53313,1948.8,6390.9
53313,1948.8,6640.9
53313,1948.8,6140.9
53313,1948.8,6390.9
53313,1948.8,6640.9
53313,1948.8,6890.9
53313,1948.8,5390.9
53313,1948.8,6140.9
53313,1948.8,6390.9
53313,1948.8,5390.9
53313,1948.8,6140.9
53313,1948.8,6390.9
53313,1948.8,6140.9
53313,1948.8,6390.9
53313,1948.8,6640.9
53313,1948.8,5390.9
53313,1948.8,6140.9
53313,1948.8,6390.9
53313,1948.8,6140.9
53313,1948.8,6390.9
53313,1948.8,6640.9
53313,1948.8,6140.9
53313,1948.8,6390.9
53313,1948.8,6640.9
53313,1948.8,6890.9
53313,1948.8,5390.9
53313,1948.8,6140.9
53313,1948.8,6390.9
53313,1948.8,6140.9
53313,1948.8,6390.9
53313,1948.8,6640.9
53313,1948.8,6140.9
53313,1948.8,6390.9
53313,1948.8,6640.9
53313,1948.8,6890.9
53313,1948.8,6140.9
53313,1948.8,6390.9
53313,1948.8,6640.9
53313,1948.8,6890.9
53313,1948.8,7140.9
53313,1948.8,5390.9
53313,1948.8,6140.9
53313,1948.8,6390.9
53313,1948.8,5390.9
53313,1948.8,6140.9
53313,1948.8,6390.9
53313,1948.8,6140.9
53313,1948.8,6390.9
53313,1948.8,6640.9
53313,1948.8,5390.9
53313,1948.8,6140.9
53313,1948.8,6390.9
53313,1948.8,6140.9
53313,1948.8,6390.9
53313,1948.8,6640.9
53313,1948.8,6140.9
53313,1948.8,6390.9
53313,1948.8,6640.9
53313,1948.8,6890.9
53313,1948.8,5390.9
53313,1948.8,6140.9
53313,1948.8,6390.9
53313,1948.8,6140.9
53313,1948.8,6390.9
53313,1948.8,6640.9
53313,1948.8,6140.9
53313,1948.8,6390.9
53313,1948.8,6640.9
53313,1948.8,6890.9
53313,1948.8,6140.9
53313,1948.8,6390.9
53313,1948.8,6640.9
53313,1948.8,6890.9
53313,1948.8,7140.9
53313,1948.8,5390.9
53313,1948.8,6140.9
53313,1948.8,6390.9
53313,1948.8,6140.9
53313,1948.8,6390.9
53313,1948.8,6640.9
53313,1948.8,6140.9
53313,1948.8,6390.9
53313,1948.8,6640.9
53313,1948.8,6890.9
53313,1948.8,6140.9
53313,1948.8,6390.9
53313,1948.8,6640.9
53313,1948.8,6890.9
53313,1948.8,7140.9
53313,1948.8,6390.9
53313,1948.8,6640.9
53313,1948.8,6890.9
53313,1948.8,7140.9
52704,1948.8,3890.9
52704,1948.8,3890.9
52704,1948.8,4140.9
52704,1948.8,3890.9
52704,1948.8,4140.9
52704,1948.8,4390.9
52704,1948.8,3890.9
52704,1948.8,4140.9
52704,1948.8,3890.9
52704,1948.8,4140.9
52704,1948.8,4390.9
52704,1948.8,3890.9
52704,1948.8,4140.9
52704,1948.8,3890.9
52704,1948.8,4140.9
52704,1948.8,4390.9
52704,1948.8,5140.9
52704,1948.8,3890.9
52704,1948.8,4140.9
52704,1948.8,3890.9
52704,1948.8,4140.9
52704,1948.8,4390.9
52704,1948.8,5140.9
52704,1948.8,5140.9
52704,1948.8,5140.9
52704,1948.8,5140.9
52704,1948.8,5140.9
52704,1948.8,5140.9
52704,1948.8,5140.9
52704,1948.8,5140.9
52704,1948.8,5140.9
52704,1948.8,5140.9
52704,1948.8,5140.9
52704,1948.8,5140.9
52704,1948.8,5140.9
52704,1948.8,5140.9
52704,1948.8,5140.9
52704,1948.8,5140.9
52704,1948.8,5140.9
52704,1948.8,5140.9
52704,1948.8,5140.9
52704,1948.8,5140.9
52704,1948.8,5140.9
52704,1948.8,5140.9
52704,1948.8,5140.9
52704,1948.8,5140.9
52704,1948.8,6890.9
52704,1948.8,7140.9
52704,1948.8,7390.9
52704,1948.8,7640.9
