50088,1948.8,4751.3
50724,1948.8,6001.3
50724,1948.8,6001.3
50724,1948.8,6251.3
51996,1948.8,6001.3
51996,1948.8,6001.3
51996,1948.8,6001.3
51996,1948.8,6251.3
51996,1948.8,6001.3
51996,1948.8,6001.3
51996,1948.8,6251.3
51996,1948.8,6001.3
51996,1948.8,6251.3
51996,1948.8,6501.3
51996,1948.8,6001.3
51996,1948.8,6001.3
51996,1948.8,6001.3
51996,1948.8,6251.3
51996,1948.8,6001.3
51996,1948.8,6001.3
51996,1948.8,6251.3
51996,1948.8,6001.3
51996,1948.8,6251.3
51996,1948.8,6501.3
51996,1948.8,6001.3
51996,1948.8,6001.3
51996,1948.8,6251.3
51996,1948.8,6001.3
51996,1948.8,6251.3
51996,1948.8,6501.3
51996,1948.8,6001.3
51996,1948.8,6251.3
51996,1948.8,6501.3
51996,1948.8,6751.3
51996,1948.8,6001.3
51996,1948.8,6001.3
51996,1948.8,6001.3
51996,1948.8,6251.3
51996,1948.8,6001.3
51996,1948.8,6001.3
51996,1948.8,6251.3
51996,1948.8,6001.3
51996,1948.8,6251.3
51996,1948.8,6501.3
51996,1948.8,6001.3
51996,1948.8,6001.3
51996,1948.8,6251.3
51996,1948.8,6001.3
51996,1948.8,6251.3
51996,1948.8,6501.3
51996,1948.8,6001.3
51996,1948.8,6251.3
51996,1948.8,6501.3
51996,1948.8,6751.3
51996,1948.8,6001.3
51996,1948.8,6001.3
51996,1948.8,6251.3
51996,1948.8,6001.3
51996,1948.8,6001.3
51996,1948.8,6251.3
51996,1948.8,6001.3
51996,1948.8,6251.3
51996,1948.8,6501.3
51996,1948.8,6001.3
51996,1948.8,6001.3
51996,1948.8,6251.3
51996,1948.8,6001.3
51996,1948.8,6251.3
51996,1948.8,6501.3
51996,1948.8,6001.3
51996,1948.8,6251.3
51996,1948.8,6501.3
51996,1948.8,6751.3
52633,1948.8,5251.3
52633,1948.8,5251.3
52633,1948.8,5251.3
52633,1948.8,5501.3
52633,1948.8,5251.3
52633,1948.8,5251.3
52633,1948.8,5501.3
52633,1948.8,5251.3
52633,1948.8,5501.3
52633,1948.8,5751.3
52633,1948.8,5251.3
52633,1948.8,5251.3
52633,1948.8,5501.3
52633,1948.8,5251.3
52633,1948.8,5501.3
52633,1948.8,5751.3
52633,1948.8,5251.3
52633,1948.8,5501.3
52633,1948.8,5751.3
52633,1948.8,6001.3
52633,1948.8,5251.3
52633,1948.8,5251.3
52633,1948.8,5251.3
52633,1948.8,5501.3
52633,1948.8,5251.3
52633,1948.8,5251.3
52633,1948.8,5501.3
52633,1948.8,5251.3
52633,1948.8,5501.3
52633,1948.8,5751.3
52633,1948.8,5251.3
52633,1948.8,5251.3
52633,1948.8,5501.3
52633,1948.8,5251.3
52633,1948.8,5501.3
52633,1948.8,5751.3
52633,1948.8,5251.3
52633,1948.8,5501.3
52633,1948.8,5751.3
52633,1948.8,6001.3
52633,1948.8,5251.3
52633,1948.8,5251.3
52633,1948.8,5501.3
52633,1948.8,5251.3
52633,1948.8,5501.3
52633,1948.8,5751.3
52633,1948.8,5251.3
52633,1948.8,5501.3
52633,1948.8,5751.3
52633,1948.8,6001.3
52633,1948.8,5251.3
52633,1948.8,5501.3
52633,1948.8,5751.3
52633,1948.8,6001.3
52633,1948.8,6251.3
52633,1948.8,5251.3
52633,1948.8,5251.3
52633,1948.8,5501.3
52633,1948.8,5251.3
52633,1948.8,5251.3
52633,1948.8,5501.3
52633,1948.8,5251.3
52633,1948.8,5501.3
52633,1948.8,5751.3
52633,1948.8,5251.3
52633,1948.8,5251.3
52633,1948.8,5501.3
52633,1948.8,5251.3
52633,1948.8,5501.3
52633,1948.8,5751.3
52633,1948.8,5251.3
52633,1948.8,5501.3
52633,1948.8,5751.3
52633,1948.8,6001.3
52633,1948.8,5251.3
52633,1948.8,5251.3
52633,1948.8,5501.3
52633,1948.8,5251.3
52633,1948.8,5501.3
52633,1948.8,5751.3
52633,1948.8,5251.3
52633,1948.8,5501.3
52633,1948.8,5751.3
52633,1948.8,6001.3
52633,1948.8,5251.3
52633,1948.8,5501.3
52633,1948.8,5751.3
52633,1948.8,6001.3
52633,1948.8,6251.3
52633,1948.8,5251.3
52633,1948.8,5501.3
52633,1948.8,5251.3
52633,1948.8,5501.3
52633,1948.8,5751.3
52633,1948.8,5251.3
52633,1948.8,5501.3
52633,1948.8,5751.3
52633,1948.8,6001.3
52633,1948.8,5251.3
52633,1948.8,5501.3
52633,1948.8,5751.3
52633,1948.8,6001.3
52633,1948.8,6251.3
52633,1948.8,5251.3
52633,1948.8,5251.3
52633,1948.8,5501.3
52633,1948.8,5251.3
52633,1948.8,5501.3
52633,1948.8,5751.3
52633,1948.8,5251.3
52633,1948.8,5251.3
52633,1948.8,5501.3
52633,1948.8,5251.3
52633,1948.8,5501.3
52633,1948.8,5751.3
52633,1948.8,5251.3
52633,1948.8,5501.3
52633,1948.8,5751.3
52633,1948.8,6001.3
52633,1948.8,5251.3
52633,1948.8,5251.3
52633,1948.8,5501.3
52633,1948.8,5251.3
52633,1948.8,5501.3
52633,1948.8,5751.3
52633,1948.8,5251.3
52633,1948.8,5501.3
52633,1948.8,5751.3
52633,1948.8,6001.3
52633,1948.8,5251.3
52633,1948.8,5501.3
52633,1948.8,5751.3
52633,1948.8,6001.3
52633,1948.8,6251.3
52633,1948.8,5251.3
52633,1948.8,5501.3
52633,1948.8,5251.3
52633,1948.8,5501.3
52633,1948.8,5751.3
52633,1948.8,5251.3
52633,1948.8,5501.3
52633,1948.8,5751.3
52633,1948.8,6001.3
52633,1948.8,5251.3
52633,1948.8,5501.3
52633,1948.8,5751.3
52633,1948.8,6001.3
52633,1948.8,6251.3
52633,1948.8,5251.3
52633,1948.8,5501.3
52633,1948.8,5751.3
52633,1948.8,5251.3
52633,1948.8,5501.3
52633,1948.8,5751.3
52633,1948.8,6001.3
52633,1948.8,5251.3
52633,1948.8,5501.3
52633,1948.8,5751.3
52633,1948.8,6001.3
52633,1948.8,6251.3
52633,1948.8,5251.3
52633,1948.8,5251.3
52633,1948.8,5501.3
52633,1948.8,5251.3
52633,1948.8,5501.3
52633,1948.8,5751.3
52633,1948.8,5251.3
52633,1948.8,5501.3
52633,1948.8,5751.3
52633,1948.8,6001.3
52633,1948.8,5251.3
52633,1948.8,5251.3
52633,1948.8,5501.3
52633,1948.8,5251.3
52633,1948.8,5501.3
52633,1948.8,5751.3
52633,1948.8,5251.3
52633,1948.8,5501.3
52633,1948.8,5751.3
52633,1948.8,6001.3
52633,1948.8,5251.3
52633,1948.8,5501.3
52633,1948.8,5751.3
52633,1948.8,6001.3
52633,1948.8,6251.3
52633,1948.8,5251.3
52633,1948.8,5501.3
52633,1948.8,5251.3
52633,1948.8,5501.3
52633,1948.8,5751.3
52633,1948.8,5251.3
52633,1948.8,5501.3
52633,1948.8,5751.3
52633,1948.8,6001.3
52633,1948.8,5251.3
52633,1948.8,5501.3
52633,1948.8,5751.3
52633,1948.8,6001.3
52633,1948.8,6251.3
52633,1948.8,5251.3
52633,1948.8,5501.3
52633,1948.8,5751.3
52633,1948.8,5251.3
52633,1948.8,5501.3
52633,1948.8,5751.3
52633,1948.8,6001.3
52633,1948.8,5251.3
52633,1948.8,5501.3
52633,1948.8,5751.3
52633,1948.8,6001.3
52633,1948.8,6251.3
52633,1948.8,5251.3
52633,1948.8,5501.3
52633,1948.8,5751.3
52633,1948.8,6001.3
52633,1948.8,5251.3
52633,1948.8,5501.3
52633,1948.8,5751.3
52633,1948.8,6001.3
52633,1948.8,6251.3
52633,1948.8,5251.3
52633,1948.8,5251.3
52633,1948.8,5251.3
52633,1948.8,5501.3
52633,1948.8,5251.3
52633,1948.8,5251.3
52633,1948.8,5501.3
52633,1948.8,5251.3
52633,1948.8,5501.3
52633,1948.8,5751.3
52633,1948.8,5251.3
52633,1948.8,5251.3
52633,1948.8,5501.3
52633,1948.8,5251.3
52633,1948.8,5501.3
52633,1948.8,5751.3
52633,1948.8,5251.3
52633,1948.8,5501.3
52633,1948.8,5751.3
52633,1948.8,6001.3
52633,1948.8,5251.3
52633,1948.8,5251.3
52633,1948.8,5501.3
52633,1948.8,5251.3
52633,1948.8,5501.3
52633,1948.8,5751.3
52633,1948.8,5251.3
52633,1948.8,5501.3
52633,1948.8,5751.3
52633,1948.8,6001.3
52633,1948.8,5251.3
52633,1948.8,5501.3
52633,1948.8,5751.3
52633,1948.8,6001.3
52633,1948.8,6251.3
52633,1948.8,5251.3
52633,1948.8,5251.3
52633,1948.8,5501.3
52633,1948.8,5251.3
52633,1948.8,5251.3
52633,1948.8,5501.3
52633,1948.8,5251.3
52633,1948.8,5501.3
52633,1948.8,5751.3
52633,1948.8,5251.3
52633,1948.8,5251.3
52633,1948.8,5501.3
52633,1948.8,5251.3
52633,1948.8,5501.3
52633,1948.8,5751.3
52633,1948.8,5251.3
52633,1948.8,5501.3
52633,1948.8,5751.3
52633,1948.8,6001.3
52633,1948.8,5251.3
52633,1948.8,5251.3
52633,1948.8,5501.3
52633,1948.8,5251.3
52633,1948.8,5501.3
52633,1948.8,5751.3
52633,1948.8,5251.3
52633,1948.8,5501.3
52633,1948.8,5751.3
52633,1948.8,6001.3
52633,1948.8,5251.3
52633,1948.8,5501.3
52633,1948.8,5751.3
52633,1948.8,6001.3
52633,1948.8,6251.3
52633,1948.8,5251.3
52633,1948.8,5501.3
52633,1948.8,5251.3
52633,1948.8,5501.3
52633,1948.8,5751.3
52633,1948.8,5251.3
52633,1948.8,5501.3
52633,1948.8,5751.3
52633,1948.8,6001.3
52633,1948.8,5251.3
52633,1948.8,5501.3
52633,1948.8,5751.3
52633,1948.8,6001.3
52633,1948.8,6251.3
52633,1948.8,5251.3
52633,1948.8,5251.3
52633,1948.8,5501.3
52633,1948.8,5251.3
52633,1948.8,5501.3
52633,1948.8,5751.3
52633,1948.8,5251.3
52633,1948.8,5251.3
52633,1948.8,5501.3
52633,1948.8,5251.3
52633,1948.8,5501.3
52633,1948.8,5751.3
52633,1948.8,5251.3
52633,1948.8,5501.3
52633,1948.8,5751.3
52633,1948.8,6001.3
52633,1948.8,5251.3
52633,1948.8,5251.3
52633,1948.8,5501.3
52633,1948.8,5251.3
52633,1948.8,5501.3
52633,1948.8,5751.3
52633,1948.8,5251.3
52633,1948.8,5501.3
52633,1948.8,5751.3
52633,1948.8,6001.3
52633,1948.8,5251.3
52633,1948.8,5501.3
52633,1948.8,5751.3
52633,1948.8,6001.3
52633,1948.8,6251.3
52633,1948.8,5251.3
52633,1948.8,5501.3
52633,1948.8,5251.3
52633,1948.8,5501.3
52633,1948.8,5751.3
52633,1948.8,5251.3
52633,1948.8,5501.3
52633,1948.8,5751.3
52633,1948.8,6001.3
52633,1948.8,5251.3
52633,1948.8,5501.3
52633,1948.8,5751.3
52633,1948.8,6001.3
52633,1948.8,6251.3
52633,1948.8,5251.3
52633,1948.8,5501.3
52633,1948.8,5751.3
52633,1948.8,5251.3
52633,1948.8,5501.3
52633,1948.8,5751.3
52633,1948.8,6001.3
52633,1948.8,5251.3
52633,1948.8,5501.3
52633,1948.8,5751.3
52633,1948.8,6001.3
52633,1948.8,6251.3
52633,1948.8,5251.3
52633,1948.8,5251.3
52633,1948.8,5501.3
52633,1948.8,5251.3
52633,1948.8,5501.3
52633,1948.8,5751.3
52633,1948.8,5251.3
52633,1948.8,5501.3
52633,1948.8,5751.3
52633,1948.8,6001.3
52633,1948.8,5251.3
52633,1948.8,5251.3
52633,1948.8,5501.3
52633,1948.8,5251.3
52633,1948.8,5501.3
52633,1948.8,5751.3
52633,1948.8,5251.3
52633,1948.8,5501.3
52633,1948.8,5751.3
52633,1948.8,6001.3
52633,1948.8,5251.3
52633,1948.8,5501.3
52633,1948.8,5751.3
52633,1948.8,6001.3
52633,1948.8,6251.3
52633,1948.8,5251.3
52633,1948.8,5501.3
52633,1948.8,5251.3
52633,1948.8,5501.3
52633,1948.8,5751.3
52633,1948.8,5251.3
52633,1948.8,5501.3
52633,1948.8,5751.3
52633,1948.8,6001.3
52633,1948.8,5251.3
52633,1948.8,5501.3
52633,1948.8,5751.3
52633,1948.8,6001.3
52633,1948.8,6251.3
52633,1948.8,5251.3
52633,1948.8,5501.3
52633,1948.8,5751.3
52633,1948.8,5251.3
52633,1948.8,5501.3
52633,1948.8,5751.3
52633,1948.8,6001.3
52633,1948.8,5251.3
52633,1948.8,5501.3
52633,1948.8,5751.3
52633,1948.8,6001.3
52633,1948.8,6251.3
52633,1948.8,5251.3
52633,1948.8,5501.3
52633,1948.8,5751.3
52633,1948.8,6001.3
52633,1948.8,5251.3
52633,1948.8,5501.3
52633,1948.8,5751.3
52633,1948.8,6001.3
52633,1948.8,6251.3
52633,1948.8,5251.3
52633,1948.8,5251.3
52633,1948.8,5501.3
52633,1948.8,5251.3
52633,1948.8,5501.3
52633,1948.8,5751.3
52633,1948.8,5251.3
52633,1948.8,5501.3
52633,1948.8,5751.3
52633,1948.8,6001.3
52633,1948.8,5251.3
52633,1948.8,5501.3
52633,1948.8,5751.3
52633,1948.8,6001.3
52633,1948.8,6251.3
52633,1948.8,5251.3
52633,1948.8,5501.3
52633,1948.8,5251.3
52633,1948.8,5501.3
52633,1948.8,5751.3
52633,1948.8,5251.3
52633,1948.8,5501.3
52633,1948.8,5751.3
52633,1948.8,6001.3
52633,1948.8,5251.3
52633,1948.8,5501.3
52633,1948.8,5751.3
52633,1948.8,6001.3
52633,1948.8,6251.3
52633,1948.8,5251.3
52633,1948.8,5501.3
52633,1948.8,5751.3
52633,1948.8,5251.3
52633,1948.8,5501.3
52633,1948.8,5751.3
52633,1948.8,6001.3
52633,1948.8,5251.3
52633,1948.8,5501.3
52633,1948.8,5751.3
52633,1948.8,6001.3
52633,1948.8,6251.3
52633,1948.8,5251.3
52633,1948.8,5501.3
52633,1948.8,5751.3
52633,1948.8,6001.3
52633,1948.8,5251.3
52633,1948.8,5501.3
52633,1948.8,5751.3
52633,1948.8,6001.3
52633,1948.8,6251.3
52633,1948.8,5251.3
52633,1948.8,5501.3
52633,1948.8,5751.3
52633,1948.8,6001.3
52633,1948.8,6251.3
52633,1948.8,5251.3
52633,1948.8,5251.3
52633,1948.8,5501.3
52633,1948.8,5251.3
52633,1948.8,5251.3
52633,1948.8,5501.3
52633,1948.8,5251.3
52633,1948.8,5501.3
52633,1948.8,5751.3
52633,1948.8,5251.3
52633,1948.8,5251.3
52633,1948.8,5501.3
52633,1948.8,5251.3
52633,1948.8,5501.3
52633,1948.8,5751.3
52633,1948.8,5251.3
52633,1948.8,5501.3
52633,1948.8,5751.3
52633,1948.8,6001.3
52633,1948.8,5251.3
52633,1948.8,5251.3
52633,1948.8,5501.3
52633,1948.8,5251.3
52633,1948.8,5501.3
52633,1948.8,5751.3
52633,1948.8,5251.3
52633,1948.8,5501.3
52633,1948.8,5751.3
52633,1948.8,6001.3
52633,1948.8,5251.3
52633,1948.8,5501.3
52633,1948.8,5751.3
52633,1948.8,6001.3
52633,1948.8,6251.3
52633,1948.8,5251.3
52633,1948.8,5501.3
52633,1948.8,5251.3
52633,1948.8,5501.3
52633,1948.8,5751.3
52633,1948.8,5251.3
52633,1948.8,5501.3
52633,1948.8,5751.3
52633,1948.8,6001.3
52633,1948.8,5251.3
52633,1948.8,5501.3
52633,1948.8,5751.3
52633,1948.8,6001.3
52633,1948.8,6251.3
52633,1948.8,5251.3
52633,1948.8,5251.3
52633,1948.8,5501.3
52633,1948.8,5251.3
52633,1948.8,5501.3
52633,1948.8,5751.3
52633,1948.8,5251.3
52633,1948.8,5251.3
52633,1948.8,5501.3
52633,1948.8,5251.3
52633,1948.8,5501.3
52633,1948.8,5751.3
52633,1948.8,5251.3
52633,1948.8,5501.3
52633,1948.8,5751.3
52633,1948.8,6001.3
52633,1948.8,5251.3
52633,1948.8,5251.3
52633,1948.8,5501.3
52633,1948.8,5251.3
52633,1948.8,5501.3
52633,1948.8,5751.3
52633,1948.8,5251.3
52633,1948.8,5501.3
52633,1948.8,5751.3
52633,1948.8,6001.3
52633,1948.8,5251.3
52633,1948.8,5501.3
52633,1948.8,5751.3
52633,1948.8,6001.3
52633,1948.8,6251.3
52633,1948.8,5251.3
52633,1948.8,5501.3
52633,1948.8,5251.3
52633,1948.8,5501.3
52633,1948.8,5751.3
52633,1948.8,5251.3
52633,1948.8,5501.3
52633,1948.8,5751.3
52633,1948.8,6001.3
52633,1948.8,5251.3
52633,1948.8,5501.3
52633,1948.8,5751.3
52633,1948.8,6001.3
52633,1948.8,6251.3
52633,1948.8,5251.3
52633,1948.8,5501.3
52633,1948.8,5751.3
52633,1948.8,5251.3
52633,1948.8,5501.3
52633,1948.8,5751.3
52633,1948.8,6001.3
52633,1948.8,5251.3
52633,1948.8,5501.3
52633,1948.8,5751.3
52633,1948.8,6001.3
52633,1948.8,6251.3
52633,1948.8,5251.3
52633,1948.8,5251.3
52633,1948.8,5501.3
52633,1948.8,5251.3
52633,1948.8,5501.3
52633,1948.8,5751.3
52633,1948.8,5251.3
52633,1948.8,5501.3
52633,1948.8,5751.3
52633,1948.8,6001.3
52633,1948.8,5251.3
52633,1948.8,5251.3
52633,1948.8,5501.3
52633,1948.8,5251.3
52633,1948.8,5501.3
52633,1948.8,5751.3
52633,1948.8,5251.3
52633,1948.8,5501.3
52633,1948.8,5751.3
52633,1948.8,6001.3
52633,1948.8,5251.3
52633,1948.8,5501.3
52633,1948.8,5751.3
52633,1948.8,6001.3
52633,1948.8,6251.3
52633,1948.8,5251.3
52633,1948.8,5501.3
52633,1948.8,5251.3
52633,1948.8,5501.3
52633,1948.8,5751.3
52633,1948.8,5251.3
52633,1948.8,5501.3
52633,1948.8,5751.3
52633,1948.8,6001.3
52633,1948.8,5251.3
52633,1948.8,5501.3
52633,1948.8,5751.3
52633,1948.8,6001.3
52633,1948.8,6251.3
52633,1948.8,5251.3
52633,1948.8,5501.3
52633,1948.8,5751.3
52633,1948.8,5251.3
52633,1948.8,5501.3
52633,1948.8,5751.3
52633,1948.8,6001.3
52633,1948.8,5251.3
52633,1948.8,5501.3
52633,1948.8,5751.3
52633,1948.8,6001.3
52633,1948.8,6251.3
52633,1948.8,5251.3
52633,1948.8,5501.3
52633,1948.8,5751.3
52633,1948.8,6001.3
52633,1948.8,5251.3
52633,1948.8,5501.3
52633,1948.8,5751.3
52633,1948.8,6001.3
52633,1948.8,6251.3
52633,1948.8,5251.3
52633,1948.8,5251.3
52633,1948.8,5501.3
52633,1948.8,5251.3
52633,1948.8,5501.3
52633,1948.8,5751.3
52633,1948.8,5251.3
52633,1948.8,5501.3
52633,1948.8,5751.3
52633,1948.8,6001.3
52633,1948.8,5251.3
52633,1948.8,5501.3
52633,1948.8,5751.3
52633,1948.8,6001.3
52633,1948.8,6251.3
52633,1948.8,5251.3
52633,1948.8,5501.3
52633,1948.8,5251.3
52633,1948.8,5501.3
52633,1948.8,5751.3
52633,1948.8,5251.3
52633,1948.8,5501.3
52633,1948.8,5751.3
52633,1948.8,6001.3
52633,1948.8,5251.3
52633,1948.8,5501.3
52633,1948.8,5751.3
52633,1948.8,6001.3
52633,1948.8,6251.3
52633,1948.8,5251.3
52633,1948.8,5501.3
52633,1948.8,5751.3
52633,1948.8,5251.3
52633,1948.8,5501.3
52633,1948.8,5751.3
52633,1948.8,6001.3
52633,1948.8,5251.3
52633,1948.8,5501.3
52633,1948.8,5751.3
52633,1948.8,6001.3
52633,1948.8,6251.3
52633,1948.8,5251.3
52633,1948.8,5501.3
52633,1948.8,5751.3
52633,1948.8,6001.3
52633,1948.8,5251.3
52633,1948.8,5501.3
52633,1948.8,5751.3
52633,1948.8,6001.3
52633,1948.8,6251.3
52633,1948.8,5251.3
52633,1948.8,5501.3
52633,1948.8,5751.3
52633,1948.8,6001.3
52633,1948.8,6251.3
52633,1948.8,5251.3
52633,1948.8,5251.3
52633,1948.8,5501.3
52633,1948.8,5251.3
52633,1948.8,5501.3
52633,1948.8,5751.3
52633,1948.8,5251.3
52633,1948.8,5251.3
52633,1948.8,5501.3
52633,1948.8,5251.3
52633,1948.8,5501.3
52633,1948.8,5751.3
52633,1948.8,5251.3
52633,1948.8,5501.3
52633,1948.8,5751.3
52633,1948.8,6001.3
52633,1948.8,5251.3
52633,1948.8,5251.3
52633,1948.8,5501.3
52633,1948.8,5251.3
52633,1948.8,5501.3
52633,1948.8,5751.3
52633,1948.8,5251.3
52633,1948.8,5501.3
52633,1948.8,5751.3
52633,1948.8,6001.3
52633,1948.8,5251.3
52633,1948.8,5501.3
52633,1948.8,5751.3
52633,1948.8,6001.3
52633,1948.8,6251.3
52633,1948.8,5251.3
52633,1948.8,5501.3
52633,1948.8,5251.3
52633,1948.8,5501.3
52633,1948.8,5751.3
52633,1948.8,5251.3
52633,1948.8,5501.3
52633,1948.8,5751.3
52633,1948.8,6001.3
52633,1948.8,5251.3
52633,1948.8,5501.3
52633,1948.8,5751.3
52633,1948.8,6001.3
52633,1948.8,6251.3
52633,1948.8,5251.3
52633,1948.8,5501.3
52633,1948.8,5751.3
52633,1948.8,5251.3
52633,1948.8,5501.3
52633,1948.8,5751.3
52633,1948.8,6001.3
52633,1948.8,5251.3
52633,1948.8,5501.3
52633,1948.8,5751.3
52633,1948.8,6001.3
52633,1948.8,6251.3
52633,1948.8,5251.3
52633,1948.8,5251.3
52633,1948.8,5501.3
52633,1948.8,5251.3
52633,1948.8,5501.3
52633,1948.8,5751.3
52633,1948.8,5251.3
52633,1948.8,5501.3
52633,1948.8,5751.3
52633,1948.8,6001.3
52633,1948.8,5251.3
52633,1948.8,5251.3
52633,1948.8,5501.3
52633,1948.8,5251.3
52633,1948.8,5501.3
52633,1948.8,5751.3
52633,1948.8,5251.3
52633,1948.8,5501.3
52633,1948.8,5751.3
52633,1948.8,6001.3
52633,1948.8,5251.3
52633,1948.8,5501.3
52633,1948.8,5751.3
52633,1948.8,6001.3
52633,1948.8,6251.3
52633,1948.8,5251.3
52633,1948.8,5501.3
52633,1948.8,5251.3
52633,1948.8,5501.3
52633,1948.8,5751.3
52633,1948.8,5251.3
52633,1948.8,5501.3
52633,1948.8,5751.3
52633,1948.8,6001.3
52633,1948.8,5251.3
52633,1948.8,5501.3
52633,1948.8,5751.3
52633,1948.8,6001.3
52633,1948.8,6251.3
52633,1948.8,5251.3
52633,1948.8,5501.3
52633,1948.8,5751.3
52633,1948.8,5251.3
52633,1948.8,5501.3
52633,1948.8,5751.3
52633,1948.8,6001.3
52633,1948.8,5251.3
52633,1948.8,5501.3
52633,1948.8,5751.3
52633,1948.8,6001.3
52633,1948.8,6251.3
52633,1948.8,5251.3
52633,1948.8,5501.3
52633,1948.8,5751.3
52633,1948.8,6001.3
52633,1948.8,5251.3
52633,1948.8,5501.3
52633,1948.8,5751.3
52633,1948.8,6001.3
52633,1948.8,6251.3
52633,1948.8,5251.3
52633,1948.8,5251.3
52633,1948.8,5501.3
52633,1948.8,5251.3
52633,1948.8,5501.3
52633,1948.8,5751.3
52633,1948.8,5251.3
52633,1948.8,5501.3
52633,1948.8,5751.3
52633,1948.8,6001.3
52633,1948.8,5251.3
52633,1948.8,5501.3
52633,1948.8,5751.3
52633,1948.8,6001.3
52633,1948.8,6251.3
52633,1948.8,5251.3
52633,1948.8,5501.3
52633,1948.8,5251.3
52633,1948.8,5501.3
52633,1948.8,5751.3
52633,1948.8,5251.3
52633,1948.8,5501.3
52633,1948.8,5751.3
52633,1948.8,6001.3
52633,1948.8,5251.3
52633,1948.8,5501.3
52633,1948.8,5751.3
52633,1948.8,6001.3
52633,1948.8,6251.3
52633,1948.8,5251.3
52633,1948.8,5501.3
52633,1948.8,5751.3
52633,1948.8,5251.3
52633,1948.8,5501.3
52633,1948.8,5751.3
52633,1948.8,6001.3
52633,1948.8,5251.3
52633,1948.8,5501.3
52633,1948.8,5751.3
52633,1948.8,6001.3
52633,1948.8,6251.3
52633,1948.8,5251.3
52633,1948.8,5501.3
52633,1948.8,5751.3
52633,1948.8,6001.3
52633,1948.8,5251.3
52633,1948.8,5501.3
52633,1948.8,5751.3
52633,1948.8,6001.3
52633,1948.8,6251.3
52633,1948.8,5251.3
52633,1948.8,5501.3
52633,1948.8,5751.3
52633,1948.8,6001.3
52633,1948.8,6251.3
53269,1948.8,4751.3
53269,1948.8,4751.3
53269,1948.8,4751.3
53269,1948.8,5001.3
53269,1948.8,4751.3
53269,1948.8,4751.3
53269,1948.8,5001.3
53269,1948.8,4751.3
53269,1948.8,5001.3
53269,1948.8,5251.3
53269,1948.8,4751.3
53269,1948.8,4751.3
53269,1948.8,5001.3
53269,1948.8,4751.3
53269,1948.8,5001.3
53269,1948.8,5251.3
53269,1948.8,4751.3
53269,1948.8,5001.3
53269,1948.8,5251.3
53269,1948.8,5501.3
53269,1948.8,4751.3
53269,1948.8,4751.3
53269,1948.8,4751.3
53269,1948.8,5001.3
53269,1948.8,4751.3
53269,1948.8,4751.3
53269,1948.8,5001.3
53269,1948.8,4751.3
53269,1948.8,5001.3
53269,1948.8,5251.3
53269,1948.8,4751.3
53269,1948.8,4751.3
53269,1948.8,5001.3
53269,1948.8,4751.3
53269,1948.8,5001.3
53269,1948.8,5251.3
53269,1948.8,4751.3
53269,1948.8,5001.3
53269,1948.8,5251.3
53269,1948.8,5501.3
53269,1948.8,4751.3
53269,1948.8,4751.3
53269,1948.8,5001.3
53269,1948.8,4751.3
53269,1948.8,5001.3
53269,1948.8,5251.3
53269,1948.8,4751.3
53269,1948.8,5001.3
53269,1948.8,5251.3
53269,1948.8,5501.3
53269,1948.8,4751.3
53269,1948.8,4751.3
53269,1948.8,5001.3
53269,1948.8,4751.3
53269,1948.8,4751.3
53269,1948.8,5001.3
53269,1948.8,4751.3
53269,1948.8,5001.3
53269,1948.8,5251.3
53269,1948.8,4751.3
53269,1948.8,4751.3
53269,1948.8,5001.3
53269,1948.8,4751.3
53269,1948.8,5001.3
53269,1948.8,5251.3
53269,1948.8,4751.3
53269,1948.8,5001.3
53269,1948.8,5251.3
53269,1948.8,5501.3
53269,1948.8,4751.3
53269,1948.8,4751.3
53269,1948.8,5001.3
53269,1948.8,4751.3
53269,1948.8,5001.3
53269,1948.8,5251.3
53269,1948.8,4751.3
53269,1948.8,5001.3
53269,1948.8,5251.3
53269,1948.8,5501.3
53269,1948.8,4751.3
53269,1948.8,5001.3
53269,1948.8,4751.3
53269,1948.8,5001.3
53269,1948.8,5251.3
53269,1948.8,4751.3
53269,1948.8,5001.3
53269,1948.8,5251.3
53269,1948.8,5501.3
53269,1948.8,4751.3
53269,1948.8,4751.3
53269,1948.8,5001.3
53269,1948.8,4751.3
53269,1948.8,5001.3
53269,1948.8,5251.3
53269,1948.8,4751.3
53269,1948.8,4751.3
53269,1948.8,5001.3
53269,1948.8,4751.3
53269,1948.8,5001.3
53269,1948.8,5251.3
53269,1948.8,4751.3
53269,1948.8,5001.3
53269,1948.8,5251.3
53269,1948.8,5501.3
53269,1948.8,4751.3
53269,1948.8,4751.3
53269,1948.8,5001.3
53269,1948.8,4751.3
53269,1948.8,5001.3
53269,1948.8,5251.3
53269,1948.8,4751.3
53269,1948.8,5001.3
53269,1948.8,5251.3
53269,1948.8,5501.3
53269,1948.8,4751.3
53269,1948.8,5001.3
53269,1948.8,4751.3
53269,1948.8,5001.3
53269,1948.8,5251.3
53269,1948.8,4751.3
53269,1948.8,5001.3
53269,1948.8,5251.3
53269,1948.8,5501.3
53269,1948.8,4751.3
53269,1948.8,5001.3
53269,1948.8,5251.3
53269,1948.8,4751.3
53269,1948.8,5001.3
53269,1948.8,5251.3
53269,1948.8,5501.3
53269,1948.8,4751.3
53269,1948.8,4751.3
53269,1948.8,5001.3
53269,1948.8,4751.3
53269,1948.8,5001.3
53269,1948.8,5251.3
53269,1948.8,4751.3
53269,1948.8,5001.3
53269,1948.8,5251.3
53269,1948.8,5501.3
53269,1948.8,4751.3
53269,1948.8,4751.3
53269,1948.8,5001.3
53269,1948.8,4751.3
53269,1948.8,5001.3
53269,1948.8,5251.3
53269,1948.8,4751.3
53269,1948.8,5001.3
53269,1948.8,5251.3
53269,1948.8,5501.3
53269,1948.8,4751.3
53269,1948.8,5001.3
53269,1948.8,4751.3
53269,1948.8,5001.3
53269,1948.8,5251.3
53269,1948.8,4751.3
53269,1948.8,5001.3
53269,1948.8,5251.3
53269,1948.8,5501.3
53269,1948.8,4751.3
53269,1948.8,5001.3
53269,1948.8,5251.3
53269,1948.8,4751.3
53269,1948.8,5001.3
53269,1948.8,5251.3
53269,1948.8,5501.3
53269,1948.8,4751.3
53269,1948.8,5001.3
53269,1948.8,5251.3
53269,1948.8,5501.3
53269,1948.8,4751.3
53269,1948.8,4751.3
53269,1948.8,4751.3
53269,1948.8,5001.3
53269,1948.8,4751.3
53269,1948.8,4751.3
53269,1948.8,5001.3
53269,1948.8,4751.3
53269,1948.8,5001.3
53269,1948.8,5251.3
53269,1948.8,4751.3
53269,1948.8,4751.3
53269,1948.8,5001.3
53269,1948.8,4751.3
53269,1948.8,5001.3
53269,1948.8,5251.3
53269,1948.8,4751.3
53269,1948.8,5001.3
53269,1948.8,5251.3
53269,1948.8,5501.3
53269,1948.8,4751.3
53269,1948.8,4751.3
53269,1948.8,5001.3
53269,1948.8,4751.3
53269,1948.8,5001.3
53269,1948.8,5251.3
53269,1948.8,4751.3
53269,1948.8,5001.3
53269,1948.8,5251.3
53269,1948.8,5501.3
53269,1948.8,4751.3
53269,1948.8,4751.3
53269,1948.8,5001.3
53269,1948.8,4751.3
53269,1948.8,4751.3
53269,1948.8,5001.3
53269,1948.8,4751.3
53269,1948.8,5001.3
53269,1948.8,5251.3
53269,1948.8,4751.3
53269,1948.8,4751.3
53269,1948.8,5001.3
53269,1948.8,4751.3
53269,1948.8,5001.3
53269,1948.8,5251.3
53269,1948.8,4751.3
53269,1948.8,5001.3
53269,1948.8,5251.3
53269,1948.8,5501.3
53269,1948.8,4751.3
53269,1948.8,4751.3
53269,1948.8,5001.3
53269,1948.8,4751.3
53269,1948.8,5001.3
53269,1948.8,5251.3
53269,1948.8,4751.3
53269,1948.8,5001.3
53269,1948.8,5251.3
53269,1948.8,5501.3
53269,1948.8,4751.3
53269,1948.8,5001.3
53269,1948.8,4751.3
53269,1948.8,5001.3
53269,1948.8,5251.3
53269,1948.8,4751.3
53269,1948.8,5001.3
53269,1948.8,5251.3
53269,1948.8,5501.3
53269,1948.8,4751.3
53269,1948.8,4751.3
53269,1948.8,5001.3
53269,1948.8,4751.3
53269,1948.8,5001.3
53269,1948.8,5251.3
53269,1948.8,4751.3
53269,1948.8,4751.3
53269,1948.8,5001.3
53269,1948.8,4751.3
53269,1948.8,5001.3
53269,1948.8,5251.3
53269,1948.8,4751.3
53269,1948.8,5001.3
53269,1948.8,5251.3
53269,1948.8,5501.3
53269,1948.8,4751.3
53269,1948.8,4751.3
53269,1948.8,5001.3
53269,1948.8,4751.3
53269,1948.8,5001.3
53269,1948.8,5251.3
53269,1948.8,4751.3
53269,1948.8,5001.3
53269,1948.8,5251.3
53269,1948.8,5501.3
53269,1948.8,4751.3
53269,1948.8,5001.3
53269,1948.8,4751.3
53269,1948.8,5001.3
53269,1948.8,5251.3
53269,1948.8,4751.3
53269,1948.8,5001.3
53269,1948.8,5251.3
53269,1948.8,5501.3
53269,1948.8,4751.3
53269,1948.8,5001.3
53269,1948.8,5251.3
53269,1948.8,4751.3
53269,1948.8,5001.3
53269,1948.8,5251.3
53269,1948.8,5501.3
53269,1948.8,4751.3
53269,1948.8,4751.3
53269,1948.8,5001.3
53269,1948.8,4751.3
53269,1948.8,5001.3
53269,1948.8,5251.3
53269,1948.8,4751.3
53269,1948.8,5001.3
53269,1948.8,5251.3
53269,1948.8,5501.3
53269,1948.8,4751.3
53269,1948.8,4751.3
53269,1948.8,5001.3
53269,1948.8,4751.3
53269,1948.8,5001.3
53269,1948.8,5251.3
53269,1948.8,4751.3
53269,1948.8,5001.3
53269,1948.8,5251.3
53269,1948.8,5501.3
53269,1948.8,4751.3
53269,1948.8,5001.3
53269,1948.8,4751.3
53269,1948.8,5001.3
53269,1948.8,5251.3
53269,1948.8,4751.3
53269,1948.8,5001.3
53269,1948.8,5251.3
53269,1948.8,5501.3
53269,1948.8,4751.3
53269,1948.8,5001.3
53269,1948.8,5251.3
53269,1948.8,4751.3
53269,1948.8,5001.3
53269,1948.8,5251.3
53269,1948.8,5501.3
53269,1948.8,4751.3
53269,1948.8,5001.3
53269,1948.8,5251.3
53269,1948.8,5501.3
53269,1948.8,4751.3
53269,1948.8,4751.3
53269,1948.8,5001.3
53269,1948.8,4751.3
53269,1948.8,5001.3
53269,1948.8,5251.3
53269,1948.8,4751.3
53269,1948.8,5001.3
53269,1948.8,5251.3
53269,1948.8,5501.3
53269,1948.8,4751.3
53269,1948.8,5001.3
53269,1948.8,4751.3
53269,1948.8,5001.3
53269,1948.8,5251.3
53269,1948.8,4751.3
53269,1948.8,5001.3
53269,1948.8,5251.3
53269,1948.8,5501.3
53269,1948.8,4751.3
53269,1948.8,5001.3
53269,1948.8,5251.3
53269,1948.8,4751.3
53269,1948.8,5001.3
53269,1948.8,5251.3
53269,1948.8,5501.3
53269,1948.8,4751.3
53269,1948.8,5001.3
53269,1948.8,5251.3
53269,1948.8,5501.3
53269,1948.8,4751.3
53269,1948.8,4751.3
53269,1948.8,5001.3
53269,1948.8,4751.3
53269,1948.8,4751.3
53269,1948.8,5001.3
53269,1948.8,4751.3
53269,1948.8,5001.3
53269,1948.8,5251.3
53269,1948.8,4751.3
53269,1948.8,4751.3
53269,1948.8,5001.3
53269,1948.8,4751.3
53269,1948.8,5001.3
53269,1948.8,5251.3
53269,1948.8,4751.3
53269,1948.8,5001.3
53269,1948.8,5251.3
53269,1948.8,5501.3
53269,1948.8,4751.3
53269,1948.8,4751.3
53269,1948.8,5001.3
53269,1948.8,4751.3
53269,1948.8,5001.3
53269,1948.8,5251.3
53269,1948.8,4751.3
53269,1948.8,5001.3
53269,1948.8,5251.3
53269,1948.8,5501.3
53269,1948.8,4751.3
53269,1948.8,5001.3
53269,1948.8,4751.3
53269,1948.8,5001.3
53269,1948.8,5251.3
53269,1948.8,4751.3
53269,1948.8,5001.3
53269,1948.8,5251.3
53269,1948.8,5501.3
53269,1948.8,4751.3
53269,1948.8,4751.3
53269,1948.8,5001.3
53269,1948.8,4751.3
53269,1948.8,5001.3
53269,1948.8,5251.3
53269,1948.8,4751.3
53269,1948.8,4751.3
53269,1948.8,5001.3
53269,1948.8,4751.3
53269,1948.8,5001.3
53269,1948.8,5251.3
53269,1948.8,4751.3
53269,1948.8,5001.3
53269,1948.8,5251.3
53269,1948.8,5501.3
53269,1948.8,4751.3
53269,1948.8,4751.3
53269,1948.8,5001.3
53269,1948.8,4751.3
53269,1948.8,5001.3
53269,1948.8,5251.3
53269,1948.8,4751.3
53269,1948.8,5001.3
53269,1948.8,5251.3
53269,1948.8,5501.3
53269,1948.8,4751.3
53269,1948.8,5001.3
53269,1948.8,4751.3
53269,1948.8,5001.3
53269,1948.8,5251.3
53269,1948.8,4751.3
53269,1948.8,5001.3
53269,1948.8,5251.3
53269,1948.8,5501.3
53269,1948.8,4751.3
53269,1948.8,5001.3
53269,1948.8,5251.3
53269,1948.8,4751.3
53269,1948.8,5001.3
53269,1948.8,5251.3
53269,1948.8,5501.3
53269,1948.8,4751.3
53269,1948.8,4751.3
53269,1948.8,5001.3
53269,1948.8,4751.3
53269,1948.8,5001.3
53269,1948.8,5251.3
53269,1948.8,4751.3
53269,1948.8,5001.3
53269,1948.8,5251.3
53269,1948.8,5501.3
53269,1948.8,4751.3
53269,1948.8,4751.3
53269,1948.8,5001.3
53269,1948.8,4751.3
53269,1948.8,5001.3
53269,1948.8,5251.3
53269,1948.8,4751.3
53269,1948.8,5001.3
53269,1948.8,5251.3
53269,1948.8,5501.3
53269,1948.8,4751.3
53269,1948.8,5001.3
53269,1948.8,4751.3
53269,1948.8,5001.3
53269,1948.8,5251.3
53269,1948.8,4751.3
53269,1948.8,5001.3
53269,1948.8,5251.3
53269,1948.8,5501.3
53269,1948.8,4751.3
53269,1948.8,5001.3
53269,1948.8,5251.3
53269,1948.8,4751.3
53269,1948.8,5001.3
53269,1948.8,5251.3
53269,1948.8,5501.3
53269,1948.8,4751.3
53269,1948.8,5001.3
53269,1948.8,5251.3
53269,1948.8,5501.3
53269,1948.8,4751.3
53269,1948.8,4751.3
53269,1948.8,5001.3
53269,1948.8,4751.3
53269,1948.8,5001.3
53269,1948.8,5251.3
53269,1948.8,4751.3
53269,1948.8,5001.3
53269,1948.8,5251.3
53269,1948.8,5501.3
53269,1948.8,4751.3
53269,1948.8,5001.3
53269,1948.8,4751.3
53269,1948.8,5001.3
53269,1948.8,5251.3
53269,1948.8,4751.3
53269,1948.8,5001.3
53269,1948.8,5251.3
53269,1948.8,5501.3
53269,1948.8,4751.3
53269,1948.8,5001.3
53269,1948.8,5251.3
53269,1948.8,4751.3
53269,1948.8,5001.3
53269,1948.8,5251.3
53269,1948.8,5501.3
53269,1948.8,4751.3
53269,1948.8,5001.3
53269,1948.8,5251.3
53269,1948.8,5501.3
53269,1948.8,4751.3
53269,1948.8,5001.3
53269,1948.8,4751.3
53269,1948.8,5001.3
53269,1948.8,5251.3
53269,1948.8,4751.3
53269,1948.8,5001.3
53269,1948.8,5251.3
53269,1948.8,5501.3
53269,1948.8,4751.3
53269,1948.8,5001.3
53269,1948.8,5251.3
53269,1948.8,4751.3
53269,1948.8,5001.3
53269,1948.8,5251.3
53269,1948.8,5501.3
53269,1948.8,4751.3
53269,1948.8,5001.3
53269,1948.8,5251.3
53269,1948.8,5501.3
53269,1948.8,4751.3
53269,1948.8,4751.3
53269,1948.8,5001.3
53269,1948.8,4751.3
53269,1948.8,5001.3
53269,1948.8,5251.3
53269,1948.8,4751.3
53269,1948.8,4751.3
53269,1948.8,5001.3
53269,1948.8,4751.3
53269,1948.8,5001.3
53269,1948.8,5251.3
53269,1948.8,4751.3
53269,1948.8,5001.3
53269,1948.8,5251.3
53269,1948.8,5501.3
53269,1948.8,4751.3
53269,1948.8,4751.3
53269,1948.8,5001.3
53269,1948.8,4751.3
53269,1948.8,5001.3
53269,1948.8,5251.3
53269,1948.8,4751.3
53269,1948.8,5001.3
53269,1948.8,5251.3
53269,1948.8,5501.3
53269,1948.8,4751.3
53269,1948.8,5001.3
53269,1948.8,4751.3
53269,1948.8,5001.3
53269,1948.8,5251.3
53269,1948.8,4751.3
53269,1948.8,5001.3
53269,1948.8,5251.3
53269,1948.8,5501.3
53269,1948.8,4751.3
53269,1948.8,5001.3
53269,1948.8,5251.3
53269,1948.8,4751.3
53269,1948.8,5001.3
53269,1948.8,5251.3
53269,1948.8,5501.3
53269,1948.8,4751.3
53269,1948.8,4751.3
53269,1948.8,5001.3
53269,1948.8,4751.3
53269,1948.8,5001.3
53269,1948.8,5251.3
53269,1948.8,4751.3
53269,1948.8,5001.3
53269,1948.8,5251.3
53269,1948.8,5501.3
53269,1948.8,4751.3
53269,1948.8,4751.3
53269,1948.8,5001.3
53269,1948.8,4751.3
53269,1948.8,5001.3
53269,1948.8,5251.3
53269,1948.8,4751.3
53269,1948.8,5001.3
53269,1948.8,5251.3
53269,1948.8,5501.3
53269,1948.8,4751.3
53269,1948.8,5001.3
53269,1948.8,4751.3
53269,1948.8,5001.3
53269,1948.8,5251.3
53269,1948.8,4751.3
53269,1948.8,5001.3
53269,1948.8,5251.3
53269,1948.8,5501.3
53269,1948.8,4751.3
53269,1948.8,5001.3
53269,1948.8,5251.3
53269,1948.8,4751.3
53269,1948.8,5001.3
53269,1948.8,5251.3
53269,1948.8,5501.3
53269,1948.8,4751.3
53269,1948.8,5001.3
53269,1948.8,5251.3
53269,1948.8,5501.3
53269,1948.8,4751.3
53269,1948.8,4751.3
53269,1948.8,5001.3
53269,1948.8,4751.3
53269,1948.8,5001.3
53269,1948.8,5251.3
53269,1948.8,4751.3
53269,1948.8,5001.3
53269,1948.8,5251.3
53269,1948.8,5501.3
53269,1948.8,4751.3
53269,1948.8,5001.3
53269,1948.8,4751.3
53269,1948.8,5001.3
53269,1948.8,5251.3
53269,1948.8,4751.3
53269,1948.8,5001.3
53269,1948.8,5251.3
53269,1948.8,5501.3
53269,1948.8,4751.3
53269,1948.8,5001.3
53269,1948.8,5251.3
53269,1948.8,4751.3
53269,1948.8,5001.3
53269,1948.8,5251.3
53269,1948.8,5501.3
53269,1948.8,4751.3
53269,1948.8,5001.3
53269,1948.8,5251.3
53269,1948.8,5501.3
53269,1948.8,4751.3
53269,1948.8,5001.3
53269,1948.8,4751.3
53269,1948.8,5001.3
53269,1948.8,5251.3
53269,1948.8,4751.3
53269,1948.8,5001.3
53269,1948.8,5251.3
53269,1948.8,5501.3
53269,1948.8,4751.3
53269,1948.8,5001.3
53269,1948.8,5251.3
53269,1948.8,4751.3
53269,1948.8,5001.3
53269,1948.8,5251.3
53269,1948.8,5501.3
53269,1948.8,4751.3
53269,1948.8,5001.3
53269,1948.8,5251.3
53269,1948.8,5501.3
53269,1948.8,4751.3
53269,1948.8,5001.3
53269,1948.8,5251.3
53269,1948.8,4751.3
53269,1948.8,5001.3
53269,1948.8,5251.3
53269,1948.8,5501.3
53269,1948.8,4751.3
53269,1948.8,5001.3
53269,1948.8,5251.3
53269,1948.8,5501.3
53269,1948.8,4751.3
53269,1948.8,4751.3
53269,1948.8,5001.3
53269,1948.8,4751.3
53269,1948.8,5001.3
53269,1948.8,5251.3
53269,1948.8,4751.3
53269,1948.8,5001.3
53269,1948.8,5251.3
53269,1948.8,5501.3
53269,1948.8,4751.3
53269,1948.8,4751.3
53269,1948.8,5001.3
53269,1948.8,4751.3
53269,1948.8,5001.3
53269,1948.8,5251.3
53269,1948.8,4751.3
53269,1948.8,5001.3
53269,1948.8,5251.3
53269,1948.8,5501.3
53269,1948.8,4751.3
53269,1948.8,5001.3
53269,1948.8,4751.3
53269,1948.8,5001.3
53269,1948.8,5251.3
53269,1948.8,4751.3
53269,1948.8,5001.3
53269,1948.8,5251.3
53269,1948.8,5501.3
53269,1948.8,4751.3
53269,1948.8,5001.3
53269,1948.8,5251.3
53269,1948.8,4751.3
53269,1948.8,5001.3
53269,1948.8,5251.3
53269,1948.8,5501.3
53269,1948.8,4751.3
53269,1948.8,5001.3
53269,1948.8,5251.3
53269,1948.8,5501.3
53269,1948.8,4751.3
53269,1948.8,4751.3
53269,1948.8,5001.3
53269,1948.8,4751.3
53269,1948.8,5001.3
53269,1948.8,5251.3
53269,1948.8,4751.3
53269,1948.8,5001.3
53269,1948.8,5251.3
53269,1948.8,5501.3
53269,1948.8,4751.3
53269,1948.8,5001.3
53269,1948.8,4751.3
53269,1948.8,5001.3
53269,1948.8,5251.3
53269,1948.8,4751.3
53269,1948.8,5001.3
53269,1948.8,5251.3
53269,1948.8,5501.3
53269,1948.8,4751.3
53269,1948.8,5001.3
53269,1948.8,5251.3
53269,1948.8,4751.3
53269,1948.8,5001.3
53269,1948.8,5251.3
53269,1948.8,5501.3
53269,1948.8,4751.3
53269,1948.8,5001.3
53269,1948.8,5251.3
53269,1948.8,5501.3
53269,1948.8,4751.3
53269,1948.8,5001.3
53269,1948.8,4751.3
53269,1948.8,5001.3
53269,1948.8,5251.3
53269,1948.8,4751.3
53269,1948.8,5001.3
53269,1948.8,5251.3
53269,1948.8,5501.3
53269,1948.8,4751.3
53269,1948.8,5001.3
53269,1948.8,5251.3
53269,1948.8,4751.3
53269,1948.8,5001.3
53269,1948.8,5251.3
53269,1948.8,5501.3
53269,1948.8,4751.3
53269,1948.8,5001.3
53269,1948.8,5251.3
53269,1948.8,5501.3
53269,1948.8,4751.3
53269,1948.8,5001.3
53269,1948.8,5251.3
53269,1948.8,4751.3
53269,1948.8,5001.3
53269,1948.8,5251.3
53269,1948.8,5501.3
53269,1948.8,4751.3
53269,1948.8,5001.3
53269,1948.8,5251.3
53269,1948.8,5501.3
53269,1948.8,4751.3
53269,1948.8,5001.3
53269,1948.8,5251.3
53269,1948.8,5501.3
53269,1948.8,4751.3
53269,1948.8,4751.3
53269,1948.8,4751.3
53269,1948.8,5001.3
53269,1948.8,4751.3
53269,1948.8,4751.3
53269,1948.8,5001.3
53269,1948.8,4751.3
53269,1948.8,5001.3
53269,1948.8,5251.3
53269,1948.8,4751.3
53269,1948.8,4751.3
53269,1948.8,5001.3
53269,1948.8,4751.3
53269,1948.8,5001.3
53269,1948.8,5251.3
53269,1948.8,4751.3
53269,1948.8,5001.3
53269,1948.8,5251.3
53269,1948.8,5501.3
53269,1948.8,4751.3
53269,1948.8,4751.3
53269,1948.8,5001.3
53269,1948.8,4751.3
53269,1948.8,5001.3
53269,1948.8,5251.3
53269,1948.8,4751.3
53269,1948.8,5001.3
53269,1948.8,5251.3
53269,1948.8,5501.3
53269,1948.8,4751.3
53269,1948.8,4751.3
53269,1948.8,5001.3
53269,1948.8,4751.3
53269,1948.8,4751.3
53269,1948.8,5001.3
53269,1948.8,4751.3
53269,1948.8,5001.3
53269,1948.8,5251.3
53269,1948.8,4751.3
53269,1948.8,4751.3
53269,1948.8,5001.3
53269,1948.8,4751.3
53269,1948.8,5001.3
53269,1948.8,5251.3
53269,1948.8,4751.3
53269,1948.8,5001.3
53269,1948.8,5251.3
53269,1948.8,5501.3
53269,1948.8,4751.3
53269,1948.8,4751.3
53269,1948.8,5001.3
53269,1948.8,4751.3
53269,1948.8,5001.3
53269,1948.8,5251.3
53269,1948.8,4751.3
53269,1948.8,5001.3
53269,1948.8,5251.3
53269,1948.8,5501.3
53269,1948.8,4751.3
53269,1948.8,5001.3
53269,1948.8,4751.3
53269,1948.8,5001.3
53269,1948.8,5251.3
53269,1948.8,4751.3
53269,1948.8,5001.3
53269,1948.8,5251.3
53269,1948.8,5501.3
53269,1948.8,4751.3
53269,1948.8,4751.3
53269,1948.8,5001.3
53269,1948.8,4751.3
53269,1948.8,5001.3
53269,1948.8,5251.3
53269,1948.8,4751.3
53269,1948.8,4751.3
53269,1948.8,5001.3
53269,1948.8,4751.3
53269,1948.8,5001.3
53269,1948.8,5251.3
53269,1948.8,4751.3
53269,1948.8,5001.3
53269,1948.8,5251.3
53269,1948.8,5501.3
53269,1948.8,4751.3
53269,1948.8,4751.3
53269,1948.8,5001.3
53269,1948.8,4751.3
53269,1948.8,5001.3
53269,1948.8,5251.3
53269,1948.8,4751.3
53269,1948.8,5001.3
53269,1948.8,5251.3
53269,1948.8,5501.3
53269,1948.8,4751.3
53269,1948.8,5001.3
53269,1948.8,4751.3
53269,1948.8,5001.3
53269,1948.8,5251.3
53269,1948.8,4751.3
53269,1948.8,5001.3
53269,1948.8,5251.3
53269,1948.8,5501.3
53269,1948.8,4751.3
53269,1948.8,5001.3
53269,1948.8,5251.3
53269,1948.8,4751.3
53269,1948.8,5001.3
53269,1948.8,5251.3
53269,1948.8,5501.3
53269,1948.8,4751.3
53269,1948.8,4751.3
53269,1948.8,5001.3
53269,1948.8,4751.3
53269,1948.8,5001.3
53269,1948.8,5251.3
53269,1948.8,4751.3
53269,1948.8,5001.3
53269,1948.8,5251.3
53269,1948.8,5501.3
53269,1948.8,4751.3
53269,1948.8,4751.3
53269,1948.8,5001.3
53269,1948.8,4751.3
53269,1948.8,5001.3
53269,1948.8,5251.3
53269,1948.8,4751.3
53269,1948.8,5001.3
53269,1948.8,5251.3
53269,1948.8,5501.3
53269,1948.8,4751.3
53269,1948.8,5001.3
53269,1948.8,4751.3
53269,1948.8,5001.3
53269,1948.8,5251.3
53269,1948.8,4751.3
53269,1948.8,5001.3
53269,1948.8,5251.3
53269,1948.8,5501.3
53269,1948.8,4751.3
53269,1948.8,5001.3
53269,1948.8,5251.3
53269,1948.8,4751.3
53269,1948.8,5001.3
53269,1948.8,5251.3
53269,1948.8,5501.3
53269,1948.8,4751.3
53269,1948.8,5001.3
53269,1948.8,5251.3
53269,1948.8,5501.3
53269,1948.8,4751.3
53269,1948.8,4751.3
53269,1948.8,5001.3
53269,1948.8,4751.3
53269,1948.8,5001.3
53269,1948.8,5251.3
53269,1948.8,4751.3
53269,1948.8,5001.3
53269,1948.8,5251.3
53269,1948.8,5501.3
53269,1948.8,4751.3
53269,1948.8,5001.3
53269,1948.8,4751.3
53269,1948.8,5001.3
53269,1948.8,5251.3
53269,1948.8,4751.3
53269,1948.8,5001.3
53269,1948.8,5251.3
53269,1948.8,5501.3
53269,1948.8,4751.3
53269,1948.8,5001.3
53269,1948.8,5251.3
53269,1948.8,4751.3
53269,1948.8,5001.3
53269,1948.8,5251.3
53269,1948.8,5501.3
53269,1948.8,4751.3
53269,1948.8,5001.3
53269,1948.8,5251.3
53269,1948.8,5501.3
53269,1948.8,4751.3
53269,1948.8,4751.3
53269,1948.8,5001.3
53269,1948.8,4751.3
53269,1948.8,4751.3
53269,1948.8,5001.3
53269,1948.8,4751.3
53269,1948.8,5001.3
53269,1948.8,5251.3
53269,1948.8,4751.3
53269,1948.8,4751.3
53269,1948.8,5001.3
53269,1948.8,4751.3
53269,1948.8,5001.3
53269,1948.8,5251.3
53269,1948.8,4751.3
53269,1948.8,5001.3
53269,1948.8,5251.3
53269,1948.8,5501.3
53269,1948.8,4751.3
53269,1948.8,4751.3
53269,1948.8,5001.3
53269,1948.8,4751.3
53269,1948.8,5001.3
53269,1948.8,5251.3
53269,1948.8,4751.3
53269,1948.8,5001.3
53269,1948.8,5251.3
53269,1948.8,5501.3
53269,1948.8,4751.3
53269,1948.8,5001.3
53269,1948.8,4751.3
53269,1948.8,5001.3
53269,1948.8,5251.3
53269,1948.8,4751.3
53269,1948.8,5001.3
53269,1948.8,5251.3
53269,1948.8,5501.3
53269,1948.8,4751.3
53269,1948.8,4751.3
53269,1948.8,5001.3
53269,1948.8,4751.3
53269,1948.8,5001.3
53269,1948.8,5251.3
53269,1948.8,4751.3
53269,1948.8,4751.3
53269,1948.8,5001.3
53269,1948.8,4751.3
53269,1948.8,5001.3
53269,1948.8,5251.3
53269,1948.8,4751.3
53269,1948.8,5001.3
53269,1948.8,5251.3
53269,1948.8,5501.3
53269,1948.8,4751.3
53269,1948.8,4751.3
53269,1948.8,5001.3
53269,1948.8,4751.3
53269,1948.8,5001.3
53269,1948.8,5251.3
53269,1948.8,4751.3
53269,1948.8,5001.3
53269,1948.8,5251.3
53269,1948.8,5501.3
53269,1948.8,4751.3
53269,1948.8,5001.3
53269,1948.8,4751.3
53269,1948.8,5001.3
53269,1948.8,5251.3
53269,1948.8,4751.3
53269,1948.8,5001.3
53269,1948.8,5251.3
53269,1948.8,5501.3
53269,1948.8,4751.3
53269,1948.8,5001.3
53269,1948.8,5251.3
53269,1948.8,4751.3
53269,1948.8,5001.3
53269,1948.8,5251.3
53269,1948.8,5501.3
53269,1948.8,4751.3
53269,1948.8,4751.3
53269,1948.8,5001.3
53269,1948.8,4751.3
53269,1948.8,5001.3
53269,1948.8,5251.3
53269,1948.8,4751.3
53269,1948.8,5001.3
53269,1948.8,5251.3
53269,1948.8,5501.3
53269,1948.8,4751.3
53269,1948.8,4751.3
53269,1948.8,5001.3
53269,1948.8,4751.3
53269,1948.8,5001.3
53269,1948.8,5251.3
53269,1948.8,4751.3
53269,1948.8,5001.3
53269,1948.8,5251.3
53269,1948.8,5501.3
53269,1948.8,4751.3
53269,1948.8,5001.3
53269,1948.8,4751.3
53269,1948.8,5001.3
53269,1948.8,5251.3
53269,1948.8,4751.3
53269,1948.8,5001.3
53269,1948.8,5251.3
53269,1948.8,5501.3
53269,1948.8,4751.3
53269,1948.8,5001.3
53269,1948.8,5251.3
53269,1948.8,4751.3
53269,1948.8,5001.3
53269,1948.8,5251.3
53269,1948.8,5501.3
53269,1948.8,4751.3
53269,1948.8,5001.3
53269,1948.8,5251.3
53269,1948.8,5501.3
53269,1948.8,4751.3
53269,1948.8,4751.3
53269,1948.8,5001.3
53269,1948.8,4751.3
53269,1948.8,5001.3
53269,1948.8,5251.3
53269,1948.8,4751.3
53269,1948.8,5001.3
53269,1948.8,5251.3
53269,1948.8,5501.3
53269,1948.8,4751.3
53269,1948.8,5001.3
53269,1948.8,4751.3
53269,1948.8,5001.3
53269,1948.8,5251.3
53269,1948.8,4751.3
53269,1948.8,5001.3
53269,1948.8,5251.3
53269,1948.8,5501.3
53269,1948.8,4751.3
53269,1948.8,5001.3
53269,1948.8,5251.3
53269,1948.8,4751.3
53269,1948.8,5001.3
53269,1948.8,5251.3
53269,1948.8,5501.3
53269,1948.8,4751.3
53269,1948.8,5001.3
53269,1948.8,5251.3
53269,1948.8,5501.3
53269,1948.8,4751.3
53269,1948.8,5001.3
53269,1948.8,4751.3
53269,1948.8,5001.3
53269,1948.8,5251.3
53269,1948.8,4751.3
53269,1948.8,5001.3
53269,1948.8,5251.3
53269,1948.8,5501.3
53269,1948.8,4751.3
53269,1948.8,5001.3
53269,1948.8,5251.3
53269,1948.8,4751.3
53269,1948.8,5001.3
53269,1948.8,5251.3
53269,1948.8,5501.3
53269,1948.8,4751.3
53269,1948.8,5001.3
53269,1948.8,5251.3
53269,1948.8,5501.3
53269,1948.8,4751.3
53269,1948.8,4751.3
53269,1948.8,5001.3
53269,1948.8,4751.3
53269,1948.8,5001.3
53269,1948.8,5251.3
53269,1948.8,4751.3
53269,1948.8,4751.3
53269,1948.8,5001.3
53269,1948.8,4751.3
53269,1948.8,5001.3
53269,1948.8,5251.3
53269,1948.8,4751.3
53269,1948.8,5001.3
53269,1948.8,5251.3
53269,1948.8,5501.3
53269,1948.8,4751.3
53269,1948.8,4751.3
53269,1948.8,5001.3
53269,1948.8,4751.3
53269,1948.8,5001.3
53269,1948.8,5251.3
53269,1948.8,4751.3
53269,1948.8,5001.3
53269,1948.8,5251.3
53269,1948.8,5501.3
53269,1948.8,4751.3
53269,1948.8,5001.3
53269,1948.8,4751.3
53269,1948.8,5001.3
53269,1948.8,5251.3
53269,1948.8,4751.3
53269,1948.8,5001.3
53269,1948.8,5251.3
53269,1948.8,5501.3
53269,1948.8,4751.3
53269,1948.8,5001.3
53269,1948.8,5251.3
53269,1948.8,4751.3
53269,1948.8,5001.3
53269,1948.8,5251.3
53269,1948.8,5501.3
53269,1948.8,4751.3
53269,1948.8,4751.3
53269,1948.8,5001.3
53269,1948.8,4751.3
53269,1948.8,5001.3
53269,1948.8,5251.3
53269,1948.8,4751.3
53269,1948.8,5001.3
53269,1948.8,5251.3
53269,1948.8,5501.3
53269,1948.8,4751.3
53269,1948.8,4751.3
53269,1948.8,5001.3
53269,1948.8,4751.3
53269,1948.8,5001.3
53269,1948.8,5251.3
53269,1948.8,4751.3
53269,1948.8,5001.3
53269,1948.8,5251.3
53269,1948.8,5501.3
53269,1948.8,4751.3
53269,1948.8,5001.3
53269,1948.8,4751.3
53269,1948.8,5001.3
53269,1948.8,5251.3
53269,1948.8,4751.3
53269,1948.8,5001.3
53269,1948.8,5251.3
53269,1948.8,5501.3
53269,1948.8,4751.3
53269,1948.8,5001.3
53269,1948.8,5251.3
53269,1948.8,4751.3
53269,1948.8,5001.3
53269,1948.8,5251.3
53269,1948.8,5501.3
53269,1948.8,4751.3
53269,1948.8,5001.3
53269,1948.8,5251.3
53269,1948.8,5501.3
53269,1948.8,4751.3
53269,1948.8,4751.3
53269,1948.8,5001.3
53269,1948.8,4751.3
53269,1948.8,5001.3
53269,1948.8,5251.3
53269,1948.8,4751.3
53269,1948.8,5001.3
53269,1948.8,5251.3
53269,1948.8,5501.3
53269,1948.8,4751.3
53269,1948.8,5001.3
53269,1948.8,4751.3
53269,1948.8,5001.3
53269,1948.8,5251.3
53269,1948.8,4751.3
53269,1948.8,5001.3
53269,1948.8,5251.3
53269,1948.8,5501.3
53269,1948.8,4751.3
53269,1948.8,5001.3
53269,1948.8,5251.3
53269,1948.8,4751.3
53269,1948.8,5001.3
53269,1948.8,5251.3
53269,1948.8,5501.3
53269,1948.8,4751.3
53269,1948.8,5001.3
53269,1948.8,5251.3
53269,1948.8,5501.3
53269,1948.8,4751.3
53269,1948.8,5001.3
53269,1948.8,4751.3
53269,1948.8,5001.3
53269,1948.8,5251.3
53269,1948.8,4751.3
53269,1948.8,5001.3
53269,1948.8,5251.3
53269,1948.8,5501.3
53269,1948.8,4751.3
53269,1948.8,5001.3
53269,1948.8,5251.3
53269,1948.8,4751.3
53269,1948.8,5001.3
53269,1948.8,5251.3
53269,1948.8,5501.3
53269,1948.8,4751.3
53269,1948.8,5001.3
53269,1948.8,5251.3
53269,1948.8,5501.3
53269,1948.8,4751.3
53269,1948.8,5001.3
53269,1948.8,5251.3
53269,1948.8,4751.3
53269,1948.8,5001.3
53269,1948.8,5251.3
53269,1948.8,5501.3
53269,1948.8,4751.3
53269,1948.8,5001.3
53269,1948.8,5251.3
53269,1948.8,5501.3
53269,1948.8,4751.3
53269,1948.8,4751.3
53269,1948.8,5001.3
53269,1948.8,4751.3
53269,1948.8,5001.3
53269,1948.8,5251.3
53269,1948.8,4751.3
53269,1948.8,5001.3
53269,1948.8,5251.3
53269,1948.8,5501.3
53269,1948.8,4751.3
53269,1948.8,4751.3
53269,1948.8,5001.3
53269,1948.8,4751.3
53269,1948.8,5001.3
53269,1948.8,5251.3
53269,1948.8,4751.3
53269,1948.8,5001.3
53269,1948.8,5251.3
53269,1948.8,5501.3
53269,1948.8,4751.3
53269,1948.8,5001.3
53269,1948.8,4751.3
53269,1948.8,5001.3
53269,1948.8,5251.3
53269,1948.8,4751.3
53269,1948.8,5001.3
53269,1948.8,5251.3
53269,1948.8,5501.3
53269,1948.8,4751.3
53269,1948.8,5001.3
53269,1948.8,5251.3
53269,1948.8,4751.3
53269,1948.8,5001.3
53269,1948.8,5251.3
53269,1948.8,5501.3
53269,1948.8,4751.3
53269,1948.8,5001.3
53269,1948.8,5251.3
53269,1948.8,5501.3
53269,1948.8,4751.3
53269,1948.8,4751.3
53269,1948.8,5001.3
53269,1948.8,4751.3
53269,1948.8,5001.3
53269,1948.8,5251.3
53269,1948.8,4751.3
53269,1948.8,5001.3
53269,1948.8,5251.3
53269,1948.8,5501.3
53269,1948.8,4751.3
53269,1948.8,5001.3
53269,1948.8,4751.3
53269,1948.8,5001.3
53269,1948.8,5251.3
53269,1948.8,4751.3
53269,1948.8,5001.3
53269,1948.8,5251.3
53269,1948.8,5501.3
53269,1948.8,4751.3
53269,1948.8,5001.3
53269,1948.8,5251.3
53269,1948.8,4751.3
53269,1948.8,5001.3
53269,1948.8,5251.3
53269,1948.8,5501.3
53269,1948.8,4751.3
53269,1948.8,5001.3
53269,1948.8,5251.3
53269,1948.8,5501.3
53269,1948.8,4751.3
53269,1948.8,5001.3
53269,1948.8,4751.3
53269,1948.8,5001.3
53269,1948.8,5251.3
53269,1948.8,4751.3
53269,1948.8,5001.3
53269,1948.8,5251.3
53269,1948.8,5501.3
53269,1948.8,4751.3
53269,1948.8,5001.3
53269,1948.8,5251.3
53269,1948.8,4751.3
53269,1948.8,5001.3
53269,1948.8,5251.3
53269,1948.8,5501.3
53269,1948.8,4751.3
53269,1948.8,5001.3
53269,1948.8,5251.3
53269,1948.8,5501.3
53269,1948.8,4751.3
53269,1948.8,5001.3
53269,1948.8,5251.3
53269,1948.8,4751.3
53269,1948.8,5001.3
53269,1948.8,5251.3
53269,1948.8,5501.3
53269,1948.8,4751.3
53269,1948.8,5001.3
53269,1948.8,5251.3
53269,1948.8,5501.3
53269,1948.8,4751.3
53269,1948.8,5001.3
53269,1948.8,5251.3
53269,1948.8,5501.3
53269,1948.8,4751.3
53269,1948.8,4751.3
53269,1948.8,5001.3
53269,1948.8,4751.3
53269,1948.8,5001.3
53269,1948.8,5251.3
53269,1948.8,4751.3
53269,1948.8,5001.3
53269,1948.8,5251.3
53269,1948.8,5501.3
53269,1948.8,4751.3
53269,1948.8,5001.3
53269,1948.8,4751.3
53269,1948.8,5001.3
53269,1948.8,5251.3
53269,1948.8,4751.3
53269,1948.8,5001.3
53269,1948.8,5251.3
53269,1948.8,5501.3
53269,1948.8,4751.3
53269,1948.8,5001.3
53269,1948.8,5251.3
53269,1948.8,4751.3
53269,1948.8,5001.3
53269,1948.8,5251.3
53269,1948.8,5501.3
53269,1948.8,4751.3
53269,1948.8,5001.3
53269,1948.8,5251.3
53269,1948.8,5501.3
53269,1948.8,4751.3
53269,1948.8,5001.3
53269,1948.8,4751.3
53269,1948.8,5001.3
53269,1948.8,5251.3
53269,1948.8,4751.3
53269,1948.8,5001.3
53269,1948.8,5251.3
53269,1948.8,5501.3
53269,1948.8,4751.3
53269,1948.8,5001.3
53269,1948.8,5251.3
53269,1948.8,4751.3
53269,1948.8,5001.3
53269,1948.8,5251.3
53269,1948.8,5501.3
53269,1948.8,4751.3
53269,1948.8,5001.3
53269,1948.8,5251.3
53269,1948.8,5501.3
53269,1948.8,4751.3
53269,1948.8,5001.3
53269,1948.8,5251.3
53269,1948.8,4751.3
53269,1948.8,5001.3
53269,1948.8,5251.3
53269,1948.8,5501.3
53269,1948.8,4751.3
53269,1948.8,5001.3
53269,1948.8,5251.3
53269,1948.8,5501.3
53269,1948.8,4751.3
53269,1948.8,5001.3
53269,1948.8,5251.3
53269,1948.8,5501.3
53269,1948.8,4751.3
53269,1948.8,4751.3
53269,1948.8,5001.3
53269,1948.8,4751.3
53269,1948.8,4751.3
53269,1948.8,5001.3
53269,1948.8,4751.3
53269,1948.8,5001.3
53269,1948.8,5251.3
53269,1948.8,4751.3
53269,1948.8,4751.3
53269,1948.8,5001.3
53269,1948.8,4751.3
53269,1948.8,5001.3
53269,1948.8,5251.3
53269,1948.8,4751.3
53269,1948.8,5001.3
53269,1948.8,5251.3
53269,1948.8,5501.3
53269,1948.8,4751.3
53269,1948.8,4751.3
53269,1948.8,5001.3
53269,1948.8,4751.3
53269,1948.8,5001.3
53269,1948.8,5251.3
53269,1948.8,4751.3
53269,1948.8,5001.3
53269,1948.8,5251.3
53269,1948.8,5501.3
53269,1948.8,4751.3
53269,1948.8,5001.3
53269,1948.8,4751.3
53269,1948.8,5001.3
53269,1948.8,5251.3
53269,1948.8,4751.3
53269,1948.8,5001.3
53269,1948.8,5251.3
53269,1948.8,5501.3
53269,1948.8,4751.3
53269,1948.8,4751.3
53269,1948.8,5001.3
53269,1948.8,4751.3
53269,1948.8,5001.3
53269,1948.8,5251.3
53269,1948.8,4751.3
53269,1948.8,4751.3
53269,1948.8,5001.3
53269,1948.8,4751.3
53269,1948.8,5001.3
53269,1948.8,5251.3
53269,1948.8,4751.3
53269,1948.8,5001.3
53269,1948.8,5251.3
53269,1948.8,5501.3
53269,1948.8,4751.3
53269,1948.8,4751.3
53269,1948.8,5001.3
53269,1948.8,4751.3
53269,1948.8,5001.3
53269,1948.8,5251.3
53269,1948.8,4751.3
53269,1948.8,5001.3
53269,1948.8,5251.3
53269,1948.8,5501.3
53269,1948.8,4751.3
53269,1948.8,5001.3
53269,1948.8,4751.3
53269,1948.8,5001.3
53269,1948.8,5251.3
53269,1948.8,4751.3
53269,1948.8,5001.3
53269,1948.8,5251.3
53269,1948.8,5501.3
53269,1948.8,4751.3
53269,1948.8,5001.3
53269,1948.8,5251.3
53269,1948.8,4751.3
53269,1948.8,5001.3
53269,1948.8,5251.3
53269,1948.8,5501.3
53269,1948.8,4751.3
53269,1948.8,4751.3
53269,1948.8,5001.3
53269,1948.8,4751.3
53269,1948.8,5001.3
53269,1948.8,5251.3
53269,1948.8,4751.3
53269,1948.8,5001.3
53269,1948.8,5251.3
53269,1948.8,5501.3
53269,1948.8,4751.3
53269,1948.8,4751.3
53269,1948.8,5001.3
53269,1948.8,4751.3
53269,1948.8,5001.3
53269,1948.8,5251.3
53269,1948.8,4751.3
53269,1948.8,5001.3
53269,1948.8,5251.3
53269,1948.8,5501.3
53269,1948.8,4751.3
53269,1948.8,5001.3
53269,1948.8,4751.3
53269,1948.8,5001.3
53269,1948.8,5251.3
53269,1948.8,4751.3
53269,1948.8,5001.3
53269,1948.8,5251.3
53269,1948.8,5501.3
53269,1948.8,4751.3
53269,1948.8,5001.3
53269,1948.8,5251.3
53269,1948.8,4751.3
53269,1948.8,5001.3
53269,1948.8,5251.3
53269,1948.8,5501.3
53269,1948.8,4751.3
53269,1948.8,5001.3
53269,1948.8,5251.3
53269,1948.8,5501.3
53269,1948.8,4751.3
53269,1948.8,4751.3
53269,1948.8,5001.3
53269,1948.8,4751.3
53269,1948.8,5001.3
53269,1948.8,5251.3
53269,1948.8,4751.3
53269,1948.8,5001.3
53269,1948.8,5251.3
53269,1948.8,5501.3
53269,1948.8,4751.3
53269,1948.8,5001.3
53269,1948.8,4751.3
53269,1948.8,5001.3
53269,1948.8,5251.3
53269,1948.8,4751.3
53269,1948.8,5001.3
53269,1948.8,5251.3
53269,1948.8,5501.3
53269,1948.8,4751.3
53269,1948.8,5001.3
53269,1948.8,5251.3
53269,1948.8,4751.3
53269,1948.8,5001.3
53269,1948.8,5251.3
53269,1948.8,5501.3
53269,1948.8,4751.3
53269,1948.8,5001.3
53269,1948.8,5251.3
53269,1948.8,5501.3
53269,1948.8,4751.3
53269,1948.8,5001.3
53269,1948.8,4751.3
53269,1948.8,5001.3
53269,1948.8,5251.3
53269,1948.8,4751.3
53269,1948.8,5001.3
53269,1948.8,5251.3
53269,1948.8,5501.3
53269,1948.8,4751.3
53269,1948.8,5001.3
53269,1948.8,5251.3
53269,1948.8,4751.3
53269,1948.8,5001.3
53269,1948.8,5251.3
53269,1948.8,5501.3
53269,1948.8,4751.3
53269,1948.8,5001.3
53269,1948.8,5251.3
53269,1948.8,5501.3
53269,1948.8,4751.3
53269,1948.8,4751.3
53269,1948.8,5001.3
53269,1948.8,4751.3
53269,1948.8,5001.3
53269,1948.8,5251.3
53269,1948.8,4751.3
53269,1948.8,4751.3
53269,1948.8,5001.3
53269,1948.8,4751.3
53269,1948.8,5001.3
53269,1948.8,5251.3
53269,1948.8,4751.3
53269,1948.8,5001.3
53269,1948.8,5251.3
53269,1948.8,5501.3
53269,1948.8,4751.3
53269,1948.8,4751.3
53269,1948.8,5001.3
53269,1948.8,4751.3
53269,1948.8,5001.3
53269,1948.8,5251.3
53269,1948.8,4751.3
53269,1948.8,5001.3
53269,1948.8,5251.3
53269,1948.8,5501.3
53269,1948.8,4751.3
53269,1948.8,5001.3
53269,1948.8,4751.3
53269,1948.8,5001.3
53269,1948.8,5251.3
53269,1948.8,4751.3
53269,1948.8,5001.3
53269,1948.8,5251.3
53269,1948.8,5501.3
53269,1948.8,4751.3
53269,1948.8,5001.3
53269,1948.8,5251.3
53269,1948.8,4751.3
53269,1948.8,5001.3
53269,1948.8,5251.3
53269,1948.8,5501.3
53269,1948.8,4751.3
53269,1948.8,4751.3
53269,1948.8,5001.3
53269,1948.8,4751.3
53269,1948.8,5001.3
53269,1948.8,5251.3
53269,1948.8,4751.3
53269,1948.8,5001.3
53269,1948.8,5251.3
53269,1948.8,5501.3
53269,1948.8,4751.3
53269,1948.8,4751.3
53269,1948.8,5001.3
53269,1948.8,4751.3
53269,1948.8,5001.3
53269,1948.8,5251.3
53269,1948.8,4751.3
53269,1948.8,5001.3
53269,1948.8,5251.3
53269,1948.8,5501.3
53269,1948.8,4751.3
53269,1948.8,5001.3
53269,1948.8,4751.3
53269,1948.8,5001.3
53269,1948.8,5251.3
53269,1948.8,4751.3
53269,1948.8,5001.3
53269,1948.8,5251.3
53269,1948.8,5501.3
53269,1948.8,4751.3
53269,1948.8,5001.3
53269,1948.8,5251.3
53269,1948.8,4751.3
53269,1948.8,5001.3
53269,1948.8,5251.3
53269,1948.8,5501.3
53269,1948.8,4751.3
53269,1948.8,5001.3
53269,1948.8,5251.3
53269,1948.8,5501.3
53269,1948.8,4751.3
53269,1948.8,4751.3
53269,1948.8,5001.3
53269,1948.8,4751.3
53269,1948.8,5001.3
53269,1948.8,5251.3
53269,1948.8,4751.3
53269,1948.8,5001.3
53269,1948.8,5251.3
53269,1948.8,5501.3
53269,1948.8,4751.3
53269,1948.8,5001.3
53269,1948.8,4751.3
53269,1948.8,5001.3
53269,1948.8,5251.3
53269,1948.8,4751.3
53269,1948.8,5001.3
53269,1948.8,5251.3
53269,1948.8,5501.3
53269,1948.8,4751.3
53269,1948.8,5001.3
53269,1948.8,5251.3
53269,1948.8,4751.3
53269,1948.8,5001.3
53269,1948.8,5251.3
53269,1948.8,5501.3
53269,1948.8,4751.3
53269,1948.8,5001.3
53269,1948.8,5251.3
53269,1948.8,5501.3
53269,1948.8,4751.3
53269,1948.8,5001.3
53269,1948.8,4751.3
53269,1948.8,5001.3
53269,1948.8,5251.3
53269,1948.8,4751.3
53269,1948.8,5001.3
53269,1948.8,5251.3
53269,1948.8,5501.3
53269,1948.8,4751.3
53269,1948.8,5001.3
53269,1948.8,5251.3
53269,1948.8,4751.3
53269,1948.8,5001.3
53269,1948.8,5251.3
53269,1948.8,5501.3
53269,1948.8,4751.3
53269,1948.8,5001.3
53269,1948.8,5251.3
53269,1948.8,5501.3
53269,1948.8,4751.3
53269,1948.8,5001.3
53269,1948.8,5251.3
53269,1948.8,4751.3
53269,1948.8,5001.3
53269,1948.8,5251.3
53269,1948.8,5501.3
53269,1948.8,4751.3
53269,1948.8,5001.3
53269,1948.8,5251.3
53269,1948.8,5501.3
53269,1948.8,4751.3
53269,1948.8,4751.3
53269,1948.8,5001.3
53269,1948.8,4751.3
53269,1948.8,5001.3
53269,1948.8,5251.3
53269,1948.8,4751.3
53269,1948.8,5001.3
53269,1948.8,5251.3
53269,1948.8,5501.3
53269,1948.8,4751.3
53269,1948.8,4751.3
53269,1948.8,5001.3
53269,1948.8,4751.3
53269,1948.8,5001.3
53269,1948.8,5251.3
53269,1948.8,4751.3
53269,1948.8,5001.3
53269,1948.8,5251.3
53269,1948.8,5501.3
53269,1948.8,4751.3
53269,1948.8,5001.3
53269,1948.8,4751.3
53269,1948.8,5001.3
53269,1948.8,5251.3
53269,1948.8,4751.3
53269,1948.8,5001.3
53269,1948.8,5251.3
53269,1948.8,5501.3
53269,1948.8,4751.3
53269,1948.8,5001.3
53269,1948.8,5251.3
53269,1948.8,4751.3
53269,1948.8,5001.3
53269,1948.8,5251.3
53269,1948.8,5501.3
53269,1948.8,4751.3
53269,1948.8,5001.3
53269,1948.8,5251.3
53269,1948.8,5501.3
53269,1948.8,4751.3
53269,1948.8,4751.3
53269,1948.8,5001.3
53269,1948.8,4751.3
53269,1948.8,5001.3
53269,1948.8,5251.3
53269,1948.8,4751.3
53269,1948.8,5001.3
53269,1948.8,5251.3
53269,1948.8,5501.3
53269,1948.8,4751.3
53269,1948.8,5001.3
53269,1948.8,4751.3
53269,1948.8,5001.3
53269,1948.8,5251.3
53269,1948.8,4751.3
53269,1948.8,5001.3
53269,1948.8,5251.3
53269,1948.8,5501.3
53269,1948.8,4751.3
53269,1948.8,5001.3
53269,1948.8,5251.3
53269,1948.8,4751.3
53269,1948.8,5001.3
53269,1948.8,5251.3
53269,1948.8,5501.3
53269,1948.8,4751.3
53269,1948.8,5001.3
53269,1948.8,5251.3
53269,1948.8,5501.3
53269,1948.8,4751.3
53269,1948.8,5001.3
53269,1948.8,4751.3
53269,1948.8,5001.3
53269,1948.8,5251.3
53269,1948.8,4751.3
53269,1948.8,5001.3
53269,1948.8,5251.3
53269,1948.8,5501.3
53269,1948.8,4751.3
53269,1948.8,5001.3
53269,1948.8,5251.3
53269,1948.8,4751.3
53269,1948.8,5001.3
53269,1948.8,5251.3
53269,1948.8,5501.3
53269,1948.8,4751.3
53269,1948.8,5001.3
53269,1948.8,5251.3
53269,1948.8,5501.3
53269,1948.8,4751.3
53269,1948.8,5001.3
53269,1948.8,5251.3
53269,1948.8,4751.3
53269,1948.8,5001.3
53269,1948.8,5251.3
53269,1948.8,5501.3
53269,1948.8,4751.3
53269,1948.8,5001.3
53269,1948.8,5251.3
53269,1948.8,5501.3
53269,1948.8,4751.3
53269,1948.8,5001.3
53269,1948.8,5251.3
53269,1948.8,5501.3
53269,1948.8,4751.3
53269,1948.8,4751.3
53269,1948.8,5001.3
53269,1948.8,4751.3
53269,1948.8,5001.3
53269,1948.8,5251.3
53269,1948.8,4751.3
53269,1948.8,5001.3
53269,1948.8,5251.3
53269,1948.8,5501.3
53269,1948.8,4751.3
53269,1948.8,5001.3
53269,1948.8,4751.3
53269,1948.8,5001.3
53269,1948.8,5251.3
53269,1948.8,4751.3
53269,1948.8,5001.3
53269,1948.8,5251.3
53269,1948.8,5501.3
53269,1948.8,4751.3
53269,1948.8,5001.3
53269,1948.8,5251.3
53269,1948.8,4751.3
53269,1948.8,5001.3
53269,1948.8,5251.3
53269,1948.8,5501.3
53269,1948.8,4751.3
53269,1948.8,5001.3
53269,1948.8,5251.3
53269,1948.8,5501.3
53269,1948.8,4751.3
53269,1948.8,5001.3
53269,1948.8,4751.3
53269,1948.8,5001.3
53269,1948.8,5251.3
53269,1948.8,4751.3
53269,1948.8,5001.3
53269,1948.8,5251.3
53269,1948.8,5501.3
53269,1948.8,4751.3
53269,1948.8,5001.3
53269,1948.8,5251.3
53269,1948.8,4751.3
53269,1948.8,5001.3
53269,1948.8,5251.3
53269,1948.8,5501.3
53269,1948.8,4751.3
53269,1948.8,5001.3
53269,1948.8,5251.3
53269,1948.8,5501.3
53269,1948.8,4751.3
53269,1948.8,5001.3
53269,1948.8,5251.3
53269,1948.8,4751.3
53269,1948.8,5001.3
53269,1948.8,5251.3
53269,1948.8,5501.3
53269,1948.8,4751.3
53269,1948.8,5001.3
53269,1948.8,5251.3
53269,1948.8,5501.3
53269,1948.8,4751.3
53269,1948.8,5001.3
53269,1948.8,5251.3
53269,1948.8,5501.3
53269,1948.8,4751.3
53269,1948.8,4751.3
53269,1948.8,5001.3
53269,1948.8,4751.3
53269,1948.8,5001.3
53269,1948.8,5251.3
53269,1948.8,4751.3
53269,1948.8,4751.3
53269,1948.8,5001.3
53269,1948.8,4751.3
53269,1948.8,5001.3
53269,1948.8,5251.3
53269,1948.8,4751.3
53269,1948.8,5001.3
53269,1948.8,5251.3
53269,1948.8,5501.3
53269,1948.8,4751.3
53269,1948.8,4751.3
53269,1948.8,5001.3
53269,1948.8,4751.3
53269,1948.8,5001.3
53269,1948.8,5251.3
53269,1948.8,4751.3
53269,1948.8,5001.3
53269,1948.8,5251.3
53269,1948.8,5501.3
53269,1948.8,4751.3
53269,1948.8,5001.3
53269,1948.8,4751.3
53269,1948.8,5001.3
53269,1948.8,5251.3
53269,1948.8,4751.3
53269,1948.8,5001.3
53269,1948.8,5251.3
53269,1948.8,5501.3
53269,1948.8,4751.3
53269,1948.8,5001.3
53269,1948.8,5251.3
53269,1948.8,4751.3
53269,1948.8,5001.3
53269,1948.8,5251.3
53269,1948.8,5501.3
53269,1948.8,4751.3
53269,1948.8,4751.3
53269,1948.8,5001.3
53269,1948.8,4751.3
53269,1948.8,5001.3
53269,1948.8,5251.3
53269,1948.8,4751.3
53269,1948.8,5001.3
53269,1948.8,5251.3
53269,1948.8,5501.3
53269,1948.8,4751.3
53269,1948.8,4751.3
53269,1948.8,5001.3
53269,1948.8,4751.3
53269,1948.8,5001.3
53269,1948.8,5251.3
53269,1948.8,4751.3
53269,1948.8,5001.3
53269,1948.8,5251.3
53269,1948.8,5501.3
53269,1948.8,4751.3
53269,1948.8,5001.3
53269,1948.8,4751.3
53269,1948.8,5001.3
53269,1948.8,5251.3
53269,1948.8,4751.3
53269,1948.8,5001.3
53269,1948.8,5251.3
53269,1948.8,5501.3
53269,1948.8,4751.3
53269,1948.8,5001.3
53269,1948.8,5251.3
53269,1948.8,4751.3
53269,1948.8,5001.3
53269,1948.8,5251.3
53269,1948.8,5501.3
53269,1948.8,4751.3
53269,1948.8,5001.3
53269,1948.8,5251.3
53269,1948.8,5501.3
53269,1948.8,4751.3
53269,1948.8,4751.3
53269,1948.8,5001.3
53269,1948.8,4751.3
53269,1948.8,5001.3
53269,1948.8,5251.3
53269,1948.8,4751.3
53269,1948.8,5001.3
53269,1948.8,5251.3
53269,1948.8,5501.3
53269,1948.8,4751.3
53269,1948.8,5001.3
53269,1948.8,4751.3
53269,1948.8,5001.3
53269,1948.8,5251.3
53269,1948.8,4751.3
53269,1948.8,5001.3
53269,1948.8,5251.3
53269,1948.8,5501.3
53269,1948.8,4751.3
53269,1948.8,5001.3
53269,1948.8,5251.3
53269,1948.8,4751.3
53269,1948.8,5001.3
53269,1948.8,5251.3
53269,1948.8,5501.3
53269,1948.8,4751.3
53269,1948.8,5001.3
53269,1948.8,5251.3
53269,1948.8,5501.3
53269,1948.8,4751.3
53269,1948.8,5001.3
53269,1948.8,4751.3
53269,1948.8,5001.3
53269,1948.8,5251.3
53269,1948.8,4751.3
53269,1948.8,5001.3
53269,1948.8,5251.3
53269,1948.8,5501.3
53269,1948.8,4751.3
53269,1948.8,5001.3
53269,1948.8,5251.3
53269,1948.8,4751.3
53269,1948.8,5001.3
53269,1948.8,5251.3
53269,1948.8,5501.3
53269,1948.8,4751.3
53269,1948.8,5001.3
53269,1948.8,5251.3
53269,1948.8,5501.3
53269,1948.8,4751.3
53269,1948.8,5001.3
53269,1948.8,5251.3
53269,1948.8,4751.3
53269,1948.8,5001.3
53269,1948.8,5251.3
53269,1948.8,5501.3
53269,1948.8,4751.3
53269,1948.8,5001.3
53269,1948.8,5251.3
53269,1948.8,5501.3
53269,1948.8,4751.3
53269,1948.8,4751.3
53269,1948.8,5001.3
53269,1948.8,4751.3
53269,1948.8,5001.3
53269,1948.8,5251.3
53269,1948.8,4751.3
53269,1948.8,5001.3
53269,1948.8,5251.3
53269,1948.8,5501.3
53269,1948.8,4751.3
53269,1948.8,4751.3
53269,1948.8,5001.3
53269,1948.8,4751.3
53269,1948.8,5001.3
53269,1948.8,5251.3
53269,1948.8,4751.3
53269,1948.8,5001.3
53269,1948.8,5251.3
53269,1948.8,5501.3
53269,1948.8,4751.3
53269,1948.8,5001.3
53269,1948.8,4751.3
53269,1948.8,5001.3
53269,1948.8,5251.3
53269,1948.8,4751.3
53269,1948.8,5001.3
53269,1948.8,5251.3
53269,1948.8,5501.3
53269,1948.8,4751.3
53269,1948.8,5001.3
53269,1948.8,5251.3
53269,1948.8,4751.3
53269,1948.8,5001.3
53269,1948.8,5251.3
53269,1948.8,5501.3
53269,1948.8,4751.3
53269,1948.8,5001.3
53269,1948.8,5251.3
53269,1948.8,5501.3
53269,1948.8,4751.3
53269,1948.8,4751.3
53269,1948.8,5001.3
53269,1948.8,4751.3
53269,1948.8,5001.3
53269,1948.8,5251.3
53269,1948.8,4751.3
53269,1948.8,5001.3
53269,1948.8,5251.3
53269,1948.8,5501.3
53269,1948.8,4751.3
53269,1948.8,5001.3
53269,1948.8,4751.3
53269,1948.8,5001.3
53269,1948.8,5251.3
53269,1948.8,4751.3
53269,1948.8,5001.3
53269,1948.8,5251.3
53269,1948.8,5501.3
53269,1948.8,4751.3
53269,1948.8,5001.3
53269,1948.8,5251.3
53269,1948.8,4751.3
53269,1948.8,5001.3
53269,1948.8,5251.3
53269,1948.8,5501.3
53269,1948.8,4751.3
53269,1948.8,5001.3
53269,1948.8,5251.3
53269,1948.8,5501.3
53269,1948.8,4751.3
53269,1948.8,5001.3
53269,1948.8,4751.3
53269,1948.8,5001.3
53269,1948.8,5251.3
53269,1948.8,4751.3
53269,1948.8,5001.3
53269,1948.8,5251.3
53269,1948.8,5501.3
53269,1948.8,4751.3
53269,1948.8,5001.3
53269,1948.8,5251.3
53269,1948.8,4751.3
53269,1948.8,5001.3
53269,1948.8,5251.3
53269,1948.8,5501.3
53269,1948.8,4751.3
53269,1948.8,5001.3
53269,1948.8,5251.3
53269,1948.8,5501.3
53269,1948.8,4751.3
53269,1948.8,5001.3
53269,1948.8,5251.3
53269,1948.8,4751.3
53269,1948.8,5001.3
53269,1948.8,5251.3
53269,1948.8,5501.3
53269,1948.8,4751.3
53269,1948.8,5001.3
53269,1948.8,5251.3
53269,1948.8,5501.3
53269,1948.8,4751.3
53269,1948.8,5001.3
53269,1948.8,5251.3
53269,1948.8,5501.3
53269,1948.8,4751.3
53269,1948.8,4751.3
53269,1948.8,5001.3
53269,1948.8,4751.3
53269,1948.8,5001.3
53269,1948.8,5251.3
53269,1948.8,4751.3
53269,1948.8,5001.3
53269,1948.8,5251.3
53269,1948.8,5501.3
53269,1948.8,4751.3
53269,1948.8,5001.3
53269,1948.8,4751.3
53269,1948.8,5001.3
53269,1948.8,5251.3
53269,1948.8,4751.3
53269,1948.8,5001.3
53269,1948.8,5251.3
53269,1948.8,5501.3
53269,1948.8,4751.3
53269,1948.8,5001.3
53269,1948.8,5251.3
53269,1948.8,4751.3
53269,1948.8,5001.3
53269,1948.8,5251.3
53269,1948.8,5501.3
53269,1948.8,4751.3
53269,1948.8,5001.3
53269,1948.8,5251.3
53269,1948.8,5501.3
53269,1948.8,4751.3
53269,1948.8,5001.3
53269,1948.8,4751.3
53269,1948.8,5001.3
53269,1948.8,5251.3
53269,1948.8,4751.3
53269,1948.8,5001.3
53269,1948.8,5251.3
53269,1948.8,5501.3
53269,1948.8,4751.3
53269,1948.8,5001.3
53269,1948.8,5251.3
53269,1948.8,4751.3
53269,1948.8,5001.3
53269,1948.8,5251.3
53269,1948.8,5501.3
53269,1948.8,4751.3
53269,1948.8,5001.3
53269,1948.8,5251.3
53269,1948.8,5501.3
53269,1948.8,4751.3
53269,1948.8,5001.3
53269,1948.8,5251.3
53269,1948.8,4751.3
53269,1948.8,5001.3
53269,1948.8,5251.3
53269,1948.8,5501.3
53269,1948.8,4751.3
53269,1948.8,5001.3
53269,1948.8,5251.3
53269,1948.8,5501.3
53269,1948.8,4751.3
53269,1948.8,5001.3
53269,1948.8,5251.3
53269,1948.8,5501.3
