45757,1948.8,4405.8
45757,1948.8,4655.8
45757,1948.8,4905.8
45757,1948.8,4405.8
45757,1948.8,4655.8
45757,1948.8,4905.8
45757,1948.8,5155.8
45757,1948.8,4405.8
45757,1948.8,4655.8
45757,1948.8,4905.8
45757,1948.8,5155.8
45757,1948.8,5405.8
45757,1948.8,4655.8
45757,1948.8,4905.8
45757,1948.8,5155.8
45757,1948.8,5405.8
45757,1948.8,4905.8
45757,1948.8,5155.8
45757,1948.8,5405.8
45757,1948.8,4405.8
45757,1948.8,4655.8
45757,1948.8,4905.8
45757,1948.8,5155.8
45757,1948.8,4405.8
45757,1948.8,4655.8
45757,1948.8,4905.8
45757,1948.8,5155.8
45757,1948.8,5405.8
45757,1948.8,4655.8
45757,1948.8,4905.8
45757,1948.8,5155.8
45757,1948.8,5405.8
45757,1948.8,4905.8
45757,1948.8,5155.8
45757,1948.8,5405.8
45757,1948.8,5155.8
45757,1948.8,5405.8
45757,1948.8,4405.8
45757,1948.8,4655.8
45757,1948.8,4905.8
45757,1948.8,5155.8
45757,1948.8,5405.8
45757,1948.8,4655.8
45757,1948.8,4905.8
45757,1948.8,5155.8
45757,1948.8,5405.8
45757,1948.8,4905.8
45757,1948.8,5155.8
45757,1948.8,5405.8
45757,1948.8,5155.8
45757,1948.8,5405.8
45757,1948.8,5405.8
45757,1948.8,4655.8
45757,1948.8,4905.8
45757,1948.8,5155.8
45757,1948.8,5405.8
45757,1948.8,4905.8
45757,1948.8,5155.8
45757,1948.8,5405.8
45757,1948.8,5155.8
45757,1948.8,5405.8
45757,1948.8,5405.8
45757,1948.8,4905.8
45757,1948.8,5155.8
45757,1948.8,5405.8
45757,1948.8,5155.8
45757,1948.8,5405.8
45757,1948.8,5405.8
46598,1948.8,3905.8
46598,1948.8,4155.8
46598,1948.8,4405.8
46598,1948.8,3905.8
46598,1948.8,4155.8
46598,1948.8,4405.8
46598,1948.8,4655.8
46598,1948.8,3905.8
46598,1948.8,4155.8
46598,1948.8,4405.8
46598,1948.8,4655.8
46598,1948.8,3905.8
46598,1948.8,4155.8
46598,1948.8,4405.8
46598,1948.8,4655.8
47438,1948.8,4655.8
47438,1948.8,4905.8
47438,1948.8,5155.8
47438,1948.8,5405.8
47438,1948.8,4905.8
47438,1948.8,5155.8
47438,1948.8,5405.8
47438,1948.8,5155.8
47438,1948.8,5405.8
47438,1948.8,5405.8
47438,1948.8,4655.8
47438,1948.8,4905.8
47438,1948.8,5155.8
47438,1948.8,5405.8
47438,1948.8,4905.8
47438,1948.8,5155.8
47438,1948.8,5405.8
47438,1948.8,5155.8
47438,1948.8,5405.8
47438,1948.8,5405.8
47438,1948.8,4905.8
47438,1948.8,5155.8
47438,1948.8,5405.8
47438,1948.8,5155.8
47438,1948.8,5405.8
47438,1948.8,5405.8
47438,1948.8,4655.8
47438,1948.8,4905.8
47438,1948.8,5155.8
47438,1948.8,5405.8
47438,1948.8,4905.8
47438,1948.8,5155.8
47438,1948.8,5405.8
47438,1948.8,5155.8
47438,1948.8,5405.8
47438,1948.8,5405.8
47438,1948.8,4655.8
47438,1948.8,4905.8
47438,1948.8,5155.8
47438,1948.8,5405.8
47438,1948.8,4905.8
47438,1948.8,5155.8
47438,1948.8,5405.8
47438,1948.8,5155.8
47438,1948.8,5405.8
47438,1948.8,5405.8
47438,1948.8,4905.8
47438,1948.8,5155.8
47438,1948.8,5405.8
47438,1948.8,5155.8
47438,1948.8,5405.8
47438,1948.8,5405.8
47438,1948.8,4655.8
47438,1948.8,4905.8
47438,1948.8,5155.8
47438,1948.8,5405.8
47438,1948.8,4905.8
47438,1948.8,5155.8
47438,1948.8,5405.8
47438,1948.8,5155.8
47438,1948.8,5405.8
47438,1948.8,5405.8
47438,1948.8,4905.8
47438,1948.8,5155.8
47438,1948.8,5405.8
47438,1948.8,5155.8
47438,1948.8,5405.8
47438,1948.8,5405.8
47438,1948.8,5155.8
47438,1948.8,5405.8
47438,1948.8,5405.8
47438,1948.8,4655.8
47438,1948.8,4905.8
47438,1948.8,5155.8
47438,1948.8,5405.8
47438,1948.8,4905.8
47438,1948.8,5155.8
47438,1948.8,5405.8
47438,1948.8,5155.8
47438,1948.8,5405.8
47438,1948.8,5405.8
47438,1948.8,4655.8
47438,1948.8,4905.8
47438,1948.8,5155.8
47438,1948.8,5405.8
47438,1948.8,4905.8
47438,1948.8,5155.8
47438,1948.8,5405.8
47438,1948.8,5155.8
47438,1948.8,5405.8
47438,1948.8,5405.8
47438,1948.8,4905.8
47438,1948.8,5155.8
47438,1948.8,5405.8
47438,1948.8,5155.8
47438,1948.8,5405.8
47438,1948.8,5405.8
47438,1948.8,4655.8
47438,1948.8,4905.8
47438,1948.8,5155.8
47438,1948.8,5405.8
47438,1948.8,4905.8
47438,1948.8,5155.8
47438,1948.8,5405.8
47438,1948.8,5155.8
47438,1948.8,5405.8
47438,1948.8,5405.8
47438,1948.8,4905.8
47438,1948.8,5155.8
47438,1948.8,5405.8
47438,1948.8,5155.8
47438,1948.8,5405.8
47438,1948.8,5405.8
47438,1948.8,5155.8
47438,1948.8,5405.8
47438,1948.8,5405.8
47438,1948.8,4655.8
47438,1948.8,4905.8
47438,1948.8,5155.8
47438,1948.8,5405.8
47438,1948.8,4905.8
47438,1948.8,5155.8
47438,1948.8,5405.8
47438,1948.8,5155.8
47438,1948.8,5405.8
47438,1948.8,5405.8
47438,1948.8,4905.8
47438,1948.8,5155.8
47438,1948.8,5405.8
47438,1948.8,5155.8
47438,1948.8,5405.8
47438,1948.8,5405.8
47438,1948.8,5155.8
47438,1948.8,5405.8
47438,1948.8,5405.8
47438,1948.8,5405.8
47438,1948.8,4655.8
47438,1948.8,4905.8
47438,1948.8,5155.8
47438,1948.8,5405.8
47438,1948.8,4905.8
47438,1948.8,5155.8
47438,1948.8,5405.8
47438,1948.8,5155.8
47438,1948.8,5405.8
47438,1948.8,5405.8
47438,1948.8,4655.8
47438,1948.8,4905.8
47438,1948.8,5155.8
47438,1948.8,5405.8
47438,1948.8,4905.8
47438,1948.8,5155.8
47438,1948.8,5405.8
47438,1948.8,5155.8
47438,1948.8,5405.8
47438,1948.8,5405.8
47438,1948.8,4905.8
47438,1948.8,5155.8
47438,1948.8,5405.8
47438,1948.8,5155.8
47438,1948.8,5405.8
47438,1948.8,5405.8
47438,1948.8,4655.8
47438,1948.8,4905.8
47438,1948.8,5155.8
47438,1948.8,5405.8
47438,1948.8,4905.8
47438,1948.8,5155.8
47438,1948.8,5405.8
47438,1948.8,5155.8
47438,1948.8,5405.8
47438,1948.8,5405.8
47438,1948.8,4905.8
47438,1948.8,5155.8
47438,1948.8,5405.8
47438,1948.8,5155.8
47438,1948.8,5405.8
47438,1948.8,5405.8
47438,1948.8,5155.8
47438,1948.8,5405.8
47438,1948.8,5405.8
47438,1948.8,4655.8
47438,1948.8,4905.8
47438,1948.8,5155.8
47438,1948.8,5405.8
47438,1948.8,4905.8
47438,1948.8,5155.8
47438,1948.8,5405.8
47438,1948.8,5155.8
47438,1948.8,5405.8
47438,1948.8,5405.8
47438,1948.8,4905.8
47438,1948.8,5155.8
47438,1948.8,5405.8
47438,1948.8,5155.8
47438,1948.8,5405.8
47438,1948.8,5405.8
47438,1948.8,5155.8
47438,1948.8,5405.8
47438,1948.8,5405.8
47438,1948.8,5405.8
47438,1948.8,4655.8
47438,1948.8,4905.8
47438,1948.8,5155.8
47438,1948.8,5405.8
47438,1948.8,4905.8
47438,1948.8,5155.8
47438,1948.8,5405.8
47438,1948.8,5155.8
47438,1948.8,5405.8
47438,1948.8,5405.8
47438,1948.8,4905.8
47438,1948.8,5155.8
47438,1948.8,5405.8
47438,1948.8,5155.8
47438,1948.8,5405.8
47438,1948.8,5405.8
47438,1948.8,5155.8
47438,1948.8,5405.8
47438,1948.8,5405.8
47438,1948.8,5405.8
47438,1948.8,4655.8
47438,1948.8,4905.8
47438,1948.8,5155.8
47438,1948.8,5405.8
47438,1948.8,4905.8
47438,1948.8,5155.8
47438,1948.8,5405.8
47438,1948.8,5155.8
47438,1948.8,5405.8
47438,1948.8,5405.8
47438,1948.8,4905.8
47438,1948.8,5155.8
47438,1948.8,5405.8
47438,1948.8,5155.8
47438,1948.8,5405.8
47438,1948.8,5405.8
47438,1948.8,4655.8
47438,1948.8,4905.8
47438,1948.8,5155.8
47438,1948.8,5405.8
47438,1948.8,4905.8
47438,1948.8,5155.8
47438,1948.8,5405.8
47438,1948.8,5155.8
47438,1948.8,5405.8
47438,1948.8,5405.8
47438,1948.8,4905.8
47438,1948.8,5155.8
47438,1948.8,5405.8
47438,1948.8,5155.8
47438,1948.8,5405.8
47438,1948.8,5405.8
47438,1948.8,5155.8
47438,1948.8,5405.8
47438,1948.8,5405.8
47438,1948.8,4655.8
47438,1948.8,4905.8
47438,1948.8,5155.8
47438,1948.8,5405.8
47438,1948.8,4905.8
47438,1948.8,5155.8
47438,1948.8,5405.8
47438,1948.8,5155.8
47438,1948.8,5405.8
47438,1948.8,5405.8
47438,1948.8,4905.8
47438,1948.8,5155.8
47438,1948.8,5405.8
47438,1948.8,5155.8
47438,1948.8,5405.8
47438,1948.8,5405.8
47438,1948.8,5155.8
47438,1948.8,5405.8
47438,1948.8,5405.8
47438,1948.8,5405.8
47438,1948.8,4655.8
47438,1948.8,4905.8
47438,1948.8,5155.8
47438,1948.8,5405.8
47438,1948.8,4905.8
47438,1948.8,5155.8
47438,1948.8,5405.8
47438,1948.8,5155.8
47438,1948.8,5405.8
47438,1948.8,5405.8
47438,1948.8,4905.8
47438,1948.8,5155.8
47438,1948.8,5405.8
47438,1948.8,5155.8
47438,1948.8,5405.8
47438,1948.8,5405.8
47438,1948.8,5155.8
47438,1948.8,5405.8
47438,1948.8,5405.8
47438,1948.8,5405.8
47438,1948.8,4905.8
47438,1948.8,5155.8
47438,1948.8,5405.8
47438,1948.8,5155.8
47438,1948.8,5405.8
47438,1948.8,5405.8
47438,1948.8,5155.8
47438,1948.8,5405.8
47438,1948.8,5405.8
47438,1948.8,5405.8
