75667,1948.8,6001.3
75667,1948.8,6001.3
75667,1948.8,6001.3
75667,1948.8,6251.3
75667,1948.8,6001.3
75667,1948.8,6001.3
75667,1948.8,6251.3
75667,1948.8,6001.3
75667,1948.8,6251.3
75667,1948.8,6501.3
75667,1948.8,6001.3
75667,1948.8,6001.3
75667,1948.8,6251.3
75667,1948.8,6001.3
75667,1948.8,6251.3
75667,1948.8,6501.3
75667,1948.8,6001.3
75667,1948.8,6251.3
75667,1948.8,6501.3
75667,1948.8,6751.3
75031,1948.8,4001.3
75031,1948.8,4251.3
75031,1948.8,4001.3
75031,1948.8,4251.3
75031,1948.8,4501.3
75031,1948.8,4001.3
75031,1948.8,4251.3
75031,1948.8,4501.3
75031,1948.8,4751.3
75031,1948.8,4001.3
75031,1948.8,4251.3
75031,1948.8,4501.3
75031,1948.8,4751.3
75031,1948.8,5001.3
75031,1948.8,4251.3
75031,1948.8,4501.3
75031,1948.8,4751.3
75031,1948.8,5001.3
75031,1948.8,4001.3
75031,1948.8,4251.3
75031,1948.8,4501.3
75031,1948.8,4001.3
75031,1948.8,4251.3
75031,1948.8,4501.3
75031,1948.8,4751.3
75031,1948.8,4001.3
75031,1948.8,4251.3
75031,1948.8,4501.3
75031,1948.8,4751.3
75031,1948.8,5001.3
75031,1948.8,4251.3
75031,1948.8,4501.3
75031,1948.8,4751.3
75031,1948.8,5001.3
75031,1948.8,4501.3
75031,1948.8,4751.3
75031,1948.8,5001.3
75031,1948.8,4001.3
75031,1948.8,4251.3
75031,1948.8,4501.3
75031,1948.8,4751.3
75031,1948.8,4001.3
75031,1948.8,4251.3
75031,1948.8,4501.3
75031,1948.8,4751.3
75031,1948.8,5001.3
75031,1948.8,4251.3
75031,1948.8,4501.3
75031,1948.8,4751.3
75031,1948.8,5001.3
75031,1948.8,4501.3
75031,1948.8,4751.3
75031,1948.8,5001.3
75031,1948.8,4751.3
75031,1948.8,5001.3
75031,1948.8,4001.3
75031,1948.8,4251.3
75031,1948.8,4501.3
75031,1948.8,4751.3
75031,1948.8,5001.3
75031,1948.8,4251.3
75031,1948.8,4501.3
75031,1948.8,4751.3
75031,1948.8,5001.3
75031,1948.8,4501.3
75031,1948.8,4751.3
75031,1948.8,5001.3
75031,1948.8,4751.3
75031,1948.8,5001.3
75031,1948.8,5001.3
75031,1948.8,4251.3
75031,1948.8,4501.3
75031,1948.8,4751.3
75031,1948.8,5001.3
75031,1948.8,4501.3
75031,1948.8,4751.3
75031,1948.8,5001.3
75031,1948.8,4751.3
75031,1948.8,5001.3
75031,1948.8,5001.3
75031,1948.8,4001.3
75031,1948.8,4251.3
75031,1948.8,4501.3
75031,1948.8,4001.3
75031,1948.8,4251.3
75031,1948.8,4501.3
75031,1948.8,4751.3
75031,1948.8,4001.3
75031,1948.8,4251.3
75031,1948.8,4501.3
75031,1948.8,4751.3
75031,1948.8,5001.3
75031,1948.8,4251.3
75031,1948.8,4501.3
75031,1948.8,4751.3
75031,1948.8,5001.3
75031,1948.8,4501.3
75031,1948.8,4751.3
75031,1948.8,5001.3
75031,1948.8,4001.3
75031,1948.8,4251.3
75031,1948.8,4501.3
75031,1948.8,4751.3
75031,1948.8,4001.3
75031,1948.8,4251.3
75031,1948.8,4501.3
75031,1948.8,4751.3
75031,1948.8,5001.3
75031,1948.8,4251.3
75031,1948.8,4501.3
75031,1948.8,4751.3
75031,1948.8,5001.3
75031,1948.8,4501.3
75031,1948.8,4751.3
75031,1948.8,5001.3
75031,1948.8,4751.3
75031,1948.8,5001.3
75031,1948.8,4001.3
75031,1948.8,4251.3
75031,1948.8,4501.3
75031,1948.8,4751.3
75031,1948.8,5001.3
75031,1948.8,4251.3
75031,1948.8,4501.3
75031,1948.8,4751.3
75031,1948.8,5001.3
75031,1948.8,4501.3
75031,1948.8,4751.3
75031,1948.8,5001.3
75031,1948.8,4751.3
75031,1948.8,5001.3
75031,1948.8,5001.3
75031,1948.8,4251.3
75031,1948.8,4501.3
75031,1948.8,4751.3
75031,1948.8,5001.3
75031,1948.8,4501.3
75031,1948.8,4751.3
75031,1948.8,5001.3
75031,1948.8,4751.3
75031,1948.8,5001.3
75031,1948.8,5001.3
75031,1948.8,4501.3
75031,1948.8,4751.3
75031,1948.8,5001.3
75031,1948.8,4751.3
75031,1948.8,5001.3
75031,1948.8,5001.3
75031,1948.8,4001.3
75031,1948.8,4251.3
75031,1948.8,4501.3
75031,1948.8,4751.3
75031,1948.8,4001.3
75031,1948.8,4251.3
75031,1948.8,4501.3
75031,1948.8,4751.3
75031,1948.8,5001.3
75031,1948.8,4251.3
75031,1948.8,4501.3
75031,1948.8,4751.3
75031,1948.8,5001.3
75031,1948.8,4501.3
75031,1948.8,4751.3
75031,1948.8,5001.3
75031,1948.8,4751.3
75031,1948.8,5001.3
75031,1948.8,4001.3
75031,1948.8,4251.3
75031,1948.8,4501.3
75031,1948.8,4751.3
75031,1948.8,5001.3
75031,1948.8,4251.3
75031,1948.8,4501.3
75031,1948.8,4751.3
75031,1948.8,5001.3
75031,1948.8,4501.3
75031,1948.8,4751.3
75031,1948.8,5001.3
75031,1948.8,4751.3
75031,1948.8,5001.3
75031,1948.8,5001.3
75031,1948.8,4251.3
75031,1948.8,4501.3
75031,1948.8,4751.3
75031,1948.8,5001.3
75031,1948.8,4501.3
75031,1948.8,4751.3
75031,1948.8,5001.3
75031,1948.8,4751.3
75031,1948.8,5001.3
75031,1948.8,5001.3
75031,1948.8,4501.3
75031,1948.8,4751.3
75031,1948.8,5001.3
75031,1948.8,4751.3
75031,1948.8,5001.3
75031,1948.8,5001.3
75031,1948.8,4751.3
75031,1948.8,5001.3
75031,1948.8,5001.3
75031,1948.8,4001.3
75031,1948.8,4251.3
75031,1948.8,4501.3
75031,1948.8,4751.3
75031,1948.8,5001.3
75031,1948.8,4251.3
75031,1948.8,4501.3
75031,1948.8,4751.3
75031,1948.8,5001.3
75031,1948.8,4501.3
75031,1948.8,4751.3
75031,1948.8,5001.3
75031,1948.8,4751.3
75031,1948.8,5001.3
75031,1948.8,5001.3
75031,1948.8,4251.3
75031,1948.8,4501.3
75031,1948.8,4751.3
75031,1948.8,5001.3
75031,1948.8,4501.3
75031,1948.8,4751.3
75031,1948.8,5001.3
75031,1948.8,4751.3
75031,1948.8,5001.3
75031,1948.8,5001.3
75031,1948.8,4501.3
75031,1948.8,4751.3
75031,1948.8,5001.3
75031,1948.8,4751.3
75031,1948.8,5001.3
75031,1948.8,5001.3
75031,1948.8,4751.3
75031,1948.8,5001.3
75031,1948.8,5001.3
75031,1948.8,5001.3
75031,1948.8,4251.3
75031,1948.8,4501.3
75031,1948.8,4751.3
75031,1948.8,5001.3
75031,1948.8,4501.3
75031,1948.8,4751.3
75031,1948.8,5001.3
75031,1948.8,4751.3
75031,1948.8,5001.3
75031,1948.8,5001.3
75031,1948.8,4501.3
75031,1948.8,4751.3
75031,1948.8,5001.3
75031,1948.8,4751.3
75031,1948.8,5001.3
75031,1948.8,5001.3
75031,1948.8,4751.3
75031,1948.8,5001.3
75031,1948.8,5001.3
75031,1948.8,5001.3
74395,1948.8,4251.3
74395,1948.8,4251.3
74395,1948.8,4251.3
74395,1948.8,4751.3
74395,1948.8,5001.3
74395,1948.8,5251.3
74395,1948.8,4251.3
74395,1948.8,4251.3
74395,1948.8,4751.3
74395,1948.8,5001.3
74395,1948.8,5251.3
74395,1948.8,4751.3
74395,1948.8,5001.3
74395,1948.8,5251.3
74395,1948.8,5001.3
74395,1948.8,5251.3
74395,1948.8,4251.3
74395,1948.8,4751.3
74395,1948.8,5001.3
74395,1948.8,5251.3
74395,1948.8,4751.3
74395,1948.8,5001.3
74395,1948.8,5251.3
74395,1948.8,5001.3
74395,1948.8,5251.3
74395,1948.8,4751.3
74395,1948.8,5001.3
74395,1948.8,5251.3
74395,1948.8,5001.3
74395,1948.8,5251.3
74395,1948.8,5251.3
74395,1948.8,4751.3
74395,1948.8,5001.3
74395,1948.8,5251.3
74395,1948.8,4751.3
74395,1948.8,5001.3
74395,1948.8,5251.3
74395,1948.8,5001.3
74395,1948.8,5251.3
74395,1948.8,4751.3
74395,1948.8,5001.3
74395,1948.8,5251.3
74395,1948.8,5001.3
74395,1948.8,5251.3
74395,1948.8,5251.3
74395,1948.8,4751.3
74395,1948.8,5001.3
74395,1948.8,5251.3
74395,1948.8,5001.3
74395,1948.8,5251.3
74395,1948.8,5251.3
74395,1948.8,4751.3
74395,1948.8,5001.3
74395,1948.8,5251.3
74395,1948.8,4751.3
74395,1948.8,5001.3
74395,1948.8,5251.3
74395,1948.8,5001.3
74395,1948.8,5251.3
74395,1948.8,4751.3
74395,1948.8,5001.3
74395,1948.8,5251.3
74395,1948.8,5001.3
74395,1948.8,5251.3
74395,1948.8,5251.3
74395,1948.8,4751.3
74395,1948.8,5001.3
74395,1948.8,5251.3
74395,1948.8,5001.3
74395,1948.8,5251.3
74395,1948.8,5251.3
74395,1948.8,4751.3
74395,1948.8,5001.3
74395,1948.8,5251.3
74395,1948.8,5001.3
74395,1948.8,5251.3
74395,1948.8,5251.3
74395,1948.8,4251.3
74395,1948.8,4251.3
74395,1948.8,4751.3
74395,1948.8,5001.3
74395,1948.8,5251.3
74395,1948.8,4751.3
74395,1948.8,5001.3
74395,1948.8,5251.3
74395,1948.8,5001.3
74395,1948.8,5251.3
74395,1948.8,4251.3
74395,1948.8,4751.3
74395,1948.8,5001.3
74395,1948.8,5251.3
74395,1948.8,4751.3
74395,1948.8,5001.3
74395,1948.8,5251.3
74395,1948.8,5001.3
74395,1948.8,5251.3
74395,1948.8,4751.3
74395,1948.8,5001.3
74395,1948.8,5251.3
74395,1948.8,5001.3
74395,1948.8,5251.3
74395,1948.8,5251.3
74395,1948.8,4751.3
74395,1948.8,5001.3
74395,1948.8,5251.3
74395,1948.8,4751.3
74395,1948.8,5001.3
74395,1948.8,5251.3
74395,1948.8,5001.3
74395,1948.8,5251.3
74395,1948.8,4751.3
74395,1948.8,5001.3
74395,1948.8,5251.3
74395,1948.8,5001.3
74395,1948.8,5251.3
74395,1948.8,5251.3
74395,1948.8,4751.3
74395,1948.8,5001.3
74395,1948.8,5251.3
74395,1948.8,5001.3
74395,1948.8,5251.3
74395,1948.8,5251.3
74395,1948.8,4751.3
74395,1948.8,5001.3
74395,1948.8,5251.3
74395,1948.8,4751.3
74395,1948.8,5001.3
74395,1948.8,5251.3
74395,1948.8,5001.3
74395,1948.8,5251.3
74395,1948.8,4751.3
74395,1948.8,5001.3
74395,1948.8,5251.3
74395,1948.8,5001.3
74395,1948.8,5251.3
74395,1948.8,5251.3
74395,1948.8,4751.3
74395,1948.8,5001.3
74395,1948.8,5251.3
74395,1948.8,5001.3
74395,1948.8,5251.3
74395,1948.8,5251.3
74395,1948.8,4751.3
74395,1948.8,5001.3
74395,1948.8,5251.3
74395,1948.8,5001.3
74395,1948.8,5251.3
74395,1948.8,5251.3
74395,1948.8,4751.3
74395,1948.8,5001.3
74395,1948.8,5251.3
74395,1948.8,5001.3
74395,1948.8,5251.3
74395,1948.8,4751.3
74395,1948.8,5001.3
74395,1948.8,5251.3
74395,1948.8,5001.3
74395,1948.8,5251.3
74395,1948.8,5251.3
74395,1948.8,4751.3
74395,1948.8,5001.3
74395,1948.8,5251.3
74395,1948.8,5001.3
74395,1948.8,5251.3
74395,1948.8,5251.3
74395,1948.8,4751.3
74395,1948.8,5001.3
74395,1948.8,5251.3
74395,1948.8,5001.3
74395,1948.8,5251.3
74395,1948.8,5251.3
74395,1948.8,4251.3
74395,1948.8,4751.3
74395,1948.8,5001.3
74395,1948.8,5251.3
74395,1948.8,4751.3
74395,1948.8,5001.3
74395,1948.8,5251.3
74395,1948.8,5001.3
74395,1948.8,5251.3
74395,1948.8,4751.3
74395,1948.8,5001.3
74395,1948.8,5251.3
74395,1948.8,5001.3
74395,1948.8,5251.3
74395,1948.8,5251.3
74395,1948.8,4751.3
74395,1948.8,5001.3
74395,1948.8,5251.3
74395,1948.8,4751.3
74395,1948.8,5001.3
74395,1948.8,5251.3
74395,1948.8,5001.3
74395,1948.8,5251.3
74395,1948.8,4751.3
74395,1948.8,5001.3
74395,1948.8,5251.3
74395,1948.8,5001.3
74395,1948.8,5251.3
74395,1948.8,5251.3
74395,1948.8,4751.3
74395,1948.8,5001.3
74395,1948.8,5251.3
74395,1948.8,5001.3
74395,1948.8,5251.3
74395,1948.8,5251.3
74395,1948.8,4751.3
74395,1948.8,5001.3
74395,1948.8,5251.3
74395,1948.8,4751.3
74395,1948.8,5001.3
74395,1948.8,5251.3
74395,1948.8,5001.3
74395,1948.8,5251.3
74395,1948.8,4751.3
74395,1948.8,5001.3
74395,1948.8,5251.3
74395,1948.8,5001.3
74395,1948.8,5251.3
74395,1948.8,5251.3
74395,1948.8,4751.3
74395,1948.8,5001.3
74395,1948.8,5251.3
74395,1948.8,5001.3
74395,1948.8,5251.3
74395,1948.8,5251.3
74395,1948.8,4751.3
74395,1948.8,5001.3
74395,1948.8,5251.3
74395,1948.8,5001.3
74395,1948.8,5251.3
74395,1948.8,5251.3
74395,1948.8,4751.3
74395,1948.8,5001.3
74395,1948.8,5251.3
74395,1948.8,5001.3
74395,1948.8,5251.3
74395,1948.8,4751.3
74395,1948.8,5001.3
74395,1948.8,5251.3
74395,1948.8,5001.3
74395,1948.8,5251.3
74395,1948.8,5251.3
74395,1948.8,4751.3
74395,1948.8,5001.3
74395,1948.8,5251.3
74395,1948.8,5001.3
74395,1948.8,5251.3
74395,1948.8,5251.3
74395,1948.8,4751.3
74395,1948.8,5001.3
74395,1948.8,5251.3
74395,1948.8,5001.3
74395,1948.8,5251.3
74395,1948.8,5251.3
74395,1948.8,4751.3
74395,1948.8,5001.3
74395,1948.8,5251.3
74395,1948.8,5001.3
74395,1948.8,5251.3
74395,1948.8,5251.3
74395,1948.8,4751.3
74395,1948.8,5001.3
74395,1948.8,5251.3
74395,1948.8,5001.3
74395,1948.8,5251.3
74395,1948.8,5251.3
74395,1948.8,4751.3
74395,1948.8,5001.3
74395,1948.8,5251.3
74395,1948.8,5001.3
74395,1948.8,5251.3
74395,1948.8,5251.3
74395,1948.8,4751.3
74395,1948.8,5001.3
74395,1948.8,5251.3
74395,1948.8,4751.3
74395,1948.8,5001.3
74395,1948.8,5251.3
74395,1948.8,5001.3
74395,1948.8,5251.3
74395,1948.8,4751.3
74395,1948.8,5001.3
74395,1948.8,5251.3
74395,1948.8,5001.3
74395,1948.8,5251.3
74395,1948.8,5251.3
74395,1948.8,4751.3
74395,1948.8,5001.3
74395,1948.8,5251.3
74395,1948.8,5001.3
74395,1948.8,5251.3
74395,1948.8,5251.3
74395,1948.8,4751.3
74395,1948.8,5001.3
74395,1948.8,5251.3
74395,1948.8,4751.3
74395,1948.8,5001.3
74395,1948.8,5251.3
74395,1948.8,5001.3
74395,1948.8,5251.3
74395,1948.8,4751.3
74395,1948.8,5001.3
74395,1948.8,5251.3
74395,1948.8,5001.3
74395,1948.8,5251.3
74395,1948.8,5251.3
74395,1948.8,4751.3
74395,1948.8,5001.3
74395,1948.8,5251.3
74395,1948.8,5001.3
74395,1948.8,5251.3
74395,1948.8,5251.3
74395,1948.8,4751.3
74395,1948.8,5001.3
74395,1948.8,5251.3
74395,1948.8,5001.3
74395,1948.8,5251.3
74395,1948.8,5251.3
74395,1948.8,4751.3
74395,1948.8,5001.3
74395,1948.8,5251.3
74395,1948.8,5001.3
74395,1948.8,5251.3
74395,1948.8,4751.3
74395,1948.8,5001.3
74395,1948.8,5251.3
74395,1948.8,5001.3
74395,1948.8,5251.3
74395,1948.8,5251.3
74395,1948.8,4751.3
74395,1948.8,5001.3
74395,1948.8,5251.3
74395,1948.8,5001.3
74395,1948.8,5251.3
74395,1948.8,5251.3
74395,1948.8,4751.3
74395,1948.8,5001.3
74395,1948.8,5251.3
74395,1948.8,5001.3
74395,1948.8,5251.3
74395,1948.8,5251.3
74395,1948.8,4751.3
74395,1948.8,5001.3
74395,1948.8,5251.3
74395,1948.8,5001.3
74395,1948.8,5251.3
74395,1948.8,5251.3
74395,1948.8,4751.3
74395,1948.8,5001.3
74395,1948.8,5251.3
74395,1948.8,5001.3
74395,1948.8,5251.3
74395,1948.8,5251.3
74395,1948.8,4751.3
74395,1948.8,5001.3
74395,1948.8,5251.3
74395,1948.8,5001.3
74395,1948.8,5251.3
74395,1948.8,5251.3
74395,1948.8,4751.3
74395,1948.8,5001.3
74395,1948.8,5251.3
74395,1948.8,5001.3
74395,1948.8,5251.3
74395,1948.8,5251.3
74395,1948.8,4751.3
74395,1948.8,5001.3
74395,1948.8,5251.3
74395,1948.8,5001.3
74395,1948.8,5251.3
74395,1948.8,5251.3
74395,1948.8,4751.3
74395,1948.8,5001.3
74395,1948.8,5251.3
74395,1948.8,4751.3
74395,1948.8,5001.3
74395,1948.8,5251.3
74395,1948.8,5001.3
74395,1948.8,5251.3
74395,1948.8,4751.3
74395,1948.8,5001.3
74395,1948.8,5251.3
74395,1948.8,5001.3
74395,1948.8,5251.3
74395,1948.8,5251.3
74395,1948.8,4751.3
74395,1948.8,5001.3
74395,1948.8,5251.3
74395,1948.8,5001.3
74395,1948.8,5251.3
74395,1948.8,5251.3
74395,1948.8,4751.3
74395,1948.8,5001.3
74395,1948.8,5251.3
74395,1948.8,5001.3
74395,1948.8,5251.3
74395,1948.8,5251.3
74395,1948.8,4751.3
74395,1948.8,5001.3
74395,1948.8,5251.3
74395,1948.8,5001.3
74395,1948.8,5251.3
74395,1948.8,4751.3
74395,1948.8,5001.3
74395,1948.8,5251.3
74395,1948.8,5001.3
74395,1948.8,5251.3
74395,1948.8,5251.3
74395,1948.8,4751.3
74395,1948.8,5001.3
74395,1948.8,5251.3
74395,1948.8,5001.3
74395,1948.8,5251.3
74395,1948.8,5251.3
74395,1948.8,4751.3
74395,1948.8,5001.3
74395,1948.8,5251.3
74395,1948.8,5001.3
74395,1948.8,5251.3
74395,1948.8,5251.3
74395,1948.8,4751.3
74395,1948.8,5001.3
74395,1948.8,5251.3
74395,1948.8,5001.3
74395,1948.8,5251.3
74395,1948.8,5251.3
74395,1948.8,4751.3
74395,1948.8,5001.3
74395,1948.8,5251.3
74395,1948.8,5001.3
74395,1948.8,5251.3
74395,1948.8,5251.3
74395,1948.8,4751.3
74395,1948.8,5001.3
74395,1948.8,5251.3
74395,1948.8,5001.3
74395,1948.8,5251.3
74395,1948.8,5251.3
74395,1948.8,4751.3
74395,1948.8,5001.3
74395,1948.8,5251.3
74395,1948.8,5001.3
74395,1948.8,5251.3
74395,1948.8,5251.3
74395,1948.8,4751.3
74395,1948.8,5001.3
74395,1948.8,5251.3
74395,1948.8,5001.3
74395,1948.8,5251.3
74395,1948.8,5251.3
74395,1948.8,4751.3
74395,1948.8,5001.3
74395,1948.8,5251.3
74395,1948.8,5001.3
74395,1948.8,5251.3
74395,1948.8,5251.3
