20568,1948.8,6638.6
21216,1948.8,6138.6
21216,1948.8,6388.6
21216,1948.8,6638.6
21216,1948.8,6888.6
21216,1948.8,7138.6
21864,1948.8,5638.6
21864,1948.8,5888.6
21864,1948.8,6138.6
21864,1948.8,6388.6
21864,1948.8,6638.6
21864,1948.8,5888.6
21864,1948.8,6138.6
21864,1948.8,6388.6
21864,1948.8,6638.6
21864,1948.8,6888.6
21864,1948.8,6138.6
21864,1948.8,6388.6
21864,1948.8,6638.6
21864,1948.8,6888.6
21864,1948.8,7138.6
21864,1948.8,6388.6
21864,1948.8,6638.6
21864,1948.8,6888.6
21864,1948.8,7138.6
21864,1948.8,7388.6
21864,1948.8,6638.6
21864,1948.8,6888.6
21864,1948.8,7138.6
21864,1948.8,7388.6
21864,1948.8,7638.6
22512,1948.8,5138.6
22512,1948.8,5388.6
22512,1948.8,5638.6
22512,1948.8,5888.6
22512,1948.8,6138.6
22512,1948.8,5388.6
22512,1948.8,5638.6
22512,1948.8,5888.6
22512,1948.8,6138.6
22512,1948.8,6388.6
22512,1948.8,5638.6
22512,1948.8,5888.6
22512,1948.8,6138.6
22512,1948.8,6388.6
22512,1948.8,6638.6
22512,1948.8,5888.6
22512,1948.8,6138.6
22512,1948.8,6388.6
22512,1948.8,6638.6
22512,1948.8,6888.6
22512,1948.8,6138.6
22512,1948.8,6388.6
22512,1948.8,6638.6
22512,1948.8,6888.6
22512,1948.8,7138.6
22512,1948.8,5388.6
22512,1948.8,5638.6
22512,1948.8,5888.6
22512,1948.8,6138.6
22512,1948.8,6388.6
22512,1948.8,5638.6
22512,1948.8,5888.6
22512,1948.8,6138.6
22512,1948.8,6388.6
22512,1948.8,6638.6
22512,1948.8,5888.6
22512,1948.8,6138.6
22512,1948.8,6388.6
22512,1948.8,6638.6
22512,1948.8,6888.6
22512,1948.8,6138.6
22512,1948.8,6388.6
22512,1948.8,6638.6
22512,1948.8,6888.6
22512,1948.8,7138.6
22512,1948.8,6388.6
22512,1948.8,6638.6
22512,1948.8,6888.6
22512,1948.8,7138.6
22512,1948.8,7388.6
22512,1948.8,5638.6
22512,1948.8,5888.6
22512,1948.8,6138.6
22512,1948.8,6388.6
22512,1948.8,6638.6
22512,1948.8,5888.6
22512,1948.8,6138.6
22512,1948.8,6388.6
22512,1948.8,6638.6
22512,1948.8,6888.6
22512,1948.8,6138.6
22512,1948.8,6388.6
22512,1948.8,6638.6
22512,1948.8,6888.6
22512,1948.8,7138.6
22512,1948.8,6388.6
22512,1948.8,6638.6
22512,1948.8,6888.6
22512,1948.8,7138.6
22512,1948.8,7388.6
22512,1948.8,6638.6
22512,1948.8,6888.6
22512,1948.8,7138.6
22512,1948.8,7388.6
22512,1948.8,7638.6
22512,1948.8,5888.6
22512,1948.8,6138.6
22512,1948.8,6388.6
22512,1948.8,6638.6
22512,1948.8,6888.6
22512,1948.8,6138.6
22512,1948.8,6388.6
22512,1948.8,6638.6
22512,1948.8,6888.6
22512,1948.8,7138.6
22512,1948.8,6388.6
22512,1948.8,6638.6
22512,1948.8,6888.6
22512,1948.8,7138.6
22512,1948.8,7388.6
22512,1948.8,6638.6
22512,1948.8,6888.6
22512,1948.8,7138.6
22512,1948.8,7388.6
22512,1948.8,7638.6
22512,1948.8,6888.6
22512,1948.8,7138.6
22512,1948.8,7388.6
22512,1948.8,7638.6
22512,1948.8,7888.6
22512,1948.8,6138.6
22512,1948.8,6388.6
22512,1948.8,6638.6
22512,1948.8,6888.6
22512,1948.8,7138.6
22512,1948.8,6388.6
22512,1948.8,6638.6
22512,1948.8,6888.6
22512,1948.8,7138.6
22512,1948.8,7388.6
22512,1948.8,6638.6
22512,1948.8,6888.6
22512,1948.8,7138.6
22512,1948.8,7388.6
22512,1948.8,7638.6
22512,1948.8,6888.6
22512,1948.8,7138.6
22512,1948.8,7388.6
22512,1948.8,7638.6
22512,1948.8,7888.6
22512,1948.8,7138.6
22512,1948.8,7388.6
22512,1948.8,7638.6
22512,1948.8,7888.6
22512,1948.8,8138.6
23160,1948.8,4638.6
23160,1948.8,4888.6
23160,1948.8,5138.6
23160,1948.8,5388.6
23160,1948.8,5638.6
23160,1948.8,4888.6
23160,1948.8,5138.6
23160,1948.8,5388.6
23160,1948.8,5638.6
23160,1948.8,5888.6
23160,1948.8,5138.6
23160,1948.8,5388.6
23160,1948.8,5638.6
23160,1948.8,5888.6
23160,1948.8,5388.6
23160,1948.8,5638.6
23160,1948.8,5888.6
23160,1948.8,5638.6
23160,1948.8,5888.6
23160,1948.8,4888.6
23160,1948.8,5138.6
23160,1948.8,5388.6
23160,1948.8,5638.6
23160,1948.8,5888.6
23160,1948.8,5138.6
23160,1948.8,5388.6
23160,1948.8,5638.6
23160,1948.8,5888.6
23160,1948.8,5388.6
23160,1948.8,5638.6
23160,1948.8,5888.6
23160,1948.8,5638.6
23160,1948.8,5888.6
23160,1948.8,5888.6
23160,1948.8,5138.6
23160,1948.8,5388.6
23160,1948.8,5638.6
23160,1948.8,5888.6
23160,1948.8,5388.6
23160,1948.8,5638.6
23160,1948.8,5888.6
23160,1948.8,5638.6
23160,1948.8,5888.6
23160,1948.8,5888.6
23160,1948.8,5388.6
23160,1948.8,5638.6
23160,1948.8,5888.6
23160,1948.8,5638.6
23160,1948.8,5888.6
23160,1948.8,5888.6
23160,1948.8,5638.6
23160,1948.8,5888.6
23160,1948.8,5888.6
23160,1948.8,7638.6
23160,1948.8,4888.6
23160,1948.8,5138.6
23160,1948.8,5388.6
23160,1948.8,5638.6
23160,1948.8,5888.6
23160,1948.8,5138.6
23160,1948.8,5388.6
23160,1948.8,5638.6
23160,1948.8,5888.6
23160,1948.8,5388.6
23160,1948.8,5638.6
23160,1948.8,5888.6
23160,1948.8,5638.6
23160,1948.8,5888.6
23160,1948.8,5888.6
23160,1948.8,5138.6
23160,1948.8,5388.6
23160,1948.8,5638.6
23160,1948.8,5888.6
23160,1948.8,5388.6
23160,1948.8,5638.6
23160,1948.8,5888.6
23160,1948.8,5638.6
23160,1948.8,5888.6
23160,1948.8,5888.6
23160,1948.8,5388.6
23160,1948.8,5638.6
23160,1948.8,5888.6
23160,1948.8,5638.6
23160,1948.8,5888.6
23160,1948.8,5888.6
23160,1948.8,5638.6
23160,1948.8,5888.6
23160,1948.8,5888.6
23160,1948.8,7638.6
23160,1948.8,5888.6
23160,1948.8,7638.6
23160,1948.8,7638.6
23160,1948.8,7888.6
23160,1948.8,5138.6
23160,1948.8,5388.6
23160,1948.8,5638.6
23160,1948.8,5888.6
23160,1948.8,5388.6
23160,1948.8,5638.6
23160,1948.8,5888.6
23160,1948.8,5638.6
23160,1948.8,5888.6
23160,1948.8,5888.6
23160,1948.8,5388.6
23160,1948.8,5638.6
23160,1948.8,5888.6
23160,1948.8,5638.6
23160,1948.8,5888.6
23160,1948.8,5888.6
23160,1948.8,5638.6
23160,1948.8,5888.6
23160,1948.8,5888.6
23160,1948.8,7638.6
23160,1948.8,5888.6
23160,1948.8,7638.6
23160,1948.8,7638.6
23160,1948.8,7888.6
23160,1948.8,7638.6
23160,1948.8,7638.6
23160,1948.8,7888.6
23160,1948.8,7638.6
23160,1948.8,7888.6
23160,1948.8,8138.6
23160,1948.8,5388.6
23160,1948.8,5638.6
23160,1948.8,5888.6
23160,1948.8,5638.6
23160,1948.8,5888.6
23160,1948.8,5888.6
23160,1948.8,5638.6
23160,1948.8,5888.6
23160,1948.8,5888.6
23160,1948.8,7638.6
23160,1948.8,5888.6
23160,1948.8,7638.6
23160,1948.8,7638.6
23160,1948.8,7888.6
23160,1948.8,7638.6
23160,1948.8,7638.6
23160,1948.8,7888.6
23160,1948.8,7638.6
23160,1948.8,7888.6
23160,1948.8,8138.6
23160,1948.8,7638.6
23160,1948.8,7638.6
23160,1948.8,7888.6
23160,1948.8,7638.6
23160,1948.8,7888.6
23160,1948.8,8138.6
23160,1948.8,7638.6
23160,1948.8,7888.6
23160,1948.8,8138.6
23160,1948.8,8388.6
23160,1948.8,5638.6
23160,1948.8,5888.6
23160,1948.8,5888.6
23160,1948.8,7638.6
23160,1948.8,5888.6
23160,1948.8,7638.6
23160,1948.8,7638.6
23160,1948.8,7888.6
23160,1948.8,7638.6
23160,1948.8,7638.6
23160,1948.8,7888.6
23160,1948.8,7638.6
23160,1948.8,7888.6
23160,1948.8,8138.6
23160,1948.8,7638.6
23160,1948.8,7638.6
23160,1948.8,7888.6
23160,1948.8,7638.6
23160,1948.8,7888.6
23160,1948.8,8138.6
23160,1948.8,7638.6
23160,1948.8,7888.6
23160,1948.8,8138.6
23160,1948.8,8388.6
23160,1948.8,7638.6
23160,1948.8,7638.6
23160,1948.8,7888.6
23160,1948.8,7638.6
23160,1948.8,7888.6
23160,1948.8,8138.6
23160,1948.8,7638.6
23160,1948.8,7888.6
23160,1948.8,8138.6
23160,1948.8,8388.6
23160,1948.8,7638.6
23160,1948.8,7888.6
23160,1948.8,8138.6
23160,1948.8,8388.6
23160,1948.8,8638.6
23809,1948.8,4138.6
23809,1948.8,4388.6
23809,1948.8,4638.6
23809,1948.8,4888.6
23809,1948.8,5138.6
23809,1948.8,4388.6
23809,1948.8,4638.6
23809,1948.8,4888.6
23809,1948.8,5138.6
23809,1948.8,5388.6
23809,1948.8,4638.6
23809,1948.8,4888.6
23809,1948.8,5138.6
23809,1948.8,5388.6
23809,1948.8,5638.6
23809,1948.8,4888.6
23809,1948.8,5138.6
23809,1948.8,5388.6
23809,1948.8,5638.6
23809,1948.8,5888.6
23809,1948.8,5138.6
23809,1948.8,5388.6
23809,1948.8,5638.6
23809,1948.8,5888.6
23809,1948.8,6138.6
23809,1948.8,4388.6
23809,1948.8,4638.6
23809,1948.8,4888.6
23809,1948.8,5138.6
23809,1948.8,5388.6
23809,1948.8,4638.6
23809,1948.8,4888.6
23809,1948.8,5138.6
23809,1948.8,5388.6
23809,1948.8,5638.6
23809,1948.8,4888.6
23809,1948.8,5138.6
23809,1948.8,5388.6
23809,1948.8,5638.6
23809,1948.8,5888.6
23809,1948.8,5138.6
23809,1948.8,5388.6
23809,1948.8,5638.6
23809,1948.8,5888.6
23809,1948.8,6138.6
23809,1948.8,5388.6
23809,1948.8,5638.6
23809,1948.8,5888.6
23809,1948.8,6138.6
23809,1948.8,6388.6
23809,1948.8,4638.6
23809,1948.8,4888.6
23809,1948.8,5138.6
23809,1948.8,5388.6
23809,1948.8,5638.6
23809,1948.8,4888.6
23809,1948.8,5138.6
23809,1948.8,5388.6
23809,1948.8,5638.6
23809,1948.8,5888.6
23809,1948.8,5138.6
23809,1948.8,5388.6
23809,1948.8,5638.6
23809,1948.8,5888.6
23809,1948.8,6138.6
23809,1948.8,5388.6
23809,1948.8,5638.6
23809,1948.8,5888.6
23809,1948.8,6138.6
23809,1948.8,6388.6
23809,1948.8,4888.6
23809,1948.8,5138.6
23809,1948.8,5388.6
23809,1948.8,5638.6
23809,1948.8,5888.6
23809,1948.8,5138.6
23809,1948.8,5388.6
23809,1948.8,5638.6
23809,1948.8,5888.6
23809,1948.8,6138.6
23809,1948.8,5388.6
23809,1948.8,5638.6
23809,1948.8,5888.6
23809,1948.8,6138.6
23809,1948.8,6388.6
23809,1948.8,5138.6
23809,1948.8,5388.6
23809,1948.8,5638.6
23809,1948.8,5888.6
23809,1948.8,6138.6
23809,1948.8,5388.6
23809,1948.8,5638.6
23809,1948.8,5888.6
23809,1948.8,6138.6
23809,1948.8,6388.6
23809,1948.8,4388.6
23809,1948.8,4638.6
23809,1948.8,4888.6
23809,1948.8,5138.6
23809,1948.8,5388.6
23809,1948.8,4638.6
23809,1948.8,4888.6
23809,1948.8,5138.6
23809,1948.8,5388.6
23809,1948.8,5638.6
23809,1948.8,4888.6
23809,1948.8,5138.6
23809,1948.8,5388.6
23809,1948.8,5638.6
23809,1948.8,5888.6
23809,1948.8,5138.6
23809,1948.8,5388.6
23809,1948.8,5638.6
23809,1948.8,5888.6
23809,1948.8,6138.6
23809,1948.8,5388.6
23809,1948.8,5638.6
23809,1948.8,5888.6
23809,1948.8,6138.6
23809,1948.8,6388.6
23809,1948.8,4638.6
23809,1948.8,4888.6
23809,1948.8,5138.6
23809,1948.8,5388.6
23809,1948.8,5638.6
23809,1948.8,4888.6
23809,1948.8,5138.6
23809,1948.8,5388.6
23809,1948.8,5638.6
23809,1948.8,5888.6
23809,1948.8,5138.6
23809,1948.8,5388.6
23809,1948.8,5638.6
23809,1948.8,5888.6
23809,1948.8,6138.6
23809,1948.8,5388.6
23809,1948.8,5638.6
23809,1948.8,5888.6
23809,1948.8,6138.6
23809,1948.8,6388.6
23809,1948.8,4888.6
23809,1948.8,5138.6
23809,1948.8,5388.6
23809,1948.8,5638.6
23809,1948.8,5888.6
23809,1948.8,5138.6
23809,1948.8,5388.6
23809,1948.8,5638.6
23809,1948.8,5888.6
23809,1948.8,6138.6
23809,1948.8,5388.6
23809,1948.8,5638.6
23809,1948.8,5888.6
23809,1948.8,6138.6
23809,1948.8,6388.6
23809,1948.8,5138.6
23809,1948.8,5388.6
23809,1948.8,5638.6
23809,1948.8,5888.6
23809,1948.8,6138.6
23809,1948.8,5388.6
23809,1948.8,5638.6
23809,1948.8,5888.6
23809,1948.8,6138.6
23809,1948.8,6388.6
23809,1948.8,5388.6
23809,1948.8,5638.6
23809,1948.8,5888.6
23809,1948.8,6138.6
23809,1948.8,6388.6
23809,1948.8,4638.6
23809,1948.8,4888.6
23809,1948.8,5138.6
23809,1948.8,5388.6
23809,1948.8,5638.6
23809,1948.8,4888.6
23809,1948.8,5138.6
23809,1948.8,5388.6
23809,1948.8,5638.6
23809,1948.8,5888.6
23809,1948.8,5138.6
23809,1948.8,5388.6
23809,1948.8,5638.6
23809,1948.8,5888.6
23809,1948.8,6138.6
23809,1948.8,5388.6
23809,1948.8,5638.6
23809,1948.8,5888.6
23809,1948.8,6138.6
23809,1948.8,6388.6
23809,1948.8,4888.6
23809,1948.8,5138.6
23809,1948.8,5388.6
23809,1948.8,5638.6
23809,1948.8,5888.6
23809,1948.8,5138.6
23809,1948.8,5388.6
23809,1948.8,5638.6
23809,1948.8,5888.6
23809,1948.8,6138.6
23809,1948.8,5388.6
23809,1948.8,5638.6
23809,1948.8,5888.6
23809,1948.8,6138.6
23809,1948.8,6388.6
23809,1948.8,5138.6
23809,1948.8,5388.6
23809,1948.8,5638.6
23809,1948.8,5888.6
23809,1948.8,6138.6
23809,1948.8,5388.6
23809,1948.8,5638.6
23809,1948.8,5888.6
23809,1948.8,6138.6
23809,1948.8,6388.6
23809,1948.8,5388.6
23809,1948.8,5638.6
23809,1948.8,5888.6
23809,1948.8,6138.6
23809,1948.8,6388.6
23809,1948.8,4888.6
23809,1948.8,5138.6
23809,1948.8,5388.6
23809,1948.8,5638.6
23809,1948.8,5888.6
23809,1948.8,5138.6
23809,1948.8,5388.6
23809,1948.8,5638.6
23809,1948.8,5888.6
23809,1948.8,6138.6
23809,1948.8,5388.6
23809,1948.8,5638.6
23809,1948.8,5888.6
23809,1948.8,6138.6
23809,1948.8,6388.6
23809,1948.8,5138.6
23809,1948.8,5388.6
23809,1948.8,5638.6
23809,1948.8,5888.6
23809,1948.8,6138.6
23809,1948.8,5388.6
23809,1948.8,5638.6
23809,1948.8,5888.6
23809,1948.8,6138.6
23809,1948.8,6388.6
23809,1948.8,5388.6
23809,1948.8,5638.6
23809,1948.8,5888.6
23809,1948.8,6138.6
23809,1948.8,6388.6
23809,1948.8,5138.6
23809,1948.8,5388.6
23809,1948.8,5638.6
23809,1948.8,5888.6
23809,1948.8,6138.6
23809,1948.8,5388.6
23809,1948.8,5638.6
23809,1948.8,5888.6
23809,1948.8,6138.6
23809,1948.8,6388.6
23809,1948.8,5388.6
23809,1948.8,5638.6
23809,1948.8,5888.6
23809,1948.8,6138.6
23809,1948.8,6388.6
23809,1948.8,8138.6
23809,1948.8,4388.6
23809,1948.8,4638.6
23809,1948.8,4888.6
23809,1948.8,5138.6
23809,1948.8,5388.6
23809,1948.8,4638.6
23809,1948.8,4888.6
23809,1948.8,5138.6
23809,1948.8,5388.6
23809,1948.8,5638.6
23809,1948.8,4888.6
23809,1948.8,5138.6
23809,1948.8,5388.6
23809,1948.8,5638.6
23809,1948.8,5888.6
23809,1948.8,5138.6
23809,1948.8,5388.6
23809,1948.8,5638.6
23809,1948.8,5888.6
23809,1948.8,6138.6
23809,1948.8,5388.6
23809,1948.8,5638.6
23809,1948.8,5888.6
23809,1948.8,6138.6
23809,1948.8,6388.6
23809,1948.8,4638.6
23809,1948.8,4888.6
23809,1948.8,5138.6
23809,1948.8,5388.6
23809,1948.8,5638.6
23809,1948.8,4888.6
23809,1948.8,5138.6
23809,1948.8,5388.6
23809,1948.8,5638.6
23809,1948.8,5888.6
23809,1948.8,5138.6
23809,1948.8,5388.6
23809,1948.8,5638.6
23809,1948.8,5888.6
23809,1948.8,6138.6
23809,1948.8,5388.6
23809,1948.8,5638.6
23809,1948.8,5888.6
23809,1948.8,6138.6
23809,1948.8,6388.6
23809,1948.8,4888.6
23809,1948.8,5138.6
23809,1948.8,5388.6
23809,1948.8,5638.6
23809,1948.8,5888.6
23809,1948.8,5138.6
23809,1948.8,5388.6
23809,1948.8,5638.6
23809,1948.8,5888.6
23809,1948.8,6138.6
23809,1948.8,5388.6
23809,1948.8,5638.6
23809,1948.8,5888.6
23809,1948.8,6138.6
23809,1948.8,6388.6
23809,1948.8,5138.6
23809,1948.8,5388.6
23809,1948.8,5638.6
23809,1948.8,5888.6
23809,1948.8,6138.6
23809,1948.8,5388.6
23809,1948.8,5638.6
23809,1948.8,5888.6
23809,1948.8,6138.6
23809,1948.8,6388.6
23809,1948.8,5388.6
23809,1948.8,5638.6
23809,1948.8,5888.6
23809,1948.8,6138.6
23809,1948.8,6388.6
23809,1948.8,4638.6
23809,1948.8,4888.6
23809,1948.8,5138.6
23809,1948.8,5388.6
23809,1948.8,5638.6
23809,1948.8,4888.6
23809,1948.8,5138.6
23809,1948.8,5388.6
23809,1948.8,5638.6
23809,1948.8,5888.6
23809,1948.8,5138.6
23809,1948.8,5388.6
23809,1948.8,5638.6
23809,1948.8,5888.6
23809,1948.8,6138.6
23809,1948.8,5388.6
23809,1948.8,5638.6
23809,1948.8,5888.6
23809,1948.8,6138.6
23809,1948.8,6388.6
23809,1948.8,4888.6
23809,1948.8,5138.6
23809,1948.8,5388.6
23809,1948.8,5638.6
23809,1948.8,5888.6
23809,1948.8,5138.6
23809,1948.8,5388.6
23809,1948.8,5638.6
23809,1948.8,5888.6
23809,1948.8,6138.6
23809,1948.8,5388.6
23809,1948.8,5638.6
23809,1948.8,5888.6
23809,1948.8,6138.6
23809,1948.8,6388.6
23809,1948.8,5138.6
23809,1948.8,5388.6
23809,1948.8,5638.6
23809,1948.8,5888.6
23809,1948.8,6138.6
23809,1948.8,5388.6
23809,1948.8,5638.6
23809,1948.8,5888.6
23809,1948.8,6138.6
23809,1948.8,6388.6
23809,1948.8,5388.6
23809,1948.8,5638.6
23809,1948.8,5888.6
23809,1948.8,6138.6
23809,1948.8,6388.6
23809,1948.8,4888.6
23809,1948.8,5138.6
23809,1948.8,5388.6
23809,1948.8,5638.6
23809,1948.8,5888.6
23809,1948.8,5138.6
23809,1948.8,5388.6
23809,1948.8,5638.6
23809,1948.8,5888.6
23809,1948.8,6138.6
23809,1948.8,5388.6
23809,1948.8,5638.6
23809,1948.8,5888.6
23809,1948.8,6138.6
23809,1948.8,6388.6
23809,1948.8,5138.6
23809,1948.8,5388.6
23809,1948.8,5638.6
23809,1948.8,5888.6
23809,1948.8,6138.6
23809,1948.8,5388.6
23809,1948.8,5638.6
23809,1948.8,5888.6
23809,1948.8,6138.6
23809,1948.8,6388.6
23809,1948.8,5388.6
23809,1948.8,5638.6
23809,1948.8,5888.6
23809,1948.8,6138.6
23809,1948.8,6388.6
23809,1948.8,5138.6
23809,1948.8,5388.6
23809,1948.8,5638.6
23809,1948.8,5888.6
23809,1948.8,6138.6
23809,1948.8,5388.6
23809,1948.8,5638.6
23809,1948.8,5888.6
23809,1948.8,6138.6
23809,1948.8,6388.6
23809,1948.8,5388.6
23809,1948.8,5638.6
23809,1948.8,5888.6
23809,1948.8,6138.6
23809,1948.8,6388.6
23809,1948.8,8138.6
23809,1948.8,5388.6
23809,1948.8,5638.6
23809,1948.8,5888.6
23809,1948.8,6138.6
23809,1948.8,6388.6
23809,1948.8,8138.6
23809,1948.8,8138.6
23809,1948.8,8138.6
23809,1948.8,8388.6
23809,1948.8,4638.6
23809,1948.8,4888.6
23809,1948.8,5138.6
23809,1948.8,5388.6
23809,1948.8,5638.6
23809,1948.8,4888.6
23809,1948.8,5138.6
23809,1948.8,5388.6
23809,1948.8,5638.6
23809,1948.8,5888.6
23809,1948.8,5138.6
23809,1948.8,5388.6
23809,1948.8,5638.6
23809,1948.8,5888.6
23809,1948.8,6138.6
23809,1948.8,5388.6
23809,1948.8,5638.6
23809,1948.8,5888.6
23809,1948.8,6138.6
23809,1948.8,6388.6
23809,1948.8,4888.6
23809,1948.8,5138.6
23809,1948.8,5388.6
23809,1948.8,5638.6
23809,1948.8,5888.6
23809,1948.8,5138.6
23809,1948.8,5388.6
23809,1948.8,5638.6
23809,1948.8,5888.6
23809,1948.8,6138.6
23809,1948.8,5388.6
23809,1948.8,5638.6
23809,1948.8,5888.6
23809,1948.8,6138.6
23809,1948.8,6388.6
23809,1948.8,5138.6
23809,1948.8,5388.6
23809,1948.8,5638.6
23809,1948.8,5888.6
23809,1948.8,6138.6
23809,1948.8,5388.6
23809,1948.8,5638.6
23809,1948.8,5888.6
23809,1948.8,6138.6
23809,1948.8,6388.6
23809,1948.8,5388.6
23809,1948.8,5638.6
23809,1948.8,5888.6
23809,1948.8,6138.6
23809,1948.8,6388.6
23809,1948.8,4888.6
23809,1948.8,5138.6
23809,1948.8,5388.6
23809,1948.8,5638.6
23809,1948.8,5888.6
23809,1948.8,5138.6
23809,1948.8,5388.6
23809,1948.8,5638.6
23809,1948.8,5888.6
23809,1948.8,6138.6
23809,1948.8,5388.6
23809,1948.8,5638.6
23809,1948.8,5888.6
23809,1948.8,6138.6
23809,1948.8,6388.6
23809,1948.8,5138.6
23809,1948.8,5388.6
23809,1948.8,5638.6
23809,1948.8,5888.6
23809,1948.8,6138.6
23809,1948.8,5388.6
23809,1948.8,5638.6
23809,1948.8,5888.6
23809,1948.8,6138.6
23809,1948.8,6388.6
23809,1948.8,5388.6
23809,1948.8,5638.6
23809,1948.8,5888.6
23809,1948.8,6138.6
23809,1948.8,6388.6
23809,1948.8,5138.6
23809,1948.8,5388.6
23809,1948.8,5638.6
23809,1948.8,5888.6
23809,1948.8,6138.6
23809,1948.8,5388.6
23809,1948.8,5638.6
23809,1948.8,5888.6
23809,1948.8,6138.6
23809,1948.8,6388.6
23809,1948.8,5388.6
23809,1948.8,5638.6
23809,1948.8,5888.6
23809,1948.8,6138.6
23809,1948.8,6388.6
23809,1948.8,8138.6
23809,1948.8,5388.6
23809,1948.8,5638.6
23809,1948.8,5888.6
23809,1948.8,6138.6
23809,1948.8,6388.6
23809,1948.8,8138.6
23809,1948.8,8138.6
23809,1948.8,8138.6
23809,1948.8,8388.6
23809,1948.8,8138.6
23809,1948.8,8138.6
23809,1948.8,8138.6
23809,1948.8,8388.6
23809,1948.8,8138.6
23809,1948.8,8138.6
23809,1948.8,8388.6
23809,1948.8,8138.6
23809,1948.8,8388.6
23809,1948.8,8638.6
23809,1948.8,4888.6
23809,1948.8,5138.6
23809,1948.8,5388.6
23809,1948.8,5638.6
23809,1948.8,5888.6
23809,1948.8,5138.6
23809,1948.8,5388.6
23809,1948.8,5638.6
23809,1948.8,5888.6
23809,1948.8,6138.6
23809,1948.8,5388.6
23809,1948.8,5638.6
23809,1948.8,5888.6
23809,1948.8,6138.6
23809,1948.8,6388.6
23809,1948.8,5138.6
23809,1948.8,5388.6
23809,1948.8,5638.6
23809,1948.8,5888.6
23809,1948.8,6138.6
23809,1948.8,5388.6
23809,1948.8,5638.6
23809,1948.8,5888.6
23809,1948.8,6138.6
23809,1948.8,6388.6
23809,1948.8,5388.6
23809,1948.8,5638.6
23809,1948.8,5888.6
23809,1948.8,6138.6
23809,1948.8,6388.6
23809,1948.8,5138.6
23809,1948.8,5388.6
23809,1948.8,5638.6
23809,1948.8,5888.6
23809,1948.8,6138.6
23809,1948.8,5388.6
23809,1948.8,5638.6
23809,1948.8,5888.6
23809,1948.8,6138.6
23809,1948.8,6388.6
23809,1948.8,5388.6
23809,1948.8,5638.6
23809,1948.8,5888.6
23809,1948.8,6138.6
23809,1948.8,6388.6
23809,1948.8,8138.6
23809,1948.8,5388.6
23809,1948.8,5638.6
23809,1948.8,5888.6
23809,1948.8,6138.6
23809,1948.8,6388.6
23809,1948.8,8138.6
23809,1948.8,8138.6
23809,1948.8,8138.6
23809,1948.8,8388.6
23809,1948.8,8138.6
23809,1948.8,8138.6
23809,1948.8,8138.6
23809,1948.8,8388.6
23809,1948.8,8138.6
23809,1948.8,8138.6
23809,1948.8,8388.6
23809,1948.8,8138.6
23809,1948.8,8388.6
23809,1948.8,8638.6
23809,1948.8,8138.6
23809,1948.8,8138.6
23809,1948.8,8138.6
23809,1948.8,8388.6
23809,1948.8,8138.6
23809,1948.8,8138.6
23809,1948.8,8388.6
23809,1948.8,8138.6
23809,1948.8,8388.6
23809,1948.8,8638.6
23809,1948.8,8138.6
23809,1948.8,8138.6
23809,1948.8,8388.6
23809,1948.8,8138.6
23809,1948.8,8388.6
23809,1948.8,8638.6
23809,1948.8,8138.6
23809,1948.8,8388.6
23809,1948.8,8638.6
23809,1948.8,8888.6
23809,1948.8,5138.6
23809,1948.8,5388.6
23809,1948.8,5638.6
23809,1948.8,5888.6
23809,1948.8,6138.6
23809,1948.8,5388.6
23809,1948.8,5638.6
23809,1948.8,5888.6
23809,1948.8,6138.6
23809,1948.8,6388.6
23809,1948.8,5388.6
23809,1948.8,5638.6
23809,1948.8,5888.6
23809,1948.8,6138.6
23809,1948.8,6388.6
23809,1948.8,8138.6
23809,1948.8,5388.6
23809,1948.8,5638.6
23809,1948.8,5888.6
23809,1948.8,6138.6
23809,1948.8,6388.6
23809,1948.8,8138.6
23809,1948.8,8138.6
23809,1948.8,8138.6
23809,1948.8,8388.6
23809,1948.8,8138.6
23809,1948.8,8138.6
23809,1948.8,8138.6
23809,1948.8,8388.6
23809,1948.8,8138.6
23809,1948.8,8138.6
23809,1948.8,8388.6
23809,1948.8,8138.6
23809,1948.8,8388.6
23809,1948.8,8638.6
23809,1948.8,8138.6
23809,1948.8,8138.6
23809,1948.8,8138.6
23809,1948.8,8388.6
23809,1948.8,8138.6
23809,1948.8,8138.6
23809,1948.8,8388.6
23809,1948.8,8138.6
23809,1948.8,8388.6
23809,1948.8,8638.6
23809,1948.8,8138.6
23809,1948.8,8138.6
23809,1948.8,8388.6
23809,1948.8,8138.6
23809,1948.8,8388.6
23809,1948.8,8638.6
23809,1948.8,8138.6
23809,1948.8,8388.6
23809,1948.8,8638.6
23809,1948.8,8888.6
23809,1948.8,8138.6
23809,1948.8,8138.6
23809,1948.8,8138.6
23809,1948.8,8388.6
23809,1948.8,8138.6
23809,1948.8,8138.6
23809,1948.8,8388.6
23809,1948.8,8138.6
23809,1948.8,8388.6
23809,1948.8,8638.6
23809,1948.8,8138.6
23809,1948.8,8138.6
23809,1948.8,8388.6
23809,1948.8,8138.6
23809,1948.8,8388.6
23809,1948.8,8638.6
23809,1948.8,8138.6
23809,1948.8,8388.6
23809,1948.8,8638.6
23809,1948.8,8888.6
23809,1948.8,8138.6
23809,1948.8,8138.6
23809,1948.8,8388.6
23809,1948.8,8138.6
23809,1948.8,8388.6
23809,1948.8,8638.6
23809,1948.8,8138.6
23809,1948.8,8388.6
23809,1948.8,8638.6
23809,1948.8,8888.6
23809,1948.8,8138.6
23809,1948.8,8388.6
23809,1948.8,8638.6
23809,1948.8,8888.6
23809,1948.8,9138.6
24457,1948.8,3638.6
24457,1948.8,3888.6
24457,1948.8,4138.6
24457,1948.8,4388.6
24457,1948.8,4638.6
24457,1948.8,3888.6
24457,1948.8,4138.6
24457,1948.8,4388.6
24457,1948.8,4638.6
24457,1948.8,4888.6
24457,1948.8,4138.6
24457,1948.8,4388.6
24457,1948.8,4638.6
24457,1948.8,4888.6
24457,1948.8,5138.6
24457,1948.8,4388.6
24457,1948.8,4638.6
24457,1948.8,4888.6
24457,1948.8,5138.6
24457,1948.8,5388.6
24457,1948.8,4638.6
24457,1948.8,4888.6
24457,1948.8,5138.6
24457,1948.8,5388.6
24457,1948.8,5638.6
24457,1948.8,3888.6
24457,1948.8,4138.6
24457,1948.8,4388.6
24457,1948.8,4638.6
24457,1948.8,4888.6
24457,1948.8,4138.6
24457,1948.8,4388.6
24457,1948.8,4638.6
24457,1948.8,4888.6
24457,1948.8,5138.6
24457,1948.8,4388.6
24457,1948.8,4638.6
24457,1948.8,4888.6
24457,1948.8,5138.6
24457,1948.8,5388.6
24457,1948.8,4638.6
24457,1948.8,4888.6
24457,1948.8,5138.6
24457,1948.8,5388.6
24457,1948.8,5638.6
24457,1948.8,4888.6
24457,1948.8,5138.6
24457,1948.8,5388.6
24457,1948.8,5638.6
24457,1948.8,5888.6
24457,1948.8,4138.6
24457,1948.8,4388.6
24457,1948.8,4638.6
24457,1948.8,4888.6
24457,1948.8,5138.6
24457,1948.8,4388.6
24457,1948.8,4638.6
24457,1948.8,4888.6
24457,1948.8,5138.6
24457,1948.8,5388.6
24457,1948.8,4638.6
24457,1948.8,4888.6
24457,1948.8,5138.6
24457,1948.8,5388.6
24457,1948.8,5638.6
24457,1948.8,4888.6
24457,1948.8,5138.6
24457,1948.8,5388.6
24457,1948.8,5638.6
24457,1948.8,5888.6
24457,1948.8,5138.6
24457,1948.8,5388.6
24457,1948.8,5638.6
24457,1948.8,5888.6
24457,1948.8,6138.6
24457,1948.8,4388.6
24457,1948.8,4638.6
24457,1948.8,4888.6
24457,1948.8,5138.6
24457,1948.8,5388.6
24457,1948.8,4638.6
24457,1948.8,4888.6
24457,1948.8,5138.6
24457,1948.8,5388.6
24457,1948.8,5638.6
24457,1948.8,4888.6
24457,1948.8,5138.6
24457,1948.8,5388.6
24457,1948.8,5638.6
24457,1948.8,5888.6
24457,1948.8,5138.6
24457,1948.8,5388.6
24457,1948.8,5638.6
24457,1948.8,5888.6
24457,1948.8,6138.6
24457,1948.8,5388.6
24457,1948.8,5638.6
24457,1948.8,5888.6
24457,1948.8,6138.6
24457,1948.8,6388.6
24457,1948.8,4638.6
24457,1948.8,4888.6
24457,1948.8,5138.6
24457,1948.8,5388.6
24457,1948.8,5638.6
24457,1948.8,4888.6
24457,1948.8,5138.6
24457,1948.8,5388.6
24457,1948.8,5638.6
24457,1948.8,5888.6
24457,1948.8,5138.6
24457,1948.8,5388.6
24457,1948.8,5638.6
24457,1948.8,5888.6
24457,1948.8,6138.6
24457,1948.8,5388.6
24457,1948.8,5638.6
24457,1948.8,5888.6
24457,1948.8,6138.6
24457,1948.8,6388.6
24457,1948.8,5638.6
24457,1948.8,5888.6
24457,1948.8,6138.6
24457,1948.8,6388.6
24457,1948.8,6638.6
24457,1948.8,3888.6
24457,1948.8,4138.6
24457,1948.8,4388.6
24457,1948.8,4638.6
24457,1948.8,4888.6
24457,1948.8,4138.6
24457,1948.8,4388.6
24457,1948.8,4638.6
24457,1948.8,4888.6
24457,1948.8,5138.6
24457,1948.8,4388.6
24457,1948.8,4638.6
24457,1948.8,4888.6
24457,1948.8,5138.6
24457,1948.8,5388.6
24457,1948.8,4638.6
24457,1948.8,4888.6
24457,1948.8,5138.6
24457,1948.8,5388.6
24457,1948.8,5638.6
24457,1948.8,4888.6
24457,1948.8,5138.6
24457,1948.8,5388.6
24457,1948.8,5638.6
24457,1948.8,5888.6
24457,1948.8,4138.6
24457,1948.8,4388.6
24457,1948.8,4638.6
24457,1948.8,4888.6
24457,1948.8,5138.6
24457,1948.8,4388.6
24457,1948.8,4638.6
24457,1948.8,4888.6
24457,1948.8,5138.6
24457,1948.8,5388.6
24457,1948.8,4638.6
24457,1948.8,4888.6
24457,1948.8,5138.6
24457,1948.8,5388.6
24457,1948.8,5638.6
24457,1948.8,4888.6
24457,1948.8,5138.6
24457,1948.8,5388.6
24457,1948.8,5638.6
24457,1948.8,5888.6
24457,1948.8,5138.6
24457,1948.8,5388.6
24457,1948.8,5638.6
24457,1948.8,5888.6
24457,1948.8,6138.6
24457,1948.8,4388.6
24457,1948.8,4638.6
24457,1948.8,4888.6
24457,1948.8,5138.6
24457,1948.8,5388.6
24457,1948.8,4638.6
24457,1948.8,4888.6
24457,1948.8,5138.6
24457,1948.8,5388.6
24457,1948.8,5638.6
24457,1948.8,4888.6
24457,1948.8,5138.6
24457,1948.8,5388.6
24457,1948.8,5638.6
24457,1948.8,5888.6
24457,1948.8,5138.6
24457,1948.8,5388.6
24457,1948.8,5638.6
24457,1948.8,5888.6
24457,1948.8,6138.6
24457,1948.8,5388.6
24457,1948.8,5638.6
24457,1948.8,5888.6
24457,1948.8,6138.6
24457,1948.8,6388.6
24457,1948.8,4638.6
24457,1948.8,4888.6
24457,1948.8,5138.6
24457,1948.8,5388.6
24457,1948.8,5638.6
24457,1948.8,4888.6
24457,1948.8,5138.6
24457,1948.8,5388.6
24457,1948.8,5638.6
24457,1948.8,5888.6
24457,1948.8,5138.6
24457,1948.8,5388.6
24457,1948.8,5638.6
24457,1948.8,5888.6
24457,1948.8,6138.6
24457,1948.8,5388.6
24457,1948.8,5638.6
24457,1948.8,5888.6
24457,1948.8,6138.6
24457,1948.8,6388.6
24457,1948.8,5638.6
24457,1948.8,5888.6
24457,1948.8,6138.6
24457,1948.8,6388.6
24457,1948.8,6638.6
24457,1948.8,4888.6
24457,1948.8,5138.6
24457,1948.8,5388.6
24457,1948.8,5638.6
24457,1948.8,5888.6
24457,1948.8,5138.6
24457,1948.8,5388.6
24457,1948.8,5638.6
24457,1948.8,5888.6
24457,1948.8,6138.6
24457,1948.8,5388.6
24457,1948.8,5638.6
24457,1948.8,5888.6
24457,1948.8,6138.6
24457,1948.8,6388.6
24457,1948.8,5638.6
24457,1948.8,5888.6
24457,1948.8,6138.6
24457,1948.8,6388.6
24457,1948.8,6638.6
24457,1948.8,5888.6
24457,1948.8,6138.6
24457,1948.8,6388.6
24457,1948.8,6638.6
24457,1948.8,6888.6
24457,1948.8,4138.6
24457,1948.8,4388.6
24457,1948.8,4638.6
24457,1948.8,4888.6
24457,1948.8,5138.6
24457,1948.8,4388.6
24457,1948.8,4638.6
24457,1948.8,4888.6
24457,1948.8,5138.6
24457,1948.8,5388.6
24457,1948.8,4638.6
24457,1948.8,4888.6
24457,1948.8,5138.6
24457,1948.8,5388.6
24457,1948.8,5638.6
24457,1948.8,4888.6
24457,1948.8,5138.6
24457,1948.8,5388.6
24457,1948.8,5638.6
24457,1948.8,5888.6
24457,1948.8,5138.6
24457,1948.8,5388.6
24457,1948.8,5638.6
24457,1948.8,5888.6
24457,1948.8,6138.6
24457,1948.8,4388.6
24457,1948.8,4638.6
24457,1948.8,4888.6
24457,1948.8,5138.6
24457,1948.8,5388.6
24457,1948.8,4638.6
24457,1948.8,4888.6
24457,1948.8,5138.6
24457,1948.8,5388.6
24457,1948.8,5638.6
24457,1948.8,4888.6
24457,1948.8,5138.6
24457,1948.8,5388.6
24457,1948.8,5638.6
24457,1948.8,5888.6
24457,1948.8,5138.6
24457,1948.8,5388.6
24457,1948.8,5638.6
24457,1948.8,5888.6
24457,1948.8,6138.6
24457,1948.8,5388.6
24457,1948.8,5638.6
24457,1948.8,5888.6
24457,1948.8,6138.6
24457,1948.8,6388.6
24457,1948.8,4638.6
24457,1948.8,4888.6
24457,1948.8,5138.6
24457,1948.8,5388.6
24457,1948.8,5638.6
24457,1948.8,4888.6
24457,1948.8,5138.6
24457,1948.8,5388.6
24457,1948.8,5638.6
24457,1948.8,5888.6
24457,1948.8,5138.6
24457,1948.8,5388.6
24457,1948.8,5638.6
24457,1948.8,5888.6
24457,1948.8,6138.6
24457,1948.8,5388.6
24457,1948.8,5638.6
24457,1948.8,5888.6
24457,1948.8,6138.6
24457,1948.8,6388.6
24457,1948.8,5638.6
24457,1948.8,5888.6
24457,1948.8,6138.6
24457,1948.8,6388.6
24457,1948.8,6638.6
24457,1948.8,4888.6
24457,1948.8,5138.6
24457,1948.8,5388.6
24457,1948.8,5638.6
24457,1948.8,5888.6
24457,1948.8,5138.6
24457,1948.8,5388.6
24457,1948.8,5638.6
24457,1948.8,5888.6
24457,1948.8,6138.6
24457,1948.8,5388.6
24457,1948.8,5638.6
24457,1948.8,5888.6
24457,1948.8,6138.6
24457,1948.8,6388.6
24457,1948.8,5638.6
24457,1948.8,5888.6
24457,1948.8,6138.6
24457,1948.8,6388.6
24457,1948.8,6638.6
24457,1948.8,5888.6
24457,1948.8,6138.6
24457,1948.8,6388.6
24457,1948.8,6638.6
24457,1948.8,6888.6
24457,1948.8,4388.6
24457,1948.8,4638.6
24457,1948.8,4888.6
24457,1948.8,5138.6
24457,1948.8,5388.6
24457,1948.8,4638.6
24457,1948.8,4888.6
24457,1948.8,5138.6
24457,1948.8,5388.6
24457,1948.8,5638.6
24457,1948.8,4888.6
24457,1948.8,5138.6
24457,1948.8,5388.6
24457,1948.8,5638.6
24457,1948.8,5888.6
24457,1948.8,5138.6
24457,1948.8,5388.6
24457,1948.8,5638.6
24457,1948.8,5888.6
24457,1948.8,6138.6
24457,1948.8,5388.6
24457,1948.8,5638.6
24457,1948.8,5888.6
24457,1948.8,6138.6
24457,1948.8,6388.6
24457,1948.8,4638.6
24457,1948.8,4888.6
24457,1948.8,5138.6
24457,1948.8,5388.6
24457,1948.8,5638.6
24457,1948.8,4888.6
24457,1948.8,5138.6
24457,1948.8,5388.6
24457,1948.8,5638.6
24457,1948.8,5888.6
24457,1948.8,5138.6
24457,1948.8,5388.6
24457,1948.8,5638.6
24457,1948.8,5888.6
24457,1948.8,6138.6
24457,1948.8,5388.6
24457,1948.8,5638.6
24457,1948.8,5888.6
24457,1948.8,6138.6
24457,1948.8,6388.6
24457,1948.8,5638.6
24457,1948.8,5888.6
24457,1948.8,6138.6
24457,1948.8,6388.6
24457,1948.8,6638.6
24457,1948.8,4888.6
24457,1948.8,5138.6
24457,1948.8,5388.6
24457,1948.8,5638.6
24457,1948.8,5888.6
24457,1948.8,5138.6
24457,1948.8,5388.6
24457,1948.8,5638.6
24457,1948.8,5888.6
24457,1948.8,6138.6
24457,1948.8,5388.6
24457,1948.8,5638.6
24457,1948.8,5888.6
24457,1948.8,6138.6
24457,1948.8,6388.6
24457,1948.8,5638.6
24457,1948.8,5888.6
24457,1948.8,6138.6
24457,1948.8,6388.6
24457,1948.8,6638.6
24457,1948.8,5888.6
24457,1948.8,6138.6
24457,1948.8,6388.6
24457,1948.8,6638.6
24457,1948.8,6888.6
24457,1948.8,4638.6
24457,1948.8,4888.6
24457,1948.8,5138.6
24457,1948.8,5388.6
24457,1948.8,5638.6
24457,1948.8,4888.6
24457,1948.8,5138.6
24457,1948.8,5388.6
24457,1948.8,5638.6
24457,1948.8,5888.6
24457,1948.8,5138.6
24457,1948.8,5388.6
24457,1948.8,5638.6
24457,1948.8,5888.6
24457,1948.8,6138.6
24457,1948.8,5388.6
24457,1948.8,5638.6
24457,1948.8,5888.6
24457,1948.8,6138.6
24457,1948.8,6388.6
24457,1948.8,5638.6
24457,1948.8,5888.6
24457,1948.8,6138.6
24457,1948.8,6388.6
24457,1948.8,6638.6
24457,1948.8,4888.6
24457,1948.8,5138.6
24457,1948.8,5388.6
24457,1948.8,5638.6
24457,1948.8,5888.6
24457,1948.8,5138.6
24457,1948.8,5388.6
24457,1948.8,5638.6
24457,1948.8,5888.6
24457,1948.8,6138.6
24457,1948.8,5388.6
24457,1948.8,5638.6
24457,1948.8,5888.6
24457,1948.8,6138.6
24457,1948.8,6388.6
24457,1948.8,5638.6
24457,1948.8,5888.6
24457,1948.8,6138.6
24457,1948.8,6388.6
24457,1948.8,6638.6
24457,1948.8,5888.6
24457,1948.8,6138.6
24457,1948.8,6388.6
24457,1948.8,6638.6
24457,1948.8,6888.6
24457,1948.8,3888.6
24457,1948.8,4138.6
24457,1948.8,4388.6
24457,1948.8,4638.6
24457,1948.8,4888.6
24457,1948.8,4138.6
24457,1948.8,4388.6
24457,1948.8,4638.6
24457,1948.8,4888.6
24457,1948.8,5138.6
24457,1948.8,4388.6
24457,1948.8,4638.6
24457,1948.8,4888.6
24457,1948.8,5138.6
24457,1948.8,5388.6
24457,1948.8,4638.6
24457,1948.8,4888.6
24457,1948.8,5138.6
24457,1948.8,5388.6
24457,1948.8,5638.6
24457,1948.8,4888.6
24457,1948.8,5138.6
24457,1948.8,5388.6
24457,1948.8,5638.6
24457,1948.8,5888.6
24457,1948.8,4138.6
24457,1948.8,4388.6
24457,1948.8,4638.6
24457,1948.8,4888.6
24457,1948.8,5138.6
24457,1948.8,4388.6
24457,1948.8,4638.6
24457,1948.8,4888.6
24457,1948.8,5138.6
24457,1948.8,5388.6
24457,1948.8,4638.6
24457,1948.8,4888.6
24457,1948.8,5138.6
24457,1948.8,5388.6
24457,1948.8,5638.6
24457,1948.8,4888.6
24457,1948.8,5138.6
24457,1948.8,5388.6
24457,1948.8,5638.6
24457,1948.8,5888.6
24457,1948.8,5138.6
24457,1948.8,5388.6
24457,1948.8,5638.6
24457,1948.8,5888.6
24457,1948.8,6138.6
24457,1948.8,4388.6
24457,1948.8,4638.6
24457,1948.8,4888.6
24457,1948.8,5138.6
24457,1948.8,5388.6
24457,1948.8,4638.6
24457,1948.8,4888.6
24457,1948.8,5138.6
24457,1948.8,5388.6
24457,1948.8,5638.6
24457,1948.8,4888.6
24457,1948.8,5138.6
24457,1948.8,5388.6
24457,1948.8,5638.6
24457,1948.8,5888.6
24457,1948.8,5138.6
24457,1948.8,5388.6
24457,1948.8,5638.6
24457,1948.8,5888.6
24457,1948.8,6138.6
24457,1948.8,5388.6
24457,1948.8,5638.6
24457,1948.8,5888.6
24457,1948.8,6138.6
24457,1948.8,6388.6
24457,1948.8,4638.6
24457,1948.8,4888.6
24457,1948.8,5138.6
24457,1948.8,5388.6
24457,1948.8,5638.6
24457,1948.8,4888.6
24457,1948.8,5138.6
24457,1948.8,5388.6
24457,1948.8,5638.6
24457,1948.8,5888.6
24457,1948.8,5138.6
24457,1948.8,5388.6
24457,1948.8,5638.6
24457,1948.8,5888.6
24457,1948.8,6138.6
24457,1948.8,5388.6
24457,1948.8,5638.6
24457,1948.8,5888.6
24457,1948.8,6138.6
24457,1948.8,6388.6
24457,1948.8,5638.6
24457,1948.8,5888.6
24457,1948.8,6138.6
24457,1948.8,6388.6
24457,1948.8,6638.6
24457,1948.8,4888.6
24457,1948.8,5138.6
24457,1948.8,5388.6
24457,1948.8,5638.6
24457,1948.8,5888.6
24457,1948.8,5138.6
24457,1948.8,5388.6
24457,1948.8,5638.6
24457,1948.8,5888.6
24457,1948.8,6138.6
24457,1948.8,5388.6
24457,1948.8,5638.6
24457,1948.8,5888.6
24457,1948.8,6138.6
24457,1948.8,6388.6
24457,1948.8,5638.6
24457,1948.8,5888.6
24457,1948.8,6138.6
24457,1948.8,6388.6
24457,1948.8,6638.6
24457,1948.8,5888.6
24457,1948.8,6138.6
24457,1948.8,6388.6
24457,1948.8,6638.6
24457,1948.8,6888.6
24457,1948.8,4138.6
24457,1948.8,4388.6
24457,1948.8,4638.6
24457,1948.8,4888.6
24457,1948.8,5138.6
24457,1948.8,4388.6
24457,1948.8,4638.6
24457,1948.8,4888.6
24457,1948.8,5138.6
24457,1948.8,5388.6
24457,1948.8,4638.6
24457,1948.8,4888.6
24457,1948.8,5138.6
24457,1948.8,5388.6
24457,1948.8,5638.6
24457,1948.8,4888.6
24457,1948.8,5138.6
24457,1948.8,5388.6
24457,1948.8,5638.6
24457,1948.8,5888.6
24457,1948.8,5138.6
24457,1948.8,5388.6
24457,1948.8,5638.6
24457,1948.8,5888.6
24457,1948.8,6138.6
24457,1948.8,4388.6
24457,1948.8,4638.6
24457,1948.8,4888.6
24457,1948.8,5138.6
24457,1948.8,5388.6
24457,1948.8,4638.6
24457,1948.8,4888.6
24457,1948.8,5138.6
24457,1948.8,5388.6
24457,1948.8,5638.6
24457,1948.8,4888.6
24457,1948.8,5138.6
24457,1948.8,5388.6
24457,1948.8,5638.6
24457,1948.8,5888.6
24457,1948.8,5138.6
24457,1948.8,5388.6
24457,1948.8,5638.6
24457,1948.8,5888.6
24457,1948.8,6138.6
24457,1948.8,5388.6
24457,1948.8,5638.6
24457,1948.8,5888.6
24457,1948.8,6138.6
24457,1948.8,6388.6
24457,1948.8,4638.6
24457,1948.8,4888.6
24457,1948.8,5138.6
24457,1948.8,5388.6
24457,1948.8,5638.6
24457,1948.8,4888.6
24457,1948.8,5138.6
24457,1948.8,5388.6
24457,1948.8,5638.6
24457,1948.8,5888.6
24457,1948.8,5138.6
24457,1948.8,5388.6
24457,1948.8,5638.6
24457,1948.8,5888.6
24457,1948.8,6138.6
24457,1948.8,5388.6
24457,1948.8,5638.6
24457,1948.8,5888.6
24457,1948.8,6138.6
24457,1948.8,6388.6
24457,1948.8,5638.6
24457,1948.8,5888.6
24457,1948.8,6138.6
24457,1948.8,6388.6
24457,1948.8,6638.6
24457,1948.8,4888.6
24457,1948.8,5138.6
24457,1948.8,5388.6
24457,1948.8,5638.6
24457,1948.8,5888.6
24457,1948.8,5138.6
24457,1948.8,5388.6
24457,1948.8,5638.6
24457,1948.8,5888.6
24457,1948.8,6138.6
24457,1948.8,5388.6
24457,1948.8,5638.6
24457,1948.8,5888.6
24457,1948.8,6138.6
24457,1948.8,6388.6
24457,1948.8,5638.6
24457,1948.8,5888.6
24457,1948.8,6138.6
24457,1948.8,6388.6
24457,1948.8,6638.6
24457,1948.8,5888.6
24457,1948.8,6138.6
24457,1948.8,6388.6
24457,1948.8,6638.6
24457,1948.8,6888.6
24457,1948.8,4388.6
24457,1948.8,4638.6
24457,1948.8,4888.6
24457,1948.8,5138.6
24457,1948.8,5388.6
24457,1948.8,4638.6
24457,1948.8,4888.6
24457,1948.8,5138.6
24457,1948.8,5388.6
24457,1948.8,5638.6
24457,1948.8,4888.6
24457,1948.8,5138.6
24457,1948.8,5388.6
24457,1948.8,5638.6
24457,1948.8,5888.6
24457,1948.8,5138.6
24457,1948.8,5388.6
24457,1948.8,5638.6
24457,1948.8,5888.6
24457,1948.8,6138.6
24457,1948.8,5388.6
24457,1948.8,5638.6
24457,1948.8,5888.6
24457,1948.8,6138.6
24457,1948.8,6388.6
24457,1948.8,4638.6
24457,1948.8,4888.6
24457,1948.8,5138.6
24457,1948.8,5388.6
24457,1948.8,5638.6
24457,1948.8,4888.6
24457,1948.8,5138.6
24457,1948.8,5388.6
24457,1948.8,5638.6
24457,1948.8,5888.6
24457,1948.8,5138.6
24457,1948.8,5388.6
24457,1948.8,5638.6
24457,1948.8,5888.6
24457,1948.8,6138.6
24457,1948.8,5388.6
24457,1948.8,5638.6
24457,1948.8,5888.6
24457,1948.8,6138.6
24457,1948.8,6388.6
24457,1948.8,5638.6
24457,1948.8,5888.6
24457,1948.8,6138.6
24457,1948.8,6388.6
24457,1948.8,6638.6
24457,1948.8,4888.6
24457,1948.8,5138.6
24457,1948.8,5388.6
24457,1948.8,5638.6
24457,1948.8,5888.6
24457,1948.8,5138.6
24457,1948.8,5388.6
24457,1948.8,5638.6
24457,1948.8,5888.6
24457,1948.8,6138.6
24457,1948.8,5388.6
24457,1948.8,5638.6
24457,1948.8,5888.6
24457,1948.8,6138.6
24457,1948.8,6388.6
24457,1948.8,5638.6
24457,1948.8,5888.6
24457,1948.8,6138.6
24457,1948.8,6388.6
24457,1948.8,6638.6
24457,1948.8,5888.6
24457,1948.8,6138.6
24457,1948.8,6388.6
24457,1948.8,6638.6
24457,1948.8,6888.6
24457,1948.8,4638.6
24457,1948.8,4888.6
24457,1948.8,5138.6
24457,1948.8,5388.6
24457,1948.8,5638.6
24457,1948.8,4888.6
24457,1948.8,5138.6
24457,1948.8,5388.6
24457,1948.8,5638.6
24457,1948.8,5888.6
24457,1948.8,5138.6
24457,1948.8,5388.6
24457,1948.8,5638.6
24457,1948.8,5888.6
24457,1948.8,6138.6
24457,1948.8,5388.6
24457,1948.8,5638.6
24457,1948.8,5888.6
24457,1948.8,6138.6
24457,1948.8,6388.6
24457,1948.8,5638.6
24457,1948.8,5888.6
24457,1948.8,6138.6
24457,1948.8,6388.6
24457,1948.8,6638.6
24457,1948.8,4888.6
24457,1948.8,5138.6
24457,1948.8,5388.6
24457,1948.8,5638.6
24457,1948.8,5888.6
24457,1948.8,5138.6
24457,1948.8,5388.6
24457,1948.8,5638.6
24457,1948.8,5888.6
24457,1948.8,6138.6
24457,1948.8,5388.6
24457,1948.8,5638.6
24457,1948.8,5888.6
24457,1948.8,6138.6
24457,1948.8,6388.6
24457,1948.8,5638.6
24457,1948.8,5888.6
24457,1948.8,6138.6
24457,1948.8,6388.6
24457,1948.8,6638.6
24457,1948.8,5888.6
24457,1948.8,6138.6
24457,1948.8,6388.6
24457,1948.8,6638.6
24457,1948.8,6888.6
24457,1948.8,4888.6
24457,1948.8,5138.6
24457,1948.8,5388.6
24457,1948.8,5638.6
24457,1948.8,5888.6
24457,1948.8,5138.6
24457,1948.8,5388.6
24457,1948.8,5638.6
24457,1948.8,5888.6
24457,1948.8,6138.6
24457,1948.8,5388.6
24457,1948.8,5638.6
24457,1948.8,5888.6
24457,1948.8,6138.6
24457,1948.8,6388.6
24457,1948.8,5638.6
24457,1948.8,5888.6
24457,1948.8,6138.6
24457,1948.8,6388.6
24457,1948.8,6638.6
24457,1948.8,5888.6
24457,1948.8,6138.6
24457,1948.8,6388.6
24457,1948.8,6638.6
24457,1948.8,6888.6
24457,1948.8,4138.6
24457,1948.8,4388.6
24457,1948.8,4638.6
24457,1948.8,4888.6
24457,1948.8,5138.6
24457,1948.8,4388.6
24457,1948.8,4638.6
24457,1948.8,4888.6
24457,1948.8,5138.6
24457,1948.8,5388.6
24457,1948.8,4638.6
24457,1948.8,4888.6
24457,1948.8,5138.6
24457,1948.8,5388.6
24457,1948.8,5638.6
24457,1948.8,4888.6
24457,1948.8,5138.6
24457,1948.8,5388.6
24457,1948.8,5638.6
24457,1948.8,5888.6
24457,1948.8,5138.6
24457,1948.8,5388.6
24457,1948.8,5638.6
24457,1948.8,5888.6
24457,1948.8,6138.6
24457,1948.8,4388.6
24457,1948.8,4638.6
24457,1948.8,4888.6
24457,1948.8,5138.6
24457,1948.8,5388.6
24457,1948.8,4638.6
24457,1948.8,4888.6
24457,1948.8,5138.6
24457,1948.8,5388.6
24457,1948.8,5638.6
24457,1948.8,4888.6
24457,1948.8,5138.6
24457,1948.8,5388.6
24457,1948.8,5638.6
24457,1948.8,5888.6
24457,1948.8,5138.6
24457,1948.8,5388.6
24457,1948.8,5638.6
24457,1948.8,5888.6
24457,1948.8,6138.6
24457,1948.8,5388.6
24457,1948.8,5638.6
24457,1948.8,5888.6
24457,1948.8,6138.6
24457,1948.8,6388.6
24457,1948.8,4638.6
24457,1948.8,4888.6
24457,1948.8,5138.6
24457,1948.8,5388.6
24457,1948.8,5638.6
24457,1948.8,4888.6
24457,1948.8,5138.6
24457,1948.8,5388.6
24457,1948.8,5638.6
24457,1948.8,5888.6
24457,1948.8,5138.6
24457,1948.8,5388.6
24457,1948.8,5638.6
24457,1948.8,5888.6
24457,1948.8,6138.6
24457,1948.8,5388.6
24457,1948.8,5638.6
24457,1948.8,5888.6
24457,1948.8,6138.6
24457,1948.8,6388.6
24457,1948.8,5638.6
24457,1948.8,5888.6
24457,1948.8,6138.6
24457,1948.8,6388.6
24457,1948.8,6638.6
24457,1948.8,4888.6
24457,1948.8,5138.6
24457,1948.8,5388.6
24457,1948.8,5638.6
24457,1948.8,5888.6
24457,1948.8,5138.6
24457,1948.8,5388.6
24457,1948.8,5638.6
24457,1948.8,5888.6
24457,1948.8,6138.6
24457,1948.8,5388.6
24457,1948.8,5638.6
24457,1948.8,5888.6
24457,1948.8,6138.6
24457,1948.8,6388.6
24457,1948.8,5638.6
24457,1948.8,5888.6
24457,1948.8,6138.6
24457,1948.8,6388.6
24457,1948.8,6638.6
24457,1948.8,5888.6
24457,1948.8,6138.6
24457,1948.8,6388.6
24457,1948.8,6638.6
24457,1948.8,6888.6
24457,1948.8,4388.6
24457,1948.8,4638.6
24457,1948.8,4888.6
24457,1948.8,5138.6
24457,1948.8,5388.6
24457,1948.8,4638.6
24457,1948.8,4888.6
24457,1948.8,5138.6
24457,1948.8,5388.6
24457,1948.8,5638.6
24457,1948.8,4888.6
24457,1948.8,5138.6
24457,1948.8,5388.6
24457,1948.8,5638.6
24457,1948.8,5888.6
24457,1948.8,5138.6
24457,1948.8,5388.6
24457,1948.8,5638.6
24457,1948.8,5888.6
24457,1948.8,6138.6
24457,1948.8,5388.6
24457,1948.8,5638.6
24457,1948.8,5888.6
24457,1948.8,6138.6
24457,1948.8,6388.6
24457,1948.8,4638.6
24457,1948.8,4888.6
24457,1948.8,5138.6
24457,1948.8,5388.6
24457,1948.8,5638.6
24457,1948.8,4888.6
24457,1948.8,5138.6
24457,1948.8,5388.6
24457,1948.8,5638.6
24457,1948.8,5888.6
24457,1948.8,5138.6
24457,1948.8,5388.6
24457,1948.8,5638.6
24457,1948.8,5888.6
24457,1948.8,6138.6
24457,1948.8,5388.6
24457,1948.8,5638.6
24457,1948.8,5888.6
24457,1948.8,6138.6
24457,1948.8,6388.6
24457,1948.8,5638.6
24457,1948.8,5888.6
24457,1948.8,6138.6
24457,1948.8,6388.6
24457,1948.8,6638.6
24457,1948.8,4888.6
24457,1948.8,5138.6
24457,1948.8,5388.6
24457,1948.8,5638.6
24457,1948.8,5888.6
24457,1948.8,5138.6
24457,1948.8,5388.6
24457,1948.8,5638.6
24457,1948.8,5888.6
24457,1948.8,6138.6
24457,1948.8,5388.6
24457,1948.8,5638.6
24457,1948.8,5888.6
24457,1948.8,6138.6
24457,1948.8,6388.6
24457,1948.8,5638.6
24457,1948.8,5888.6
24457,1948.8,6138.6
24457,1948.8,6388.6
24457,1948.8,6638.6
24457,1948.8,5888.6
24457,1948.8,6138.6
24457,1948.8,6388.6
24457,1948.8,6638.6
24457,1948.8,6888.6
24457,1948.8,4638.6
24457,1948.8,4888.6
24457,1948.8,5138.6
24457,1948.8,5388.6
24457,1948.8,5638.6
24457,1948.8,4888.6
24457,1948.8,5138.6
24457,1948.8,5388.6
24457,1948.8,5638.6
24457,1948.8,5888.6
24457,1948.8,5138.6
24457,1948.8,5388.6
24457,1948.8,5638.6
24457,1948.8,5888.6
24457,1948.8,6138.6
24457,1948.8,5388.6
24457,1948.8,5638.6
24457,1948.8,5888.6
24457,1948.8,6138.6
24457,1948.8,6388.6
24457,1948.8,5638.6
24457,1948.8,5888.6
24457,1948.8,6138.6
24457,1948.8,6388.6
24457,1948.8,6638.6
24457,1948.8,4888.6
24457,1948.8,5138.6
24457,1948.8,5388.6
24457,1948.8,5638.6
24457,1948.8,5888.6
24457,1948.8,5138.6
24457,1948.8,5388.6
24457,1948.8,5638.6
24457,1948.8,5888.6
24457,1948.8,6138.6
24457,1948.8,5388.6
24457,1948.8,5638.6
24457,1948.8,5888.6
24457,1948.8,6138.6
24457,1948.8,6388.6
24457,1948.8,5638.6
24457,1948.8,5888.6
24457,1948.8,6138.6
24457,1948.8,6388.6
24457,1948.8,6638.6
24457,1948.8,5888.6
24457,1948.8,6138.6
24457,1948.8,6388.6
24457,1948.8,6638.6
24457,1948.8,6888.6
24457,1948.8,4888.6
24457,1948.8,5138.6
24457,1948.8,5388.6
24457,1948.8,5638.6
24457,1948.8,5888.6
24457,1948.8,5138.6
24457,1948.8,5388.6
24457,1948.8,5638.6
24457,1948.8,5888.6
24457,1948.8,6138.6
24457,1948.8,5388.6
24457,1948.8,5638.6
24457,1948.8,5888.6
24457,1948.8,6138.6
24457,1948.8,6388.6
24457,1948.8,5638.6
24457,1948.8,5888.6
24457,1948.8,6138.6
24457,1948.8,6388.6
24457,1948.8,6638.6
24457,1948.8,5888.6
24457,1948.8,6138.6
24457,1948.8,6388.6
24457,1948.8,6638.6
24457,1948.8,6888.6
24457,1948.8,4388.6
24457,1948.8,4638.6
24457,1948.8,4888.6
24457,1948.8,5138.6
24457,1948.8,5388.6
24457,1948.8,4638.6
24457,1948.8,4888.6
24457,1948.8,5138.6
24457,1948.8,5388.6
24457,1948.8,5638.6
24457,1948.8,4888.6
24457,1948.8,5138.6
24457,1948.8,5388.6
24457,1948.8,5638.6
24457,1948.8,5888.6
24457,1948.8,5138.6
24457,1948.8,5388.6
24457,1948.8,5638.6
24457,1948.8,5888.6
24457,1948.8,6138.6
24457,1948.8,5388.6
24457,1948.8,5638.6
24457,1948.8,5888.6
24457,1948.8,6138.6
24457,1948.8,6388.6
24457,1948.8,4638.6
24457,1948.8,4888.6
24457,1948.8,5138.6
24457,1948.8,5388.6
24457,1948.8,5638.6
24457,1948.8,4888.6
24457,1948.8,5138.6
24457,1948.8,5388.6
24457,1948.8,5638.6
24457,1948.8,5888.6
24457,1948.8,5138.6
24457,1948.8,5388.6
24457,1948.8,5638.6
24457,1948.8,5888.6
24457,1948.8,6138.6
24457,1948.8,5388.6
24457,1948.8,5638.6
24457,1948.8,5888.6
24457,1948.8,6138.6
24457,1948.8,6388.6
24457,1948.8,5638.6
24457,1948.8,5888.6
24457,1948.8,6138.6
24457,1948.8,6388.6
24457,1948.8,6638.6
24457,1948.8,4888.6
24457,1948.8,5138.6
24457,1948.8,5388.6
24457,1948.8,5638.6
24457,1948.8,5888.6
24457,1948.8,5138.6
24457,1948.8,5388.6
24457,1948.8,5638.6
24457,1948.8,5888.6
24457,1948.8,6138.6
24457,1948.8,5388.6
24457,1948.8,5638.6
24457,1948.8,5888.6
24457,1948.8,6138.6
24457,1948.8,6388.6
24457,1948.8,5638.6
24457,1948.8,5888.6
24457,1948.8,6138.6
24457,1948.8,6388.6
24457,1948.8,6638.6
24457,1948.8,5888.6
24457,1948.8,6138.6
24457,1948.8,6388.6
24457,1948.8,6638.6
24457,1948.8,6888.6
24457,1948.8,4638.6
24457,1948.8,4888.6
24457,1948.8,5138.6
24457,1948.8,5388.6
24457,1948.8,5638.6
24457,1948.8,4888.6
24457,1948.8,5138.6
24457,1948.8,5388.6
24457,1948.8,5638.6
24457,1948.8,5888.6
24457,1948.8,5138.6
24457,1948.8,5388.6
24457,1948.8,5638.6
24457,1948.8,5888.6
24457,1948.8,6138.6
24457,1948.8,5388.6
24457,1948.8,5638.6
24457,1948.8,5888.6
24457,1948.8,6138.6
24457,1948.8,6388.6
24457,1948.8,5638.6
24457,1948.8,5888.6
24457,1948.8,6138.6
24457,1948.8,6388.6
24457,1948.8,6638.6
24457,1948.8,4888.6
24457,1948.8,5138.6
24457,1948.8,5388.6
24457,1948.8,5638.6
24457,1948.8,5888.6
24457,1948.8,5138.6
24457,1948.8,5388.6
24457,1948.8,5638.6
24457,1948.8,5888.6
24457,1948.8,6138.6
24457,1948.8,5388.6
24457,1948.8,5638.6
24457,1948.8,5888.6
24457,1948.8,6138.6
24457,1948.8,6388.6
24457,1948.8,5638.6
24457,1948.8,5888.6
24457,1948.8,6138.6
24457,1948.8,6388.6
24457,1948.8,6638.6
24457,1948.8,5888.6
24457,1948.8,6138.6
24457,1948.8,6388.6
24457,1948.8,6638.6
24457,1948.8,6888.6
24457,1948.8,4888.6
24457,1948.8,5138.6
24457,1948.8,5388.6
24457,1948.8,5638.6
24457,1948.8,5888.6
24457,1948.8,5138.6
24457,1948.8,5388.6
24457,1948.8,5638.6
24457,1948.8,5888.6
24457,1948.8,6138.6
24457,1948.8,5388.6
24457,1948.8,5638.6
24457,1948.8,5888.6
24457,1948.8,6138.6
24457,1948.8,6388.6
24457,1948.8,5638.6
24457,1948.8,5888.6
24457,1948.8,6138.6
24457,1948.8,6388.6
24457,1948.8,6638.6
24457,1948.8,5888.6
24457,1948.8,6138.6
24457,1948.8,6388.6
24457,1948.8,6638.6
24457,1948.8,6888.6
24457,1948.8,4638.6
24457,1948.8,4888.6
24457,1948.8,5138.6
24457,1948.8,5388.6
24457,1948.8,5638.6
24457,1948.8,4888.6
24457,1948.8,5138.6
24457,1948.8,5388.6
24457,1948.8,5638.6
24457,1948.8,5888.6
24457,1948.8,5138.6
24457,1948.8,5388.6
24457,1948.8,5638.6
24457,1948.8,5888.6
24457,1948.8,6138.6
24457,1948.8,5388.6
24457,1948.8,5638.6
24457,1948.8,5888.6
24457,1948.8,6138.6
24457,1948.8,6388.6
24457,1948.8,5638.6
24457,1948.8,5888.6
24457,1948.8,6138.6
24457,1948.8,6388.6
24457,1948.8,6638.6
24457,1948.8,4888.6
24457,1948.8,5138.6
24457,1948.8,5388.6
24457,1948.8,5638.6
24457,1948.8,5888.6
24457,1948.8,5138.6
24457,1948.8,5388.6
24457,1948.8,5638.6
24457,1948.8,5888.6
24457,1948.8,6138.6
24457,1948.8,5388.6
24457,1948.8,5638.6
24457,1948.8,5888.6
24457,1948.8,6138.6
24457,1948.8,6388.6
24457,1948.8,5638.6
24457,1948.8,5888.6
24457,1948.8,6138.6
24457,1948.8,6388.6
24457,1948.8,6638.6
24457,1948.8,5888.6
24457,1948.8,6138.6
24457,1948.8,6388.6
24457,1948.8,6638.6
24457,1948.8,6888.6
24457,1948.8,4888.6
24457,1948.8,5138.6
24457,1948.8,5388.6
24457,1948.8,5638.6
24457,1948.8,5888.6
24457,1948.8,5138.6
24457,1948.8,5388.6
24457,1948.8,5638.6
24457,1948.8,5888.6
24457,1948.8,6138.6
24457,1948.8,5388.6
24457,1948.8,5638.6
24457,1948.8,5888.6
24457,1948.8,6138.6
24457,1948.8,6388.6
24457,1948.8,5638.6
24457,1948.8,5888.6
24457,1948.8,6138.6
24457,1948.8,6388.6
24457,1948.8,6638.6
24457,1948.8,5888.6
24457,1948.8,6138.6
24457,1948.8,6388.6
24457,1948.8,6638.6
24457,1948.8,6888.6
24457,1948.8,7638.6
24457,1948.8,7888.6
24457,1948.8,8138.6
24457,1948.8,8388.6
24457,1948.8,8638.6
24457,1948.8,3888.6
24457,1948.8,4138.6
24457,1948.8,4388.6
24457,1948.8,4638.6
24457,1948.8,4888.6
24457,1948.8,4138.6
24457,1948.8,4388.6
24457,1948.8,4638.6
24457,1948.8,4888.6
24457,1948.8,5138.6
24457,1948.8,4388.6
24457,1948.8,4638.6
24457,1948.8,4888.6
24457,1948.8,5138.6
24457,1948.8,5388.6
24457,1948.8,4638.6
24457,1948.8,4888.6
24457,1948.8,5138.6
24457,1948.8,5388.6
24457,1948.8,5638.6
24457,1948.8,4888.6
24457,1948.8,5138.6
24457,1948.8,5388.6
24457,1948.8,5638.6
24457,1948.8,5888.6
24457,1948.8,4138.6
24457,1948.8,4388.6
24457,1948.8,4638.6
24457,1948.8,4888.6
24457,1948.8,5138.6
24457,1948.8,4388.6
24457,1948.8,4638.6
24457,1948.8,4888.6
24457,1948.8,5138.6
24457,1948.8,5388.6
24457,1948.8,4638.6
24457,1948.8,4888.6
24457,1948.8,5138.6
24457,1948.8,5388.6
24457,1948.8,5638.6
24457,1948.8,4888.6
24457,1948.8,5138.6
24457,1948.8,5388.6
24457,1948.8,5638.6
24457,1948.8,5888.6
24457,1948.8,5138.6
24457,1948.8,5388.6
24457,1948.8,5638.6
24457,1948.8,5888.6
24457,1948.8,6138.6
24457,1948.8,4388.6
24457,1948.8,4638.6
24457,1948.8,4888.6
24457,1948.8,5138.6
24457,1948.8,5388.6
24457,1948.8,4638.6
24457,1948.8,4888.6
24457,1948.8,5138.6
24457,1948.8,5388.6
24457,1948.8,5638.6
24457,1948.8,4888.6
24457,1948.8,5138.6
24457,1948.8,5388.6
24457,1948.8,5638.6
24457,1948.8,5888.6
24457,1948.8,5138.6
24457,1948.8,5388.6
24457,1948.8,5638.6
24457,1948.8,5888.6
24457,1948.8,6138.6
24457,1948.8,5388.6
24457,1948.8,5638.6
24457,1948.8,5888.6
24457,1948.8,6138.6
24457,1948.8,6388.6
24457,1948.8,4638.6
24457,1948.8,4888.6
24457,1948.8,5138.6
24457,1948.8,5388.6
24457,1948.8,5638.6
24457,1948.8,4888.6
24457,1948.8,5138.6
24457,1948.8,5388.6
24457,1948.8,5638.6
24457,1948.8,5888.6
24457,1948.8,5138.6
24457,1948.8,5388.6
24457,1948.8,5638.6
24457,1948.8,5888.6
24457,1948.8,6138.6
24457,1948.8,5388.6
24457,1948.8,5638.6
24457,1948.8,5888.6
24457,1948.8,6138.6
24457,1948.8,6388.6
24457,1948.8,5638.6
24457,1948.8,5888.6
24457,1948.8,6138.6
24457,1948.8,6388.6
24457,1948.8,6638.6
24457,1948.8,4888.6
24457,1948.8,5138.6
24457,1948.8,5388.6
24457,1948.8,5638.6
24457,1948.8,5888.6
24457,1948.8,5138.6
24457,1948.8,5388.6
24457,1948.8,5638.6
24457,1948.8,5888.6
24457,1948.8,6138.6
24457,1948.8,5388.6
24457,1948.8,5638.6
24457,1948.8,5888.6
24457,1948.8,6138.6
24457,1948.8,6388.6
24457,1948.8,5638.6
24457,1948.8,5888.6
24457,1948.8,6138.6
24457,1948.8,6388.6
24457,1948.8,6638.6
24457,1948.8,5888.6
24457,1948.8,6138.6
24457,1948.8,6388.6
24457,1948.8,6638.6
24457,1948.8,6888.6
24457,1948.8,4138.6
24457,1948.8,4388.6
24457,1948.8,4638.6
24457,1948.8,4888.6
24457,1948.8,5138.6
24457,1948.8,4388.6
24457,1948.8,4638.6
24457,1948.8,4888.6
24457,1948.8,5138.6
24457,1948.8,5388.6
24457,1948.8,4638.6
24457,1948.8,4888.6
24457,1948.8,5138.6
24457,1948.8,5388.6
24457,1948.8,5638.6
24457,1948.8,4888.6
24457,1948.8,5138.6
24457,1948.8,5388.6
24457,1948.8,5638.6
24457,1948.8,5888.6
24457,1948.8,5138.6
24457,1948.8,5388.6
24457,1948.8,5638.6
24457,1948.8,5888.6
24457,1948.8,6138.6
24457,1948.8,4388.6
24457,1948.8,4638.6
24457,1948.8,4888.6
24457,1948.8,5138.6
24457,1948.8,5388.6
24457,1948.8,4638.6
24457,1948.8,4888.6
24457,1948.8,5138.6
24457,1948.8,5388.6
24457,1948.8,5638.6
24457,1948.8,4888.6
24457,1948.8,5138.6
24457,1948.8,5388.6
24457,1948.8,5638.6
24457,1948.8,5888.6
24457,1948.8,5138.6
24457,1948.8,5388.6
24457,1948.8,5638.6
24457,1948.8,5888.6
24457,1948.8,6138.6
24457,1948.8,5388.6
24457,1948.8,5638.6
24457,1948.8,5888.6
24457,1948.8,6138.6
24457,1948.8,6388.6
24457,1948.8,4638.6
24457,1948.8,4888.6
24457,1948.8,5138.6
24457,1948.8,5388.6
24457,1948.8,5638.6
24457,1948.8,4888.6
24457,1948.8,5138.6
24457,1948.8,5388.6
24457,1948.8,5638.6
24457,1948.8,5888.6
24457,1948.8,5138.6
24457,1948.8,5388.6
24457,1948.8,5638.6
24457,1948.8,5888.6
24457,1948.8,6138.6
24457,1948.8,5388.6
24457,1948.8,5638.6
24457,1948.8,5888.6
24457,1948.8,6138.6
24457,1948.8,6388.6
24457,1948.8,5638.6
24457,1948.8,5888.6
24457,1948.8,6138.6
24457,1948.8,6388.6
24457,1948.8,6638.6
24457,1948.8,4888.6
24457,1948.8,5138.6
24457,1948.8,5388.6
24457,1948.8,5638.6
24457,1948.8,5888.6
24457,1948.8,5138.6
24457,1948.8,5388.6
24457,1948.8,5638.6
24457,1948.8,5888.6
24457,1948.8,6138.6
24457,1948.8,5388.6
24457,1948.8,5638.6
24457,1948.8,5888.6
24457,1948.8,6138.6
24457,1948.8,6388.6
24457,1948.8,5638.6
24457,1948.8,5888.6
24457,1948.8,6138.6
24457,1948.8,6388.6
24457,1948.8,6638.6
24457,1948.8,5888.6
24457,1948.8,6138.6
24457,1948.8,6388.6
24457,1948.8,6638.6
24457,1948.8,6888.6
24457,1948.8,4388.6
24457,1948.8,4638.6
24457,1948.8,4888.6
24457,1948.8,5138.6
24457,1948.8,5388.6
24457,1948.8,4638.6
24457,1948.8,4888.6
24457,1948.8,5138.6
24457,1948.8,5388.6
24457,1948.8,5638.6
24457,1948.8,4888.6
24457,1948.8,5138.6
24457,1948.8,5388.6
24457,1948.8,5638.6
24457,1948.8,5888.6
24457,1948.8,5138.6
24457,1948.8,5388.6
24457,1948.8,5638.6
24457,1948.8,5888.6
24457,1948.8,6138.6
24457,1948.8,5388.6
24457,1948.8,5638.6
24457,1948.8,5888.6
24457,1948.8,6138.6
24457,1948.8,6388.6
24457,1948.8,4638.6
24457,1948.8,4888.6
24457,1948.8,5138.6
24457,1948.8,5388.6
24457,1948.8,5638.6
24457,1948.8,4888.6
24457,1948.8,5138.6
24457,1948.8,5388.6
24457,1948.8,5638.6
24457,1948.8,5888.6
24457,1948.8,5138.6
24457,1948.8,5388.6
24457,1948.8,5638.6
24457,1948.8,5888.6
24457,1948.8,6138.6
24457,1948.8,5388.6
24457,1948.8,5638.6
24457,1948.8,5888.6
24457,1948.8,6138.6
24457,1948.8,6388.6
24457,1948.8,5638.6
24457,1948.8,5888.6
24457,1948.8,6138.6
24457,1948.8,6388.6
24457,1948.8,6638.6
24457,1948.8,4888.6
24457,1948.8,5138.6
24457,1948.8,5388.6
24457,1948.8,5638.6
24457,1948.8,5888.6
24457,1948.8,5138.6
24457,1948.8,5388.6
24457,1948.8,5638.6
24457,1948.8,5888.6
24457,1948.8,6138.6
24457,1948.8,5388.6
24457,1948.8,5638.6
24457,1948.8,5888.6
24457,1948.8,6138.6
24457,1948.8,6388.6
24457,1948.8,5638.6
24457,1948.8,5888.6
24457,1948.8,6138.6
24457,1948.8,6388.6
24457,1948.8,6638.6
24457,1948.8,5888.6
24457,1948.8,6138.6
24457,1948.8,6388.6
24457,1948.8,6638.6
24457,1948.8,6888.6
24457,1948.8,4638.6
24457,1948.8,4888.6
24457,1948.8,5138.6
24457,1948.8,5388.6
24457,1948.8,5638.6
24457,1948.8,4888.6
24457,1948.8,5138.6
24457,1948.8,5388.6
24457,1948.8,5638.6
24457,1948.8,5888.6
24457,1948.8,5138.6
24457,1948.8,5388.6
24457,1948.8,5638.6
24457,1948.8,5888.6
24457,1948.8,6138.6
24457,1948.8,5388.6
24457,1948.8,5638.6
24457,1948.8,5888.6
24457,1948.8,6138.6
24457,1948.8,6388.6
24457,1948.8,5638.6
24457,1948.8,5888.6
24457,1948.8,6138.6
24457,1948.8,6388.6
24457,1948.8,6638.6
24457,1948.8,4888.6
24457,1948.8,5138.6
24457,1948.8,5388.6
24457,1948.8,5638.6
24457,1948.8,5888.6
24457,1948.8,5138.6
24457,1948.8,5388.6
24457,1948.8,5638.6
24457,1948.8,5888.6
24457,1948.8,6138.6
24457,1948.8,5388.6
24457,1948.8,5638.6
24457,1948.8,5888.6
24457,1948.8,6138.6
24457,1948.8,6388.6
24457,1948.8,5638.6
24457,1948.8,5888.6
24457,1948.8,6138.6
24457,1948.8,6388.6
24457,1948.8,6638.6
24457,1948.8,5888.6
24457,1948.8,6138.6
24457,1948.8,6388.6
24457,1948.8,6638.6
24457,1948.8,6888.6
24457,1948.8,4888.6
24457,1948.8,5138.6
24457,1948.8,5388.6
24457,1948.8,5638.6
24457,1948.8,5888.6
24457,1948.8,5138.6
24457,1948.8,5388.6
24457,1948.8,5638.6
24457,1948.8,5888.6
24457,1948.8,6138.6
24457,1948.8,5388.6
24457,1948.8,5638.6
24457,1948.8,5888.6
24457,1948.8,6138.6
24457,1948.8,6388.6
24457,1948.8,5638.6
24457,1948.8,5888.6
24457,1948.8,6138.6
24457,1948.8,6388.6
24457,1948.8,6638.6
24457,1948.8,5888.6
24457,1948.8,6138.6
24457,1948.8,6388.6
24457,1948.8,6638.6
24457,1948.8,6888.6
24457,1948.8,4138.6
24457,1948.8,4388.6
24457,1948.8,4638.6
24457,1948.8,4888.6
24457,1948.8,5138.6
24457,1948.8,4388.6
24457,1948.8,4638.6
24457,1948.8,4888.6
24457,1948.8,5138.6
24457,1948.8,5388.6
24457,1948.8,4638.6
24457,1948.8,4888.6
24457,1948.8,5138.6
24457,1948.8,5388.6
24457,1948.8,5638.6
24457,1948.8,4888.6
24457,1948.8,5138.6
24457,1948.8,5388.6
24457,1948.8,5638.6
24457,1948.8,5888.6
24457,1948.8,5138.6
24457,1948.8,5388.6
24457,1948.8,5638.6
24457,1948.8,5888.6
24457,1948.8,6138.6
24457,1948.8,4388.6
24457,1948.8,4638.6
24457,1948.8,4888.6
24457,1948.8,5138.6
24457,1948.8,5388.6
24457,1948.8,4638.6
24457,1948.8,4888.6
24457,1948.8,5138.6
24457,1948.8,5388.6
24457,1948.8,5638.6
24457,1948.8,4888.6
24457,1948.8,5138.6
24457,1948.8,5388.6
24457,1948.8,5638.6
24457,1948.8,5888.6
24457,1948.8,5138.6
24457,1948.8,5388.6
24457,1948.8,5638.6
24457,1948.8,5888.6
24457,1948.8,6138.6
24457,1948.8,5388.6
24457,1948.8,5638.6
24457,1948.8,5888.6
24457,1948.8,6138.6
24457,1948.8,6388.6
24457,1948.8,4638.6
24457,1948.8,4888.6
24457,1948.8,5138.6
24457,1948.8,5388.6
24457,1948.8,5638.6
24457,1948.8,4888.6
24457,1948.8,5138.6
24457,1948.8,5388.6
24457,1948.8,5638.6
24457,1948.8,5888.6
24457,1948.8,5138.6
24457,1948.8,5388.6
24457,1948.8,5638.6
24457,1948.8,5888.6
24457,1948.8,6138.6
24457,1948.8,5388.6
24457,1948.8,5638.6
24457,1948.8,5888.6
24457,1948.8,6138.6
24457,1948.8,6388.6
24457,1948.8,5638.6
24457,1948.8,5888.6
24457,1948.8,6138.6
24457,1948.8,6388.6
24457,1948.8,6638.6
24457,1948.8,4888.6
24457,1948.8,5138.6
24457,1948.8,5388.6
24457,1948.8,5638.6
24457,1948.8,5888.6
24457,1948.8,5138.6
24457,1948.8,5388.6
24457,1948.8,5638.6
24457,1948.8,5888.6
24457,1948.8,6138.6
24457,1948.8,5388.6
24457,1948.8,5638.6
24457,1948.8,5888.6
24457,1948.8,6138.6
24457,1948.8,6388.6
24457,1948.8,5638.6
24457,1948.8,5888.6
24457,1948.8,6138.6
24457,1948.8,6388.6
24457,1948.8,6638.6
24457,1948.8,5888.6
24457,1948.8,6138.6
24457,1948.8,6388.6
24457,1948.8,6638.6
24457,1948.8,6888.6
24457,1948.8,4388.6
24457,1948.8,4638.6
24457,1948.8,4888.6
24457,1948.8,5138.6
24457,1948.8,5388.6
24457,1948.8,4638.6
24457,1948.8,4888.6
24457,1948.8,5138.6
24457,1948.8,5388.6
24457,1948.8,5638.6
24457,1948.8,4888.6
24457,1948.8,5138.6
24457,1948.8,5388.6
24457,1948.8,5638.6
24457,1948.8,5888.6
24457,1948.8,5138.6
24457,1948.8,5388.6
24457,1948.8,5638.6
24457,1948.8,5888.6
24457,1948.8,6138.6
24457,1948.8,5388.6
24457,1948.8,5638.6
24457,1948.8,5888.6
24457,1948.8,6138.6
24457,1948.8,6388.6
24457,1948.8,4638.6
24457,1948.8,4888.6
24457,1948.8,5138.6
24457,1948.8,5388.6
24457,1948.8,5638.6
24457,1948.8,4888.6
24457,1948.8,5138.6
24457,1948.8,5388.6
24457,1948.8,5638.6
24457,1948.8,5888.6
24457,1948.8,5138.6
24457,1948.8,5388.6
24457,1948.8,5638.6
24457,1948.8,5888.6
24457,1948.8,6138.6
24457,1948.8,5388.6
24457,1948.8,5638.6
24457,1948.8,5888.6
24457,1948.8,6138.6
24457,1948.8,6388.6
24457,1948.8,5638.6
24457,1948.8,5888.6
24457,1948.8,6138.6
24457,1948.8,6388.6
24457,1948.8,6638.6
24457,1948.8,4888.6
24457,1948.8,5138.6
24457,1948.8,5388.6
24457,1948.8,5638.6
24457,1948.8,5888.6
24457,1948.8,5138.6
24457,1948.8,5388.6
24457,1948.8,5638.6
24457,1948.8,5888.6
24457,1948.8,6138.6
24457,1948.8,5388.6
24457,1948.8,5638.6
24457,1948.8,5888.6
24457,1948.8,6138.6
24457,1948.8,6388.6
24457,1948.8,5638.6
24457,1948.8,5888.6
24457,1948.8,6138.6
24457,1948.8,6388.6
24457,1948.8,6638.6
24457,1948.8,5888.6
24457,1948.8,6138.6
24457,1948.8,6388.6
24457,1948.8,6638.6
24457,1948.8,6888.6
24457,1948.8,4638.6
24457,1948.8,4888.6
24457,1948.8,5138.6
24457,1948.8,5388.6
24457,1948.8,5638.6
24457,1948.8,4888.6
24457,1948.8,5138.6
24457,1948.8,5388.6
24457,1948.8,5638.6
24457,1948.8,5888.6
24457,1948.8,5138.6
24457,1948.8,5388.6
24457,1948.8,5638.6
24457,1948.8,5888.6
24457,1948.8,6138.6
24457,1948.8,5388.6
24457,1948.8,5638.6
24457,1948.8,5888.6
24457,1948.8,6138.6
24457,1948.8,6388.6
24457,1948.8,5638.6
24457,1948.8,5888.6
24457,1948.8,6138.6
24457,1948.8,6388.6
24457,1948.8,6638.6
24457,1948.8,4888.6
24457,1948.8,5138.6
24457,1948.8,5388.6
24457,1948.8,5638.6
24457,1948.8,5888.6
24457,1948.8,5138.6
24457,1948.8,5388.6
24457,1948.8,5638.6
24457,1948.8,5888.6
24457,1948.8,6138.6
24457,1948.8,5388.6
24457,1948.8,5638.6
24457,1948.8,5888.6
24457,1948.8,6138.6
24457,1948.8,6388.6
24457,1948.8,5638.6
24457,1948.8,5888.6
24457,1948.8,6138.6
24457,1948.8,6388.6
24457,1948.8,6638.6
24457,1948.8,5888.6
24457,1948.8,6138.6
24457,1948.8,6388.6
24457,1948.8,6638.6
24457,1948.8,6888.6
24457,1948.8,4888.6
24457,1948.8,5138.6
24457,1948.8,5388.6
24457,1948.8,5638.6
24457,1948.8,5888.6
24457,1948.8,5138.6
24457,1948.8,5388.6
24457,1948.8,5638.6
24457,1948.8,5888.6
24457,1948.8,6138.6
24457,1948.8,5388.6
24457,1948.8,5638.6
24457,1948.8,5888.6
24457,1948.8,6138.6
24457,1948.8,6388.6
24457,1948.8,5638.6
24457,1948.8,5888.6
24457,1948.8,6138.6
24457,1948.8,6388.6
24457,1948.8,6638.6
24457,1948.8,5888.6
24457,1948.8,6138.6
24457,1948.8,6388.6
24457,1948.8,6638.6
24457,1948.8,6888.6
24457,1948.8,4388.6
24457,1948.8,4638.6
24457,1948.8,4888.6
24457,1948.8,5138.6
24457,1948.8,5388.6
24457,1948.8,4638.6
24457,1948.8,4888.6
24457,1948.8,5138.6
24457,1948.8,5388.6
24457,1948.8,5638.6
24457,1948.8,4888.6
24457,1948.8,5138.6
24457,1948.8,5388.6
24457,1948.8,5638.6
24457,1948.8,5888.6
24457,1948.8,5138.6
24457,1948.8,5388.6
24457,1948.8,5638.6
24457,1948.8,5888.6
24457,1948.8,6138.6
24457,1948.8,5388.6
24457,1948.8,5638.6
24457,1948.8,5888.6
24457,1948.8,6138.6
24457,1948.8,6388.6
24457,1948.8,4638.6
24457,1948.8,4888.6
24457,1948.8,5138.6
24457,1948.8,5388.6
24457,1948.8,5638.6
24457,1948.8,4888.6
24457,1948.8,5138.6
24457,1948.8,5388.6
24457,1948.8,5638.6
24457,1948.8,5888.6
24457,1948.8,5138.6
24457,1948.8,5388.6
24457,1948.8,5638.6
24457,1948.8,5888.6
24457,1948.8,6138.6
24457,1948.8,5388.6
24457,1948.8,5638.6
24457,1948.8,5888.6
24457,1948.8,6138.6
24457,1948.8,6388.6
24457,1948.8,5638.6
24457,1948.8,5888.6
24457,1948.8,6138.6
24457,1948.8,6388.6
24457,1948.8,6638.6
24457,1948.8,4888.6
24457,1948.8,5138.6
24457,1948.8,5388.6
24457,1948.8,5638.6
24457,1948.8,5888.6
24457,1948.8,5138.6
24457,1948.8,5388.6
24457,1948.8,5638.6
24457,1948.8,5888.6
24457,1948.8,6138.6
24457,1948.8,5388.6
24457,1948.8,5638.6
24457,1948.8,5888.6
24457,1948.8,6138.6
24457,1948.8,6388.6
24457,1948.8,5638.6
24457,1948.8,5888.6
24457,1948.8,6138.6
24457,1948.8,6388.6
24457,1948.8,6638.6
24457,1948.8,5888.6
24457,1948.8,6138.6
24457,1948.8,6388.6
24457,1948.8,6638.6
24457,1948.8,6888.6
24457,1948.8,4638.6
24457,1948.8,4888.6
24457,1948.8,5138.6
24457,1948.8,5388.6
24457,1948.8,5638.6
24457,1948.8,4888.6
24457,1948.8,5138.6
24457,1948.8,5388.6
24457,1948.8,5638.6
24457,1948.8,5888.6
24457,1948.8,5138.6
24457,1948.8,5388.6
24457,1948.8,5638.6
24457,1948.8,5888.6
24457,1948.8,6138.6
24457,1948.8,5388.6
24457,1948.8,5638.6
24457,1948.8,5888.6
24457,1948.8,6138.6
24457,1948.8,6388.6
24457,1948.8,5638.6
24457,1948.8,5888.6
24457,1948.8,6138.6
24457,1948.8,6388.6
24457,1948.8,6638.6
24457,1948.8,4888.6
24457,1948.8,5138.6
24457,1948.8,5388.6
24457,1948.8,5638.6
24457,1948.8,5888.6
24457,1948.8,5138.6
24457,1948.8,5388.6
24457,1948.8,5638.6
24457,1948.8,5888.6
24457,1948.8,6138.6
24457,1948.8,5388.6
24457,1948.8,5638.6
24457,1948.8,5888.6
24457,1948.8,6138.6
24457,1948.8,6388.6
24457,1948.8,5638.6
24457,1948.8,5888.6
24457,1948.8,6138.6
24457,1948.8,6388.6
24457,1948.8,6638.6
24457,1948.8,5888.6
24457,1948.8,6138.6
24457,1948.8,6388.6
24457,1948.8,6638.6
24457,1948.8,6888.6
24457,1948.8,4888.6
24457,1948.8,5138.6
24457,1948.8,5388.6
24457,1948.8,5638.6
24457,1948.8,5888.6
24457,1948.8,5138.6
24457,1948.8,5388.6
24457,1948.8,5638.6
24457,1948.8,5888.6
24457,1948.8,6138.6
24457,1948.8,5388.6
24457,1948.8,5638.6
24457,1948.8,5888.6
24457,1948.8,6138.6
24457,1948.8,6388.6
24457,1948.8,5638.6
24457,1948.8,5888.6
24457,1948.8,6138.6
24457,1948.8,6388.6
24457,1948.8,6638.6
24457,1948.8,5888.6
24457,1948.8,6138.6
24457,1948.8,6388.6
24457,1948.8,6638.6
24457,1948.8,6888.6
24457,1948.8,4638.6
24457,1948.8,4888.6
24457,1948.8,5138.6
24457,1948.8,5388.6
24457,1948.8,5638.6
24457,1948.8,4888.6
24457,1948.8,5138.6
24457,1948.8,5388.6
24457,1948.8,5638.6
24457,1948.8,5888.6
24457,1948.8,5138.6
24457,1948.8,5388.6
24457,1948.8,5638.6
24457,1948.8,5888.6
24457,1948.8,6138.6
24457,1948.8,5388.6
24457,1948.8,5638.6
24457,1948.8,5888.6
24457,1948.8,6138.6
24457,1948.8,6388.6
24457,1948.8,5638.6
24457,1948.8,5888.6
24457,1948.8,6138.6
24457,1948.8,6388.6
24457,1948.8,6638.6
24457,1948.8,4888.6
24457,1948.8,5138.6
24457,1948.8,5388.6
24457,1948.8,5638.6
24457,1948.8,5888.6
24457,1948.8,5138.6
24457,1948.8,5388.6
24457,1948.8,5638.6
24457,1948.8,5888.6
24457,1948.8,6138.6
24457,1948.8,5388.6
24457,1948.8,5638.6
24457,1948.8,5888.6
24457,1948.8,6138.6
24457,1948.8,6388.6
24457,1948.8,5638.6
24457,1948.8,5888.6
24457,1948.8,6138.6
24457,1948.8,6388.6
24457,1948.8,6638.6
24457,1948.8,5888.6
24457,1948.8,6138.6
24457,1948.8,6388.6
24457,1948.8,6638.6
24457,1948.8,6888.6
24457,1948.8,4888.6
24457,1948.8,5138.6
24457,1948.8,5388.6
24457,1948.8,5638.6
24457,1948.8,5888.6
24457,1948.8,5138.6
24457,1948.8,5388.6
24457,1948.8,5638.6
24457,1948.8,5888.6
24457,1948.8,6138.6
24457,1948.8,5388.6
24457,1948.8,5638.6
24457,1948.8,5888.6
24457,1948.8,6138.6
24457,1948.8,6388.6
24457,1948.8,5638.6
24457,1948.8,5888.6
24457,1948.8,6138.6
24457,1948.8,6388.6
24457,1948.8,6638.6
24457,1948.8,5888.6
24457,1948.8,6138.6
24457,1948.8,6388.6
24457,1948.8,6638.6
24457,1948.8,6888.6
24457,1948.8,7638.6
24457,1948.8,7888.6
24457,1948.8,8138.6
24457,1948.8,8388.6
24457,1948.8,8638.6
24457,1948.8,4888.6
24457,1948.8,5138.6
24457,1948.8,5388.6
24457,1948.8,5638.6
24457,1948.8,5888.6
24457,1948.8,5138.6
24457,1948.8,5388.6
24457,1948.8,5638.6
24457,1948.8,5888.6
24457,1948.8,6138.6
24457,1948.8,5388.6
24457,1948.8,5638.6
24457,1948.8,5888.6
24457,1948.8,6138.6
24457,1948.8,6388.6
24457,1948.8,5638.6
24457,1948.8,5888.6
24457,1948.8,6138.6
24457,1948.8,6388.6
24457,1948.8,6638.6
24457,1948.8,5888.6
24457,1948.8,6138.6
24457,1948.8,6388.6
24457,1948.8,6638.6
24457,1948.8,6888.6
24457,1948.8,7638.6
24457,1948.8,7888.6
24457,1948.8,8138.6
24457,1948.8,8388.6
24457,1948.8,8638.6
24457,1948.8,7638.6
24457,1948.8,7888.6
24457,1948.8,8138.6
24457,1948.8,8388.6
24457,1948.8,8638.6
24457,1948.8,7638.6
24457,1948.8,7888.6
24457,1948.8,8138.6
24457,1948.8,8388.6
24457,1948.8,8638.6
24457,1948.8,7888.6
24457,1948.8,8138.6
24457,1948.8,8388.6
24457,1948.8,8638.6
24457,1948.8,8888.6
24457,1948.8,4138.6
24457,1948.8,4388.6
24457,1948.8,4638.6
24457,1948.8,4888.6
24457,1948.8,5138.6
24457,1948.8,4388.6
24457,1948.8,4638.6
24457,1948.8,4888.6
24457,1948.8,5138.6
24457,1948.8,5388.6
24457,1948.8,4638.6
24457,1948.8,4888.6
24457,1948.8,5138.6
24457,1948.8,5388.6
24457,1948.8,5638.6
24457,1948.8,4888.6
24457,1948.8,5138.6
24457,1948.8,5388.6
24457,1948.8,5638.6
24457,1948.8,5888.6
24457,1948.8,5138.6
24457,1948.8,5388.6
24457,1948.8,5638.6
24457,1948.8,5888.6
24457,1948.8,6138.6
24457,1948.8,4388.6
24457,1948.8,4638.6
24457,1948.8,4888.6
24457,1948.8,5138.6
24457,1948.8,5388.6
24457,1948.8,4638.6
24457,1948.8,4888.6
24457,1948.8,5138.6
24457,1948.8,5388.6
24457,1948.8,5638.6
24457,1948.8,4888.6
24457,1948.8,5138.6
24457,1948.8,5388.6
24457,1948.8,5638.6
24457,1948.8,5888.6
24457,1948.8,5138.6
24457,1948.8,5388.6
24457,1948.8,5638.6
24457,1948.8,5888.6
24457,1948.8,6138.6
24457,1948.8,5388.6
24457,1948.8,5638.6
24457,1948.8,5888.6
24457,1948.8,6138.6
24457,1948.8,6388.6
24457,1948.8,4638.6
24457,1948.8,4888.6
24457,1948.8,5138.6
24457,1948.8,5388.6
24457,1948.8,5638.6
24457,1948.8,4888.6
24457,1948.8,5138.6
24457,1948.8,5388.6
24457,1948.8,5638.6
24457,1948.8,5888.6
24457,1948.8,5138.6
24457,1948.8,5388.6
24457,1948.8,5638.6
24457,1948.8,5888.6
24457,1948.8,6138.6
24457,1948.8,5388.6
24457,1948.8,5638.6
24457,1948.8,5888.6
24457,1948.8,6138.6
24457,1948.8,6388.6
24457,1948.8,5638.6
24457,1948.8,5888.6
24457,1948.8,6138.6
24457,1948.8,6388.6
24457,1948.8,6638.6
24457,1948.8,4888.6
24457,1948.8,5138.6
24457,1948.8,5388.6
24457,1948.8,5638.6
24457,1948.8,5888.6
24457,1948.8,5138.6
24457,1948.8,5388.6
24457,1948.8,5638.6
24457,1948.8,5888.6
24457,1948.8,6138.6
24457,1948.8,5388.6
24457,1948.8,5638.6
24457,1948.8,5888.6
24457,1948.8,6138.6
24457,1948.8,6388.6
24457,1948.8,5638.6
24457,1948.8,5888.6
24457,1948.8,6138.6
24457,1948.8,6388.6
24457,1948.8,6638.6
24457,1948.8,5888.6
24457,1948.8,6138.6
24457,1948.8,6388.6
24457,1948.8,6638.6
24457,1948.8,6888.6
24457,1948.8,4388.6
24457,1948.8,4638.6
24457,1948.8,4888.6
24457,1948.8,5138.6
24457,1948.8,5388.6
24457,1948.8,4638.6
24457,1948.8,4888.6
24457,1948.8,5138.6
24457,1948.8,5388.6
24457,1948.8,5638.6
24457,1948.8,4888.6
24457,1948.8,5138.6
24457,1948.8,5388.6
24457,1948.8,5638.6
24457,1948.8,5888.6
24457,1948.8,5138.6
24457,1948.8,5388.6
24457,1948.8,5638.6
24457,1948.8,5888.6
24457,1948.8,6138.6
24457,1948.8,5388.6
24457,1948.8,5638.6
24457,1948.8,5888.6
24457,1948.8,6138.6
24457,1948.8,6388.6
24457,1948.8,4638.6
24457,1948.8,4888.6
24457,1948.8,5138.6
24457,1948.8,5388.6
24457,1948.8,5638.6
24457,1948.8,4888.6
24457,1948.8,5138.6
24457,1948.8,5388.6
24457,1948.8,5638.6
24457,1948.8,5888.6
24457,1948.8,5138.6
24457,1948.8,5388.6
24457,1948.8,5638.6
24457,1948.8,5888.6
24457,1948.8,6138.6
24457,1948.8,5388.6
24457,1948.8,5638.6
24457,1948.8,5888.6
24457,1948.8,6138.6
24457,1948.8,6388.6
24457,1948.8,5638.6
24457,1948.8,5888.6
24457,1948.8,6138.6
24457,1948.8,6388.6
24457,1948.8,6638.6
24457,1948.8,4888.6
24457,1948.8,5138.6
24457,1948.8,5388.6
24457,1948.8,5638.6
24457,1948.8,5888.6
24457,1948.8,5138.6
24457,1948.8,5388.6
24457,1948.8,5638.6
24457,1948.8,5888.6
24457,1948.8,6138.6
24457,1948.8,5388.6
24457,1948.8,5638.6
24457,1948.8,5888.6
24457,1948.8,6138.6
24457,1948.8,6388.6
24457,1948.8,5638.6
24457,1948.8,5888.6
24457,1948.8,6138.6
24457,1948.8,6388.6
24457,1948.8,6638.6
24457,1948.8,5888.6
24457,1948.8,6138.6
24457,1948.8,6388.6
24457,1948.8,6638.6
24457,1948.8,6888.6
24457,1948.8,4638.6
24457,1948.8,4888.6
24457,1948.8,5138.6
24457,1948.8,5388.6
24457,1948.8,5638.6
24457,1948.8,4888.6
24457,1948.8,5138.6
24457,1948.8,5388.6
24457,1948.8,5638.6
24457,1948.8,5888.6
24457,1948.8,5138.6
24457,1948.8,5388.6
24457,1948.8,5638.6
24457,1948.8,5888.6
24457,1948.8,6138.6
24457,1948.8,5388.6
24457,1948.8,5638.6
24457,1948.8,5888.6
24457,1948.8,6138.6
24457,1948.8,6388.6
24457,1948.8,5638.6
24457,1948.8,5888.6
24457,1948.8,6138.6
24457,1948.8,6388.6
24457,1948.8,6638.6
24457,1948.8,4888.6
24457,1948.8,5138.6
24457,1948.8,5388.6
24457,1948.8,5638.6
24457,1948.8,5888.6
24457,1948.8,5138.6
24457,1948.8,5388.6
24457,1948.8,5638.6
24457,1948.8,5888.6
24457,1948.8,6138.6
24457,1948.8,5388.6
24457,1948.8,5638.6
24457,1948.8,5888.6
24457,1948.8,6138.6
24457,1948.8,6388.6
24457,1948.8,5638.6
24457,1948.8,5888.6
24457,1948.8,6138.6
24457,1948.8,6388.6
24457,1948.8,6638.6
24457,1948.8,5888.6
24457,1948.8,6138.6
24457,1948.8,6388.6
24457,1948.8,6638.6
24457,1948.8,6888.6
24457,1948.8,4888.6
24457,1948.8,5138.6
24457,1948.8,5388.6
24457,1948.8,5638.6
24457,1948.8,5888.6
24457,1948.8,5138.6
24457,1948.8,5388.6
24457,1948.8,5638.6
24457,1948.8,5888.6
24457,1948.8,6138.6
24457,1948.8,5388.6
24457,1948.8,5638.6
24457,1948.8,5888.6
24457,1948.8,6138.6
24457,1948.8,6388.6
24457,1948.8,5638.6
24457,1948.8,5888.6
24457,1948.8,6138.6
24457,1948.8,6388.6
24457,1948.8,6638.6
24457,1948.8,5888.6
24457,1948.8,6138.6
24457,1948.8,6388.6
24457,1948.8,6638.6
24457,1948.8,6888.6
24457,1948.8,4388.6
24457,1948.8,4638.6
24457,1948.8,4888.6
24457,1948.8,5138.6
24457,1948.8,5388.6
24457,1948.8,4638.6
24457,1948.8,4888.6
24457,1948.8,5138.6
24457,1948.8,5388.6
24457,1948.8,5638.6
24457,1948.8,4888.6
24457,1948.8,5138.6
24457,1948.8,5388.6
24457,1948.8,5638.6
24457,1948.8,5888.6
24457,1948.8,5138.6
24457,1948.8,5388.6
24457,1948.8,5638.6
24457,1948.8,5888.6
24457,1948.8,6138.6
24457,1948.8,5388.6
24457,1948.8,5638.6
24457,1948.8,5888.6
24457,1948.8,6138.6
24457,1948.8,6388.6
24457,1948.8,4638.6
24457,1948.8,4888.6
24457,1948.8,5138.6
24457,1948.8,5388.6
24457,1948.8,5638.6
24457,1948.8,4888.6
24457,1948.8,5138.6
24457,1948.8,5388.6
24457,1948.8,5638.6
24457,1948.8,5888.6
24457,1948.8,5138.6
24457,1948.8,5388.6
24457,1948.8,5638.6
24457,1948.8,5888.6
24457,1948.8,6138.6
24457,1948.8,5388.6
24457,1948.8,5638.6
24457,1948.8,5888.6
24457,1948.8,6138.6
24457,1948.8,6388.6
24457,1948.8,5638.6
24457,1948.8,5888.6
24457,1948.8,6138.6
24457,1948.8,6388.6
24457,1948.8,6638.6
24457,1948.8,4888.6
24457,1948.8,5138.6
24457,1948.8,5388.6
24457,1948.8,5638.6
24457,1948.8,5888.6
24457,1948.8,5138.6
24457,1948.8,5388.6
24457,1948.8,5638.6
24457,1948.8,5888.6
24457,1948.8,6138.6
24457,1948.8,5388.6
24457,1948.8,5638.6
24457,1948.8,5888.6
24457,1948.8,6138.6
24457,1948.8,6388.6
24457,1948.8,5638.6
24457,1948.8,5888.6
24457,1948.8,6138.6
24457,1948.8,6388.6
24457,1948.8,6638.6
24457,1948.8,5888.6
24457,1948.8,6138.6
24457,1948.8,6388.6
24457,1948.8,6638.6
24457,1948.8,6888.6
24457,1948.8,4638.6
24457,1948.8,4888.6
24457,1948.8,5138.6
24457,1948.8,5388.6
24457,1948.8,5638.6
24457,1948.8,4888.6
24457,1948.8,5138.6
24457,1948.8,5388.6
24457,1948.8,5638.6
24457,1948.8,5888.6
24457,1948.8,5138.6
24457,1948.8,5388.6
24457,1948.8,5638.6
24457,1948.8,5888.6
24457,1948.8,6138.6
24457,1948.8,5388.6
24457,1948.8,5638.6
24457,1948.8,5888.6
24457,1948.8,6138.6
24457,1948.8,6388.6
24457,1948.8,5638.6
24457,1948.8,5888.6
24457,1948.8,6138.6
24457,1948.8,6388.6
24457,1948.8,6638.6
24457,1948.8,4888.6
24457,1948.8,5138.6
24457,1948.8,5388.6
24457,1948.8,5638.6
24457,1948.8,5888.6
24457,1948.8,5138.6
24457,1948.8,5388.6
24457,1948.8,5638.6
24457,1948.8,5888.6
24457,1948.8,6138.6
24457,1948.8,5388.6
24457,1948.8,5638.6
24457,1948.8,5888.6
24457,1948.8,6138.6
24457,1948.8,6388.6
24457,1948.8,5638.6
24457,1948.8,5888.6
24457,1948.8,6138.6
24457,1948.8,6388.6
24457,1948.8,6638.6
24457,1948.8,5888.6
24457,1948.8,6138.6
24457,1948.8,6388.6
24457,1948.8,6638.6
24457,1948.8,6888.6
24457,1948.8,4888.6
24457,1948.8,5138.6
24457,1948.8,5388.6
24457,1948.8,5638.6
24457,1948.8,5888.6
24457,1948.8,5138.6
24457,1948.8,5388.6
24457,1948.8,5638.6
24457,1948.8,5888.6
24457,1948.8,6138.6
24457,1948.8,5388.6
24457,1948.8,5638.6
24457,1948.8,5888.6
24457,1948.8,6138.6
24457,1948.8,6388.6
24457,1948.8,5638.6
24457,1948.8,5888.6
24457,1948.8,6138.6
24457,1948.8,6388.6
24457,1948.8,6638.6
24457,1948.8,5888.6
24457,1948.8,6138.6
24457,1948.8,6388.6
24457,1948.8,6638.6
24457,1948.8,6888.6
24457,1948.8,4638.6
24457,1948.8,4888.6
24457,1948.8,5138.6
24457,1948.8,5388.6
24457,1948.8,5638.6
24457,1948.8,4888.6
24457,1948.8,5138.6
24457,1948.8,5388.6
24457,1948.8,5638.6
24457,1948.8,5888.6
24457,1948.8,5138.6
24457,1948.8,5388.6
24457,1948.8,5638.6
24457,1948.8,5888.6
24457,1948.8,6138.6
24457,1948.8,5388.6
24457,1948.8,5638.6
24457,1948.8,5888.6
24457,1948.8,6138.6
24457,1948.8,6388.6
24457,1948.8,5638.6
24457,1948.8,5888.6
24457,1948.8,6138.6
24457,1948.8,6388.6
24457,1948.8,6638.6
24457,1948.8,4888.6
24457,1948.8,5138.6
24457,1948.8,5388.6
24457,1948.8,5638.6
24457,1948.8,5888.6
24457,1948.8,5138.6
24457,1948.8,5388.6
24457,1948.8,5638.6
24457,1948.8,5888.6
24457,1948.8,6138.6
24457,1948.8,5388.6
24457,1948.8,5638.6
24457,1948.8,5888.6
24457,1948.8,6138.6
24457,1948.8,6388.6
24457,1948.8,5638.6
24457,1948.8,5888.6
24457,1948.8,6138.6
24457,1948.8,6388.6
24457,1948.8,6638.6
24457,1948.8,5888.6
24457,1948.8,6138.6
24457,1948.8,6388.6
24457,1948.8,6638.6
24457,1948.8,6888.6
24457,1948.8,4888.6
24457,1948.8,5138.6
24457,1948.8,5388.6
24457,1948.8,5638.6
24457,1948.8,5888.6
24457,1948.8,5138.6
24457,1948.8,5388.6
24457,1948.8,5638.6
24457,1948.8,5888.6
24457,1948.8,6138.6
24457,1948.8,5388.6
24457,1948.8,5638.6
24457,1948.8,5888.6
24457,1948.8,6138.6
24457,1948.8,6388.6
24457,1948.8,5638.6
24457,1948.8,5888.6
24457,1948.8,6138.6
24457,1948.8,6388.6
24457,1948.8,6638.6
24457,1948.8,5888.6
24457,1948.8,6138.6
24457,1948.8,6388.6
24457,1948.8,6638.6
24457,1948.8,6888.6
24457,1948.8,7638.6
24457,1948.8,7888.6
24457,1948.8,8138.6
24457,1948.8,8388.6
24457,1948.8,8638.6
24457,1948.8,4888.6
24457,1948.8,5138.6
24457,1948.8,5388.6
24457,1948.8,5638.6
24457,1948.8,5888.6
24457,1948.8,5138.6
24457,1948.8,5388.6
24457,1948.8,5638.6
24457,1948.8,5888.6
24457,1948.8,6138.6
24457,1948.8,5388.6
24457,1948.8,5638.6
24457,1948.8,5888.6
24457,1948.8,6138.6
24457,1948.8,6388.6
24457,1948.8,5638.6
24457,1948.8,5888.6
24457,1948.8,6138.6
24457,1948.8,6388.6
24457,1948.8,6638.6
24457,1948.8,5888.6
24457,1948.8,6138.6
24457,1948.8,6388.6
24457,1948.8,6638.6
24457,1948.8,6888.6
24457,1948.8,7638.6
24457,1948.8,7888.6
24457,1948.8,8138.6
24457,1948.8,8388.6
24457,1948.8,8638.6
24457,1948.8,7638.6
24457,1948.8,7888.6
24457,1948.8,8138.6
24457,1948.8,8388.6
24457,1948.8,8638.6
24457,1948.8,7638.6
24457,1948.8,7888.6
24457,1948.8,8138.6
24457,1948.8,8388.6
24457,1948.8,8638.6
24457,1948.8,7888.6
24457,1948.8,8138.6
24457,1948.8,8388.6
24457,1948.8,8638.6
24457,1948.8,8888.6
24457,1948.8,7638.6
24457,1948.8,7888.6
24457,1948.8,8138.6
24457,1948.8,8388.6
24457,1948.8,8638.6
24457,1948.8,7638.6
24457,1948.8,7888.6
24457,1948.8,8138.6
24457,1948.8,8388.6
24457,1948.8,8638.6
24457,1948.8,7638.6
24457,1948.8,7888.6
24457,1948.8,8138.6
24457,1948.8,8388.6
24457,1948.8,8638.6
24457,1948.8,7888.6
24457,1948.8,8138.6
24457,1948.8,8388.6
24457,1948.8,8638.6
24457,1948.8,8888.6
24457,1948.8,7638.6
24457,1948.8,7888.6
24457,1948.8,8138.6
24457,1948.8,8388.6
24457,1948.8,8638.6
24457,1948.8,7638.6
24457,1948.8,7888.6
24457,1948.8,8138.6
24457,1948.8,8388.6
24457,1948.8,8638.6
24457,1948.8,7888.6
24457,1948.8,8138.6
24457,1948.8,8388.6
24457,1948.8,8638.6
24457,1948.8,8888.6
24457,1948.8,7638.6
24457,1948.8,7888.6
24457,1948.8,8138.6
24457,1948.8,8388.6
24457,1948.8,8638.6
24457,1948.8,7888.6
24457,1948.8,8138.6
24457,1948.8,8388.6
24457,1948.8,8638.6
24457,1948.8,8888.6
24457,1948.8,8138.6
24457,1948.8,8388.6
24457,1948.8,8638.6
24457,1948.8,8888.6
24457,1948.8,9138.6
24457,1948.8,4388.6
24457,1948.8,4638.6
24457,1948.8,4888.6
24457,1948.8,5138.6
24457,1948.8,5388.6
24457,1948.8,4638.6
24457,1948.8,4888.6
24457,1948.8,5138.6
24457,1948.8,5388.6
24457,1948.8,5638.6
24457,1948.8,4888.6
24457,1948.8,5138.6
24457,1948.8,5388.6
24457,1948.8,5638.6
24457,1948.8,5888.6
24457,1948.8,5138.6
24457,1948.8,5388.6
24457,1948.8,5638.6
24457,1948.8,5888.6
24457,1948.8,6138.6
24457,1948.8,5388.6
24457,1948.8,5638.6
24457,1948.8,5888.6
24457,1948.8,6138.6
24457,1948.8,6388.6
24457,1948.8,4638.6
24457,1948.8,4888.6
24457,1948.8,5138.6
24457,1948.8,5388.6
24457,1948.8,5638.6
24457,1948.8,4888.6
24457,1948.8,5138.6
24457,1948.8,5388.6
24457,1948.8,5638.6
24457,1948.8,5888.6
24457,1948.8,5138.6
24457,1948.8,5388.6
24457,1948.8,5638.6
24457,1948.8,5888.6
24457,1948.8,6138.6
24457,1948.8,5388.6
24457,1948.8,5638.6
24457,1948.8,5888.6
24457,1948.8,6138.6
24457,1948.8,6388.6
24457,1948.8,5638.6
24457,1948.8,5888.6
24457,1948.8,6138.6
24457,1948.8,6388.6
24457,1948.8,6638.6
24457,1948.8,4888.6
24457,1948.8,5138.6
24457,1948.8,5388.6
24457,1948.8,5638.6
24457,1948.8,5888.6
24457,1948.8,5138.6
24457,1948.8,5388.6
24457,1948.8,5638.6
24457,1948.8,5888.6
24457,1948.8,6138.6
24457,1948.8,5388.6
24457,1948.8,5638.6
24457,1948.8,5888.6
24457,1948.8,6138.6
24457,1948.8,6388.6
24457,1948.8,5638.6
24457,1948.8,5888.6
24457,1948.8,6138.6
24457,1948.8,6388.6
24457,1948.8,6638.6
24457,1948.8,5888.6
24457,1948.8,6138.6
24457,1948.8,6388.6
24457,1948.8,6638.6
24457,1948.8,6888.6
24457,1948.8,4638.6
24457,1948.8,4888.6
24457,1948.8,5138.6
24457,1948.8,5388.6
24457,1948.8,5638.6
24457,1948.8,4888.6
24457,1948.8,5138.6
24457,1948.8,5388.6
24457,1948.8,5638.6
24457,1948.8,5888.6
24457,1948.8,5138.6
24457,1948.8,5388.6
24457,1948.8,5638.6
24457,1948.8,5888.6
24457,1948.8,6138.6
24457,1948.8,5388.6
24457,1948.8,5638.6
24457,1948.8,5888.6
24457,1948.8,6138.6
24457,1948.8,6388.6
24457,1948.8,5638.6
24457,1948.8,5888.6
24457,1948.8,6138.6
24457,1948.8,6388.6
24457,1948.8,6638.6
24457,1948.8,4888.6
24457,1948.8,5138.6
24457,1948.8,5388.6
24457,1948.8,5638.6
24457,1948.8,5888.6
24457,1948.8,5138.6
24457,1948.8,5388.6
24457,1948.8,5638.6
24457,1948.8,5888.6
24457,1948.8,6138.6
24457,1948.8,5388.6
24457,1948.8,5638.6
24457,1948.8,5888.6
24457,1948.8,6138.6
24457,1948.8,6388.6
24457,1948.8,5638.6
24457,1948.8,5888.6
24457,1948.8,6138.6
24457,1948.8,6388.6
24457,1948.8,6638.6
24457,1948.8,5888.6
24457,1948.8,6138.6
24457,1948.8,6388.6
24457,1948.8,6638.6
24457,1948.8,6888.6
24457,1948.8,4888.6
24457,1948.8,5138.6
24457,1948.8,5388.6
24457,1948.8,5638.6
24457,1948.8,5888.6
24457,1948.8,5138.6
24457,1948.8,5388.6
24457,1948.8,5638.6
24457,1948.8,5888.6
24457,1948.8,6138.6
24457,1948.8,5388.6
24457,1948.8,5638.6
24457,1948.8,5888.6
24457,1948.8,6138.6
24457,1948.8,6388.6
24457,1948.8,5638.6
24457,1948.8,5888.6
24457,1948.8,6138.6
24457,1948.8,6388.6
24457,1948.8,6638.6
24457,1948.8,5888.6
24457,1948.8,6138.6
24457,1948.8,6388.6
24457,1948.8,6638.6
24457,1948.8,6888.6
24457,1948.8,4638.6
24457,1948.8,4888.6
24457,1948.8,5138.6
24457,1948.8,5388.6
24457,1948.8,5638.6
24457,1948.8,4888.6
24457,1948.8,5138.6
24457,1948.8,5388.6
24457,1948.8,5638.6
24457,1948.8,5888.6
24457,1948.8,5138.6
24457,1948.8,5388.6
24457,1948.8,5638.6
24457,1948.8,5888.6
24457,1948.8,6138.6
24457,1948.8,5388.6
24457,1948.8,5638.6
24457,1948.8,5888.6
24457,1948.8,6138.6
24457,1948.8,6388.6
24457,1948.8,5638.6
24457,1948.8,5888.6
24457,1948.8,6138.6
24457,1948.8,6388.6
24457,1948.8,6638.6
24457,1948.8,4888.6
24457,1948.8,5138.6
24457,1948.8,5388.6
24457,1948.8,5638.6
24457,1948.8,5888.6
24457,1948.8,5138.6
24457,1948.8,5388.6
24457,1948.8,5638.6
24457,1948.8,5888.6
24457,1948.8,6138.6
24457,1948.8,5388.6
24457,1948.8,5638.6
24457,1948.8,5888.6
24457,1948.8,6138.6
24457,1948.8,6388.6
24457,1948.8,5638.6
24457,1948.8,5888.6
24457,1948.8,6138.6
24457,1948.8,6388.6
24457,1948.8,6638.6
24457,1948.8,5888.6
24457,1948.8,6138.6
24457,1948.8,6388.6
24457,1948.8,6638.6
24457,1948.8,6888.6
24457,1948.8,4888.6
24457,1948.8,5138.6
24457,1948.8,5388.6
24457,1948.8,5638.6
24457,1948.8,5888.6
24457,1948.8,5138.6
24457,1948.8,5388.6
24457,1948.8,5638.6
24457,1948.8,5888.6
24457,1948.8,6138.6
24457,1948.8,5388.6
24457,1948.8,5638.6
24457,1948.8,5888.6
24457,1948.8,6138.6
24457,1948.8,6388.6
24457,1948.8,5638.6
24457,1948.8,5888.6
24457,1948.8,6138.6
24457,1948.8,6388.6
24457,1948.8,6638.6
24457,1948.8,5888.6
24457,1948.8,6138.6
24457,1948.8,6388.6
24457,1948.8,6638.6
24457,1948.8,6888.6
24457,1948.8,7638.6
24457,1948.8,7888.6
24457,1948.8,8138.6
24457,1948.8,8388.6
24457,1948.8,8638.6
24457,1948.8,4888.6
24457,1948.8,5138.6
24457,1948.8,5388.6
24457,1948.8,5638.6
24457,1948.8,5888.6
24457,1948.8,5138.6
24457,1948.8,5388.6
24457,1948.8,5638.6
24457,1948.8,5888.6
24457,1948.8,6138.6
24457,1948.8,5388.6
24457,1948.8,5638.6
24457,1948.8,5888.6
24457,1948.8,6138.6
24457,1948.8,6388.6
24457,1948.8,5638.6
24457,1948.8,5888.6
24457,1948.8,6138.6
24457,1948.8,6388.6
24457,1948.8,6638.6
24457,1948.8,5888.6
24457,1948.8,6138.6
24457,1948.8,6388.6
24457,1948.8,6638.6
24457,1948.8,6888.6
24457,1948.8,7638.6
24457,1948.8,7888.6
24457,1948.8,8138.6
24457,1948.8,8388.6
24457,1948.8,8638.6
24457,1948.8,7638.6
24457,1948.8,7888.6
24457,1948.8,8138.6
24457,1948.8,8388.6
24457,1948.8,8638.6
24457,1948.8,7638.6
24457,1948.8,7888.6
24457,1948.8,8138.6
24457,1948.8,8388.6
24457,1948.8,8638.6
24457,1948.8,7888.6
24457,1948.8,8138.6
24457,1948.8,8388.6
24457,1948.8,8638.6
24457,1948.8,8888.6
24457,1948.8,7638.6
24457,1948.8,7888.6
24457,1948.8,8138.6
24457,1948.8,8388.6
24457,1948.8,8638.6
24457,1948.8,7638.6
24457,1948.8,7888.6
24457,1948.8,8138.6
24457,1948.8,8388.6
24457,1948.8,8638.6
24457,1948.8,7638.6
24457,1948.8,7888.6
24457,1948.8,8138.6
24457,1948.8,8388.6
24457,1948.8,8638.6
24457,1948.8,7888.6
24457,1948.8,8138.6
24457,1948.8,8388.6
24457,1948.8,8638.6
24457,1948.8,8888.6
24457,1948.8,7638.6
24457,1948.8,7888.6
24457,1948.8,8138.6
24457,1948.8,8388.6
24457,1948.8,8638.6
24457,1948.8,7638.6
24457,1948.8,7888.6
24457,1948.8,8138.6
24457,1948.8,8388.6
24457,1948.8,8638.6
24457,1948.8,7888.6
24457,1948.8,8138.6
24457,1948.8,8388.6
24457,1948.8,8638.6
24457,1948.8,8888.6
24457,1948.8,7638.6
24457,1948.8,7888.6
24457,1948.8,8138.6
24457,1948.8,8388.6
24457,1948.8,8638.6
24457,1948.8,7888.6
24457,1948.8,8138.6
24457,1948.8,8388.6
24457,1948.8,8638.6
24457,1948.8,8888.6
24457,1948.8,8138.6
24457,1948.8,8388.6
24457,1948.8,8638.6
24457,1948.8,8888.6
24457,1948.8,9138.6
24457,1948.8,7638.6
24457,1948.8,7888.6
24457,1948.8,8138.6
24457,1948.8,8388.6
24457,1948.8,8638.6
24457,1948.8,7638.6
24457,1948.8,7888.6
24457,1948.8,8138.6
24457,1948.8,8388.6
24457,1948.8,8638.6
24457,1948.8,7638.6
24457,1948.8,7888.6
24457,1948.8,8138.6
24457,1948.8,8388.6
24457,1948.8,8638.6
24457,1948.8,7888.6
24457,1948.8,8138.6
24457,1948.8,8388.6
24457,1948.8,8638.6
24457,1948.8,8888.6
24457,1948.8,7638.6
24457,1948.8,7888.6
24457,1948.8,8138.6
24457,1948.8,8388.6
24457,1948.8,8638.6
24457,1948.8,7638.6
24457,1948.8,7888.6
24457,1948.8,8138.6
24457,1948.8,8388.6
24457,1948.8,8638.6
24457,1948.8,7888.6
24457,1948.8,8138.6
24457,1948.8,8388.6
24457,1948.8,8638.6
24457,1948.8,8888.6
24457,1948.8,7638.6
24457,1948.8,7888.6
24457,1948.8,8138.6
24457,1948.8,8388.6
24457,1948.8,8638.6
24457,1948.8,7888.6
24457,1948.8,8138.6
24457,1948.8,8388.6
24457,1948.8,8638.6
24457,1948.8,8888.6
24457,1948.8,8138.6
24457,1948.8,8388.6
24457,1948.8,8638.6
24457,1948.8,8888.6
24457,1948.8,9138.6
24457,1948.8,7638.6
24457,1948.8,7888.6
24457,1948.8,8138.6
24457,1948.8,8388.6
24457,1948.8,8638.6
24457,1948.8,7638.6
24457,1948.8,7888.6
24457,1948.8,8138.6
24457,1948.8,8388.6
24457,1948.8,8638.6
24457,1948.8,7888.6
24457,1948.8,8138.6
24457,1948.8,8388.6
24457,1948.8,8638.6
24457,1948.8,8888.6
24457,1948.8,7638.6
24457,1948.8,7888.6
24457,1948.8,8138.6
24457,1948.8,8388.6
24457,1948.8,8638.6
24457,1948.8,7888.6
24457,1948.8,8138.6
24457,1948.8,8388.6
24457,1948.8,8638.6
24457,1948.8,8888.6
24457,1948.8,8138.6
24457,1948.8,8388.6
24457,1948.8,8638.6
24457,1948.8,8888.6
24457,1948.8,9138.6
24457,1948.8,7638.6
24457,1948.8,7888.6
24457,1948.8,8138.6
24457,1948.8,8388.6
24457,1948.8,8638.6
24457,1948.8,7888.6
24457,1948.8,8138.6
24457,1948.8,8388.6
24457,1948.8,8638.6
24457,1948.8,8888.6
24457,1948.8,8138.6
24457,1948.8,8388.6
24457,1948.8,8638.6
24457,1948.8,8888.6
24457,1948.8,9138.6
24457,1948.8,8388.6
24457,1948.8,8638.6
24457,1948.8,8888.6
24457,1948.8,9138.6
24457,1948.8,9388.6
24457,1948.8,4638.6
24457,1948.8,4888.6
24457,1948.8,5138.6
24457,1948.8,5388.6
24457,1948.8,5638.6
24457,1948.8,4888.6
24457,1948.8,5138.6
24457,1948.8,5388.6
24457,1948.8,5638.6
24457,1948.8,5888.6
24457,1948.8,5138.6
24457,1948.8,5388.6
24457,1948.8,5638.6
24457,1948.8,5888.6
24457,1948.8,6138.6
24457,1948.8,5388.6
24457,1948.8,5638.6
24457,1948.8,5888.6
24457,1948.8,6138.6
24457,1948.8,6388.6
24457,1948.8,5638.6
24457,1948.8,5888.6
24457,1948.8,6138.6
24457,1948.8,6388.6
24457,1948.8,6638.6
24457,1948.8,4888.6
24457,1948.8,5138.6
24457,1948.8,5388.6
24457,1948.8,5638.6
24457,1948.8,5888.6
24457,1948.8,5138.6
24457,1948.8,5388.6
24457,1948.8,5638.6
24457,1948.8,5888.6
24457,1948.8,6138.6
24457,1948.8,5388.6
24457,1948.8,5638.6
24457,1948.8,5888.6
24457,1948.8,6138.6
24457,1948.8,6388.6
24457,1948.8,5638.6
24457,1948.8,5888.6
24457,1948.8,6138.6
24457,1948.8,6388.6
24457,1948.8,6638.6
24457,1948.8,5888.6
24457,1948.8,6138.6
24457,1948.8,6388.6
24457,1948.8,6638.6
24457,1948.8,6888.6
24457,1948.8,4888.6
24457,1948.8,5138.6
24457,1948.8,5388.6
24457,1948.8,5638.6
24457,1948.8,5888.6
24457,1948.8,5138.6
24457,1948.8,5388.6
24457,1948.8,5638.6
24457,1948.8,5888.6
24457,1948.8,6138.6
24457,1948.8,5388.6
24457,1948.8,5638.6
24457,1948.8,5888.6
24457,1948.8,6138.6
24457,1948.8,6388.6
24457,1948.8,5638.6
24457,1948.8,5888.6
24457,1948.8,6138.6
24457,1948.8,6388.6
24457,1948.8,6638.6
24457,1948.8,5888.6
24457,1948.8,6138.6
24457,1948.8,6388.6
24457,1948.8,6638.6
24457,1948.8,6888.6
24457,1948.8,7638.6
24457,1948.8,7888.6
24457,1948.8,8138.6
24457,1948.8,8388.6
24457,1948.8,8638.6
24457,1948.8,4888.6
24457,1948.8,5138.6
24457,1948.8,5388.6
24457,1948.8,5638.6
24457,1948.8,5888.6
24457,1948.8,5138.6
24457,1948.8,5388.6
24457,1948.8,5638.6
24457,1948.8,5888.6
24457,1948.8,6138.6
24457,1948.8,5388.6
24457,1948.8,5638.6
24457,1948.8,5888.6
24457,1948.8,6138.6
24457,1948.8,6388.6
24457,1948.8,5638.6
24457,1948.8,5888.6
24457,1948.8,6138.6
24457,1948.8,6388.6
24457,1948.8,6638.6
24457,1948.8,5888.6
24457,1948.8,6138.6
24457,1948.8,6388.6
24457,1948.8,6638.6
24457,1948.8,6888.6
24457,1948.8,7638.6
24457,1948.8,7888.6
24457,1948.8,8138.6
24457,1948.8,8388.6
24457,1948.8,8638.6
24457,1948.8,7638.6
24457,1948.8,7888.6
24457,1948.8,8138.6
24457,1948.8,8388.6
24457,1948.8,8638.6
24457,1948.8,7638.6
24457,1948.8,7888.6
24457,1948.8,8138.6
24457,1948.8,8388.6
24457,1948.8,8638.6
24457,1948.8,7888.6
24457,1948.8,8138.6
24457,1948.8,8388.6
24457,1948.8,8638.6
24457,1948.8,8888.6
24457,1948.8,7638.6
24457,1948.8,7888.6
24457,1948.8,8138.6
24457,1948.8,8388.6
24457,1948.8,8638.6
24457,1948.8,7638.6
24457,1948.8,7888.6
24457,1948.8,8138.6
24457,1948.8,8388.6
24457,1948.8,8638.6
24457,1948.8,7638.6
24457,1948.8,7888.6
24457,1948.8,8138.6
24457,1948.8,8388.6
24457,1948.8,8638.6
24457,1948.8,7888.6
24457,1948.8,8138.6
24457,1948.8,8388.6
24457,1948.8,8638.6
24457,1948.8,8888.6
24457,1948.8,7638.6
24457,1948.8,7888.6
24457,1948.8,8138.6
24457,1948.8,8388.6
24457,1948.8,8638.6
24457,1948.8,7638.6
24457,1948.8,7888.6
24457,1948.8,8138.6
24457,1948.8,8388.6
24457,1948.8,8638.6
24457,1948.8,7888.6
24457,1948.8,8138.6
24457,1948.8,8388.6
24457,1948.8,8638.6
24457,1948.8,8888.6
24457,1948.8,7638.6
24457,1948.8,7888.6
24457,1948.8,8138.6
24457,1948.8,8388.6
24457,1948.8,8638.6
24457,1948.8,7888.6
24457,1948.8,8138.6
24457,1948.8,8388.6
24457,1948.8,8638.6
24457,1948.8,8888.6
24457,1948.8,8138.6
24457,1948.8,8388.6
24457,1948.8,8638.6
24457,1948.8,8888.6
24457,1948.8,9138.6
24457,1948.8,7638.6
24457,1948.8,7888.6
24457,1948.8,8138.6
24457,1948.8,8388.6
24457,1948.8,8638.6
24457,1948.8,7638.6
24457,1948.8,7888.6
24457,1948.8,8138.6
24457,1948.8,8388.6
24457,1948.8,8638.6
24457,1948.8,7638.6
24457,1948.8,7888.6
24457,1948.8,8138.6
24457,1948.8,8388.6
24457,1948.8,8638.6
24457,1948.8,7888.6
24457,1948.8,8138.6
24457,1948.8,8388.6
24457,1948.8,8638.6
24457,1948.8,8888.6
24457,1948.8,7638.6
24457,1948.8,7888.6
24457,1948.8,8138.6
24457,1948.8,8388.6
24457,1948.8,8638.6
24457,1948.8,7638.6
24457,1948.8,7888.6
24457,1948.8,8138.6
24457,1948.8,8388.6
24457,1948.8,8638.6
24457,1948.8,7888.6
24457,1948.8,8138.6
24457,1948.8,8388.6
24457,1948.8,8638.6
24457,1948.8,8888.6
24457,1948.8,7638.6
24457,1948.8,7888.6
24457,1948.8,8138.6
24457,1948.8,8388.6
24457,1948.8,8638.6
24457,1948.8,7888.6
24457,1948.8,8138.6
24457,1948.8,8388.6
24457,1948.8,8638.6
24457,1948.8,8888.6
24457,1948.8,8138.6
24457,1948.8,8388.6
24457,1948.8,8638.6
24457,1948.8,8888.6
24457,1948.8,9138.6
24457,1948.8,7638.6
24457,1948.8,7888.6
24457,1948.8,8138.6
24457,1948.8,8388.6
24457,1948.8,8638.6
24457,1948.8,7638.6
24457,1948.8,7888.6
24457,1948.8,8138.6
24457,1948.8,8388.6
24457,1948.8,8638.6
24457,1948.8,7888.6
24457,1948.8,8138.6
24457,1948.8,8388.6
24457,1948.8,8638.6
24457,1948.8,8888.6
24457,1948.8,7638.6
24457,1948.8,7888.6
24457,1948.8,8138.6
24457,1948.8,8388.6
24457,1948.8,8638.6
24457,1948.8,7888.6
24457,1948.8,8138.6
24457,1948.8,8388.6
24457,1948.8,8638.6
24457,1948.8,8888.6
24457,1948.8,8138.6
24457,1948.8,8388.6
24457,1948.8,8638.6
24457,1948.8,8888.6
24457,1948.8,9138.6
24457,1948.8,7638.6
24457,1948.8,7888.6
24457,1948.8,8138.6
24457,1948.8,8388.6
24457,1948.8,8638.6
24457,1948.8,7888.6
24457,1948.8,8138.6
24457,1948.8,8388.6
24457,1948.8,8638.6
24457,1948.8,8888.6
24457,1948.8,8138.6
24457,1948.8,8388.6
24457,1948.8,8638.6
24457,1948.8,8888.6
24457,1948.8,9138.6
24457,1948.8,8388.6
24457,1948.8,8638.6
24457,1948.8,8888.6
24457,1948.8,9138.6
24457,1948.8,9388.6
24457,1948.8,7638.6
24457,1948.8,7888.6
24457,1948.8,8138.6
24457,1948.8,8388.6
24457,1948.8,8638.6
24457,1948.8,7638.6
24457,1948.8,7888.6
24457,1948.8,8138.6
24457,1948.8,8388.6
24457,1948.8,8638.6
24457,1948.8,7638.6
24457,1948.8,7888.6
24457,1948.8,8138.6
24457,1948.8,8388.6
24457,1948.8,8638.6
24457,1948.8,7888.6
24457,1948.8,8138.6
24457,1948.8,8388.6
24457,1948.8,8638.6
24457,1948.8,8888.6
24457,1948.8,7638.6
24457,1948.8,7888.6
24457,1948.8,8138.6
24457,1948.8,8388.6
24457,1948.8,8638.6
24457,1948.8,7638.6
24457,1948.8,7888.6
24457,1948.8,8138.6
24457,1948.8,8388.6
24457,1948.8,8638.6
24457,1948.8,7888.6
24457,1948.8,8138.6
24457,1948.8,8388.6
24457,1948.8,8638.6
24457,1948.8,8888.6
24457,1948.8,7638.6
24457,1948.8,7888.6
24457,1948.8,8138.6
24457,1948.8,8388.6
24457,1948.8,8638.6
24457,1948.8,7888.6
24457,1948.8,8138.6
24457,1948.8,8388.6
24457,1948.8,8638.6
24457,1948.8,8888.6
24457,1948.8,8138.6
24457,1948.8,8388.6
24457,1948.8,8638.6
24457,1948.8,8888.6
24457,1948.8,9138.6
24457,1948.8,7638.6
24457,1948.8,7888.6
24457,1948.8,8138.6
24457,1948.8,8388.6
24457,1948.8,8638.6
24457,1948.8,7638.6
24457,1948.8,7888.6
24457,1948.8,8138.6
24457,1948.8,8388.6
24457,1948.8,8638.6
24457,1948.8,7888.6
24457,1948.8,8138.6
24457,1948.8,8388.6
24457,1948.8,8638.6
24457,1948.8,8888.6
24457,1948.8,7638.6
24457,1948.8,7888.6
24457,1948.8,8138.6
24457,1948.8,8388.6
24457,1948.8,8638.6
24457,1948.8,7888.6
24457,1948.8,8138.6
24457,1948.8,8388.6
24457,1948.8,8638.6
24457,1948.8,8888.6
24457,1948.8,8138.6
24457,1948.8,8388.6
24457,1948.8,8638.6
24457,1948.8,8888.6
24457,1948.8,9138.6
24457,1948.8,7638.6
24457,1948.8,7888.6
24457,1948.8,8138.6
24457,1948.8,8388.6
24457,1948.8,8638.6
24457,1948.8,7888.6
24457,1948.8,8138.6
24457,1948.8,8388.6
24457,1948.8,8638.6
24457,1948.8,8888.6
24457,1948.8,8138.6
24457,1948.8,8388.6
24457,1948.8,8638.6
24457,1948.8,8888.6
24457,1948.8,9138.6
24457,1948.8,8388.6
24457,1948.8,8638.6
24457,1948.8,8888.6
24457,1948.8,9138.6
24457,1948.8,9388.6
24457,1948.8,7638.6
24457,1948.8,7888.6
24457,1948.8,8138.6
24457,1948.8,8388.6
24457,1948.8,8638.6
24457,1948.8,7638.6
24457,1948.8,7888.6
24457,1948.8,8138.6
24457,1948.8,8388.6
24457,1948.8,8638.6
24457,1948.8,7888.6
24457,1948.8,8138.6
24457,1948.8,8388.6
24457,1948.8,8638.6
24457,1948.8,8888.6
24457,1948.8,7638.6
24457,1948.8,7888.6
24457,1948.8,8138.6
24457,1948.8,8388.6
24457,1948.8,8638.6
24457,1948.8,7888.6
24457,1948.8,8138.6
24457,1948.8,8388.6
24457,1948.8,8638.6
24457,1948.8,8888.6
24457,1948.8,8138.6
24457,1948.8,8388.6
24457,1948.8,8638.6
24457,1948.8,8888.6
24457,1948.8,9138.6
24457,1948.8,7638.6
24457,1948.8,7888.6
24457,1948.8,8138.6
24457,1948.8,8388.6
24457,1948.8,8638.6
24457,1948.8,7888.6
24457,1948.8,8138.6
24457,1948.8,8388.6
24457,1948.8,8638.6
24457,1948.8,8888.6
24457,1948.8,8138.6
24457,1948.8,8388.6
24457,1948.8,8638.6
24457,1948.8,8888.6
24457,1948.8,9138.6
24457,1948.8,8388.6
24457,1948.8,8638.6
24457,1948.8,8888.6
24457,1948.8,9138.6
24457,1948.8,9388.6
24457,1948.8,7638.6
24457,1948.8,7888.6
24457,1948.8,8138.6
24457,1948.8,8388.6
24457,1948.8,8638.6
24457,1948.8,7888.6
24457,1948.8,8138.6
24457,1948.8,8388.6
24457,1948.8,8638.6
24457,1948.8,8888.6
24457,1948.8,8138.6
24457,1948.8,8388.6
24457,1948.8,8638.6
24457,1948.8,8888.6
24457,1948.8,9138.6
24457,1948.8,8388.6
24457,1948.8,8638.6
24457,1948.8,8888.6
24457,1948.8,9138.6
24457,1948.8,9388.6
24457,1948.8,8638.6
24457,1948.8,8888.6
24457,1948.8,9138.6
24457,1948.8,9388.6
24457,1948.8,9638.6
