22004,1948.8,5199.1
22872,1948.8,4699.1
22872,1948.8,4949.1
22872,1948.8,5199.1
22872,1948.8,5449.1
22872,1948.8,5699.1
23740,1948.8,4199.1
23740,1948.8,4449.1
23740,1948.8,4699.1
23740,1948.8,4949.1
23740,1948.8,5199.1
23740,1948.8,4449.1
23740,1948.8,4699.1
23740,1948.8,4949.1
23740,1948.8,5199.1
23740,1948.8,5449.1
23740,1948.8,4699.1
23740,1948.8,4949.1
23740,1948.8,5199.1
23740,1948.8,5449.1
23740,1948.8,5699.1
23740,1948.8,4949.1
23740,1948.8,5199.1
23740,1948.8,5449.1
23740,1948.8,5699.1
23740,1948.8,5949.1
23740,1948.8,5199.1
23740,1948.8,5449.1
23740,1948.8,5699.1
23740,1948.8,5949.1
23740,1948.8,6199.1
24608,1948.8,3699.1
24608,1948.8,3949.1
24608,1948.8,4199.1
24608,1948.8,4449.1
24608,1948.8,4699.1
24608,1948.8,3949.1
24608,1948.8,4199.1
24608,1948.8,4449.1
24608,1948.8,4699.1
24608,1948.8,4949.1
24608,1948.8,4199.1
24608,1948.8,4449.1
24608,1948.8,4699.1
24608,1948.8,4949.1
24608,1948.8,4449.1
24608,1948.8,4699.1
24608,1948.8,4949.1
24608,1948.8,4699.1
24608,1948.8,4949.1
24608,1948.8,3949.1
24608,1948.8,4199.1
24608,1948.8,4449.1
24608,1948.8,4699.1
24608,1948.8,4949.1
24608,1948.8,4199.1
24608,1948.8,4449.1
24608,1948.8,4699.1
24608,1948.8,4949.1
24608,1948.8,4449.1
24608,1948.8,4699.1
24608,1948.8,4949.1
24608,1948.8,4699.1
24608,1948.8,4949.1
24608,1948.8,4949.1
24608,1948.8,4199.1
24608,1948.8,4449.1
24608,1948.8,4699.1
24608,1948.8,4949.1
24608,1948.8,4449.1
24608,1948.8,4699.1
24608,1948.8,4949.1
24608,1948.8,4699.1
24608,1948.8,4949.1
24608,1948.8,4949.1
24608,1948.8,4449.1
24608,1948.8,4699.1
24608,1948.8,4949.1
24608,1948.8,4699.1
24608,1948.8,4949.1
24608,1948.8,4949.1
24608,1948.8,6449.1
24608,1948.8,4699.1
24608,1948.8,4949.1
24608,1948.8,4949.1
24608,1948.8,6449.1
24608,1948.8,6449.1
24608,1948.8,6699.1
25476,1948.8,3199.1
25476,1948.8,3449.1
25476,1948.8,3699.1
25476,1948.8,3949.1
25476,1948.8,4199.1
25476,1948.8,3449.1
25476,1948.8,3699.1
25476,1948.8,3949.1
25476,1948.8,4199.1
25476,1948.8,4449.1
25476,1948.8,3699.1
25476,1948.8,3949.1
25476,1948.8,4199.1
25476,1948.8,4449.1
25476,1948.8,3949.1
25476,1948.8,4199.1
25476,1948.8,4449.1
25476,1948.8,4199.1
25476,1948.8,4449.1
25476,1948.8,3449.1
25476,1948.8,3699.1
25476,1948.8,3949.1
25476,1948.8,4199.1
25476,1948.8,4449.1
25476,1948.8,3699.1
25476,1948.8,3949.1
25476,1948.8,4199.1
25476,1948.8,4449.1
25476,1948.8,3949.1
25476,1948.8,4199.1
25476,1948.8,4449.1
25476,1948.8,4199.1
25476,1948.8,4449.1
25476,1948.8,4449.1
25476,1948.8,3699.1
25476,1948.8,3949.1
25476,1948.8,4199.1
25476,1948.8,4449.1
25476,1948.8,3949.1
25476,1948.8,4199.1
25476,1948.8,4449.1
25476,1948.8,4199.1
25476,1948.8,4449.1
25476,1948.8,4449.1
25476,1948.8,3949.1
25476,1948.8,4199.1
25476,1948.8,4449.1
25476,1948.8,4199.1
25476,1948.8,4449.1
25476,1948.8,4449.1
25476,1948.8,4199.1
25476,1948.8,4449.1
25476,1948.8,4449.1
25476,1948.8,3449.1
25476,1948.8,3699.1
25476,1948.8,3949.1
25476,1948.8,4199.1
25476,1948.8,4449.1
25476,1948.8,3699.1
25476,1948.8,3949.1
25476,1948.8,4199.1
25476,1948.8,4449.1
25476,1948.8,3949.1
25476,1948.8,4199.1
25476,1948.8,4449.1
25476,1948.8,4199.1
25476,1948.8,4449.1
25476,1948.8,4449.1
25476,1948.8,3699.1
25476,1948.8,3949.1
25476,1948.8,4199.1
25476,1948.8,4449.1
25476,1948.8,3949.1
25476,1948.8,4199.1
25476,1948.8,4449.1
25476,1948.8,4199.1
25476,1948.8,4449.1
25476,1948.8,4449.1
25476,1948.8,3949.1
25476,1948.8,4199.1
25476,1948.8,4449.1
25476,1948.8,4199.1
25476,1948.8,4449.1
25476,1948.8,4449.1
25476,1948.8,4199.1
25476,1948.8,4449.1
25476,1948.8,4449.1
25476,1948.8,4449.1
25476,1948.8,3699.1
25476,1948.8,3949.1
25476,1948.8,4199.1
25476,1948.8,4449.1
25476,1948.8,3949.1
25476,1948.8,4199.1
25476,1948.8,4449.1
25476,1948.8,4199.1
25476,1948.8,4449.1
25476,1948.8,4449.1
25476,1948.8,3949.1
25476,1948.8,4199.1
25476,1948.8,4449.1
25476,1948.8,4199.1
25476,1948.8,4449.1
25476,1948.8,4449.1
25476,1948.8,4199.1
25476,1948.8,4449.1
25476,1948.8,4449.1
25476,1948.8,4449.1
25476,1948.8,3949.1
25476,1948.8,4199.1
25476,1948.8,4449.1
25476,1948.8,4199.1
25476,1948.8,4449.1
25476,1948.8,4449.1
25476,1948.8,4199.1
25476,1948.8,4449.1
25476,1948.8,4449.1
25476,1948.8,4449.1
25476,1948.8,5949.1
25476,1948.8,6199.1
25476,1948.8,6449.1
25476,1948.8,6699.1
25476,1948.8,6949.1
25476,1948.8,4199.1
25476,1948.8,4449.1
25476,1948.8,4449.1
25476,1948.8,4449.1
25476,1948.8,5949.1
25476,1948.8,6199.1
25476,1948.8,6449.1
25476,1948.8,6699.1
25476,1948.8,6949.1
25476,1948.8,5949.1
25476,1948.8,6199.1
25476,1948.8,6449.1
25476,1948.8,6699.1
25476,1948.8,6949.1
25476,1948.8,6199.1
25476,1948.8,6449.1
25476,1948.8,6699.1
25476,1948.8,6949.1
25476,1948.8,7199.1
26344,1948.8,2699.1
26344,1948.8,2949.1
26344,1948.8,3199.1
26344,1948.8,3449.1
26344,1948.8,3699.1
26344,1948.8,2949.1
26344,1948.8,3199.1
26344,1948.8,3449.1
26344,1948.8,3699.1
26344,1948.8,3949.1
26344,1948.8,3199.1
26344,1948.8,3449.1
26344,1948.8,3699.1
26344,1948.8,3949.1
26344,1948.8,4199.1
26344,1948.8,3449.1
26344,1948.8,3699.1
26344,1948.8,3949.1
26344,1948.8,4199.1
26344,1948.8,4449.1
26344,1948.8,3699.1
26344,1948.8,3949.1
26344,1948.8,4199.1
26344,1948.8,4449.1
26344,1948.8,4699.1
26344,1948.8,2949.1
26344,1948.8,3199.1
26344,1948.8,3449.1
26344,1948.8,3699.1
26344,1948.8,3949.1
26344,1948.8,3199.1
26344,1948.8,3449.1
26344,1948.8,3699.1
26344,1948.8,3949.1
26344,1948.8,4199.1
26344,1948.8,3449.1
26344,1948.8,3699.1
26344,1948.8,3949.1
26344,1948.8,4199.1
26344,1948.8,4449.1
26344,1948.8,3699.1
26344,1948.8,3949.1
26344,1948.8,4199.1
26344,1948.8,4449.1
26344,1948.8,4699.1
26344,1948.8,3949.1
26344,1948.8,4199.1
26344,1948.8,4449.1
26344,1948.8,4699.1
26344,1948.8,4949.1
26344,1948.8,3199.1
26344,1948.8,3449.1
26344,1948.8,3699.1
26344,1948.8,3949.1
26344,1948.8,4199.1
26344,1948.8,3449.1
26344,1948.8,3699.1
26344,1948.8,3949.1
26344,1948.8,4199.1
26344,1948.8,4449.1
26344,1948.8,3699.1
26344,1948.8,3949.1
26344,1948.8,4199.1
26344,1948.8,4449.1
26344,1948.8,4699.1
26344,1948.8,3949.1
26344,1948.8,4199.1
26344,1948.8,4449.1
26344,1948.8,4699.1
26344,1948.8,4949.1
26344,1948.8,3449.1
26344,1948.8,3699.1
26344,1948.8,3949.1
26344,1948.8,4199.1
26344,1948.8,4449.1
26344,1948.8,3699.1
26344,1948.8,3949.1
26344,1948.8,4199.1
26344,1948.8,4449.1
26344,1948.8,4699.1
26344,1948.8,3949.1
26344,1948.8,4199.1
26344,1948.8,4449.1
26344,1948.8,4699.1
26344,1948.8,4949.1
26344,1948.8,3699.1
26344,1948.8,3949.1
26344,1948.8,4199.1
26344,1948.8,4449.1
26344,1948.8,4699.1
26344,1948.8,3949.1
26344,1948.8,4199.1
26344,1948.8,4449.1
26344,1948.8,4699.1
26344,1948.8,4949.1
26344,1948.8,2949.1
26344,1948.8,3199.1
26344,1948.8,3449.1
26344,1948.8,3699.1
26344,1948.8,3949.1
26344,1948.8,3199.1
26344,1948.8,3449.1
26344,1948.8,3699.1
26344,1948.8,3949.1
26344,1948.8,4199.1
26344,1948.8,3449.1
26344,1948.8,3699.1
26344,1948.8,3949.1
26344,1948.8,4199.1
26344,1948.8,4449.1
26344,1948.8,3699.1
26344,1948.8,3949.1
26344,1948.8,4199.1
26344,1948.8,4449.1
26344,1948.8,4699.1
26344,1948.8,3949.1
26344,1948.8,4199.1
26344,1948.8,4449.1
26344,1948.8,4699.1
26344,1948.8,4949.1
26344,1948.8,3199.1
26344,1948.8,3449.1
26344,1948.8,3699.1
26344,1948.8,3949.1
26344,1948.8,4199.1
26344,1948.8,3449.1
26344,1948.8,3699.1
26344,1948.8,3949.1
26344,1948.8,4199.1
26344,1948.8,4449.1
26344,1948.8,3699.1
26344,1948.8,3949.1
26344,1948.8,4199.1
26344,1948.8,4449.1
26344,1948.8,4699.1
26344,1948.8,3949.1
26344,1948.8,4199.1
26344,1948.8,4449.1
26344,1948.8,4699.1
26344,1948.8,4949.1
26344,1948.8,3449.1
26344,1948.8,3699.1
26344,1948.8,3949.1
26344,1948.8,4199.1
26344,1948.8,4449.1
26344,1948.8,3699.1
26344,1948.8,3949.1
26344,1948.8,4199.1
26344,1948.8,4449.1
26344,1948.8,4699.1
26344,1948.8,3949.1
26344,1948.8,4199.1
26344,1948.8,4449.1
26344,1948.8,4699.1
26344,1948.8,4949.1
26344,1948.8,3699.1
26344,1948.8,3949.1
26344,1948.8,4199.1
26344,1948.8,4449.1
26344,1948.8,4699.1
26344,1948.8,3949.1
26344,1948.8,4199.1
26344,1948.8,4449.1
26344,1948.8,4699.1
26344,1948.8,4949.1
26344,1948.8,3949.1
26344,1948.8,4199.1
26344,1948.8,4449.1
26344,1948.8,4699.1
26344,1948.8,4949.1
26344,1948.8,3199.1
26344,1948.8,3449.1
26344,1948.8,3699.1
26344,1948.8,3949.1
26344,1948.8,4199.1
26344,1948.8,3449.1
26344,1948.8,3699.1
26344,1948.8,3949.1
26344,1948.8,4199.1
26344,1948.8,4449.1
26344,1948.8,3699.1
26344,1948.8,3949.1
26344,1948.8,4199.1
26344,1948.8,4449.1
26344,1948.8,4699.1
26344,1948.8,3949.1
26344,1948.8,4199.1
26344,1948.8,4449.1
26344,1948.8,4699.1
26344,1948.8,4949.1
26344,1948.8,3449.1
26344,1948.8,3699.1
26344,1948.8,3949.1
26344,1948.8,4199.1
26344,1948.8,4449.1
26344,1948.8,3699.1
26344,1948.8,3949.1
26344,1948.8,4199.1
26344,1948.8,4449.1
26344,1948.8,4699.1
26344,1948.8,3949.1
26344,1948.8,4199.1
26344,1948.8,4449.1
26344,1948.8,4699.1
26344,1948.8,4949.1
26344,1948.8,3699.1
26344,1948.8,3949.1
26344,1948.8,4199.1
26344,1948.8,4449.1
26344,1948.8,4699.1
26344,1948.8,3949.1
26344,1948.8,4199.1
26344,1948.8,4449.1
26344,1948.8,4699.1
26344,1948.8,4949.1
26344,1948.8,3949.1
26344,1948.8,4199.1
26344,1948.8,4449.1
26344,1948.8,4699.1
26344,1948.8,4949.1
26344,1948.8,3449.1
26344,1948.8,3699.1
26344,1948.8,3949.1
26344,1948.8,4199.1
26344,1948.8,4449.1
26344,1948.8,3699.1
26344,1948.8,3949.1
26344,1948.8,4199.1
26344,1948.8,4449.1
26344,1948.8,4699.1
26344,1948.8,3949.1
26344,1948.8,4199.1
26344,1948.8,4449.1
26344,1948.8,4699.1
26344,1948.8,4949.1
26344,1948.8,3699.1
26344,1948.8,3949.1
26344,1948.8,4199.1
26344,1948.8,4449.1
26344,1948.8,4699.1
26344,1948.8,3949.1
26344,1948.8,4199.1
26344,1948.8,4449.1
26344,1948.8,4699.1
26344,1948.8,4949.1
26344,1948.8,3949.1
26344,1948.8,4199.1
26344,1948.8,4449.1
26344,1948.8,4699.1
26344,1948.8,4949.1
26344,1948.8,3699.1
26344,1948.8,3949.1
26344,1948.8,4199.1
26344,1948.8,4449.1
26344,1948.8,4699.1
26344,1948.8,3949.1
26344,1948.8,4199.1
26344,1948.8,4449.1
26344,1948.8,4699.1
26344,1948.8,4949.1
26344,1948.8,3949.1
26344,1948.8,4199.1
26344,1948.8,4449.1
26344,1948.8,4699.1
26344,1948.8,4949.1
26344,1948.8,2949.1
26344,1948.8,3199.1
26344,1948.8,3449.1
26344,1948.8,3699.1
26344,1948.8,3949.1
26344,1948.8,3199.1
26344,1948.8,3449.1
26344,1948.8,3699.1
26344,1948.8,3949.1
26344,1948.8,4199.1
26344,1948.8,3449.1
26344,1948.8,3699.1
26344,1948.8,3949.1
26344,1948.8,4199.1
26344,1948.8,4449.1
26344,1948.8,3699.1
26344,1948.8,3949.1
26344,1948.8,4199.1
26344,1948.8,4449.1
26344,1948.8,4699.1
26344,1948.8,3949.1
26344,1948.8,4199.1
26344,1948.8,4449.1
26344,1948.8,4699.1
26344,1948.8,4949.1
26344,1948.8,3199.1
26344,1948.8,3449.1
26344,1948.8,3699.1
26344,1948.8,3949.1
26344,1948.8,4199.1
26344,1948.8,3449.1
26344,1948.8,3699.1
26344,1948.8,3949.1
26344,1948.8,4199.1
26344,1948.8,4449.1
26344,1948.8,3699.1
26344,1948.8,3949.1
26344,1948.8,4199.1
26344,1948.8,4449.1
26344,1948.8,4699.1
26344,1948.8,3949.1
26344,1948.8,4199.1
26344,1948.8,4449.1
26344,1948.8,4699.1
26344,1948.8,4949.1
26344,1948.8,3449.1
26344,1948.8,3699.1
26344,1948.8,3949.1
26344,1948.8,4199.1
26344,1948.8,4449.1
26344,1948.8,3699.1
26344,1948.8,3949.1
26344,1948.8,4199.1
26344,1948.8,4449.1
26344,1948.8,4699.1
26344,1948.8,3949.1
26344,1948.8,4199.1
26344,1948.8,4449.1
26344,1948.8,4699.1
26344,1948.8,4949.1
26344,1948.8,3699.1
26344,1948.8,3949.1
26344,1948.8,4199.1
26344,1948.8,4449.1
26344,1948.8,4699.1
26344,1948.8,3949.1
26344,1948.8,4199.1
26344,1948.8,4449.1
26344,1948.8,4699.1
26344,1948.8,4949.1
26344,1948.8,3949.1
26344,1948.8,4199.1
26344,1948.8,4449.1
26344,1948.8,4699.1
26344,1948.8,4949.1
26344,1948.8,3199.1
26344,1948.8,3449.1
26344,1948.8,3699.1
26344,1948.8,3949.1
26344,1948.8,4199.1
26344,1948.8,3449.1
26344,1948.8,3699.1
26344,1948.8,3949.1
26344,1948.8,4199.1
26344,1948.8,4449.1
26344,1948.8,3699.1
26344,1948.8,3949.1
26344,1948.8,4199.1
26344,1948.8,4449.1
26344,1948.8,4699.1
26344,1948.8,3949.1
26344,1948.8,4199.1
26344,1948.8,4449.1
26344,1948.8,4699.1
26344,1948.8,4949.1
26344,1948.8,3449.1
26344,1948.8,3699.1
26344,1948.8,3949.1
26344,1948.8,4199.1
26344,1948.8,4449.1
26344,1948.8,3699.1
26344,1948.8,3949.1
26344,1948.8,4199.1
26344,1948.8,4449.1
26344,1948.8,4699.1
26344,1948.8,3949.1
26344,1948.8,4199.1
26344,1948.8,4449.1
26344,1948.8,4699.1
26344,1948.8,4949.1
26344,1948.8,3699.1
26344,1948.8,3949.1
26344,1948.8,4199.1
26344,1948.8,4449.1
26344,1948.8,4699.1
26344,1948.8,3949.1
26344,1948.8,4199.1
26344,1948.8,4449.1
26344,1948.8,4699.1
26344,1948.8,4949.1
26344,1948.8,3949.1
26344,1948.8,4199.1
26344,1948.8,4449.1
26344,1948.8,4699.1
26344,1948.8,4949.1
26344,1948.8,3449.1
26344,1948.8,3699.1
26344,1948.8,3949.1
26344,1948.8,4199.1
26344,1948.8,4449.1
26344,1948.8,3699.1
26344,1948.8,3949.1
26344,1948.8,4199.1
26344,1948.8,4449.1
26344,1948.8,4699.1
26344,1948.8,3949.1
26344,1948.8,4199.1
26344,1948.8,4449.1
26344,1948.8,4699.1
26344,1948.8,4949.1
26344,1948.8,3699.1
26344,1948.8,3949.1
26344,1948.8,4199.1
26344,1948.8,4449.1
26344,1948.8,4699.1
26344,1948.8,3949.1
26344,1948.8,4199.1
26344,1948.8,4449.1
26344,1948.8,4699.1
26344,1948.8,4949.1
26344,1948.8,3949.1
26344,1948.8,4199.1
26344,1948.8,4449.1
26344,1948.8,4699.1
26344,1948.8,4949.1
26344,1948.8,3699.1
26344,1948.8,3949.1
26344,1948.8,4199.1
26344,1948.8,4449.1
26344,1948.8,4699.1
26344,1948.8,3949.1
26344,1948.8,4199.1
26344,1948.8,4449.1
26344,1948.8,4699.1
26344,1948.8,4949.1
26344,1948.8,3949.1
26344,1948.8,4199.1
26344,1948.8,4449.1
26344,1948.8,4699.1
26344,1948.8,4949.1
26344,1948.8,3949.1
26344,1948.8,4199.1
26344,1948.8,4449.1
26344,1948.8,4699.1
26344,1948.8,4949.1
26344,1948.8,3199.1
26344,1948.8,3449.1
26344,1948.8,3699.1
26344,1948.8,3949.1
26344,1948.8,4199.1
26344,1948.8,3449.1
26344,1948.8,3699.1
26344,1948.8,3949.1
26344,1948.8,4199.1
26344,1948.8,4449.1
26344,1948.8,3699.1
26344,1948.8,3949.1
26344,1948.8,4199.1
26344,1948.8,4449.1
26344,1948.8,4699.1
26344,1948.8,3949.1
26344,1948.8,4199.1
26344,1948.8,4449.1
26344,1948.8,4699.1
26344,1948.8,4949.1
26344,1948.8,3449.1
26344,1948.8,3699.1
26344,1948.8,3949.1
26344,1948.8,4199.1
26344,1948.8,4449.1
26344,1948.8,3699.1
26344,1948.8,3949.1
26344,1948.8,4199.1
26344,1948.8,4449.1
26344,1948.8,4699.1
26344,1948.8,3949.1
26344,1948.8,4199.1
26344,1948.8,4449.1
26344,1948.8,4699.1
26344,1948.8,4949.1
26344,1948.8,3699.1
26344,1948.8,3949.1
26344,1948.8,4199.1
26344,1948.8,4449.1
26344,1948.8,4699.1
26344,1948.8,3949.1
26344,1948.8,4199.1
26344,1948.8,4449.1
26344,1948.8,4699.1
26344,1948.8,4949.1
26344,1948.8,3949.1
26344,1948.8,4199.1
26344,1948.8,4449.1
26344,1948.8,4699.1
26344,1948.8,4949.1
26344,1948.8,3449.1
26344,1948.8,3699.1
26344,1948.8,3949.1
26344,1948.8,4199.1
26344,1948.8,4449.1
26344,1948.8,3699.1
26344,1948.8,3949.1
26344,1948.8,4199.1
26344,1948.8,4449.1
26344,1948.8,4699.1
26344,1948.8,3949.1
26344,1948.8,4199.1
26344,1948.8,4449.1
26344,1948.8,4699.1
26344,1948.8,4949.1
26344,1948.8,3699.1
26344,1948.8,3949.1
26344,1948.8,4199.1
26344,1948.8,4449.1
26344,1948.8,4699.1
26344,1948.8,3949.1
26344,1948.8,4199.1
26344,1948.8,4449.1
26344,1948.8,4699.1
26344,1948.8,4949.1
26344,1948.8,3949.1
26344,1948.8,4199.1
26344,1948.8,4449.1
26344,1948.8,4699.1
26344,1948.8,4949.1
26344,1948.8,3699.1
26344,1948.8,3949.1
26344,1948.8,4199.1
26344,1948.8,4449.1
26344,1948.8,4699.1
26344,1948.8,3949.1
26344,1948.8,4199.1
26344,1948.8,4449.1
26344,1948.8,4699.1
26344,1948.8,4949.1
26344,1948.8,3949.1
26344,1948.8,4199.1
26344,1948.8,4449.1
26344,1948.8,4699.1
26344,1948.8,4949.1
26344,1948.8,3949.1
26344,1948.8,4199.1
26344,1948.8,4449.1
26344,1948.8,4699.1
26344,1948.8,4949.1
26344,1948.8,3449.1
26344,1948.8,3699.1
26344,1948.8,3949.1
26344,1948.8,4199.1
26344,1948.8,4449.1
26344,1948.8,3699.1
26344,1948.8,3949.1
26344,1948.8,4199.1
26344,1948.8,4449.1
26344,1948.8,4699.1
26344,1948.8,3949.1
26344,1948.8,4199.1
26344,1948.8,4449.1
26344,1948.8,4699.1
26344,1948.8,4949.1
26344,1948.8,3699.1
26344,1948.8,3949.1
26344,1948.8,4199.1
26344,1948.8,4449.1
26344,1948.8,4699.1
26344,1948.8,3949.1
26344,1948.8,4199.1
26344,1948.8,4449.1
26344,1948.8,4699.1
26344,1948.8,4949.1
26344,1948.8,3949.1
26344,1948.8,4199.1
26344,1948.8,4449.1
26344,1948.8,4699.1
26344,1948.8,4949.1
26344,1948.8,3699.1
26344,1948.8,3949.1
26344,1948.8,4199.1
26344,1948.8,4449.1
26344,1948.8,4699.1
26344,1948.8,3949.1
26344,1948.8,4199.1
26344,1948.8,4449.1
26344,1948.8,4699.1
26344,1948.8,4949.1
26344,1948.8,3949.1
26344,1948.8,4199.1
26344,1948.8,4449.1
26344,1948.8,4699.1
26344,1948.8,4949.1
26344,1948.8,3949.1
26344,1948.8,4199.1
26344,1948.8,4449.1
26344,1948.8,4699.1
26344,1948.8,4949.1
26344,1948.8,6449.1
26344,1948.8,6449.1
26344,1948.8,6699.1
26344,1948.8,6449.1
26344,1948.8,6699.1
26344,1948.8,6949.1
26344,1948.8,6449.1
26344,1948.8,6699.1
26344,1948.8,6949.1
26344,1948.8,7199.1
26344,1948.8,6449.1
26344,1948.8,6699.1
26344,1948.8,6949.1
26344,1948.8,7199.1
26344,1948.8,7449.1
26344,1948.8,3699.1
26344,1948.8,3949.1
26344,1948.8,4199.1
26344,1948.8,4449.1
26344,1948.8,4699.1
26344,1948.8,3949.1
26344,1948.8,4199.1
26344,1948.8,4449.1
26344,1948.8,4699.1
26344,1948.8,4949.1
26344,1948.8,3949.1
26344,1948.8,4199.1
26344,1948.8,4449.1
26344,1948.8,4699.1
26344,1948.8,4949.1
26344,1948.8,3949.1
26344,1948.8,4199.1
26344,1948.8,4449.1
26344,1948.8,4699.1
26344,1948.8,4949.1
26344,1948.8,6449.1
26344,1948.8,6449.1
26344,1948.8,6699.1
26344,1948.8,6449.1
26344,1948.8,6699.1
26344,1948.8,6949.1
26344,1948.8,6449.1
26344,1948.8,6699.1
26344,1948.8,6949.1
26344,1948.8,7199.1
26344,1948.8,6449.1
26344,1948.8,6699.1
26344,1948.8,6949.1
26344,1948.8,7199.1
26344,1948.8,7449.1
26344,1948.8,6449.1
26344,1948.8,6449.1
26344,1948.8,6699.1
26344,1948.8,6449.1
26344,1948.8,6699.1
26344,1948.8,6949.1
26344,1948.8,6449.1
26344,1948.8,6699.1
26344,1948.8,6949.1
26344,1948.8,7199.1
26344,1948.8,6449.1
26344,1948.8,6699.1
26344,1948.8,6949.1
26344,1948.8,7199.1
26344,1948.8,7449.1
26344,1948.8,6449.1
26344,1948.8,6699.1
26344,1948.8,6449.1
26344,1948.8,6699.1
26344,1948.8,6949.1
26344,1948.8,6449.1
26344,1948.8,6699.1
26344,1948.8,6949.1
26344,1948.8,7199.1
26344,1948.8,6449.1
26344,1948.8,6699.1
26344,1948.8,6949.1
26344,1948.8,7199.1
26344,1948.8,7449.1
26344,1948.8,6699.1
26344,1948.8,6949.1
26344,1948.8,7199.1
26344,1948.8,7449.1
26344,1948.8,7699.1
27212,1948.8,2199.1
27212,1948.8,2449.1
27212,1948.8,2699.1
27212,1948.8,2949.1
27212,1948.8,3199.1
27212,1948.8,2449.1
27212,1948.8,2699.1
27212,1948.8,2949.1
27212,1948.8,3199.1
27212,1948.8,3449.1
27212,1948.8,2699.1
27212,1948.8,2949.1
27212,1948.8,3199.1
27212,1948.8,3449.1
27212,1948.8,3699.1
27212,1948.8,2949.1
27212,1948.8,3199.1
27212,1948.8,3449.1
27212,1948.8,3699.1
27212,1948.8,3949.1
27212,1948.8,3199.1
27212,1948.8,3449.1
27212,1948.8,3699.1
27212,1948.8,3949.1
27212,1948.8,4199.1
27212,1948.8,2449.1
27212,1948.8,2699.1
27212,1948.8,2949.1
27212,1948.8,3199.1
27212,1948.8,3449.1
27212,1948.8,2699.1
27212,1948.8,2949.1
27212,1948.8,3199.1
27212,1948.8,3449.1
27212,1948.8,3699.1
27212,1948.8,2949.1
27212,1948.8,3199.1
27212,1948.8,3449.1
27212,1948.8,3699.1
27212,1948.8,3949.1
27212,1948.8,3199.1
27212,1948.8,3449.1
27212,1948.8,3699.1
27212,1948.8,3949.1
27212,1948.8,4199.1
27212,1948.8,3449.1
27212,1948.8,3699.1
27212,1948.8,3949.1
27212,1948.8,4199.1
27212,1948.8,4449.1
27212,1948.8,2699.1
27212,1948.8,2949.1
27212,1948.8,3199.1
27212,1948.8,3449.1
27212,1948.8,3699.1
27212,1948.8,2949.1
27212,1948.8,3199.1
27212,1948.8,3449.1
27212,1948.8,3699.1
27212,1948.8,3949.1
27212,1948.8,3199.1
27212,1948.8,3449.1
27212,1948.8,3699.1
27212,1948.8,3949.1
27212,1948.8,4199.1
27212,1948.8,3449.1
27212,1948.8,3699.1
27212,1948.8,3949.1
27212,1948.8,4199.1
27212,1948.8,4449.1
27212,1948.8,3699.1
27212,1948.8,3949.1
27212,1948.8,4199.1
27212,1948.8,4449.1
27212,1948.8,2949.1
27212,1948.8,3199.1
27212,1948.8,3449.1
27212,1948.8,3699.1
27212,1948.8,3949.1
27212,1948.8,3199.1
27212,1948.8,3449.1
27212,1948.8,3699.1
27212,1948.8,3949.1
27212,1948.8,4199.1
27212,1948.8,3449.1
27212,1948.8,3699.1
27212,1948.8,3949.1
27212,1948.8,4199.1
27212,1948.8,4449.1
27212,1948.8,3699.1
27212,1948.8,3949.1
27212,1948.8,4199.1
27212,1948.8,4449.1
27212,1948.8,3949.1
27212,1948.8,4199.1
27212,1948.8,4449.1
27212,1948.8,3199.1
27212,1948.8,3449.1
27212,1948.8,3699.1
27212,1948.8,3949.1
27212,1948.8,4199.1
27212,1948.8,3449.1
27212,1948.8,3699.1
27212,1948.8,3949.1
27212,1948.8,4199.1
27212,1948.8,4449.1
27212,1948.8,3699.1
27212,1948.8,3949.1
27212,1948.8,4199.1
27212,1948.8,4449.1
27212,1948.8,3949.1
27212,1948.8,4199.1
27212,1948.8,4449.1
27212,1948.8,4199.1
27212,1948.8,4449.1
27212,1948.8,2449.1
27212,1948.8,2699.1
27212,1948.8,2949.1
27212,1948.8,3199.1
27212,1948.8,3449.1
27212,1948.8,2699.1
27212,1948.8,2949.1
27212,1948.8,3199.1
27212,1948.8,3449.1
27212,1948.8,3699.1
27212,1948.8,2949.1
27212,1948.8,3199.1
27212,1948.8,3449.1
27212,1948.8,3699.1
27212,1948.8,3949.1
27212,1948.8,3199.1
27212,1948.8,3449.1
27212,1948.8,3699.1
27212,1948.8,3949.1
27212,1948.8,4199.1
27212,1948.8,3449.1
27212,1948.8,3699.1
27212,1948.8,3949.1
27212,1948.8,4199.1
27212,1948.8,4449.1
27212,1948.8,2699.1
27212,1948.8,2949.1
27212,1948.8,3199.1
27212,1948.8,3449.1
27212,1948.8,3699.1
27212,1948.8,2949.1
27212,1948.8,3199.1
27212,1948.8,3449.1
27212,1948.8,3699.1
27212,1948.8,3949.1
27212,1948.8,3199.1
27212,1948.8,3449.1
27212,1948.8,3699.1
27212,1948.8,3949.1
27212,1948.8,4199.1
27212,1948.8,3449.1
27212,1948.8,3699.1
27212,1948.8,3949.1
27212,1948.8,4199.1
27212,1948.8,4449.1
27212,1948.8,3699.1
27212,1948.8,3949.1
27212,1948.8,4199.1
27212,1948.8,4449.1
27212,1948.8,2949.1
27212,1948.8,3199.1
27212,1948.8,3449.1
27212,1948.8,3699.1
27212,1948.8,3949.1
27212,1948.8,3199.1
27212,1948.8,3449.1
27212,1948.8,3699.1
27212,1948.8,3949.1
27212,1948.8,4199.1
27212,1948.8,3449.1
27212,1948.8,3699.1
27212,1948.8,3949.1
27212,1948.8,4199.1
27212,1948.8,4449.1
27212,1948.8,3699.1
27212,1948.8,3949.1
27212,1948.8,4199.1
27212,1948.8,4449.1
27212,1948.8,3949.1
27212,1948.8,4199.1
27212,1948.8,4449.1
27212,1948.8,3199.1
27212,1948.8,3449.1
27212,1948.8,3699.1
27212,1948.8,3949.1
27212,1948.8,4199.1
27212,1948.8,3449.1
27212,1948.8,3699.1
27212,1948.8,3949.1
27212,1948.8,4199.1
27212,1948.8,4449.1
27212,1948.8,3699.1
27212,1948.8,3949.1
27212,1948.8,4199.1
27212,1948.8,4449.1
27212,1948.8,3949.1
27212,1948.8,4199.1
27212,1948.8,4449.1
27212,1948.8,4199.1
27212,1948.8,4449.1
27212,1948.8,3449.1
27212,1948.8,3699.1
27212,1948.8,3949.1
27212,1948.8,4199.1
27212,1948.8,4449.1
27212,1948.8,3699.1
27212,1948.8,3949.1
27212,1948.8,4199.1
27212,1948.8,4449.1
27212,1948.8,3949.1
27212,1948.8,4199.1
27212,1948.8,4449.1
27212,1948.8,4199.1
27212,1948.8,4449.1
27212,1948.8,4449.1
27212,1948.8,2699.1
27212,1948.8,2949.1
27212,1948.8,3199.1
27212,1948.8,3449.1
27212,1948.8,3699.1
27212,1948.8,2949.1
27212,1948.8,3199.1
27212,1948.8,3449.1
27212,1948.8,3699.1
27212,1948.8,3949.1
27212,1948.8,3199.1
27212,1948.8,3449.1
27212,1948.8,3699.1
27212,1948.8,3949.1
27212,1948.8,4199.1
27212,1948.8,3449.1
27212,1948.8,3699.1
27212,1948.8,3949.1
27212,1948.8,4199.1
27212,1948.8,4449.1
27212,1948.8,3699.1
27212,1948.8,3949.1
27212,1948.8,4199.1
27212,1948.8,4449.1
27212,1948.8,2949.1
27212,1948.8,3199.1
27212,1948.8,3449.1
27212,1948.8,3699.1
27212,1948.8,3949.1
27212,1948.8,3199.1
27212,1948.8,3449.1
27212,1948.8,3699.1
27212,1948.8,3949.1
27212,1948.8,4199.1
27212,1948.8,3449.1
27212,1948.8,3699.1
27212,1948.8,3949.1
27212,1948.8,4199.1
27212,1948.8,4449.1
27212,1948.8,3699.1
27212,1948.8,3949.1
27212,1948.8,4199.1
27212,1948.8,4449.1
27212,1948.8,3949.1
27212,1948.8,4199.1
27212,1948.8,4449.1
27212,1948.8,3199.1
27212,1948.8,3449.1
27212,1948.8,3699.1
27212,1948.8,3949.1
27212,1948.8,4199.1
27212,1948.8,3449.1
27212,1948.8,3699.1
27212,1948.8,3949.1
27212,1948.8,4199.1
27212,1948.8,4449.1
27212,1948.8,3699.1
27212,1948.8,3949.1
27212,1948.8,4199.1
27212,1948.8,4449.1
27212,1948.8,3949.1
27212,1948.8,4199.1
27212,1948.8,4449.1
27212,1948.8,4199.1
27212,1948.8,4449.1
27212,1948.8,3449.1
27212,1948.8,3699.1
27212,1948.8,3949.1
27212,1948.8,4199.1
27212,1948.8,4449.1
27212,1948.8,3699.1
27212,1948.8,3949.1
27212,1948.8,4199.1
27212,1948.8,4449.1
27212,1948.8,3949.1
27212,1948.8,4199.1
27212,1948.8,4449.1
27212,1948.8,4199.1
27212,1948.8,4449.1
27212,1948.8,4449.1
27212,1948.8,2949.1
27212,1948.8,3199.1
27212,1948.8,3449.1
27212,1948.8,3699.1
27212,1948.8,3949.1
27212,1948.8,3199.1
27212,1948.8,3449.1
27212,1948.8,3699.1
27212,1948.8,3949.1
27212,1948.8,4199.1
27212,1948.8,3449.1
27212,1948.8,3699.1
27212,1948.8,3949.1
27212,1948.8,4199.1
27212,1948.8,4449.1
27212,1948.8,3699.1
27212,1948.8,3949.1
27212,1948.8,4199.1
27212,1948.8,4449.1
27212,1948.8,3949.1
27212,1948.8,4199.1
27212,1948.8,4449.1
27212,1948.8,3199.1
27212,1948.8,3449.1
27212,1948.8,3699.1
27212,1948.8,3949.1
27212,1948.8,4199.1
27212,1948.8,3449.1
27212,1948.8,3699.1
27212,1948.8,3949.1
27212,1948.8,4199.1
27212,1948.8,4449.1
27212,1948.8,3699.1
27212,1948.8,3949.1
27212,1948.8,4199.1
27212,1948.8,4449.1
27212,1948.8,3949.1
27212,1948.8,4199.1
27212,1948.8,4449.1
27212,1948.8,4199.1
27212,1948.8,4449.1
27212,1948.8,3449.1
27212,1948.8,3699.1
27212,1948.8,3949.1
27212,1948.8,4199.1
27212,1948.8,4449.1
27212,1948.8,3699.1
27212,1948.8,3949.1
27212,1948.8,4199.1
27212,1948.8,4449.1
27212,1948.8,3949.1
27212,1948.8,4199.1
27212,1948.8,4449.1
27212,1948.8,4199.1
27212,1948.8,4449.1
27212,1948.8,4449.1
27212,1948.8,3199.1
27212,1948.8,3449.1
27212,1948.8,3699.1
27212,1948.8,3949.1
27212,1948.8,4199.1
27212,1948.8,3449.1
27212,1948.8,3699.1
27212,1948.8,3949.1
27212,1948.8,4199.1
27212,1948.8,4449.1
27212,1948.8,3699.1
27212,1948.8,3949.1
27212,1948.8,4199.1
27212,1948.8,4449.1
27212,1948.8,3949.1
27212,1948.8,4199.1
27212,1948.8,4449.1
27212,1948.8,4199.1
27212,1948.8,4449.1
27212,1948.8,3449.1
27212,1948.8,3699.1
27212,1948.8,3949.1
27212,1948.8,4199.1
27212,1948.8,4449.1
27212,1948.8,3699.1
27212,1948.8,3949.1
27212,1948.8,4199.1
27212,1948.8,4449.1
27212,1948.8,3949.1
27212,1948.8,4199.1
27212,1948.8,4449.1
27212,1948.8,4199.1
27212,1948.8,4449.1
27212,1948.8,4449.1
27212,1948.8,2449.1
27212,1948.8,2699.1
27212,1948.8,2949.1
27212,1948.8,3199.1
27212,1948.8,3449.1
27212,1948.8,2699.1
27212,1948.8,2949.1
27212,1948.8,3199.1
27212,1948.8,3449.1
27212,1948.8,3699.1
27212,1948.8,2949.1
27212,1948.8,3199.1
27212,1948.8,3449.1
27212,1948.8,3699.1
27212,1948.8,3949.1
27212,1948.8,3199.1
27212,1948.8,3449.1
27212,1948.8,3699.1
27212,1948.8,3949.1
27212,1948.8,4199.1
27212,1948.8,3449.1
27212,1948.8,3699.1
27212,1948.8,3949.1
27212,1948.8,4199.1
27212,1948.8,4449.1
27212,1948.8,2699.1
27212,1948.8,2949.1
27212,1948.8,3199.1
27212,1948.8,3449.1
27212,1948.8,3699.1
27212,1948.8,2949.1
27212,1948.8,3199.1
27212,1948.8,3449.1
27212,1948.8,3699.1
27212,1948.8,3949.1
27212,1948.8,3199.1
27212,1948.8,3449.1
27212,1948.8,3699.1
27212,1948.8,3949.1
27212,1948.8,4199.1
27212,1948.8,3449.1
27212,1948.8,3699.1
27212,1948.8,3949.1
27212,1948.8,4199.1
27212,1948.8,4449.1
27212,1948.8,3699.1
27212,1948.8,3949.1
27212,1948.8,4199.1
27212,1948.8,4449.1
27212,1948.8,2949.1
27212,1948.8,3199.1
27212,1948.8,3449.1
27212,1948.8,3699.1
27212,1948.8,3949.1
27212,1948.8,3199.1
27212,1948.8,3449.1
27212,1948.8,3699.1
27212,1948.8,3949.1
27212,1948.8,4199.1
27212,1948.8,3449.1
27212,1948.8,3699.1
27212,1948.8,3949.1
27212,1948.8,4199.1
27212,1948.8,4449.1
27212,1948.8,3699.1
27212,1948.8,3949.1
27212,1948.8,4199.1
27212,1948.8,4449.1
27212,1948.8,3949.1
27212,1948.8,4199.1
27212,1948.8,4449.1
27212,1948.8,3199.1
27212,1948.8,3449.1
27212,1948.8,3699.1
27212,1948.8,3949.1
27212,1948.8,4199.1
27212,1948.8,3449.1
27212,1948.8,3699.1
27212,1948.8,3949.1
27212,1948.8,4199.1
27212,1948.8,4449.1
27212,1948.8,3699.1
27212,1948.8,3949.1
27212,1948.8,4199.1
27212,1948.8,4449.1
27212,1948.8,3949.1
27212,1948.8,4199.1
27212,1948.8,4449.1
27212,1948.8,4199.1
27212,1948.8,4449.1
27212,1948.8,3449.1
27212,1948.8,3699.1
27212,1948.8,3949.1
27212,1948.8,4199.1
27212,1948.8,4449.1
27212,1948.8,3699.1
27212,1948.8,3949.1
27212,1948.8,4199.1
27212,1948.8,4449.1
27212,1948.8,3949.1
27212,1948.8,4199.1
27212,1948.8,4449.1
27212,1948.8,4199.1
27212,1948.8,4449.1
27212,1948.8,4449.1
27212,1948.8,2699.1
27212,1948.8,2949.1
27212,1948.8,3199.1
27212,1948.8,3449.1
27212,1948.8,3699.1
27212,1948.8,2949.1
27212,1948.8,3199.1
27212,1948.8,3449.1
27212,1948.8,3699.1
27212,1948.8,3949.1
27212,1948.8,3199.1
27212,1948.8,3449.1
27212,1948.8,3699.1
27212,1948.8,3949.1
27212,1948.8,4199.1
27212,1948.8,3449.1
27212,1948.8,3699.1
27212,1948.8,3949.1
27212,1948.8,4199.1
27212,1948.8,4449.1
27212,1948.8,3699.1
27212,1948.8,3949.1
27212,1948.8,4199.1
27212,1948.8,4449.1
27212,1948.8,2949.1
27212,1948.8,3199.1
27212,1948.8,3449.1
27212,1948.8,3699.1
27212,1948.8,3949.1
27212,1948.8,3199.1
27212,1948.8,3449.1
27212,1948.8,3699.1
27212,1948.8,3949.1
27212,1948.8,4199.1
27212,1948.8,3449.1
27212,1948.8,3699.1
27212,1948.8,3949.1
27212,1948.8,4199.1
27212,1948.8,4449.1
27212,1948.8,3699.1
27212,1948.8,3949.1
27212,1948.8,4199.1
27212,1948.8,4449.1
27212,1948.8,3949.1
27212,1948.8,4199.1
27212,1948.8,4449.1
27212,1948.8,3199.1
27212,1948.8,3449.1
27212,1948.8,3699.1
27212,1948.8,3949.1
27212,1948.8,4199.1
27212,1948.8,3449.1
27212,1948.8,3699.1
27212,1948.8,3949.1
27212,1948.8,4199.1
27212,1948.8,4449.1
27212,1948.8,3699.1
27212,1948.8,3949.1
27212,1948.8,4199.1
27212,1948.8,4449.1
27212,1948.8,3949.1
27212,1948.8,4199.1
27212,1948.8,4449.1
27212,1948.8,4199.1
27212,1948.8,4449.1
27212,1948.8,3449.1
27212,1948.8,3699.1
27212,1948.8,3949.1
27212,1948.8,4199.1
27212,1948.8,4449.1
27212,1948.8,3699.1
27212,1948.8,3949.1
27212,1948.8,4199.1
27212,1948.8,4449.1
27212,1948.8,3949.1
27212,1948.8,4199.1
27212,1948.8,4449.1
27212,1948.8,4199.1
27212,1948.8,4449.1
27212,1948.8,4449.1
27212,1948.8,2949.1
27212,1948.8,3199.1
27212,1948.8,3449.1
27212,1948.8,3699.1
27212,1948.8,3949.1
27212,1948.8,3199.1
27212,1948.8,3449.1
27212,1948.8,3699.1
27212,1948.8,3949.1
27212,1948.8,4199.1
27212,1948.8,3449.1
27212,1948.8,3699.1
27212,1948.8,3949.1
27212,1948.8,4199.1
27212,1948.8,4449.1
27212,1948.8,3699.1
27212,1948.8,3949.1
27212,1948.8,4199.1
27212,1948.8,4449.1
27212,1948.8,3949.1
27212,1948.8,4199.1
27212,1948.8,4449.1
27212,1948.8,3199.1
27212,1948.8,3449.1
27212,1948.8,3699.1
27212,1948.8,3949.1
27212,1948.8,4199.1
27212,1948.8,3449.1
27212,1948.8,3699.1
27212,1948.8,3949.1
27212,1948.8,4199.1
27212,1948.8,4449.1
27212,1948.8,3699.1
27212,1948.8,3949.1
27212,1948.8,4199.1
27212,1948.8,4449.1
27212,1948.8,3949.1
27212,1948.8,4199.1
27212,1948.8,4449.1
27212,1948.8,4199.1
27212,1948.8,4449.1
27212,1948.8,3449.1
27212,1948.8,3699.1
27212,1948.8,3949.1
27212,1948.8,4199.1
27212,1948.8,4449.1
27212,1948.8,3699.1
27212,1948.8,3949.1
27212,1948.8,4199.1
27212,1948.8,4449.1
27212,1948.8,3949.1
27212,1948.8,4199.1
27212,1948.8,4449.1
27212,1948.8,4199.1
27212,1948.8,4449.1
27212,1948.8,4449.1
27212,1948.8,3199.1
27212,1948.8,3449.1
27212,1948.8,3699.1
27212,1948.8,3949.1
27212,1948.8,4199.1
27212,1948.8,3449.1
27212,1948.8,3699.1
27212,1948.8,3949.1
27212,1948.8,4199.1
27212,1948.8,4449.1
27212,1948.8,3699.1
27212,1948.8,3949.1
27212,1948.8,4199.1
27212,1948.8,4449.1
27212,1948.8,3949.1
27212,1948.8,4199.1
27212,1948.8,4449.1
27212,1948.8,4199.1
27212,1948.8,4449.1
27212,1948.8,3449.1
27212,1948.8,3699.1
27212,1948.8,3949.1
27212,1948.8,4199.1
27212,1948.8,4449.1
27212,1948.8,3699.1
27212,1948.8,3949.1
27212,1948.8,4199.1
27212,1948.8,4449.1
27212,1948.8,3949.1
27212,1948.8,4199.1
27212,1948.8,4449.1
27212,1948.8,4199.1
27212,1948.8,4449.1
27212,1948.8,4449.1
27212,1948.8,3449.1
27212,1948.8,3699.1
27212,1948.8,3949.1
27212,1948.8,4199.1
27212,1948.8,4449.1
27212,1948.8,3699.1
27212,1948.8,3949.1
27212,1948.8,4199.1
27212,1948.8,4449.1
27212,1948.8,3949.1
27212,1948.8,4199.1
27212,1948.8,4449.1
27212,1948.8,4199.1
27212,1948.8,4449.1
27212,1948.8,4449.1
27212,1948.8,2699.1
27212,1948.8,2949.1
27212,1948.8,3199.1
27212,1948.8,3449.1
27212,1948.8,3699.1
27212,1948.8,2949.1
27212,1948.8,3199.1
27212,1948.8,3449.1
27212,1948.8,3699.1
27212,1948.8,3949.1
27212,1948.8,3199.1
27212,1948.8,3449.1
27212,1948.8,3699.1
27212,1948.8,3949.1
27212,1948.8,4199.1
27212,1948.8,3449.1
27212,1948.8,3699.1
27212,1948.8,3949.1
27212,1948.8,4199.1
27212,1948.8,4449.1
27212,1948.8,3699.1
27212,1948.8,3949.1
27212,1948.8,4199.1
27212,1948.8,4449.1
27212,1948.8,2949.1
27212,1948.8,3199.1
27212,1948.8,3449.1
27212,1948.8,3699.1
27212,1948.8,3949.1
27212,1948.8,3199.1
27212,1948.8,3449.1
27212,1948.8,3699.1
27212,1948.8,3949.1
27212,1948.8,4199.1
27212,1948.8,3449.1
27212,1948.8,3699.1
27212,1948.8,3949.1
27212,1948.8,4199.1
27212,1948.8,4449.1
27212,1948.8,3699.1
27212,1948.8,3949.1
27212,1948.8,4199.1
27212,1948.8,4449.1
27212,1948.8,3949.1
27212,1948.8,4199.1
27212,1948.8,4449.1
27212,1948.8,3199.1
27212,1948.8,3449.1
27212,1948.8,3699.1
27212,1948.8,3949.1
27212,1948.8,4199.1
27212,1948.8,3449.1
27212,1948.8,3699.1
27212,1948.8,3949.1
27212,1948.8,4199.1
27212,1948.8,4449.1
27212,1948.8,3699.1
27212,1948.8,3949.1
27212,1948.8,4199.1
27212,1948.8,4449.1
27212,1948.8,3949.1
27212,1948.8,4199.1
27212,1948.8,4449.1
27212,1948.8,4199.1
27212,1948.8,4449.1
27212,1948.8,3449.1
27212,1948.8,3699.1
27212,1948.8,3949.1
27212,1948.8,4199.1
27212,1948.8,4449.1
27212,1948.8,3699.1
27212,1948.8,3949.1
27212,1948.8,4199.1
27212,1948.8,4449.1
27212,1948.8,3949.1
27212,1948.8,4199.1
27212,1948.8,4449.1
27212,1948.8,4199.1
27212,1948.8,4449.1
27212,1948.8,4449.1
27212,1948.8,2949.1
27212,1948.8,3199.1
27212,1948.8,3449.1
27212,1948.8,3699.1
27212,1948.8,3949.1
27212,1948.8,3199.1
27212,1948.8,3449.1
27212,1948.8,3699.1
27212,1948.8,3949.1
27212,1948.8,4199.1
27212,1948.8,3449.1
27212,1948.8,3699.1
27212,1948.8,3949.1
27212,1948.8,4199.1
27212,1948.8,4449.1
27212,1948.8,3699.1
27212,1948.8,3949.1
27212,1948.8,4199.1
27212,1948.8,4449.1
27212,1948.8,3949.1
27212,1948.8,4199.1
27212,1948.8,4449.1
27212,1948.8,3199.1
27212,1948.8,3449.1
27212,1948.8,3699.1
27212,1948.8,3949.1
27212,1948.8,4199.1
27212,1948.8,3449.1
27212,1948.8,3699.1
27212,1948.8,3949.1
27212,1948.8,4199.1
27212,1948.8,4449.1
27212,1948.8,3699.1
27212,1948.8,3949.1
27212,1948.8,4199.1
27212,1948.8,4449.1
27212,1948.8,3949.1
27212,1948.8,4199.1
27212,1948.8,4449.1
27212,1948.8,4199.1
27212,1948.8,4449.1
27212,1948.8,3449.1
27212,1948.8,3699.1
27212,1948.8,3949.1
27212,1948.8,4199.1
27212,1948.8,4449.1
27212,1948.8,3699.1
27212,1948.8,3949.1
27212,1948.8,4199.1
27212,1948.8,4449.1
27212,1948.8,3949.1
27212,1948.8,4199.1
27212,1948.8,4449.1
27212,1948.8,4199.1
27212,1948.8,4449.1
27212,1948.8,4449.1
27212,1948.8,3199.1
27212,1948.8,3449.1
27212,1948.8,3699.1
27212,1948.8,3949.1
27212,1948.8,4199.1
27212,1948.8,3449.1
27212,1948.8,3699.1
27212,1948.8,3949.1
27212,1948.8,4199.1
27212,1948.8,4449.1
27212,1948.8,3699.1
27212,1948.8,3949.1
27212,1948.8,4199.1
27212,1948.8,4449.1
27212,1948.8,3949.1
27212,1948.8,4199.1
27212,1948.8,4449.1
27212,1948.8,4199.1
27212,1948.8,4449.1
27212,1948.8,3449.1
27212,1948.8,3699.1
27212,1948.8,3949.1
27212,1948.8,4199.1
27212,1948.8,4449.1
27212,1948.8,3699.1
27212,1948.8,3949.1
27212,1948.8,4199.1
27212,1948.8,4449.1
27212,1948.8,3949.1
27212,1948.8,4199.1
27212,1948.8,4449.1
27212,1948.8,4199.1
27212,1948.8,4449.1
27212,1948.8,4449.1
27212,1948.8,3449.1
27212,1948.8,3699.1
27212,1948.8,3949.1
27212,1948.8,4199.1
27212,1948.8,4449.1
27212,1948.8,3699.1
27212,1948.8,3949.1
27212,1948.8,4199.1
27212,1948.8,4449.1
27212,1948.8,3949.1
27212,1948.8,4199.1
27212,1948.8,4449.1
27212,1948.8,4199.1
27212,1948.8,4449.1
27212,1948.8,4449.1
27212,1948.8,2949.1
27212,1948.8,3199.1
27212,1948.8,3449.1
27212,1948.8,3699.1
27212,1948.8,3949.1
27212,1948.8,3199.1
27212,1948.8,3449.1
27212,1948.8,3699.1
27212,1948.8,3949.1
27212,1948.8,4199.1
27212,1948.8,3449.1
27212,1948.8,3699.1
27212,1948.8,3949.1
27212,1948.8,4199.1
27212,1948.8,4449.1
27212,1948.8,3699.1
27212,1948.8,3949.1
27212,1948.8,4199.1
27212,1948.8,4449.1
27212,1948.8,3949.1
27212,1948.8,4199.1
27212,1948.8,4449.1
27212,1948.8,3199.1
27212,1948.8,3449.1
27212,1948.8,3699.1
27212,1948.8,3949.1
27212,1948.8,4199.1
27212,1948.8,3449.1
27212,1948.8,3699.1
27212,1948.8,3949.1
27212,1948.8,4199.1
27212,1948.8,4449.1
27212,1948.8,3699.1
27212,1948.8,3949.1
27212,1948.8,4199.1
27212,1948.8,4449.1
27212,1948.8,3949.1
27212,1948.8,4199.1
27212,1948.8,4449.1
27212,1948.8,4199.1
27212,1948.8,4449.1
27212,1948.8,3449.1
27212,1948.8,3699.1
27212,1948.8,3949.1
27212,1948.8,4199.1
27212,1948.8,4449.1
27212,1948.8,3699.1
27212,1948.8,3949.1
27212,1948.8,4199.1
27212,1948.8,4449.1
27212,1948.8,3949.1
27212,1948.8,4199.1
27212,1948.8,4449.1
27212,1948.8,4199.1
27212,1948.8,4449.1
27212,1948.8,4449.1
27212,1948.8,3199.1
27212,1948.8,3449.1
27212,1948.8,3699.1
27212,1948.8,3949.1
27212,1948.8,4199.1
27212,1948.8,3449.1
27212,1948.8,3699.1
27212,1948.8,3949.1
27212,1948.8,4199.1
27212,1948.8,4449.1
27212,1948.8,3699.1
27212,1948.8,3949.1
27212,1948.8,4199.1
27212,1948.8,4449.1
27212,1948.8,3949.1
27212,1948.8,4199.1
27212,1948.8,4449.1
27212,1948.8,4199.1
27212,1948.8,4449.1
27212,1948.8,3449.1
27212,1948.8,3699.1
27212,1948.8,3949.1
27212,1948.8,4199.1
27212,1948.8,4449.1
27212,1948.8,3699.1
27212,1948.8,3949.1
27212,1948.8,4199.1
27212,1948.8,4449.1
27212,1948.8,3949.1
27212,1948.8,4199.1
27212,1948.8,4449.1
27212,1948.8,4199.1
27212,1948.8,4449.1
27212,1948.8,4449.1
27212,1948.8,3449.1
27212,1948.8,3699.1
27212,1948.8,3949.1
27212,1948.8,4199.1
27212,1948.8,4449.1
27212,1948.8,3699.1
27212,1948.8,3949.1
27212,1948.8,4199.1
27212,1948.8,4449.1
27212,1948.8,3949.1
27212,1948.8,4199.1
27212,1948.8,4449.1
27212,1948.8,4199.1
27212,1948.8,4449.1
27212,1948.8,4449.1
27212,1948.8,3199.1
27212,1948.8,3449.1
27212,1948.8,3699.1
27212,1948.8,3949.1
27212,1948.8,4199.1
27212,1948.8,3449.1
27212,1948.8,3699.1
27212,1948.8,3949.1
27212,1948.8,4199.1
27212,1948.8,4449.1
27212,1948.8,3699.1
27212,1948.8,3949.1
27212,1948.8,4199.1
27212,1948.8,4449.1
27212,1948.8,3949.1
27212,1948.8,4199.1
27212,1948.8,4449.1
27212,1948.8,4199.1
27212,1948.8,4449.1
27212,1948.8,3449.1
27212,1948.8,3699.1
27212,1948.8,3949.1
27212,1948.8,4199.1
27212,1948.8,4449.1
27212,1948.8,3699.1
27212,1948.8,3949.1
27212,1948.8,4199.1
27212,1948.8,4449.1
27212,1948.8,3949.1
27212,1948.8,4199.1
27212,1948.8,4449.1
27212,1948.8,4199.1
27212,1948.8,4449.1
27212,1948.8,4449.1
27212,1948.8,3449.1
27212,1948.8,3699.1
27212,1948.8,3949.1
27212,1948.8,4199.1
27212,1948.8,4449.1
27212,1948.8,3699.1
27212,1948.8,3949.1
27212,1948.8,4199.1
27212,1948.8,4449.1
27212,1948.8,3949.1
27212,1948.8,4199.1
27212,1948.8,4449.1
27212,1948.8,4199.1
27212,1948.8,4449.1
27212,1948.8,4449.1
27212,1948.8,2449.1
27212,1948.8,2699.1
27212,1948.8,2949.1
27212,1948.8,3199.1
27212,1948.8,3449.1
27212,1948.8,2699.1
27212,1948.8,2949.1
27212,1948.8,3199.1
27212,1948.8,3449.1
27212,1948.8,3699.1
27212,1948.8,2949.1
27212,1948.8,3199.1
27212,1948.8,3449.1
27212,1948.8,3699.1
27212,1948.8,3949.1
27212,1948.8,3199.1
27212,1948.8,3449.1
27212,1948.8,3699.1
27212,1948.8,3949.1
27212,1948.8,4199.1
27212,1948.8,3449.1
27212,1948.8,3699.1
27212,1948.8,3949.1
27212,1948.8,4199.1
27212,1948.8,4449.1
27212,1948.8,2699.1
27212,1948.8,2949.1
27212,1948.8,3199.1
27212,1948.8,3449.1
27212,1948.8,3699.1
27212,1948.8,2949.1
27212,1948.8,3199.1
27212,1948.8,3449.1
27212,1948.8,3699.1
27212,1948.8,3949.1
27212,1948.8,3199.1
27212,1948.8,3449.1
27212,1948.8,3699.1
27212,1948.8,3949.1
27212,1948.8,4199.1
27212,1948.8,3449.1
27212,1948.8,3699.1
27212,1948.8,3949.1
27212,1948.8,4199.1
27212,1948.8,4449.1
27212,1948.8,3699.1
27212,1948.8,3949.1
27212,1948.8,4199.1
27212,1948.8,4449.1
27212,1948.8,2949.1
27212,1948.8,3199.1
27212,1948.8,3449.1
27212,1948.8,3699.1
27212,1948.8,3949.1
27212,1948.8,3199.1
27212,1948.8,3449.1
27212,1948.8,3699.1
27212,1948.8,3949.1
27212,1948.8,4199.1
27212,1948.8,3449.1
27212,1948.8,3699.1
27212,1948.8,3949.1
27212,1948.8,4199.1
27212,1948.8,4449.1
27212,1948.8,3699.1
27212,1948.8,3949.1
27212,1948.8,4199.1
27212,1948.8,4449.1
27212,1948.8,3949.1
27212,1948.8,4199.1
27212,1948.8,4449.1
27212,1948.8,3199.1
27212,1948.8,3449.1
27212,1948.8,3699.1
27212,1948.8,3949.1
27212,1948.8,4199.1
27212,1948.8,3449.1
27212,1948.8,3699.1
27212,1948.8,3949.1
27212,1948.8,4199.1
27212,1948.8,4449.1
27212,1948.8,3699.1
27212,1948.8,3949.1
27212,1948.8,4199.1
27212,1948.8,4449.1
27212,1948.8,3949.1
27212,1948.8,4199.1
27212,1948.8,4449.1
27212,1948.8,4199.1
27212,1948.8,4449.1
27212,1948.8,3449.1
27212,1948.8,3699.1
27212,1948.8,3949.1
27212,1948.8,4199.1
27212,1948.8,4449.1
27212,1948.8,3699.1
27212,1948.8,3949.1
27212,1948.8,4199.1
27212,1948.8,4449.1
27212,1948.8,3949.1
27212,1948.8,4199.1
27212,1948.8,4449.1
27212,1948.8,4199.1
27212,1948.8,4449.1
27212,1948.8,4449.1
27212,1948.8,2699.1
27212,1948.8,2949.1
27212,1948.8,3199.1
27212,1948.8,3449.1
27212,1948.8,3699.1
27212,1948.8,2949.1
27212,1948.8,3199.1
27212,1948.8,3449.1
27212,1948.8,3699.1
27212,1948.8,3949.1
27212,1948.8,3199.1
27212,1948.8,3449.1
27212,1948.8,3699.1
27212,1948.8,3949.1
27212,1948.8,4199.1
27212,1948.8,3449.1
27212,1948.8,3699.1
27212,1948.8,3949.1
27212,1948.8,4199.1
27212,1948.8,4449.1
27212,1948.8,3699.1
27212,1948.8,3949.1
27212,1948.8,4199.1
27212,1948.8,4449.1
27212,1948.8,2949.1
27212,1948.8,3199.1
27212,1948.8,3449.1
27212,1948.8,3699.1
27212,1948.8,3949.1
27212,1948.8,3199.1
27212,1948.8,3449.1
27212,1948.8,3699.1
27212,1948.8,3949.1
27212,1948.8,4199.1
27212,1948.8,3449.1
27212,1948.8,3699.1
27212,1948.8,3949.1
27212,1948.8,4199.1
27212,1948.8,4449.1
27212,1948.8,3699.1
27212,1948.8,3949.1
27212,1948.8,4199.1
27212,1948.8,4449.1
27212,1948.8,3949.1
27212,1948.8,4199.1
27212,1948.8,4449.1
27212,1948.8,3199.1
27212,1948.8,3449.1
27212,1948.8,3699.1
27212,1948.8,3949.1
27212,1948.8,4199.1
27212,1948.8,3449.1
27212,1948.8,3699.1
27212,1948.8,3949.1
27212,1948.8,4199.1
27212,1948.8,4449.1
27212,1948.8,3699.1
27212,1948.8,3949.1
27212,1948.8,4199.1
27212,1948.8,4449.1
27212,1948.8,3949.1
27212,1948.8,4199.1
27212,1948.8,4449.1
27212,1948.8,4199.1
27212,1948.8,4449.1
27212,1948.8,3449.1
27212,1948.8,3699.1
27212,1948.8,3949.1
27212,1948.8,4199.1
27212,1948.8,4449.1
27212,1948.8,3699.1
27212,1948.8,3949.1
27212,1948.8,4199.1
27212,1948.8,4449.1
27212,1948.8,3949.1
27212,1948.8,4199.1
27212,1948.8,4449.1
27212,1948.8,4199.1
27212,1948.8,4449.1
27212,1948.8,4449.1
27212,1948.8,2949.1
27212,1948.8,3199.1
27212,1948.8,3449.1
27212,1948.8,3699.1
27212,1948.8,3949.1
27212,1948.8,3199.1
27212,1948.8,3449.1
27212,1948.8,3699.1
27212,1948.8,3949.1
27212,1948.8,4199.1
27212,1948.8,3449.1
27212,1948.8,3699.1
27212,1948.8,3949.1
27212,1948.8,4199.1
27212,1948.8,4449.1
27212,1948.8,3699.1
27212,1948.8,3949.1
27212,1948.8,4199.1
27212,1948.8,4449.1
27212,1948.8,3949.1
27212,1948.8,4199.1
27212,1948.8,4449.1
27212,1948.8,3199.1
27212,1948.8,3449.1
27212,1948.8,3699.1
27212,1948.8,3949.1
27212,1948.8,4199.1
27212,1948.8,3449.1
27212,1948.8,3699.1
27212,1948.8,3949.1
27212,1948.8,4199.1
27212,1948.8,4449.1
27212,1948.8,3699.1
27212,1948.8,3949.1
27212,1948.8,4199.1
27212,1948.8,4449.1
27212,1948.8,3949.1
27212,1948.8,4199.1
27212,1948.8,4449.1
27212,1948.8,4199.1
27212,1948.8,4449.1
27212,1948.8,3449.1
27212,1948.8,3699.1
27212,1948.8,3949.1
27212,1948.8,4199.1
27212,1948.8,4449.1
27212,1948.8,3699.1
27212,1948.8,3949.1
27212,1948.8,4199.1
27212,1948.8,4449.1
27212,1948.8,3949.1
27212,1948.8,4199.1
27212,1948.8,4449.1
27212,1948.8,4199.1
27212,1948.8,4449.1
27212,1948.8,4449.1
27212,1948.8,3199.1
27212,1948.8,3449.1
27212,1948.8,3699.1
27212,1948.8,3949.1
27212,1948.8,4199.1
27212,1948.8,3449.1
27212,1948.8,3699.1
27212,1948.8,3949.1
27212,1948.8,4199.1
27212,1948.8,4449.1
27212,1948.8,3699.1
27212,1948.8,3949.1
27212,1948.8,4199.1
27212,1948.8,4449.1
27212,1948.8,3949.1
27212,1948.8,4199.1
27212,1948.8,4449.1
27212,1948.8,4199.1
27212,1948.8,4449.1
27212,1948.8,3449.1
27212,1948.8,3699.1
27212,1948.8,3949.1
27212,1948.8,4199.1
27212,1948.8,4449.1
27212,1948.8,3699.1
27212,1948.8,3949.1
27212,1948.8,4199.1
27212,1948.8,4449.1
27212,1948.8,3949.1
27212,1948.8,4199.1
27212,1948.8,4449.1
27212,1948.8,4199.1
27212,1948.8,4449.1
27212,1948.8,4449.1
27212,1948.8,3449.1
27212,1948.8,3699.1
27212,1948.8,3949.1
27212,1948.8,4199.1
27212,1948.8,4449.1
27212,1948.8,3699.1
27212,1948.8,3949.1
27212,1948.8,4199.1
27212,1948.8,4449.1
27212,1948.8,3949.1
27212,1948.8,4199.1
27212,1948.8,4449.1
27212,1948.8,4199.1
27212,1948.8,4449.1
27212,1948.8,4449.1
27212,1948.8,2699.1
27212,1948.8,2949.1
27212,1948.8,3199.1
27212,1948.8,3449.1
27212,1948.8,3699.1
27212,1948.8,2949.1
27212,1948.8,3199.1
27212,1948.8,3449.1
27212,1948.8,3699.1
27212,1948.8,3949.1
27212,1948.8,3199.1
27212,1948.8,3449.1
27212,1948.8,3699.1
27212,1948.8,3949.1
27212,1948.8,4199.1
27212,1948.8,3449.1
27212,1948.8,3699.1
27212,1948.8,3949.1
27212,1948.8,4199.1
27212,1948.8,4449.1
27212,1948.8,3699.1
27212,1948.8,3949.1
27212,1948.8,4199.1
27212,1948.8,4449.1
27212,1948.8,2949.1
27212,1948.8,3199.1
27212,1948.8,3449.1
27212,1948.8,3699.1
27212,1948.8,3949.1
27212,1948.8,3199.1
27212,1948.8,3449.1
27212,1948.8,3699.1
27212,1948.8,3949.1
27212,1948.8,4199.1
27212,1948.8,3449.1
27212,1948.8,3699.1
27212,1948.8,3949.1
27212,1948.8,4199.1
27212,1948.8,4449.1
27212,1948.8,3699.1
27212,1948.8,3949.1
27212,1948.8,4199.1
27212,1948.8,4449.1
27212,1948.8,3949.1
27212,1948.8,4199.1
27212,1948.8,4449.1
27212,1948.8,3199.1
27212,1948.8,3449.1
27212,1948.8,3699.1
27212,1948.8,3949.1
27212,1948.8,4199.1
27212,1948.8,3449.1
27212,1948.8,3699.1
27212,1948.8,3949.1
27212,1948.8,4199.1
27212,1948.8,4449.1
27212,1948.8,3699.1
27212,1948.8,3949.1
27212,1948.8,4199.1
27212,1948.8,4449.1
27212,1948.8,3949.1
27212,1948.8,4199.1
27212,1948.8,4449.1
27212,1948.8,4199.1
27212,1948.8,4449.1
27212,1948.8,3449.1
27212,1948.8,3699.1
27212,1948.8,3949.1
27212,1948.8,4199.1
27212,1948.8,4449.1
27212,1948.8,3699.1
27212,1948.8,3949.1
27212,1948.8,4199.1
27212,1948.8,4449.1
27212,1948.8,3949.1
27212,1948.8,4199.1
27212,1948.8,4449.1
27212,1948.8,4199.1
27212,1948.8,4449.1
27212,1948.8,4449.1
27212,1948.8,2949.1
27212,1948.8,3199.1
27212,1948.8,3449.1
27212,1948.8,3699.1
27212,1948.8,3949.1
27212,1948.8,3199.1
27212,1948.8,3449.1
27212,1948.8,3699.1
27212,1948.8,3949.1
27212,1948.8,4199.1
27212,1948.8,3449.1
27212,1948.8,3699.1
27212,1948.8,3949.1
27212,1948.8,4199.1
27212,1948.8,4449.1
27212,1948.8,3699.1
27212,1948.8,3949.1
27212,1948.8,4199.1
27212,1948.8,4449.1
27212,1948.8,3949.1
27212,1948.8,4199.1
27212,1948.8,4449.1
27212,1948.8,3199.1
27212,1948.8,3449.1
27212,1948.8,3699.1
27212,1948.8,3949.1
27212,1948.8,4199.1
27212,1948.8,3449.1
27212,1948.8,3699.1
27212,1948.8,3949.1
27212,1948.8,4199.1
27212,1948.8,4449.1
27212,1948.8,3699.1
27212,1948.8,3949.1
27212,1948.8,4199.1
27212,1948.8,4449.1
27212,1948.8,3949.1
27212,1948.8,4199.1
27212,1948.8,4449.1
27212,1948.8,4199.1
27212,1948.8,4449.1
27212,1948.8,3449.1
27212,1948.8,3699.1
27212,1948.8,3949.1
27212,1948.8,4199.1
27212,1948.8,4449.1
27212,1948.8,3699.1
27212,1948.8,3949.1
27212,1948.8,4199.1
27212,1948.8,4449.1
27212,1948.8,3949.1
27212,1948.8,4199.1
27212,1948.8,4449.1
27212,1948.8,4199.1
27212,1948.8,4449.1
27212,1948.8,4449.1
27212,1948.8,3199.1
27212,1948.8,3449.1
27212,1948.8,3699.1
27212,1948.8,3949.1
27212,1948.8,4199.1
27212,1948.8,3449.1
27212,1948.8,3699.1
27212,1948.8,3949.1
27212,1948.8,4199.1
27212,1948.8,4449.1
27212,1948.8,3699.1
27212,1948.8,3949.1
27212,1948.8,4199.1
27212,1948.8,4449.1
27212,1948.8,3949.1
27212,1948.8,4199.1
27212,1948.8,4449.1
27212,1948.8,4199.1
27212,1948.8,4449.1
27212,1948.8,3449.1
27212,1948.8,3699.1
27212,1948.8,3949.1
27212,1948.8,4199.1
27212,1948.8,4449.1
27212,1948.8,3699.1
27212,1948.8,3949.1
27212,1948.8,4199.1
27212,1948.8,4449.1
27212,1948.8,3949.1
27212,1948.8,4199.1
27212,1948.8,4449.1
27212,1948.8,4199.1
27212,1948.8,4449.1
27212,1948.8,4449.1
27212,1948.8,3449.1
27212,1948.8,3699.1
27212,1948.8,3949.1
27212,1948.8,4199.1
27212,1948.8,4449.1
27212,1948.8,3699.1
27212,1948.8,3949.1
27212,1948.8,4199.1
27212,1948.8,4449.1
27212,1948.8,3949.1
27212,1948.8,4199.1
27212,1948.8,4449.1
27212,1948.8,4199.1
27212,1948.8,4449.1
27212,1948.8,4449.1
27212,1948.8,2949.1
27212,1948.8,3199.1
27212,1948.8,3449.1
27212,1948.8,3699.1
27212,1948.8,3949.1
27212,1948.8,3199.1
27212,1948.8,3449.1
27212,1948.8,3699.1
27212,1948.8,3949.1
27212,1948.8,4199.1
27212,1948.8,3449.1
27212,1948.8,3699.1
27212,1948.8,3949.1
27212,1948.8,4199.1
27212,1948.8,4449.1
27212,1948.8,3699.1
27212,1948.8,3949.1
27212,1948.8,4199.1
27212,1948.8,4449.1
27212,1948.8,3949.1
27212,1948.8,4199.1
27212,1948.8,4449.1
27212,1948.8,3199.1
27212,1948.8,3449.1
27212,1948.8,3699.1
27212,1948.8,3949.1
27212,1948.8,4199.1
27212,1948.8,3449.1
27212,1948.8,3699.1
27212,1948.8,3949.1
27212,1948.8,4199.1
27212,1948.8,4449.1
27212,1948.8,3699.1
27212,1948.8,3949.1
27212,1948.8,4199.1
27212,1948.8,4449.1
27212,1948.8,3949.1
27212,1948.8,4199.1
27212,1948.8,4449.1
27212,1948.8,4199.1
27212,1948.8,4449.1
27212,1948.8,3449.1
27212,1948.8,3699.1
27212,1948.8,3949.1
27212,1948.8,4199.1
27212,1948.8,4449.1
27212,1948.8,3699.1
27212,1948.8,3949.1
27212,1948.8,4199.1
27212,1948.8,4449.1
27212,1948.8,3949.1
27212,1948.8,4199.1
27212,1948.8,4449.1
27212,1948.8,4199.1
27212,1948.8,4449.1
27212,1948.8,4449.1
27212,1948.8,3199.1
27212,1948.8,3449.1
27212,1948.8,3699.1
27212,1948.8,3949.1
27212,1948.8,4199.1
27212,1948.8,3449.1
27212,1948.8,3699.1
27212,1948.8,3949.1
27212,1948.8,4199.1
27212,1948.8,4449.1
27212,1948.8,3699.1
27212,1948.8,3949.1
27212,1948.8,4199.1
27212,1948.8,4449.1
27212,1948.8,3949.1
27212,1948.8,4199.1
27212,1948.8,4449.1
27212,1948.8,4199.1
27212,1948.8,4449.1
27212,1948.8,3449.1
27212,1948.8,3699.1
27212,1948.8,3949.1
27212,1948.8,4199.1
27212,1948.8,4449.1
27212,1948.8,3699.1
27212,1948.8,3949.1
27212,1948.8,4199.1
27212,1948.8,4449.1
27212,1948.8,3949.1
27212,1948.8,4199.1
27212,1948.8,4449.1
27212,1948.8,4199.1
27212,1948.8,4449.1
27212,1948.8,4449.1
27212,1948.8,3449.1
27212,1948.8,3699.1
27212,1948.8,3949.1
27212,1948.8,4199.1
27212,1948.8,4449.1
27212,1948.8,3699.1
27212,1948.8,3949.1
27212,1948.8,4199.1
27212,1948.8,4449.1
27212,1948.8,3949.1
27212,1948.8,4199.1
27212,1948.8,4449.1
27212,1948.8,4199.1
27212,1948.8,4449.1
27212,1948.8,4449.1
27212,1948.8,3199.1
27212,1948.8,3449.1
27212,1948.8,3699.1
27212,1948.8,3949.1
27212,1948.8,4199.1
27212,1948.8,3449.1
27212,1948.8,3699.1
27212,1948.8,3949.1
27212,1948.8,4199.1
27212,1948.8,4449.1
27212,1948.8,3699.1
27212,1948.8,3949.1
27212,1948.8,4199.1
27212,1948.8,4449.1
27212,1948.8,3949.1
27212,1948.8,4199.1
27212,1948.8,4449.1
27212,1948.8,4199.1
27212,1948.8,4449.1
27212,1948.8,3449.1
27212,1948.8,3699.1
27212,1948.8,3949.1
27212,1948.8,4199.1
27212,1948.8,4449.1
27212,1948.8,3699.1
27212,1948.8,3949.1
27212,1948.8,4199.1
27212,1948.8,4449.1
27212,1948.8,3949.1
27212,1948.8,4199.1
27212,1948.8,4449.1
27212,1948.8,4199.1
27212,1948.8,4449.1
27212,1948.8,4449.1
27212,1948.8,3449.1
27212,1948.8,3699.1
27212,1948.8,3949.1
27212,1948.8,4199.1
27212,1948.8,4449.1
27212,1948.8,3699.1
27212,1948.8,3949.1
27212,1948.8,4199.1
27212,1948.8,4449.1
27212,1948.8,3949.1
27212,1948.8,4199.1
27212,1948.8,4449.1
27212,1948.8,4199.1
27212,1948.8,4449.1
27212,1948.8,4449.1
27212,1948.8,3449.1
27212,1948.8,3699.1
27212,1948.8,3949.1
27212,1948.8,4199.1
27212,1948.8,4449.1
27212,1948.8,3699.1
27212,1948.8,3949.1
27212,1948.8,4199.1
27212,1948.8,4449.1
27212,1948.8,3949.1
27212,1948.8,4199.1
27212,1948.8,4449.1
27212,1948.8,4199.1
27212,1948.8,4449.1
27212,1948.8,4449.1
27212,1948.8,2699.1
27212,1948.8,2949.1
27212,1948.8,3199.1
27212,1948.8,3449.1
27212,1948.8,3699.1
27212,1948.8,2949.1
27212,1948.8,3199.1
27212,1948.8,3449.1
27212,1948.8,3699.1
27212,1948.8,3949.1
27212,1948.8,3199.1
27212,1948.8,3449.1
27212,1948.8,3699.1
27212,1948.8,3949.1
27212,1948.8,4199.1
27212,1948.8,3449.1
27212,1948.8,3699.1
27212,1948.8,3949.1
27212,1948.8,4199.1
27212,1948.8,4449.1
27212,1948.8,3699.1
27212,1948.8,3949.1
27212,1948.8,4199.1
27212,1948.8,4449.1
27212,1948.8,2949.1
27212,1948.8,3199.1
27212,1948.8,3449.1
27212,1948.8,3699.1
27212,1948.8,3949.1
27212,1948.8,3199.1
27212,1948.8,3449.1
27212,1948.8,3699.1
27212,1948.8,3949.1
27212,1948.8,4199.1
27212,1948.8,3449.1
27212,1948.8,3699.1
27212,1948.8,3949.1
27212,1948.8,4199.1
27212,1948.8,4449.1
27212,1948.8,3699.1
27212,1948.8,3949.1
27212,1948.8,4199.1
27212,1948.8,4449.1
27212,1948.8,3949.1
27212,1948.8,4199.1
27212,1948.8,4449.1
27212,1948.8,3199.1
27212,1948.8,3449.1
27212,1948.8,3699.1
27212,1948.8,3949.1
27212,1948.8,4199.1
27212,1948.8,3449.1
27212,1948.8,3699.1
27212,1948.8,3949.1
27212,1948.8,4199.1
27212,1948.8,4449.1
27212,1948.8,3699.1
27212,1948.8,3949.1
27212,1948.8,4199.1
27212,1948.8,4449.1
27212,1948.8,3949.1
27212,1948.8,4199.1
27212,1948.8,4449.1
27212,1948.8,4199.1
27212,1948.8,4449.1
27212,1948.8,3449.1
27212,1948.8,3699.1
27212,1948.8,3949.1
27212,1948.8,4199.1
27212,1948.8,4449.1
27212,1948.8,3699.1
27212,1948.8,3949.1
27212,1948.8,4199.1
27212,1948.8,4449.1
27212,1948.8,3949.1
27212,1948.8,4199.1
27212,1948.8,4449.1
27212,1948.8,4199.1
27212,1948.8,4449.1
27212,1948.8,4449.1
27212,1948.8,2949.1
27212,1948.8,3199.1
27212,1948.8,3449.1
27212,1948.8,3699.1
27212,1948.8,3949.1
27212,1948.8,3199.1
27212,1948.8,3449.1
27212,1948.8,3699.1
27212,1948.8,3949.1
27212,1948.8,4199.1
27212,1948.8,3449.1
27212,1948.8,3699.1
27212,1948.8,3949.1
27212,1948.8,4199.1
27212,1948.8,4449.1
27212,1948.8,3699.1
27212,1948.8,3949.1
27212,1948.8,4199.1
27212,1948.8,4449.1
27212,1948.8,3949.1
27212,1948.8,4199.1
27212,1948.8,4449.1
27212,1948.8,3199.1
27212,1948.8,3449.1
27212,1948.8,3699.1
27212,1948.8,3949.1
27212,1948.8,4199.1
27212,1948.8,3449.1
27212,1948.8,3699.1
27212,1948.8,3949.1
27212,1948.8,4199.1
27212,1948.8,4449.1
27212,1948.8,3699.1
27212,1948.8,3949.1
27212,1948.8,4199.1
27212,1948.8,4449.1
27212,1948.8,3949.1
27212,1948.8,4199.1
27212,1948.8,4449.1
27212,1948.8,4199.1
27212,1948.8,4449.1
27212,1948.8,3449.1
27212,1948.8,3699.1
27212,1948.8,3949.1
27212,1948.8,4199.1
27212,1948.8,4449.1
27212,1948.8,3699.1
27212,1948.8,3949.1
27212,1948.8,4199.1
27212,1948.8,4449.1
27212,1948.8,3949.1
27212,1948.8,4199.1
27212,1948.8,4449.1
27212,1948.8,4199.1
27212,1948.8,4449.1
27212,1948.8,4449.1
27212,1948.8,3199.1
27212,1948.8,3449.1
27212,1948.8,3699.1
27212,1948.8,3949.1
27212,1948.8,4199.1
27212,1948.8,3449.1
27212,1948.8,3699.1
27212,1948.8,3949.1
27212,1948.8,4199.1
27212,1948.8,4449.1
27212,1948.8,3699.1
27212,1948.8,3949.1
27212,1948.8,4199.1
27212,1948.8,4449.1
27212,1948.8,3949.1
27212,1948.8,4199.1
27212,1948.8,4449.1
27212,1948.8,4199.1
27212,1948.8,4449.1
27212,1948.8,3449.1
27212,1948.8,3699.1
27212,1948.8,3949.1
27212,1948.8,4199.1
27212,1948.8,4449.1
27212,1948.8,3699.1
27212,1948.8,3949.1
27212,1948.8,4199.1
27212,1948.8,4449.1
27212,1948.8,3949.1
27212,1948.8,4199.1
27212,1948.8,4449.1
27212,1948.8,4199.1
27212,1948.8,4449.1
27212,1948.8,4449.1
27212,1948.8,3449.1
27212,1948.8,3699.1
27212,1948.8,3949.1
27212,1948.8,4199.1
27212,1948.8,4449.1
27212,1948.8,3699.1
27212,1948.8,3949.1
27212,1948.8,4199.1
27212,1948.8,4449.1
27212,1948.8,3949.1
27212,1948.8,4199.1
27212,1948.8,4449.1
27212,1948.8,4199.1
27212,1948.8,4449.1
27212,1948.8,4449.1
27212,1948.8,2949.1
27212,1948.8,3199.1
27212,1948.8,3449.1
27212,1948.8,3699.1
27212,1948.8,3949.1
27212,1948.8,3199.1
27212,1948.8,3449.1
27212,1948.8,3699.1
27212,1948.8,3949.1
27212,1948.8,4199.1
27212,1948.8,3449.1
27212,1948.8,3699.1
27212,1948.8,3949.1
27212,1948.8,4199.1
27212,1948.8,4449.1
27212,1948.8,3699.1
27212,1948.8,3949.1
27212,1948.8,4199.1
27212,1948.8,4449.1
27212,1948.8,3949.1
27212,1948.8,4199.1
27212,1948.8,4449.1
27212,1948.8,3199.1
27212,1948.8,3449.1
27212,1948.8,3699.1
27212,1948.8,3949.1
27212,1948.8,4199.1
27212,1948.8,3449.1
27212,1948.8,3699.1
27212,1948.8,3949.1
27212,1948.8,4199.1
27212,1948.8,4449.1
27212,1948.8,3699.1
27212,1948.8,3949.1
27212,1948.8,4199.1
27212,1948.8,4449.1
27212,1948.8,3949.1
27212,1948.8,4199.1
27212,1948.8,4449.1
27212,1948.8,4199.1
27212,1948.8,4449.1
27212,1948.8,3449.1
27212,1948.8,3699.1
27212,1948.8,3949.1
27212,1948.8,4199.1
27212,1948.8,4449.1
27212,1948.8,3699.1
27212,1948.8,3949.1
27212,1948.8,4199.1
27212,1948.8,4449.1
27212,1948.8,3949.1
27212,1948.8,4199.1
27212,1948.8,4449.1
27212,1948.8,4199.1
27212,1948.8,4449.1
27212,1948.8,4449.1
27212,1948.8,3199.1
27212,1948.8,3449.1
27212,1948.8,3699.1
27212,1948.8,3949.1
27212,1948.8,4199.1
27212,1948.8,3449.1
27212,1948.8,3699.1
27212,1948.8,3949.1
27212,1948.8,4199.1
27212,1948.8,4449.1
27212,1948.8,3699.1
27212,1948.8,3949.1
27212,1948.8,4199.1
27212,1948.8,4449.1
27212,1948.8,3949.1
27212,1948.8,4199.1
27212,1948.8,4449.1
27212,1948.8,4199.1
27212,1948.8,4449.1
27212,1948.8,3449.1
27212,1948.8,3699.1
27212,1948.8,3949.1
27212,1948.8,4199.1
27212,1948.8,4449.1
27212,1948.8,3699.1
27212,1948.8,3949.1
27212,1948.8,4199.1
27212,1948.8,4449.1
27212,1948.8,3949.1
27212,1948.8,4199.1
27212,1948.8,4449.1
27212,1948.8,4199.1
27212,1948.8,4449.1
27212,1948.8,4449.1
27212,1948.8,3449.1
27212,1948.8,3699.1
27212,1948.8,3949.1
27212,1948.8,4199.1
27212,1948.8,4449.1
27212,1948.8,3699.1
27212,1948.8,3949.1
27212,1948.8,4199.1
27212,1948.8,4449.1
27212,1948.8,3949.1
27212,1948.8,4199.1
27212,1948.8,4449.1
27212,1948.8,4199.1
27212,1948.8,4449.1
27212,1948.8,4449.1
27212,1948.8,3199.1
27212,1948.8,3449.1
27212,1948.8,3699.1
27212,1948.8,3949.1
27212,1948.8,4199.1
27212,1948.8,3449.1
27212,1948.8,3699.1
27212,1948.8,3949.1
27212,1948.8,4199.1
27212,1948.8,4449.1
27212,1948.8,3699.1
27212,1948.8,3949.1
27212,1948.8,4199.1
27212,1948.8,4449.1
27212,1948.8,3949.1
27212,1948.8,4199.1
27212,1948.8,4449.1
27212,1948.8,4199.1
27212,1948.8,4449.1
27212,1948.8,3449.1
27212,1948.8,3699.1
27212,1948.8,3949.1
27212,1948.8,4199.1
27212,1948.8,4449.1
27212,1948.8,3699.1
27212,1948.8,3949.1
27212,1948.8,4199.1
27212,1948.8,4449.1
27212,1948.8,3949.1
27212,1948.8,4199.1
27212,1948.8,4449.1
27212,1948.8,4199.1
27212,1948.8,4449.1
27212,1948.8,4449.1
27212,1948.8,3449.1
27212,1948.8,3699.1
27212,1948.8,3949.1
27212,1948.8,4199.1
27212,1948.8,4449.1
27212,1948.8,3699.1
27212,1948.8,3949.1
27212,1948.8,4199.1
27212,1948.8,4449.1
27212,1948.8,3949.1
27212,1948.8,4199.1
27212,1948.8,4449.1
27212,1948.8,4199.1
27212,1948.8,4449.1
27212,1948.8,4449.1
27212,1948.8,3449.1
27212,1948.8,3699.1
27212,1948.8,3949.1
27212,1948.8,4199.1
27212,1948.8,4449.1
27212,1948.8,3699.1
27212,1948.8,3949.1
27212,1948.8,4199.1
27212,1948.8,4449.1
27212,1948.8,3949.1
27212,1948.8,4199.1
27212,1948.8,4449.1
27212,1948.8,4199.1
27212,1948.8,4449.1
27212,1948.8,4449.1
27212,1948.8,2949.1
27212,1948.8,3199.1
27212,1948.8,3449.1
27212,1948.8,3699.1
27212,1948.8,3949.1
27212,1948.8,3199.1
27212,1948.8,3449.1
27212,1948.8,3699.1
27212,1948.8,3949.1
27212,1948.8,4199.1
27212,1948.8,3449.1
27212,1948.8,3699.1
27212,1948.8,3949.1
27212,1948.8,4199.1
27212,1948.8,4449.1
27212,1948.8,3699.1
27212,1948.8,3949.1
27212,1948.8,4199.1
27212,1948.8,4449.1
27212,1948.8,3949.1
27212,1948.8,4199.1
27212,1948.8,4449.1
27212,1948.8,3199.1
27212,1948.8,3449.1
27212,1948.8,3699.1
27212,1948.8,3949.1
27212,1948.8,4199.1
27212,1948.8,3449.1
27212,1948.8,3699.1
27212,1948.8,3949.1
27212,1948.8,4199.1
27212,1948.8,4449.1
27212,1948.8,3699.1
27212,1948.8,3949.1
27212,1948.8,4199.1
27212,1948.8,4449.1
27212,1948.8,3949.1
27212,1948.8,4199.1
27212,1948.8,4449.1
27212,1948.8,4199.1
27212,1948.8,4449.1
27212,1948.8,3449.1
27212,1948.8,3699.1
27212,1948.8,3949.1
27212,1948.8,4199.1
27212,1948.8,4449.1
27212,1948.8,3699.1
27212,1948.8,3949.1
27212,1948.8,4199.1
27212,1948.8,4449.1
27212,1948.8,3949.1
27212,1948.8,4199.1
27212,1948.8,4449.1
27212,1948.8,4199.1
27212,1948.8,4449.1
27212,1948.8,4449.1
27212,1948.8,3199.1
27212,1948.8,3449.1
27212,1948.8,3699.1
27212,1948.8,3949.1
27212,1948.8,4199.1
27212,1948.8,3449.1
27212,1948.8,3699.1
27212,1948.8,3949.1
27212,1948.8,4199.1
27212,1948.8,4449.1
27212,1948.8,3699.1
27212,1948.8,3949.1
27212,1948.8,4199.1
27212,1948.8,4449.1
27212,1948.8,3949.1
27212,1948.8,4199.1
27212,1948.8,4449.1
27212,1948.8,4199.1
27212,1948.8,4449.1
27212,1948.8,3449.1
27212,1948.8,3699.1
27212,1948.8,3949.1
27212,1948.8,4199.1
27212,1948.8,4449.1
27212,1948.8,3699.1
27212,1948.8,3949.1
27212,1948.8,4199.1
27212,1948.8,4449.1
27212,1948.8,3949.1
27212,1948.8,4199.1
27212,1948.8,4449.1
27212,1948.8,4199.1
27212,1948.8,4449.1
27212,1948.8,4449.1
27212,1948.8,3449.1
27212,1948.8,3699.1
27212,1948.8,3949.1
27212,1948.8,4199.1
27212,1948.8,4449.1
27212,1948.8,3699.1
27212,1948.8,3949.1
27212,1948.8,4199.1
27212,1948.8,4449.1
27212,1948.8,3949.1
27212,1948.8,4199.1
27212,1948.8,4449.1
27212,1948.8,4199.1
27212,1948.8,4449.1
27212,1948.8,4449.1
27212,1948.8,3199.1
27212,1948.8,3449.1
27212,1948.8,3699.1
27212,1948.8,3949.1
27212,1948.8,4199.1
27212,1948.8,3449.1
27212,1948.8,3699.1
27212,1948.8,3949.1
27212,1948.8,4199.1
27212,1948.8,4449.1
27212,1948.8,3699.1
27212,1948.8,3949.1
27212,1948.8,4199.1
27212,1948.8,4449.1
27212,1948.8,3949.1
27212,1948.8,4199.1
27212,1948.8,4449.1
27212,1948.8,4199.1
27212,1948.8,4449.1
27212,1948.8,3449.1
27212,1948.8,3699.1
27212,1948.8,3949.1
27212,1948.8,4199.1
27212,1948.8,4449.1
27212,1948.8,3699.1
27212,1948.8,3949.1
27212,1948.8,4199.1
27212,1948.8,4449.1
27212,1948.8,3949.1
27212,1948.8,4199.1
27212,1948.8,4449.1
27212,1948.8,4199.1
27212,1948.8,4449.1
27212,1948.8,4449.1
27212,1948.8,3449.1
27212,1948.8,3699.1
27212,1948.8,3949.1
27212,1948.8,4199.1
27212,1948.8,4449.1
27212,1948.8,3699.1
27212,1948.8,3949.1
27212,1948.8,4199.1
27212,1948.8,4449.1
27212,1948.8,3949.1
27212,1948.8,4199.1
27212,1948.8,4449.1
27212,1948.8,4199.1
27212,1948.8,4449.1
27212,1948.8,4449.1
27212,1948.8,3449.1
27212,1948.8,3699.1
27212,1948.8,3949.1
27212,1948.8,4199.1
27212,1948.8,4449.1
27212,1948.8,3699.1
27212,1948.8,3949.1
27212,1948.8,4199.1
27212,1948.8,4449.1
27212,1948.8,3949.1
27212,1948.8,4199.1
27212,1948.8,4449.1
27212,1948.8,4199.1
27212,1948.8,4449.1
27212,1948.8,4449.1
27212,1948.8,5949.1
27212,1948.8,6199.1
27212,1948.8,6449.1
27212,1948.8,6699.1
27212,1948.8,6949.1
27212,1948.8,5949.1
27212,1948.8,6199.1
27212,1948.8,6449.1
27212,1948.8,6699.1
27212,1948.8,6949.1
27212,1948.8,6199.1
27212,1948.8,6449.1
27212,1948.8,6699.1
27212,1948.8,6949.1
27212,1948.8,7199.1
27212,1948.8,5949.1
27212,1948.8,6199.1
27212,1948.8,6449.1
27212,1948.8,6699.1
27212,1948.8,6949.1
27212,1948.8,6199.1
27212,1948.8,6449.1
27212,1948.8,6699.1
27212,1948.8,6949.1
27212,1948.8,7199.1
27212,1948.8,6449.1
27212,1948.8,6699.1
27212,1948.8,6949.1
27212,1948.8,7199.1
27212,1948.8,7449.1
27212,1948.8,5949.1
27212,1948.8,6199.1
27212,1948.8,6449.1
27212,1948.8,6699.1
27212,1948.8,6949.1
27212,1948.8,6199.1
27212,1948.8,6449.1
27212,1948.8,6699.1
27212,1948.8,6949.1
27212,1948.8,7199.1
27212,1948.8,6449.1
27212,1948.8,6699.1
27212,1948.8,6949.1
27212,1948.8,7199.1
27212,1948.8,7449.1
27212,1948.8,6699.1
27212,1948.8,6949.1
27212,1948.8,7199.1
27212,1948.8,7449.1
27212,1948.8,7699.1
27212,1948.8,5949.1
27212,1948.8,6199.1
27212,1948.8,6449.1
27212,1948.8,6699.1
27212,1948.8,6949.1
27212,1948.8,6199.1
27212,1948.8,6449.1
27212,1948.8,6699.1
27212,1948.8,6949.1
27212,1948.8,7199.1
27212,1948.8,6449.1
27212,1948.8,6699.1
27212,1948.8,6949.1
27212,1948.8,7199.1
27212,1948.8,7449.1
27212,1948.8,6699.1
27212,1948.8,6949.1
27212,1948.8,7199.1
27212,1948.8,7449.1
27212,1948.8,7699.1
27212,1948.8,6949.1
27212,1948.8,7199.1
27212,1948.8,7449.1
27212,1948.8,7699.1
27212,1948.8,7949.1
27212,1948.8,3199.1
27212,1948.8,3449.1
27212,1948.8,3699.1
27212,1948.8,3949.1
27212,1948.8,4199.1
27212,1948.8,3449.1
27212,1948.8,3699.1
27212,1948.8,3949.1
27212,1948.8,4199.1
27212,1948.8,4449.1
27212,1948.8,3699.1
27212,1948.8,3949.1
27212,1948.8,4199.1
27212,1948.8,4449.1
27212,1948.8,3949.1
27212,1948.8,4199.1
27212,1948.8,4449.1
27212,1948.8,4199.1
27212,1948.8,4449.1
27212,1948.8,3449.1
27212,1948.8,3699.1
27212,1948.8,3949.1
27212,1948.8,4199.1
27212,1948.8,4449.1
27212,1948.8,3699.1
27212,1948.8,3949.1
27212,1948.8,4199.1
27212,1948.8,4449.1
27212,1948.8,3949.1
27212,1948.8,4199.1
27212,1948.8,4449.1
27212,1948.8,4199.1
27212,1948.8,4449.1
27212,1948.8,4449.1
27212,1948.8,3449.1
27212,1948.8,3699.1
27212,1948.8,3949.1
27212,1948.8,4199.1
27212,1948.8,4449.1
27212,1948.8,3699.1
27212,1948.8,3949.1
27212,1948.8,4199.1
27212,1948.8,4449.1
27212,1948.8,3949.1
27212,1948.8,4199.1
27212,1948.8,4449.1
27212,1948.8,4199.1
27212,1948.8,4449.1
27212,1948.8,4449.1
27212,1948.8,3449.1
27212,1948.8,3699.1
27212,1948.8,3949.1
27212,1948.8,4199.1
27212,1948.8,4449.1
27212,1948.8,3699.1
27212,1948.8,3949.1
27212,1948.8,4199.1
27212,1948.8,4449.1
27212,1948.8,3949.1
27212,1948.8,4199.1
27212,1948.8,4449.1
27212,1948.8,4199.1
27212,1948.8,4449.1
27212,1948.8,4449.1
27212,1948.8,5949.1
27212,1948.8,6199.1
27212,1948.8,6449.1
27212,1948.8,6699.1
27212,1948.8,6949.1
27212,1948.8,5949.1
27212,1948.8,6199.1
27212,1948.8,6449.1
27212,1948.8,6699.1
27212,1948.8,6949.1
27212,1948.8,6199.1
27212,1948.8,6449.1
27212,1948.8,6699.1
27212,1948.8,6949.1
27212,1948.8,7199.1
27212,1948.8,5949.1
27212,1948.8,6199.1
27212,1948.8,6449.1
27212,1948.8,6699.1
27212,1948.8,6949.1
27212,1948.8,6199.1
27212,1948.8,6449.1
27212,1948.8,6699.1
27212,1948.8,6949.1
27212,1948.8,7199.1
27212,1948.8,6449.1
27212,1948.8,6699.1
27212,1948.8,6949.1
27212,1948.8,7199.1
27212,1948.8,7449.1
27212,1948.8,5949.1
27212,1948.8,6199.1
27212,1948.8,6449.1
27212,1948.8,6699.1
27212,1948.8,6949.1
27212,1948.8,6199.1
27212,1948.8,6449.1
27212,1948.8,6699.1
27212,1948.8,6949.1
27212,1948.8,7199.1
27212,1948.8,6449.1
27212,1948.8,6699.1
27212,1948.8,6949.1
27212,1948.8,7199.1
27212,1948.8,7449.1
27212,1948.8,6699.1
27212,1948.8,6949.1
27212,1948.8,7199.1
27212,1948.8,7449.1
27212,1948.8,7699.1
27212,1948.8,5949.1
27212,1948.8,6199.1
27212,1948.8,6449.1
27212,1948.8,6699.1
27212,1948.8,6949.1
27212,1948.8,6199.1
27212,1948.8,6449.1
27212,1948.8,6699.1
27212,1948.8,6949.1
27212,1948.8,7199.1
27212,1948.8,6449.1
27212,1948.8,6699.1
27212,1948.8,6949.1
27212,1948.8,7199.1
27212,1948.8,7449.1
27212,1948.8,6699.1
27212,1948.8,6949.1
27212,1948.8,7199.1
27212,1948.8,7449.1
27212,1948.8,7699.1
27212,1948.8,6949.1
27212,1948.8,7199.1
27212,1948.8,7449.1
27212,1948.8,7699.1
27212,1948.8,7949.1
27212,1948.8,5949.1
27212,1948.8,6199.1
27212,1948.8,6449.1
27212,1948.8,6699.1
27212,1948.8,6949.1
27212,1948.8,5949.1
27212,1948.8,6199.1
27212,1948.8,6449.1
27212,1948.8,6699.1
27212,1948.8,6949.1
27212,1948.8,6199.1
27212,1948.8,6449.1
27212,1948.8,6699.1
27212,1948.8,6949.1
27212,1948.8,7199.1
27212,1948.8,5949.1
27212,1948.8,6199.1
27212,1948.8,6449.1
27212,1948.8,6699.1
27212,1948.8,6949.1
27212,1948.8,6199.1
27212,1948.8,6449.1
27212,1948.8,6699.1
27212,1948.8,6949.1
27212,1948.8,7199.1
27212,1948.8,6449.1
27212,1948.8,6699.1
27212,1948.8,6949.1
27212,1948.8,7199.1
27212,1948.8,7449.1
27212,1948.8,5949.1
27212,1948.8,6199.1
27212,1948.8,6449.1
27212,1948.8,6699.1
27212,1948.8,6949.1
27212,1948.8,6199.1
27212,1948.8,6449.1
27212,1948.8,6699.1
27212,1948.8,6949.1
27212,1948.8,7199.1
27212,1948.8,6449.1
27212,1948.8,6699.1
27212,1948.8,6949.1
27212,1948.8,7199.1
27212,1948.8,7449.1
27212,1948.8,6699.1
27212,1948.8,6949.1
27212,1948.8,7199.1
27212,1948.8,7449.1
27212,1948.8,7699.1
27212,1948.8,5949.1
27212,1948.8,6199.1
27212,1948.8,6449.1
27212,1948.8,6699.1
27212,1948.8,6949.1
27212,1948.8,6199.1
27212,1948.8,6449.1
27212,1948.8,6699.1
27212,1948.8,6949.1
27212,1948.8,7199.1
27212,1948.8,6449.1
27212,1948.8,6699.1
27212,1948.8,6949.1
27212,1948.8,7199.1
27212,1948.8,7449.1
27212,1948.8,6699.1
27212,1948.8,6949.1
27212,1948.8,7199.1
27212,1948.8,7449.1
27212,1948.8,7699.1
27212,1948.8,6949.1
27212,1948.8,7199.1
27212,1948.8,7449.1
27212,1948.8,7699.1
27212,1948.8,7949.1
27212,1948.8,5949.1
27212,1948.8,6199.1
27212,1948.8,6449.1
27212,1948.8,6699.1
27212,1948.8,6949.1
27212,1948.8,6199.1
27212,1948.8,6449.1
27212,1948.8,6699.1
27212,1948.8,6949.1
27212,1948.8,7199.1
27212,1948.8,5949.1
27212,1948.8,6199.1
27212,1948.8,6449.1
27212,1948.8,6699.1
27212,1948.8,6949.1
27212,1948.8,6199.1
27212,1948.8,6449.1
27212,1948.8,6699.1
27212,1948.8,6949.1
27212,1948.8,7199.1
27212,1948.8,6449.1
27212,1948.8,6699.1
27212,1948.8,6949.1
27212,1948.8,7199.1
27212,1948.8,7449.1
27212,1948.8,5949.1
27212,1948.8,6199.1
27212,1948.8,6449.1
27212,1948.8,6699.1
27212,1948.8,6949.1
27212,1948.8,6199.1
27212,1948.8,6449.1
27212,1948.8,6699.1
27212,1948.8,6949.1
27212,1948.8,7199.1
27212,1948.8,6449.1
27212,1948.8,6699.1
27212,1948.8,6949.1
27212,1948.8,7199.1
27212,1948.8,7449.1
27212,1948.8,6699.1
27212,1948.8,6949.1
27212,1948.8,7199.1
27212,1948.8,7449.1
27212,1948.8,7699.1
27212,1948.8,5949.1
27212,1948.8,6199.1
27212,1948.8,6449.1
27212,1948.8,6699.1
27212,1948.8,6949.1
27212,1948.8,6199.1
27212,1948.8,6449.1
27212,1948.8,6699.1
27212,1948.8,6949.1
27212,1948.8,7199.1
27212,1948.8,6449.1
27212,1948.8,6699.1
27212,1948.8,6949.1
27212,1948.8,7199.1
27212,1948.8,7449.1
27212,1948.8,6699.1
27212,1948.8,6949.1
27212,1948.8,7199.1
27212,1948.8,7449.1
27212,1948.8,7699.1
27212,1948.8,6949.1
27212,1948.8,7199.1
27212,1948.8,7449.1
27212,1948.8,7699.1
27212,1948.8,7949.1
27212,1948.8,6199.1
27212,1948.8,6449.1
27212,1948.8,6699.1
27212,1948.8,6949.1
27212,1948.8,7199.1
27212,1948.8,6449.1
27212,1948.8,6699.1
27212,1948.8,6949.1
27212,1948.8,7199.1
27212,1948.8,7449.1
27212,1948.8,6699.1
27212,1948.8,6949.1
27212,1948.8,7199.1
27212,1948.8,7449.1
27212,1948.8,7699.1
27212,1948.8,6949.1
27212,1948.8,7199.1
27212,1948.8,7449.1
27212,1948.8,7699.1
27212,1948.8,7949.1
27212,1948.8,7199.1
27212,1948.8,7449.1
27212,1948.8,7699.1
27212,1948.8,7949.1
27212,1948.8,8199.1
