46841,1948.8,4199.1
46841,1948.8,4449.1
46841,1948.8,4699.1
46841,1948.8,4199.1
46841,1948.8,4449.1
46841,1948.8,4699.1
46841,1948.8,4949.1
46841,1948.8,4199.1
46841,1948.8,4449.1
46841,1948.8,4699.1
46841,1948.8,4949.1
46841,1948.8,5199.1
46841,1948.8,4449.1
46841,1948.8,4699.1
46841,1948.8,4949.1
46841,1948.8,5199.1
46841,1948.8,4699.1
46841,1948.8,4949.1
46841,1948.8,5199.1
46841,1948.8,4199.1
46841,1948.8,4449.1
46841,1948.8,4699.1
46841,1948.8,4949.1
46841,1948.8,4199.1
46841,1948.8,4449.1
46841,1948.8,4699.1
46841,1948.8,4949.1
46841,1948.8,5199.1
46841,1948.8,4449.1
46841,1948.8,4699.1
46841,1948.8,4949.1
46841,1948.8,5199.1
46841,1948.8,4699.1
46841,1948.8,4949.1
46841,1948.8,5199.1
46841,1948.8,4949.1
46841,1948.8,5199.1
46841,1948.8,4199.1
46841,1948.8,4449.1
46841,1948.8,4699.1
46841,1948.8,4949.1
46841,1948.8,5199.1
46841,1948.8,4449.1
46841,1948.8,4699.1
46841,1948.8,4949.1
46841,1948.8,5199.1
46841,1948.8,4699.1
46841,1948.8,4949.1
46841,1948.8,5199.1
46841,1948.8,4949.1
46841,1948.8,5199.1
46841,1948.8,5199.1
46841,1948.8,4449.1
46841,1948.8,4699.1
46841,1948.8,4949.1
46841,1948.8,5199.1
46841,1948.8,4699.1
46841,1948.8,4949.1
46841,1948.8,5199.1
46841,1948.8,4949.1
46841,1948.8,5199.1
46841,1948.8,5199.1
46841,1948.8,4699.1
46841,1948.8,4949.1
46841,1948.8,5199.1
46841,1948.8,4949.1
46841,1948.8,5199.1
46841,1948.8,5199.1
45973,1948.8,3949.1
45973,1948.8,4199.1
45973,1948.8,3949.1
45973,1948.8,4199.1
45973,1948.8,4449.1
45973,1948.8,3949.1
45973,1948.8,4199.1
45973,1948.8,4449.1
45973,1948.8,4949.1
45973,1948.8,4949.1
45973,1948.8,3949.1
45973,1948.8,4199.1
45973,1948.8,4449.1
45973,1948.8,4949.1
45973,1948.8,4949.1
45973,1948.8,4949.1
45973,1948.8,4949.1
45973,1948.8,4949.1
45973,1948.8,4949.1
45973,1948.8,4949.1
45973,1948.8,4949.1
45973,1948.8,4949.1
45973,1948.8,4949.1
45973,1948.8,4949.1
45973,1948.8,4949.1
45973,1948.8,4949.1
45973,1948.8,4949.1
45973,1948.8,4949.1
45973,1948.8,4949.1
45105,1948.8,4199.1
45105,1948.8,4199.1
45105,1948.8,4199.1
45105,1948.8,4699.1
45105,1948.8,4949.1
45105,1948.8,5199.1
45105,1948.8,4949.1
45105,1948.8,5199.1
45105,1948.8,5199.1
45105,1948.8,4699.1
45105,1948.8,4949.1
45105,1948.8,5199.1
45105,1948.8,4949.1
45105,1948.8,5199.1
45105,1948.8,5199.1
45105,1948.8,4699.1
45105,1948.8,4949.1
45105,1948.8,5199.1
45105,1948.8,4949.1
45105,1948.8,5199.1
45105,1948.8,5199.1
45105,1948.8,4199.1
45105,1948.8,4699.1
45105,1948.8,4949.1
45105,1948.8,5199.1
45105,1948.8,4949.1
45105,1948.8,5199.1
45105,1948.8,5199.1
45105,1948.8,4699.1
45105,1948.8,4949.1
45105,1948.8,5199.1
45105,1948.8,4949.1
45105,1948.8,5199.1
45105,1948.8,5199.1
45105,1948.8,4699.1
45105,1948.8,4949.1
45105,1948.8,5199.1
45105,1948.8,4949.1
45105,1948.8,5199.1
45105,1948.8,5199.1
45105,1948.8,4699.1
45105,1948.8,4949.1
45105,1948.8,5199.1
45105,1948.8,4949.1
45105,1948.8,5199.1
45105,1948.8,5199.1
45105,1948.8,4699.1
45105,1948.8,4949.1
45105,1948.8,5199.1
45105,1948.8,4949.1
45105,1948.8,5199.1
45105,1948.8,5199.1
45105,1948.8,4949.1
45105,1948.8,5199.1
45105,1948.8,5199.1
45105,1948.8,4699.1
45105,1948.8,4949.1
45105,1948.8,5199.1
45105,1948.8,4949.1
45105,1948.8,5199.1
45105,1948.8,5199.1
45105,1948.8,4699.1
45105,1948.8,4949.1
45105,1948.8,5199.1
45105,1948.8,4949.1
45105,1948.8,5199.1
45105,1948.8,5199.1
45105,1948.8,4699.1
45105,1948.8,4949.1
45105,1948.8,5199.1
45105,1948.8,4949.1
45105,1948.8,5199.1
45105,1948.8,5199.1
45105,1948.8,4699.1
45105,1948.8,4949.1
45105,1948.8,5199.1
45105,1948.8,4949.1
45105,1948.8,5199.1
45105,1948.8,5199.1
45105,1948.8,4699.1
45105,1948.8,4949.1
45105,1948.8,5199.1
45105,1948.8,4949.1
45105,1948.8,5199.1
45105,1948.8,5199.1
45105,1948.8,4949.1
45105,1948.8,5199.1
45105,1948.8,5199.1
45105,1948.8,4699.1
45105,1948.8,4949.1
45105,1948.8,5199.1
45105,1948.8,4949.1
45105,1948.8,5199.1
45105,1948.8,5199.1
45105,1948.8,4699.1
45105,1948.8,4949.1
45105,1948.8,5199.1
45105,1948.8,4949.1
45105,1948.8,5199.1
45105,1948.8,5199.1
45105,1948.8,4949.1
45105,1948.8,5199.1
45105,1948.8,5199.1
45105,1948.8,5199.1
45105,1948.8,4699.1
45105,1948.8,4949.1
45105,1948.8,5199.1
45105,1948.8,4949.1
45105,1948.8,5199.1
45105,1948.8,5199.1
45105,1948.8,4699.1
45105,1948.8,4949.1
45105,1948.8,5199.1
45105,1948.8,4949.1
45105,1948.8,5199.1
45105,1948.8,5199.1
45105,1948.8,4699.1
45105,1948.8,4949.1
45105,1948.8,5199.1
45105,1948.8,4949.1
45105,1948.8,5199.1
45105,1948.8,5199.1
45105,1948.8,4699.1
45105,1948.8,4949.1
45105,1948.8,5199.1
45105,1948.8,4949.1
45105,1948.8,5199.1
45105,1948.8,5199.1
45105,1948.8,4699.1
45105,1948.8,4949.1
45105,1948.8,5199.1
45105,1948.8,4949.1
45105,1948.8,5199.1
45105,1948.8,5199.1
45105,1948.8,4949.1
45105,1948.8,5199.1
45105,1948.8,5199.1
45105,1948.8,4699.1
45105,1948.8,4949.1
45105,1948.8,5199.1
45105,1948.8,4949.1
45105,1948.8,5199.1
45105,1948.8,5199.1
45105,1948.8,4699.1
45105,1948.8,4949.1
45105,1948.8,5199.1
45105,1948.8,4949.1
45105,1948.8,5199.1
45105,1948.8,5199.1
45105,1948.8,4949.1
45105,1948.8,5199.1
45105,1948.8,5199.1
45105,1948.8,5199.1
45105,1948.8,4699.1
45105,1948.8,4949.1
45105,1948.8,5199.1
45105,1948.8,4949.1
45105,1948.8,5199.1
45105,1948.8,5199.1
45105,1948.8,4699.1
45105,1948.8,4949.1
45105,1948.8,5199.1
45105,1948.8,4949.1
45105,1948.8,5199.1
45105,1948.8,5199.1
45105,1948.8,4949.1
45105,1948.8,5199.1
45105,1948.8,5199.1
45105,1948.8,5199.1
45105,1948.8,4699.1
45105,1948.8,4949.1
45105,1948.8,5199.1
45105,1948.8,4949.1
45105,1948.8,5199.1
45105,1948.8,5199.1
45105,1948.8,4699.1
45105,1948.8,4949.1
45105,1948.8,5199.1
45105,1948.8,4949.1
45105,1948.8,5199.1
45105,1948.8,5199.1
45105,1948.8,4699.1
45105,1948.8,4949.1
45105,1948.8,5199.1
45105,1948.8,4949.1
45105,1948.8,5199.1
45105,1948.8,5199.1
45105,1948.8,4699.1
45105,1948.8,4949.1
45105,1948.8,5199.1
45105,1948.8,4949.1
45105,1948.8,5199.1
45105,1948.8,5199.1
45105,1948.8,4949.1
45105,1948.8,5199.1
45105,1948.8,5199.1
45105,1948.8,4699.1
45105,1948.8,4949.1
45105,1948.8,5199.1
45105,1948.8,4949.1
45105,1948.8,5199.1
45105,1948.8,5199.1
45105,1948.8,4699.1
45105,1948.8,4949.1
45105,1948.8,5199.1
45105,1948.8,4949.1
45105,1948.8,5199.1
45105,1948.8,5199.1
45105,1948.8,4949.1
45105,1948.8,5199.1
45105,1948.8,5199.1
45105,1948.8,5199.1
45105,1948.8,4699.1
45105,1948.8,4949.1
45105,1948.8,5199.1
45105,1948.8,4949.1
45105,1948.8,5199.1
45105,1948.8,5199.1
45105,1948.8,4699.1
45105,1948.8,4949.1
45105,1948.8,5199.1
45105,1948.8,4949.1
45105,1948.8,5199.1
45105,1948.8,5199.1
45105,1948.8,4949.1
45105,1948.8,5199.1
45105,1948.8,5199.1
45105,1948.8,5199.1
45105,1948.8,4699.1
45105,1948.8,4949.1
45105,1948.8,5199.1
45105,1948.8,4949.1
45105,1948.8,5199.1
45105,1948.8,5199.1
45105,1948.8,4949.1
45105,1948.8,5199.1
45105,1948.8,5199.1
45105,1948.8,5199.1
