7523.5,1948.8,4355.1
8425.4,1948.8,3855.1
8425.4,1948.8,4105.1
9327.3,1948.8,3355.1
9327.3,1948.8,3605.1
9327.3,1948.8,3855.1
9327.3,1948.8,4105.1
9327.3,1948.8,3605.1
9327.3,1948.8,3855.1
9327.3,1948.8,4105.1
10229,1948.8,2855.1
10229,1948.8,3105.1
10229,1948.8,3355.1
10229,1948.8,3605.1
10229,1948.8,3855.1
10229,1948.8,3105.1
10229,1948.8,3355.1
10229,1948.8,3605.1
10229,1948.8,3855.1
10229,1948.8,4105.1
10229,1948.8,3355.1
10229,1948.8,3605.1
10229,1948.8,3855.1
10229,1948.8,4105.1
10229,1948.8,3605.1
10229,1948.8,3855.1
10229,1948.8,4105.1
10229,1948.8,3105.1
10229,1948.8,3355.1
10229,1948.8,3605.1
10229,1948.8,3855.1
10229,1948.8,4105.1
10229,1948.8,3355.1
10229,1948.8,3605.1
10229,1948.8,3855.1
10229,1948.8,4105.1
10229,1948.8,3605.1
10229,1948.8,3855.1
10229,1948.8,4105.1
11131,1948.8,2355.1
11131,1948.8,2605.1
11131,1948.8,2855.1
11131,1948.8,3105.1
11131,1948.8,3355.1
11131,1948.8,2605.1
11131,1948.8,2855.1
11131,1948.8,3105.1
11131,1948.8,3355.1
11131,1948.8,3605.1
11131,1948.8,2855.1
11131,1948.8,3105.1
11131,1948.8,3355.1
11131,1948.8,3605.1
11131,1948.8,3855.1
11131,1948.8,3105.1
11131,1948.8,3355.1
11131,1948.8,3605.1
11131,1948.8,3855.1
11131,1948.8,4105.1
11131,1948.8,3355.1
11131,1948.8,3605.1
11131,1948.8,3855.1
11131,1948.8,4105.1
11131,1948.8,2605.1
11131,1948.8,2855.1
11131,1948.8,3105.1
11131,1948.8,3355.1
11131,1948.8,3605.1
11131,1948.8,2855.1
11131,1948.8,3105.1
11131,1948.8,3355.1
11131,1948.8,3605.1
11131,1948.8,3855.1
11131,1948.8,3105.1
11131,1948.8,3355.1
11131,1948.8,3605.1
11131,1948.8,3855.1
11131,1948.8,4105.1
11131,1948.8,3355.1
11131,1948.8,3605.1
11131,1948.8,3855.1
11131,1948.8,4105.1
11131,1948.8,3605.1
11131,1948.8,3855.1
11131,1948.8,4105.1
11131,1948.8,2855.1
11131,1948.8,3105.1
11131,1948.8,3355.1
11131,1948.8,3605.1
11131,1948.8,3855.1
11131,1948.8,3105.1
11131,1948.8,3355.1
11131,1948.8,3605.1
11131,1948.8,3855.1
11131,1948.8,4105.1
11131,1948.8,3355.1
11131,1948.8,3605.1
11131,1948.8,3855.1
11131,1948.8,4105.1
11131,1948.8,3605.1
11131,1948.8,3855.1
11131,1948.8,4105.1
11131,1948.8,3105.1
11131,1948.8,3355.1
11131,1948.8,3605.1
11131,1948.8,3855.1
11131,1948.8,4105.1
11131,1948.8,3355.1
11131,1948.8,3605.1
11131,1948.8,3855.1
11131,1948.8,4105.1
11131,1948.8,3605.1
11131,1948.8,3855.1
11131,1948.8,4105.1
11131,1948.8,2605.1
11131,1948.8,2855.1
11131,1948.8,3105.1
11131,1948.8,3355.1
11131,1948.8,3605.1
11131,1948.8,2855.1
11131,1948.8,3105.1
11131,1948.8,3355.1
11131,1948.8,3605.1
11131,1948.8,3855.1
11131,1948.8,3105.1
11131,1948.8,3355.1
11131,1948.8,3605.1
11131,1948.8,3855.1
11131,1948.8,4105.1
11131,1948.8,3355.1
11131,1948.8,3605.1
11131,1948.8,3855.1
11131,1948.8,4105.1
11131,1948.8,3605.1
11131,1948.8,3855.1
11131,1948.8,4105.1
11131,1948.8,2855.1
11131,1948.8,3105.1
11131,1948.8,3355.1
11131,1948.8,3605.1
11131,1948.8,3855.1
11131,1948.8,3105.1
11131,1948.8,3355.1
11131,1948.8,3605.1
11131,1948.8,3855.1
11131,1948.8,4105.1
11131,1948.8,3355.1
11131,1948.8,3605.1
11131,1948.8,3855.1
11131,1948.8,4105.1
11131,1948.8,3605.1
11131,1948.8,3855.1
11131,1948.8,4105.1
11131,1948.8,3105.1
11131,1948.8,3355.1
11131,1948.8,3605.1
11131,1948.8,3855.1
11131,1948.8,4105.1
11131,1948.8,3355.1
11131,1948.8,3605.1
11131,1948.8,3855.1
11131,1948.8,4105.1
11131,1948.8,3605.1
11131,1948.8,3855.1
11131,1948.8,4105.1
12033,1948.8,1855.1
12033,1948.8,2105.1
12033,1948.8,2355.1
12033,1948.8,2605.1
12033,1948.8,2855.1
12033,1948.8,2105.1
12033,1948.8,2355.1
12033,1948.8,2605.1
12033,1948.8,2855.1
12033,1948.8,3105.1
12033,1948.8,2355.1
12033,1948.8,2605.1
12033,1948.8,2855.1
12033,1948.8,3105.1
12033,1948.8,3355.1
12033,1948.8,2605.1
12033,1948.8,2855.1
12033,1948.8,3105.1
12033,1948.8,3355.1
12033,1948.8,3605.1
12033,1948.8,2855.1
12033,1948.8,3105.1
12033,1948.8,3355.1
12033,1948.8,3605.1
12033,1948.8,3855.1
12033,1948.8,2105.1
12033,1948.8,2355.1
12033,1948.8,2605.1
12033,1948.8,2855.1
12033,1948.8,3105.1
12033,1948.8,2355.1
12033,1948.8,2605.1
12033,1948.8,2855.1
12033,1948.8,3105.1
12033,1948.8,3355.1
12033,1948.8,2605.1
12033,1948.8,2855.1
12033,1948.8,3105.1
12033,1948.8,3355.1
12033,1948.8,3605.1
12033,1948.8,2855.1
12033,1948.8,3105.1
12033,1948.8,3355.1
12033,1948.8,3605.1
12033,1948.8,3855.1
12033,1948.8,3105.1
12033,1948.8,3355.1
12033,1948.8,3605.1
12033,1948.8,3855.1
12033,1948.8,4105.1
12033,1948.8,2355.1
12033,1948.8,2605.1
12033,1948.8,2855.1
12033,1948.8,3105.1
12033,1948.8,3355.1
12033,1948.8,2605.1
12033,1948.8,2855.1
12033,1948.8,3105.1
12033,1948.8,3355.1
12033,1948.8,3605.1
12033,1948.8,2855.1
12033,1948.8,3105.1
12033,1948.8,3355.1
12033,1948.8,3605.1
12033,1948.8,3855.1
12033,1948.8,3105.1
12033,1948.8,3355.1
12033,1948.8,3605.1
12033,1948.8,3855.1
12033,1948.8,4105.1
12033,1948.8,3355.1
12033,1948.8,3605.1
12033,1948.8,3855.1
12033,1948.8,4105.1
12033,1948.8,2605.1
12033,1948.8,2855.1
12033,1948.8,3105.1
12033,1948.8,3355.1
12033,1948.8,3605.1
12033,1948.8,2855.1
12033,1948.8,3105.1
12033,1948.8,3355.1
12033,1948.8,3605.1
12033,1948.8,3855.1
12033,1948.8,3105.1
12033,1948.8,3355.1
12033,1948.8,3605.1
12033,1948.8,3855.1
12033,1948.8,4105.1
12033,1948.8,3355.1
12033,1948.8,3605.1
12033,1948.8,3855.1
12033,1948.8,4105.1
12033,1948.8,3605.1
12033,1948.8,3855.1
12033,1948.8,4105.1
12033,1948.8,2855.1
12033,1948.8,3105.1
12033,1948.8,3355.1
12033,1948.8,3605.1
12033,1948.8,3855.1
12033,1948.8,3105.1
12033,1948.8,3355.1
12033,1948.8,3605.1
12033,1948.8,3855.1
12033,1948.8,4105.1
12033,1948.8,3355.1
12033,1948.8,3605.1
12033,1948.8,3855.1
12033,1948.8,4105.1
12033,1948.8,3605.1
12033,1948.8,3855.1
12033,1948.8,4105.1
12033,1948.8,2105.1
12033,1948.8,2355.1
12033,1948.8,2605.1
12033,1948.8,2855.1
12033,1948.8,3105.1
12033,1948.8,2355.1
12033,1948.8,2605.1
12033,1948.8,2855.1
12033,1948.8,3105.1
12033,1948.8,3355.1
12033,1948.8,2605.1
12033,1948.8,2855.1
12033,1948.8,3105.1
12033,1948.8,3355.1
12033,1948.8,3605.1
12033,1948.8,2855.1
12033,1948.8,3105.1
12033,1948.8,3355.1
12033,1948.8,3605.1
12033,1948.8,3855.1
12033,1948.8,3105.1
12033,1948.8,3355.1
12033,1948.8,3605.1
12033,1948.8,3855.1
12033,1948.8,4105.1
12033,1948.8,2355.1
12033,1948.8,2605.1
12033,1948.8,2855.1
12033,1948.8,3105.1
12033,1948.8,3355.1
12033,1948.8,2605.1
12033,1948.8,2855.1
12033,1948.8,3105.1
12033,1948.8,3355.1
12033,1948.8,3605.1
12033,1948.8,2855.1
12033,1948.8,3105.1
12033,1948.8,3355.1
12033,1948.8,3605.1
12033,1948.8,3855.1
12033,1948.8,3105.1
12033,1948.8,3355.1
12033,1948.8,3605.1
12033,1948.8,3855.1
12033,1948.8,4105.1
12033,1948.8,3355.1
12033,1948.8,3605.1
12033,1948.8,3855.1
12033,1948.8,4105.1
12033,1948.8,2605.1
12033,1948.8,2855.1
12033,1948.8,3105.1
12033,1948.8,3355.1
12033,1948.8,3605.1
12033,1948.8,2855.1
12033,1948.8,3105.1
12033,1948.8,3355.1
12033,1948.8,3605.1
12033,1948.8,3855.1
12033,1948.8,3105.1
12033,1948.8,3355.1
12033,1948.8,3605.1
12033,1948.8,3855.1
12033,1948.8,4105.1
12033,1948.8,3355.1
12033,1948.8,3605.1
12033,1948.8,3855.1
12033,1948.8,4105.1
12033,1948.8,3605.1
12033,1948.8,3855.1
12033,1948.8,4105.1
12033,1948.8,2855.1
12033,1948.8,3105.1
12033,1948.8,3355.1
12033,1948.8,3605.1
12033,1948.8,3855.1
12033,1948.8,3105.1
12033,1948.8,3355.1
12033,1948.8,3605.1
12033,1948.8,3855.1
12033,1948.8,4105.1
12033,1948.8,3355.1
12033,1948.8,3605.1
12033,1948.8,3855.1
12033,1948.8,4105.1
12033,1948.8,3605.1
12033,1948.8,3855.1
12033,1948.8,4105.1
12033,1948.8,3105.1
12033,1948.8,3355.1
12033,1948.8,3605.1
12033,1948.8,3855.1
12033,1948.8,4105.1
12033,1948.8,3355.1
12033,1948.8,3605.1
12033,1948.8,3855.1
12033,1948.8,4105.1
12033,1948.8,3605.1
12033,1948.8,3855.1
12033,1948.8,4105.1
12033,1948.8,2355.1
12033,1948.8,2605.1
12033,1948.8,2855.1
12033,1948.8,3105.1
12033,1948.8,3355.1
12033,1948.8,2605.1
12033,1948.8,2855.1
12033,1948.8,3105.1
12033,1948.8,3355.1
12033,1948.8,3605.1
12033,1948.8,2855.1
12033,1948.8,3105.1
12033,1948.8,3355.1
12033,1948.8,3605.1
12033,1948.8,3855.1
12033,1948.8,3105.1
12033,1948.8,3355.1
12033,1948.8,3605.1
12033,1948.8,3855.1
12033,1948.8,4105.1
12033,1948.8,3355.1
12033,1948.8,3605.1
12033,1948.8,3855.1
12033,1948.8,4105.1
12033,1948.8,2605.1
12033,1948.8,2855.1
12033,1948.8,3105.1
12033,1948.8,3355.1
12033,1948.8,3605.1
12033,1948.8,2855.1
12033,1948.8,3105.1
12033,1948.8,3355.1
12033,1948.8,3605.1
12033,1948.8,3855.1
12033,1948.8,3105.1
12033,1948.8,3355.1
12033,1948.8,3605.1
12033,1948.8,3855.1
12033,1948.8,4105.1
12033,1948.8,3355.1
12033,1948.8,3605.1
12033,1948.8,3855.1
12033,1948.8,4105.1
12033,1948.8,3605.1
12033,1948.8,3855.1
12033,1948.8,4105.1
12033,1948.8,2855.1
12033,1948.8,3105.1
12033,1948.8,3355.1
12033,1948.8,3605.1
12033,1948.8,3855.1
12033,1948.8,3105.1
12033,1948.8,3355.1
12033,1948.8,3605.1
12033,1948.8,3855.1
12033,1948.8,4105.1
12033,1948.8,3355.1
12033,1948.8,3605.1
12033,1948.8,3855.1
12033,1948.8,4105.1
12033,1948.8,3605.1
12033,1948.8,3855.1
12033,1948.8,4105.1
12033,1948.8,3105.1
12033,1948.8,3355.1
12033,1948.8,3605.1
12033,1948.8,3855.1
12033,1948.8,4105.1
12033,1948.8,3355.1
12033,1948.8,3605.1
12033,1948.8,3855.1
12033,1948.8,4105.1
12033,1948.8,3605.1
12033,1948.8,3855.1
12033,1948.8,4105.1
12033,1948.8,2605.1
12033,1948.8,2855.1
12033,1948.8,3105.1
12033,1948.8,3355.1
12033,1948.8,3605.1
12033,1948.8,2855.1
12033,1948.8,3105.1
12033,1948.8,3355.1
12033,1948.8,3605.1
12033,1948.8,3855.1
12033,1948.8,3105.1
12033,1948.8,3355.1
12033,1948.8,3605.1
12033,1948.8,3855.1
12033,1948.8,4105.1
12033,1948.8,3355.1
12033,1948.8,3605.1
12033,1948.8,3855.1
12033,1948.8,4105.1
12033,1948.8,3605.1
12033,1948.8,3855.1
12033,1948.8,4105.1
12033,1948.8,2855.1
12033,1948.8,3105.1
12033,1948.8,3355.1
12033,1948.8,3605.1
12033,1948.8,3855.1
12033,1948.8,3105.1
12033,1948.8,3355.1
12033,1948.8,3605.1
12033,1948.8,3855.1
12033,1948.8,4105.1
12033,1948.8,3355.1
12033,1948.8,3605.1
12033,1948.8,3855.1
12033,1948.8,4105.1
12033,1948.8,3605.1
12033,1948.8,3855.1
12033,1948.8,4105.1
12033,1948.8,3105.1
12033,1948.8,3355.1
12033,1948.8,3605.1
12033,1948.8,3855.1
12033,1948.8,4105.1
12033,1948.8,3355.1
12033,1948.8,3605.1
12033,1948.8,3855.1
12033,1948.8,4105.1
12033,1948.8,3605.1
12033,1948.8,3855.1
12033,1948.8,4105.1
12033,1948.8,2105.1
12033,1948.8,2355.1
12033,1948.8,2605.1
12033,1948.8,2855.1
12033,1948.8,3105.1
12033,1948.8,2355.1
12033,1948.8,2605.1
12033,1948.8,2855.1
12033,1948.8,3105.1
12033,1948.8,3355.1
12033,1948.8,2605.1
12033,1948.8,2855.1
12033,1948.8,3105.1
12033,1948.8,3355.1
12033,1948.8,3605.1
12033,1948.8,2855.1
12033,1948.8,3105.1
12033,1948.8,3355.1
12033,1948.8,3605.1
12033,1948.8,3855.1
12033,1948.8,3105.1
12033,1948.8,3355.1
12033,1948.8,3605.1
12033,1948.8,3855.1
12033,1948.8,4105.1
12033,1948.8,2355.1
12033,1948.8,2605.1
12033,1948.8,2855.1
12033,1948.8,3105.1
12033,1948.8,3355.1
12033,1948.8,2605.1
12033,1948.8,2855.1
12033,1948.8,3105.1
12033,1948.8,3355.1
12033,1948.8,3605.1
12033,1948.8,2855.1
12033,1948.8,3105.1
12033,1948.8,3355.1
12033,1948.8,3605.1
12033,1948.8,3855.1
12033,1948.8,3105.1
12033,1948.8,3355.1
12033,1948.8,3605.1
12033,1948.8,3855.1
12033,1948.8,4105.1
12033,1948.8,3355.1
12033,1948.8,3605.1
12033,1948.8,3855.1
12033,1948.8,4105.1
12033,1948.8,2605.1
12033,1948.8,2855.1
12033,1948.8,3105.1
12033,1948.8,3355.1
12033,1948.8,3605.1
12033,1948.8,2855.1
12033,1948.8,3105.1
12033,1948.8,3355.1
12033,1948.8,3605.1
12033,1948.8,3855.1
12033,1948.8,3105.1
12033,1948.8,3355.1
12033,1948.8,3605.1
12033,1948.8,3855.1
12033,1948.8,4105.1
12033,1948.8,3355.1
12033,1948.8,3605.1
12033,1948.8,3855.1
12033,1948.8,4105.1
12033,1948.8,3605.1
12033,1948.8,3855.1
12033,1948.8,4105.1
12033,1948.8,2855.1
12033,1948.8,3105.1
12033,1948.8,3355.1
12033,1948.8,3605.1
12033,1948.8,3855.1
12033,1948.8,3105.1
12033,1948.8,3355.1
12033,1948.8,3605.1
12033,1948.8,3855.1
12033,1948.8,4105.1
12033,1948.8,3355.1
12033,1948.8,3605.1
12033,1948.8,3855.1
12033,1948.8,4105.1
12033,1948.8,3605.1
12033,1948.8,3855.1
12033,1948.8,4105.1
12033,1948.8,3105.1
12033,1948.8,3355.1
12033,1948.8,3605.1
12033,1948.8,3855.1
12033,1948.8,4105.1
12033,1948.8,3355.1
12033,1948.8,3605.1
12033,1948.8,3855.1
12033,1948.8,4105.1
12033,1948.8,3605.1
12033,1948.8,3855.1
12033,1948.8,4105.1
12033,1948.8,2355.1
12033,1948.8,2605.1
12033,1948.8,2855.1
12033,1948.8,3105.1
12033,1948.8,3355.1
12033,1948.8,2605.1
12033,1948.8,2855.1
12033,1948.8,3105.1
12033,1948.8,3355.1
12033,1948.8,3605.1
12033,1948.8,2855.1
12033,1948.8,3105.1
12033,1948.8,3355.1
12033,1948.8,3605.1
12033,1948.8,3855.1
12033,1948.8,3105.1
12033,1948.8,3355.1
12033,1948.8,3605.1
12033,1948.8,3855.1
12033,1948.8,4105.1
12033,1948.8,3355.1
12033,1948.8,3605.1
12033,1948.8,3855.1
12033,1948.8,4105.1
12033,1948.8,2605.1
12033,1948.8,2855.1
12033,1948.8,3105.1
12033,1948.8,3355.1
12033,1948.8,3605.1
12033,1948.8,2855.1
12033,1948.8,3105.1
12033,1948.8,3355.1
12033,1948.8,3605.1
12033,1948.8,3855.1
12033,1948.8,3105.1
12033,1948.8,3355.1
12033,1948.8,3605.1
12033,1948.8,3855.1
12033,1948.8,4105.1
12033,1948.8,3355.1
12033,1948.8,3605.1
12033,1948.8,3855.1
12033,1948.8,4105.1
12033,1948.8,3605.1
12033,1948.8,3855.1
12033,1948.8,4105.1
12033,1948.8,2855.1
12033,1948.8,3105.1
12033,1948.8,3355.1
12033,1948.8,3605.1
12033,1948.8,3855.1
12033,1948.8,3105.1
12033,1948.8,3355.1
12033,1948.8,3605.1
12033,1948.8,3855.1
12033,1948.8,4105.1
12033,1948.8,3355.1
12033,1948.8,3605.1
12033,1948.8,3855.1
12033,1948.8,4105.1
12033,1948.8,3605.1
12033,1948.8,3855.1
12033,1948.8,4105.1
12033,1948.8,3105.1
12033,1948.8,3355.1
12033,1948.8,3605.1
12033,1948.8,3855.1
12033,1948.8,4105.1
12033,1948.8,3355.1
12033,1948.8,3605.1
12033,1948.8,3855.1
12033,1948.8,4105.1
12033,1948.8,3605.1
12033,1948.8,3855.1
12033,1948.8,4105.1
12033,1948.8,2605.1
12033,1948.8,2855.1
12033,1948.8,3105.1
12033,1948.8,3355.1
12033,1948.8,3605.1
12033,1948.8,2855.1
12033,1948.8,3105.1
12033,1948.8,3355.1
12033,1948.8,3605.1
12033,1948.8,3855.1
12033,1948.8,3105.1
12033,1948.8,3355.1
12033,1948.8,3605.1
12033,1948.8,3855.1
12033,1948.8,4105.1
12033,1948.8,3355.1
12033,1948.8,3605.1
12033,1948.8,3855.1
12033,1948.8,4105.1
12033,1948.8,3605.1
12033,1948.8,3855.1
12033,1948.8,4105.1
12033,1948.8,2855.1
12033,1948.8,3105.1
12033,1948.8,3355.1
12033,1948.8,3605.1
12033,1948.8,3855.1
12033,1948.8,3105.1
12033,1948.8,3355.1
12033,1948.8,3605.1
12033,1948.8,3855.1
12033,1948.8,4105.1
12033,1948.8,3355.1
12033,1948.8,3605.1
12033,1948.8,3855.1
12033,1948.8,4105.1
12033,1948.8,3605.1
12033,1948.8,3855.1
12033,1948.8,4105.1
12033,1948.8,3105.1
12033,1948.8,3355.1
12033,1948.8,3605.1
12033,1948.8,3855.1
12033,1948.8,4105.1
12033,1948.8,3355.1
12033,1948.8,3605.1
12033,1948.8,3855.1
12033,1948.8,4105.1
12033,1948.8,3605.1
12033,1948.8,3855.1
12033,1948.8,4105.1
12935,1948.8,1355.1
12935,1948.8,1605.1
12935,1948.8,1855.1
12935,1948.8,2105.1
12935,1948.8,2355.1
12935,1948.8,1605.1
12935,1948.8,1855.1
12935,1948.8,2105.1
12935,1948.8,2355.1
12935,1948.8,2605.1
12935,1948.8,1855.1
12935,1948.8,2105.1
12935,1948.8,2355.1
12935,1948.8,2605.1
12935,1948.8,2855.1
12935,1948.8,2105.1
12935,1948.8,2355.1
12935,1948.8,2605.1
12935,1948.8,2855.1
12935,1948.8,3105.1
12935,1948.8,2355.1
12935,1948.8,2605.1
12935,1948.8,2855.1
12935,1948.8,3105.1
12935,1948.8,3355.1
12935,1948.8,1605.1
12935,1948.8,1855.1
12935,1948.8,2105.1
12935,1948.8,2355.1
12935,1948.8,2605.1
12935,1948.8,1855.1
12935,1948.8,2105.1
12935,1948.8,2355.1
12935,1948.8,2605.1
12935,1948.8,2855.1
12935,1948.8,2105.1
12935,1948.8,2355.1
12935,1948.8,2605.1
12935,1948.8,2855.1
12935,1948.8,3105.1
12935,1948.8,2355.1
12935,1948.8,2605.1
12935,1948.8,2855.1
12935,1948.8,3105.1
12935,1948.8,3355.1
12935,1948.8,2605.1
12935,1948.8,2855.1
12935,1948.8,3105.1
12935,1948.8,3355.1
12935,1948.8,3605.1
12935,1948.8,1855.1
12935,1948.8,2105.1
12935,1948.8,2355.1
12935,1948.8,2605.1
12935,1948.8,2855.1
12935,1948.8,2105.1
12935,1948.8,2355.1
12935,1948.8,2605.1
12935,1948.8,2855.1
12935,1948.8,3105.1
12935,1948.8,2355.1
12935,1948.8,2605.1
12935,1948.8,2855.1
12935,1948.8,3105.1
12935,1948.8,3355.1
12935,1948.8,2605.1
12935,1948.8,2855.1
12935,1948.8,3105.1
12935,1948.8,3355.1
12935,1948.8,3605.1
12935,1948.8,2855.1
12935,1948.8,3105.1
12935,1948.8,3355.1
12935,1948.8,3605.1
12935,1948.8,3855.1
12935,1948.8,2105.1
12935,1948.8,2355.1
12935,1948.8,2605.1
12935,1948.8,2855.1
12935,1948.8,3105.1
12935,1948.8,2355.1
12935,1948.8,2605.1
12935,1948.8,2855.1
12935,1948.8,3105.1
12935,1948.8,3355.1
12935,1948.8,2605.1
12935,1948.8,2855.1
12935,1948.8,3105.1
12935,1948.8,3355.1
12935,1948.8,3605.1
12935,1948.8,2855.1
12935,1948.8,3105.1
12935,1948.8,3355.1
12935,1948.8,3605.1
12935,1948.8,3855.1
12935,1948.8,3105.1
12935,1948.8,3355.1
12935,1948.8,3605.1
12935,1948.8,3855.1
12935,1948.8,4105.1
12935,1948.8,2355.1
12935,1948.8,2605.1
12935,1948.8,2855.1
12935,1948.8,3105.1
12935,1948.8,3355.1
12935,1948.8,2605.1
12935,1948.8,2855.1
12935,1948.8,3105.1
12935,1948.8,3355.1
12935,1948.8,3605.1
12935,1948.8,2855.1
12935,1948.8,3105.1
12935,1948.8,3355.1
12935,1948.8,3605.1
12935,1948.8,3855.1
12935,1948.8,3105.1
12935,1948.8,3355.1
12935,1948.8,3605.1
12935,1948.8,3855.1
12935,1948.8,4105.1
12935,1948.8,3355.1
12935,1948.8,3605.1
12935,1948.8,3855.1
12935,1948.8,4105.1
12935,1948.8,1605.1
12935,1948.8,1855.1
12935,1948.8,2105.1
12935,1948.8,2355.1
12935,1948.8,2605.1
12935,1948.8,1855.1
12935,1948.8,2105.1
12935,1948.8,2355.1
12935,1948.8,2605.1
12935,1948.8,2855.1
12935,1948.8,2105.1
12935,1948.8,2355.1
12935,1948.8,2605.1
12935,1948.8,2855.1
12935,1948.8,3105.1
12935,1948.8,2355.1
12935,1948.8,2605.1
12935,1948.8,2855.1
12935,1948.8,3105.1
12935,1948.8,3355.1
12935,1948.8,2605.1
12935,1948.8,2855.1
12935,1948.8,3105.1
12935,1948.8,3355.1
12935,1948.8,3605.1
12935,1948.8,1855.1
12935,1948.8,2105.1
12935,1948.8,2355.1
12935,1948.8,2605.1
12935,1948.8,2855.1
12935,1948.8,2105.1
12935,1948.8,2355.1
12935,1948.8,2605.1
12935,1948.8,2855.1
12935,1948.8,3105.1
12935,1948.8,2355.1
12935,1948.8,2605.1
12935,1948.8,2855.1
12935,1948.8,3105.1
12935,1948.8,3355.1
12935,1948.8,2605.1
12935,1948.8,2855.1
12935,1948.8,3105.1
12935,1948.8,3355.1
12935,1948.8,3605.1
12935,1948.8,2855.1
12935,1948.8,3105.1
12935,1948.8,3355.1
12935,1948.8,3605.1
12935,1948.8,3855.1
12935,1948.8,2105.1
12935,1948.8,2355.1
12935,1948.8,2605.1
12935,1948.8,2855.1
12935,1948.8,3105.1
12935,1948.8,2355.1
12935,1948.8,2605.1
12935,1948.8,2855.1
12935,1948.8,3105.1
12935,1948.8,3355.1
12935,1948.8,2605.1
12935,1948.8,2855.1
12935,1948.8,3105.1
12935,1948.8,3355.1
12935,1948.8,3605.1
12935,1948.8,2855.1
12935,1948.8,3105.1
12935,1948.8,3355.1
12935,1948.8,3605.1
12935,1948.8,3855.1
12935,1948.8,3105.1
12935,1948.8,3355.1
12935,1948.8,3605.1
12935,1948.8,3855.1
12935,1948.8,4105.1
12935,1948.8,2355.1
12935,1948.8,2605.1
12935,1948.8,2855.1
12935,1948.8,3105.1
12935,1948.8,3355.1
12935,1948.8,2605.1
12935,1948.8,2855.1
12935,1948.8,3105.1
12935,1948.8,3355.1
12935,1948.8,3605.1
12935,1948.8,2855.1
12935,1948.8,3105.1
12935,1948.8,3355.1
12935,1948.8,3605.1
12935,1948.8,3855.1
12935,1948.8,3105.1
12935,1948.8,3355.1
12935,1948.8,3605.1
12935,1948.8,3855.1
12935,1948.8,4105.1
12935,1948.8,3355.1
12935,1948.8,3605.1
12935,1948.8,3855.1
12935,1948.8,4105.1
12935,1948.8,2605.1
12935,1948.8,2855.1
12935,1948.8,3105.1
12935,1948.8,3355.1
12935,1948.8,3605.1
12935,1948.8,2855.1
12935,1948.8,3105.1
12935,1948.8,3355.1
12935,1948.8,3605.1
12935,1948.8,3855.1
12935,1948.8,3105.1
12935,1948.8,3355.1
12935,1948.8,3605.1
12935,1948.8,3855.1
12935,1948.8,4105.1
12935,1948.8,3355.1
12935,1948.8,3605.1
12935,1948.8,3855.1
12935,1948.8,4105.1
12935,1948.8,3605.1
12935,1948.8,3855.1
12935,1948.8,4105.1
12935,1948.8,1855.1
12935,1948.8,2105.1
12935,1948.8,2355.1
12935,1948.8,2605.1
12935,1948.8,2855.1
12935,1948.8,2105.1
12935,1948.8,2355.1
12935,1948.8,2605.1
12935,1948.8,2855.1
12935,1948.8,3105.1
12935,1948.8,2355.1
12935,1948.8,2605.1
12935,1948.8,2855.1
12935,1948.8,3105.1
12935,1948.8,3355.1
12935,1948.8,2605.1
12935,1948.8,2855.1
12935,1948.8,3105.1
12935,1948.8,3355.1
12935,1948.8,3605.1
12935,1948.8,2855.1
12935,1948.8,3105.1
12935,1948.8,3355.1
12935,1948.8,3605.1
12935,1948.8,3855.1
12935,1948.8,2105.1
12935,1948.8,2355.1
12935,1948.8,2605.1
12935,1948.8,2855.1
12935,1948.8,3105.1
12935,1948.8,2355.1
12935,1948.8,2605.1
12935,1948.8,2855.1
12935,1948.8,3105.1
12935,1948.8,3355.1
12935,1948.8,2605.1
12935,1948.8,2855.1
12935,1948.8,3105.1
12935,1948.8,3355.1
12935,1948.8,3605.1
12935,1948.8,2855.1
12935,1948.8,3105.1
12935,1948.8,3355.1
12935,1948.8,3605.1
12935,1948.8,3855.1
12935,1948.8,3105.1
12935,1948.8,3355.1
12935,1948.8,3605.1
12935,1948.8,3855.1
12935,1948.8,4105.1
12935,1948.8,2355.1
12935,1948.8,2605.1
12935,1948.8,2855.1
12935,1948.8,3105.1
12935,1948.8,3355.1
12935,1948.8,2605.1
12935,1948.8,2855.1
12935,1948.8,3105.1
12935,1948.8,3355.1
12935,1948.8,3605.1
12935,1948.8,2855.1
12935,1948.8,3105.1
12935,1948.8,3355.1
12935,1948.8,3605.1
12935,1948.8,3855.1
12935,1948.8,3105.1
12935,1948.8,3355.1
12935,1948.8,3605.1
12935,1948.8,3855.1
12935,1948.8,4105.1
12935,1948.8,3355.1
12935,1948.8,3605.1
12935,1948.8,3855.1
12935,1948.8,4105.1
12935,1948.8,2605.1
12935,1948.8,2855.1
12935,1948.8,3105.1
12935,1948.8,3355.1
12935,1948.8,3605.1
12935,1948.8,2855.1
12935,1948.8,3105.1
12935,1948.8,3355.1
12935,1948.8,3605.1
12935,1948.8,3855.1
12935,1948.8,3105.1
12935,1948.8,3355.1
12935,1948.8,3605.1
12935,1948.8,3855.1
12935,1948.8,4105.1
12935,1948.8,3355.1
12935,1948.8,3605.1
12935,1948.8,3855.1
12935,1948.8,4105.1
12935,1948.8,3605.1
12935,1948.8,3855.1
12935,1948.8,4105.1
12935,1948.8,2855.1
12935,1948.8,3105.1
12935,1948.8,3355.1
12935,1948.8,3605.1
12935,1948.8,3855.1
12935,1948.8,3105.1
12935,1948.8,3355.1
12935,1948.8,3605.1
12935,1948.8,3855.1
12935,1948.8,4105.1
12935,1948.8,3355.1
12935,1948.8,3605.1
12935,1948.8,3855.1
12935,1948.8,4105.1
12935,1948.8,3605.1
12935,1948.8,3855.1
12935,1948.8,4105.1
12935,1948.8,2105.1
12935,1948.8,2355.1
12935,1948.8,2605.1
12935,1948.8,2855.1
12935,1948.8,3105.1
12935,1948.8,2355.1
12935,1948.8,2605.1
12935,1948.8,2855.1
12935,1948.8,3105.1
12935,1948.8,3355.1
12935,1948.8,2605.1
12935,1948.8,2855.1
12935,1948.8,3105.1
12935,1948.8,3355.1
12935,1948.8,3605.1
12935,1948.8,2855.1
12935,1948.8,3105.1
12935,1948.8,3355.1
12935,1948.8,3605.1
12935,1948.8,3855.1
12935,1948.8,3105.1
12935,1948.8,3355.1
12935,1948.8,3605.1
12935,1948.8,3855.1
12935,1948.8,4105.1
12935,1948.8,2355.1
12935,1948.8,2605.1
12935,1948.8,2855.1
12935,1948.8,3105.1
12935,1948.8,3355.1
12935,1948.8,2605.1
12935,1948.8,2855.1
12935,1948.8,3105.1
12935,1948.8,3355.1
12935,1948.8,3605.1
12935,1948.8,2855.1
12935,1948.8,3105.1
12935,1948.8,3355.1
12935,1948.8,3605.1
12935,1948.8,3855.1
12935,1948.8,3105.1
12935,1948.8,3355.1
12935,1948.8,3605.1
12935,1948.8,3855.1
12935,1948.8,4105.1
12935,1948.8,3355.1
12935,1948.8,3605.1
12935,1948.8,3855.1
12935,1948.8,4105.1
12935,1948.8,2605.1
12935,1948.8,2855.1
12935,1948.8,3105.1
12935,1948.8,3355.1
12935,1948.8,3605.1
12935,1948.8,2855.1
12935,1948.8,3105.1
12935,1948.8,3355.1
12935,1948.8,3605.1
12935,1948.8,3855.1
12935,1948.8,3105.1
12935,1948.8,3355.1
12935,1948.8,3605.1
12935,1948.8,3855.1
12935,1948.8,4105.1
12935,1948.8,3355.1
12935,1948.8,3605.1
12935,1948.8,3855.1
12935,1948.8,4105.1
12935,1948.8,3605.1
12935,1948.8,3855.1
12935,1948.8,4105.1
12935,1948.8,2855.1
12935,1948.8,3105.1
12935,1948.8,3355.1
12935,1948.8,3605.1
12935,1948.8,3855.1
12935,1948.8,3105.1
12935,1948.8,3355.1
12935,1948.8,3605.1
12935,1948.8,3855.1
12935,1948.8,4105.1
12935,1948.8,3355.1
12935,1948.8,3605.1
12935,1948.8,3855.1
12935,1948.8,4105.1
12935,1948.8,3605.1
12935,1948.8,3855.1
12935,1948.8,4105.1
12935,1948.8,3105.1
12935,1948.8,3355.1
12935,1948.8,3605.1
12935,1948.8,3855.1
12935,1948.8,4105.1
12935,1948.8,3355.1
12935,1948.8,3605.1
12935,1948.8,3855.1
12935,1948.8,4105.1
12935,1948.8,3605.1
12935,1948.8,3855.1
12935,1948.8,4105.1
12935,1948.8,2355.1
12935,1948.8,2605.1
12935,1948.8,2855.1
12935,1948.8,3105.1
12935,1948.8,3355.1
12935,1948.8,2605.1
12935,1948.8,2855.1
12935,1948.8,3105.1
12935,1948.8,3355.1
12935,1948.8,3605.1
12935,1948.8,2855.1
12935,1948.8,3105.1
12935,1948.8,3355.1
12935,1948.8,3605.1
12935,1948.8,3855.1
12935,1948.8,3105.1
12935,1948.8,3355.1
12935,1948.8,3605.1
12935,1948.8,3855.1
12935,1948.8,4105.1
12935,1948.8,3355.1
12935,1948.8,3605.1
12935,1948.8,3855.1
12935,1948.8,4105.1
12935,1948.8,2605.1
12935,1948.8,2855.1
12935,1948.8,3105.1
12935,1948.8,3355.1
12935,1948.8,3605.1
12935,1948.8,2855.1
12935,1948.8,3105.1
12935,1948.8,3355.1
12935,1948.8,3605.1
12935,1948.8,3855.1
12935,1948.8,3105.1
12935,1948.8,3355.1
12935,1948.8,3605.1
12935,1948.8,3855.1
12935,1948.8,4105.1
12935,1948.8,3355.1
12935,1948.8,3605.1
12935,1948.8,3855.1
12935,1948.8,4105.1
12935,1948.8,3605.1
12935,1948.8,3855.1
12935,1948.8,4105.1
12935,1948.8,2855.1
12935,1948.8,3105.1
12935,1948.8,3355.1
12935,1948.8,3605.1
12935,1948.8,3855.1
12935,1948.8,3105.1
12935,1948.8,3355.1
12935,1948.8,3605.1
12935,1948.8,3855.1
12935,1948.8,4105.1
12935,1948.8,3355.1
12935,1948.8,3605.1
12935,1948.8,3855.1
12935,1948.8,4105.1
12935,1948.8,3605.1
12935,1948.8,3855.1
12935,1948.8,4105.1
12935,1948.8,3105.1
12935,1948.8,3355.1
12935,1948.8,3605.1
12935,1948.8,3855.1
12935,1948.8,4105.1
12935,1948.8,3355.1
12935,1948.8,3605.1
12935,1948.8,3855.1
12935,1948.8,4105.1
12935,1948.8,3605.1
12935,1948.8,3855.1
12935,1948.8,4105.1
12935,1948.8,1605.1
12935,1948.8,1855.1
12935,1948.8,2105.1
12935,1948.8,2355.1
12935,1948.8,2605.1
12935,1948.8,1855.1
12935,1948.8,2105.1
12935,1948.8,2355.1
12935,1948.8,2605.1
12935,1948.8,2855.1
12935,1948.8,2105.1
12935,1948.8,2355.1
12935,1948.8,2605.1
12935,1948.8,2855.1
12935,1948.8,3105.1
12935,1948.8,2355.1
12935,1948.8,2605.1
12935,1948.8,2855.1
12935,1948.8,3105.1
12935,1948.8,3355.1
12935,1948.8,2605.1
12935,1948.8,2855.1
12935,1948.8,3105.1
12935,1948.8,3355.1
12935,1948.8,3605.1
12935,1948.8,1855.1
12935,1948.8,2105.1
12935,1948.8,2355.1
12935,1948.8,2605.1
12935,1948.8,2855.1
12935,1948.8,2105.1
12935,1948.8,2355.1
12935,1948.8,2605.1
12935,1948.8,2855.1
12935,1948.8,3105.1
12935,1948.8,2355.1
12935,1948.8,2605.1
12935,1948.8,2855.1
12935,1948.8,3105.1
12935,1948.8,3355.1
12935,1948.8,2605.1
12935,1948.8,2855.1
12935,1948.8,3105.1
12935,1948.8,3355.1
12935,1948.8,3605.1
12935,1948.8,2855.1
12935,1948.8,3105.1
12935,1948.8,3355.1
12935,1948.8,3605.1
12935,1948.8,3855.1
12935,1948.8,2105.1
12935,1948.8,2355.1
12935,1948.8,2605.1
12935,1948.8,2855.1
12935,1948.8,3105.1
12935,1948.8,2355.1
12935,1948.8,2605.1
12935,1948.8,2855.1
12935,1948.8,3105.1
12935,1948.8,3355.1
12935,1948.8,2605.1
12935,1948.8,2855.1
12935,1948.8,3105.1
12935,1948.8,3355.1
12935,1948.8,3605.1
12935,1948.8,2855.1
12935,1948.8,3105.1
12935,1948.8,3355.1
12935,1948.8,3605.1
12935,1948.8,3855.1
12935,1948.8,3105.1
12935,1948.8,3355.1
12935,1948.8,3605.1
12935,1948.8,3855.1
12935,1948.8,4105.1
12935,1948.8,2355.1
12935,1948.8,2605.1
12935,1948.8,2855.1
12935,1948.8,3105.1
12935,1948.8,3355.1
12935,1948.8,2605.1
12935,1948.8,2855.1
12935,1948.8,3105.1
12935,1948.8,3355.1
12935,1948.8,3605.1
12935,1948.8,2855.1
12935,1948.8,3105.1
12935,1948.8,3355.1
12935,1948.8,3605.1
12935,1948.8,3855.1
12935,1948.8,3105.1
12935,1948.8,3355.1
12935,1948.8,3605.1
12935,1948.8,3855.1
12935,1948.8,4105.1
12935,1948.8,3355.1
12935,1948.8,3605.1
12935,1948.8,3855.1
12935,1948.8,4105.1
12935,1948.8,2605.1
12935,1948.8,2855.1
12935,1948.8,3105.1
12935,1948.8,3355.1
12935,1948.8,3605.1
12935,1948.8,2855.1
12935,1948.8,3105.1
12935,1948.8,3355.1
12935,1948.8,3605.1
12935,1948.8,3855.1
12935,1948.8,3105.1
12935,1948.8,3355.1
12935,1948.8,3605.1
12935,1948.8,3855.1
12935,1948.8,4105.1
12935,1948.8,3355.1
12935,1948.8,3605.1
12935,1948.8,3855.1
12935,1948.8,4105.1
12935,1948.8,3605.1
12935,1948.8,3855.1
12935,1948.8,4105.1
12935,1948.8,1855.1
12935,1948.8,2105.1
12935,1948.8,2355.1
12935,1948.8,2605.1
12935,1948.8,2855.1
12935,1948.8,2105.1
12935,1948.8,2355.1
12935,1948.8,2605.1
12935,1948.8,2855.1
12935,1948.8,3105.1
12935,1948.8,2355.1
12935,1948.8,2605.1
12935,1948.8,2855.1
12935,1948.8,3105.1
12935,1948.8,3355.1
12935,1948.8,2605.1
12935,1948.8,2855.1
12935,1948.8,3105.1
12935,1948.8,3355.1
12935,1948.8,3605.1
12935,1948.8,2855.1
12935,1948.8,3105.1
12935,1948.8,3355.1
12935,1948.8,3605.1
12935,1948.8,3855.1
12935,1948.8,2105.1
12935,1948.8,2355.1
12935,1948.8,2605.1
12935,1948.8,2855.1
12935,1948.8,3105.1
12935,1948.8,2355.1
12935,1948.8,2605.1
12935,1948.8,2855.1
12935,1948.8,3105.1
12935,1948.8,3355.1
12935,1948.8,2605.1
12935,1948.8,2855.1
12935,1948.8,3105.1
12935,1948.8,3355.1
12935,1948.8,3605.1
12935,1948.8,2855.1
12935,1948.8,3105.1
12935,1948.8,3355.1
12935,1948.8,3605.1
12935,1948.8,3855.1
12935,1948.8,3105.1
12935,1948.8,3355.1
12935,1948.8,3605.1
12935,1948.8,3855.1
12935,1948.8,4105.1
12935,1948.8,2355.1
12935,1948.8,2605.1
12935,1948.8,2855.1
12935,1948.8,3105.1
12935,1948.8,3355.1
12935,1948.8,2605.1
12935,1948.8,2855.1
12935,1948.8,3105.1
12935,1948.8,3355.1
12935,1948.8,3605.1
12935,1948.8,2855.1
12935,1948.8,3105.1
12935,1948.8,3355.1
12935,1948.8,3605.1
12935,1948.8,3855.1
12935,1948.8,3105.1
12935,1948.8,3355.1
12935,1948.8,3605.1
12935,1948.8,3855.1
12935,1948.8,4105.1
12935,1948.8,3355.1
12935,1948.8,3605.1
12935,1948.8,3855.1
12935,1948.8,4105.1
12935,1948.8,2605.1
12935,1948.8,2855.1
12935,1948.8,3105.1
12935,1948.8,3355.1
12935,1948.8,3605.1
12935,1948.8,2855.1
12935,1948.8,3105.1
12935,1948.8,3355.1
12935,1948.8,3605.1
12935,1948.8,3855.1
12935,1948.8,3105.1
12935,1948.8,3355.1
12935,1948.8,3605.1
12935,1948.8,3855.1
12935,1948.8,4105.1
12935,1948.8,3355.1
12935,1948.8,3605.1
12935,1948.8,3855.1
12935,1948.8,4105.1
12935,1948.8,3605.1
12935,1948.8,3855.1
12935,1948.8,4105.1
12935,1948.8,2855.1
12935,1948.8,3105.1
12935,1948.8,3355.1
12935,1948.8,3605.1
12935,1948.8,3855.1
12935,1948.8,3105.1
12935,1948.8,3355.1
12935,1948.8,3605.1
12935,1948.8,3855.1
12935,1948.8,4105.1
12935,1948.8,3355.1
12935,1948.8,3605.1
12935,1948.8,3855.1
12935,1948.8,4105.1
12935,1948.8,3605.1
12935,1948.8,3855.1
12935,1948.8,4105.1
12935,1948.8,2105.1
12935,1948.8,2355.1
12935,1948.8,2605.1
12935,1948.8,2855.1
12935,1948.8,3105.1
12935,1948.8,2355.1
12935,1948.8,2605.1
12935,1948.8,2855.1
12935,1948.8,3105.1
12935,1948.8,3355.1
12935,1948.8,2605.1
12935,1948.8,2855.1
12935,1948.8,3105.1
12935,1948.8,3355.1
12935,1948.8,3605.1
12935,1948.8,2855.1
12935,1948.8,3105.1
12935,1948.8,3355.1
12935,1948.8,3605.1
12935,1948.8,3855.1
12935,1948.8,3105.1
12935,1948.8,3355.1
12935,1948.8,3605.1
12935,1948.8,3855.1
12935,1948.8,4105.1
12935,1948.8,2355.1
12935,1948.8,2605.1
12935,1948.8,2855.1
12935,1948.8,3105.1
12935,1948.8,3355.1
12935,1948.8,2605.1
12935,1948.8,2855.1
12935,1948.8,3105.1
12935,1948.8,3355.1
12935,1948.8,3605.1
12935,1948.8,2855.1
12935,1948.8,3105.1
12935,1948.8,3355.1
12935,1948.8,3605.1
12935,1948.8,3855.1
12935,1948.8,3105.1
12935,1948.8,3355.1
12935,1948.8,3605.1
12935,1948.8,3855.1
12935,1948.8,4105.1
12935,1948.8,3355.1
12935,1948.8,3605.1
12935,1948.8,3855.1
12935,1948.8,4105.1
12935,1948.8,2605.1
12935,1948.8,2855.1
12935,1948.8,3105.1
12935,1948.8,3355.1
12935,1948.8,3605.1
12935,1948.8,2855.1
12935,1948.8,3105.1
12935,1948.8,3355.1
12935,1948.8,3605.1
12935,1948.8,3855.1
12935,1948.8,3105.1
12935,1948.8,3355.1
12935,1948.8,3605.1
12935,1948.8,3855.1
12935,1948.8,4105.1
12935,1948.8,3355.1
12935,1948.8,3605.1
12935,1948.8,3855.1
12935,1948.8,4105.1
12935,1948.8,3605.1
12935,1948.8,3855.1
12935,1948.8,4105.1
12935,1948.8,2855.1
12935,1948.8,3105.1
12935,1948.8,3355.1
12935,1948.8,3605.1
12935,1948.8,3855.1
12935,1948.8,3105.1
12935,1948.8,3355.1
12935,1948.8,3605.1
12935,1948.8,3855.1
12935,1948.8,4105.1
12935,1948.8,3355.1
12935,1948.8,3605.1
12935,1948.8,3855.1
12935,1948.8,4105.1
12935,1948.8,3605.1
12935,1948.8,3855.1
12935,1948.8,4105.1
12935,1948.8,3105.1
12935,1948.8,3355.1
12935,1948.8,3605.1
12935,1948.8,3855.1
12935,1948.8,4105.1
12935,1948.8,3355.1
12935,1948.8,3605.1
12935,1948.8,3855.1
12935,1948.8,4105.1
12935,1948.8,3605.1
12935,1948.8,3855.1
12935,1948.8,4105.1
12935,1948.8,2355.1
12935,1948.8,2605.1
12935,1948.8,2855.1
12935,1948.8,3105.1
12935,1948.8,3355.1
12935,1948.8,2605.1
12935,1948.8,2855.1
12935,1948.8,3105.1
12935,1948.8,3355.1
12935,1948.8,3605.1
12935,1948.8,2855.1
12935,1948.8,3105.1
12935,1948.8,3355.1
12935,1948.8,3605.1
12935,1948.8,3855.1
12935,1948.8,3105.1
12935,1948.8,3355.1
12935,1948.8,3605.1
12935,1948.8,3855.1
12935,1948.8,4105.1
12935,1948.8,3355.1
12935,1948.8,3605.1
12935,1948.8,3855.1
12935,1948.8,4105.1
12935,1948.8,2605.1
12935,1948.8,2855.1
12935,1948.8,3105.1
12935,1948.8,3355.1
12935,1948.8,3605.1
12935,1948.8,2855.1
12935,1948.8,3105.1
12935,1948.8,3355.1
12935,1948.8,3605.1
12935,1948.8,3855.1
12935,1948.8,3105.1
12935,1948.8,3355.1
12935,1948.8,3605.1
12935,1948.8,3855.1
12935,1948.8,4105.1
12935,1948.8,3355.1
12935,1948.8,3605.1
12935,1948.8,3855.1
12935,1948.8,4105.1
12935,1948.8,3605.1
12935,1948.8,3855.1
12935,1948.8,4105.1
12935,1948.8,2855.1
12935,1948.8,3105.1
12935,1948.8,3355.1
12935,1948.8,3605.1
12935,1948.8,3855.1
12935,1948.8,3105.1
12935,1948.8,3355.1
12935,1948.8,3605.1
12935,1948.8,3855.1
12935,1948.8,4105.1
12935,1948.8,3355.1
12935,1948.8,3605.1
12935,1948.8,3855.1
12935,1948.8,4105.1
12935,1948.8,3605.1
12935,1948.8,3855.1
12935,1948.8,4105.1
12935,1948.8,3105.1
12935,1948.8,3355.1
12935,1948.8,3605.1
12935,1948.8,3855.1
12935,1948.8,4105.1
12935,1948.8,3355.1
12935,1948.8,3605.1
12935,1948.8,3855.1
12935,1948.8,4105.1
12935,1948.8,3605.1
12935,1948.8,3855.1
12935,1948.8,4105.1
12935,1948.8,2605.1
12935,1948.8,2855.1
12935,1948.8,3105.1
12935,1948.8,3355.1
12935,1948.8,3605.1
12935,1948.8,2855.1
12935,1948.8,3105.1
12935,1948.8,3355.1
12935,1948.8,3605.1
12935,1948.8,3855.1
12935,1948.8,3105.1
12935,1948.8,3355.1
12935,1948.8,3605.1
12935,1948.8,3855.1
12935,1948.8,4105.1
12935,1948.8,3355.1
12935,1948.8,3605.1
12935,1948.8,3855.1
12935,1948.8,4105.1
12935,1948.8,3605.1
12935,1948.8,3855.1
12935,1948.8,4105.1
12935,1948.8,2855.1
12935,1948.8,3105.1
12935,1948.8,3355.1
12935,1948.8,3605.1
12935,1948.8,3855.1
12935,1948.8,3105.1
12935,1948.8,3355.1
12935,1948.8,3605.1
12935,1948.8,3855.1
12935,1948.8,4105.1
12935,1948.8,3355.1
12935,1948.8,3605.1
12935,1948.8,3855.1
12935,1948.8,4105.1
12935,1948.8,3605.1
12935,1948.8,3855.1
12935,1948.8,4105.1
12935,1948.8,3105.1
12935,1948.8,3355.1
12935,1948.8,3605.1
12935,1948.8,3855.1
12935,1948.8,4105.1
12935,1948.8,3355.1
12935,1948.8,3605.1
12935,1948.8,3855.1
12935,1948.8,4105.1
12935,1948.8,3605.1
12935,1948.8,3855.1
12935,1948.8,4105.1
12935,1948.8,1855.1
12935,1948.8,2105.1
12935,1948.8,2355.1
12935,1948.8,2605.1
12935,1948.8,2855.1
12935,1948.8,2105.1
12935,1948.8,2355.1
12935,1948.8,2605.1
12935,1948.8,2855.1
12935,1948.8,3105.1
12935,1948.8,2355.1
12935,1948.8,2605.1
12935,1948.8,2855.1
12935,1948.8,3105.1
12935,1948.8,3355.1
12935,1948.8,2605.1
12935,1948.8,2855.1
12935,1948.8,3105.1
12935,1948.8,3355.1
12935,1948.8,3605.1
12935,1948.8,2855.1
12935,1948.8,3105.1
12935,1948.8,3355.1
12935,1948.8,3605.1
12935,1948.8,3855.1
12935,1948.8,2105.1
12935,1948.8,2355.1
12935,1948.8,2605.1
12935,1948.8,2855.1
12935,1948.8,3105.1
12935,1948.8,2355.1
12935,1948.8,2605.1
12935,1948.8,2855.1
12935,1948.8,3105.1
12935,1948.8,3355.1
12935,1948.8,2605.1
12935,1948.8,2855.1
12935,1948.8,3105.1
12935,1948.8,3355.1
12935,1948.8,3605.1
12935,1948.8,2855.1
12935,1948.8,3105.1
12935,1948.8,3355.1
12935,1948.8,3605.1
12935,1948.8,3855.1
12935,1948.8,3105.1
12935,1948.8,3355.1
12935,1948.8,3605.1
12935,1948.8,3855.1
12935,1948.8,4105.1
12935,1948.8,2355.1
12935,1948.8,2605.1
12935,1948.8,2855.1
12935,1948.8,3105.1
12935,1948.8,3355.1
12935,1948.8,2605.1
12935,1948.8,2855.1
12935,1948.8,3105.1
12935,1948.8,3355.1
12935,1948.8,3605.1
12935,1948.8,2855.1
12935,1948.8,3105.1
12935,1948.8,3355.1
12935,1948.8,3605.1
12935,1948.8,3855.1
12935,1948.8,3105.1
12935,1948.8,3355.1
12935,1948.8,3605.1
12935,1948.8,3855.1
12935,1948.8,4105.1
12935,1948.8,3355.1
12935,1948.8,3605.1
12935,1948.8,3855.1
12935,1948.8,4105.1
12935,1948.8,2605.1
12935,1948.8,2855.1
12935,1948.8,3105.1
12935,1948.8,3355.1
12935,1948.8,3605.1
12935,1948.8,2855.1
12935,1948.8,3105.1
12935,1948.8,3355.1
12935,1948.8,3605.1
12935,1948.8,3855.1
12935,1948.8,3105.1
12935,1948.8,3355.1
12935,1948.8,3605.1
12935,1948.8,3855.1
12935,1948.8,4105.1
12935,1948.8,3355.1
12935,1948.8,3605.1
12935,1948.8,3855.1
12935,1948.8,4105.1
12935,1948.8,3605.1
12935,1948.8,3855.1
12935,1948.8,4105.1
12935,1948.8,2855.1
12935,1948.8,3105.1
12935,1948.8,3355.1
12935,1948.8,3605.1
12935,1948.8,3855.1
12935,1948.8,3105.1
12935,1948.8,3355.1
12935,1948.8,3605.1
12935,1948.8,3855.1
12935,1948.8,4105.1
12935,1948.8,3355.1
12935,1948.8,3605.1
12935,1948.8,3855.1
12935,1948.8,4105.1
12935,1948.8,3605.1
12935,1948.8,3855.1
12935,1948.8,4105.1
12935,1948.8,2105.1
12935,1948.8,2355.1
12935,1948.8,2605.1
12935,1948.8,2855.1
12935,1948.8,3105.1
12935,1948.8,2355.1
12935,1948.8,2605.1
12935,1948.8,2855.1
12935,1948.8,3105.1
12935,1948.8,3355.1
12935,1948.8,2605.1
12935,1948.8,2855.1
12935,1948.8,3105.1
12935,1948.8,3355.1
12935,1948.8,3605.1
12935,1948.8,2855.1
12935,1948.8,3105.1
12935,1948.8,3355.1
12935,1948.8,3605.1
12935,1948.8,3855.1
12935,1948.8,3105.1
12935,1948.8,3355.1
12935,1948.8,3605.1
12935,1948.8,3855.1
12935,1948.8,4105.1
12935,1948.8,2355.1
12935,1948.8,2605.1
12935,1948.8,2855.1
12935,1948.8,3105.1
12935,1948.8,3355.1
12935,1948.8,2605.1
12935,1948.8,2855.1
12935,1948.8,3105.1
12935,1948.8,3355.1
12935,1948.8,3605.1
12935,1948.8,2855.1
12935,1948.8,3105.1
12935,1948.8,3355.1
12935,1948.8,3605.1
12935,1948.8,3855.1
12935,1948.8,3105.1
12935,1948.8,3355.1
12935,1948.8,3605.1
12935,1948.8,3855.1
12935,1948.8,4105.1
12935,1948.8,3355.1
12935,1948.8,3605.1
12935,1948.8,3855.1
12935,1948.8,4105.1
12935,1948.8,2605.1
12935,1948.8,2855.1
12935,1948.8,3105.1
12935,1948.8,3355.1
12935,1948.8,3605.1
12935,1948.8,2855.1
12935,1948.8,3105.1
12935,1948.8,3355.1
12935,1948.8,3605.1
12935,1948.8,3855.1
12935,1948.8,3105.1
12935,1948.8,3355.1
12935,1948.8,3605.1
12935,1948.8,3855.1
12935,1948.8,4105.1
12935,1948.8,3355.1
12935,1948.8,3605.1
12935,1948.8,3855.1
12935,1948.8,4105.1
12935,1948.8,3605.1
12935,1948.8,3855.1
12935,1948.8,4105.1
12935,1948.8,2855.1
12935,1948.8,3105.1
12935,1948.8,3355.1
12935,1948.8,3605.1
12935,1948.8,3855.1
12935,1948.8,3105.1
12935,1948.8,3355.1
12935,1948.8,3605.1
12935,1948.8,3855.1
12935,1948.8,4105.1
12935,1948.8,3355.1
12935,1948.8,3605.1
12935,1948.8,3855.1
12935,1948.8,4105.1
12935,1948.8,3605.1
12935,1948.8,3855.1
12935,1948.8,4105.1
12935,1948.8,3105.1
12935,1948.8,3355.1
12935,1948.8,3605.1
12935,1948.8,3855.1
12935,1948.8,4105.1
12935,1948.8,3355.1
12935,1948.8,3605.1
12935,1948.8,3855.1
12935,1948.8,4105.1
12935,1948.8,3605.1
12935,1948.8,3855.1
12935,1948.8,4105.1
12935,1948.8,2355.1
12935,1948.8,2605.1
12935,1948.8,2855.1
12935,1948.8,3105.1
12935,1948.8,3355.1
12935,1948.8,2605.1
12935,1948.8,2855.1
12935,1948.8,3105.1
12935,1948.8,3355.1
12935,1948.8,3605.1
12935,1948.8,2855.1
12935,1948.8,3105.1
12935,1948.8,3355.1
12935,1948.8,3605.1
12935,1948.8,3855.1
12935,1948.8,3105.1
12935,1948.8,3355.1
12935,1948.8,3605.1
12935,1948.8,3855.1
12935,1948.8,4105.1
12935,1948.8,3355.1
12935,1948.8,3605.1
12935,1948.8,3855.1
12935,1948.8,4105.1
12935,1948.8,2605.1
12935,1948.8,2855.1
12935,1948.8,3105.1
12935,1948.8,3355.1
12935,1948.8,3605.1
12935,1948.8,2855.1
12935,1948.8,3105.1
12935,1948.8,3355.1
12935,1948.8,3605.1
12935,1948.8,3855.1
12935,1948.8,3105.1
12935,1948.8,3355.1
12935,1948.8,3605.1
12935,1948.8,3855.1
12935,1948.8,4105.1
12935,1948.8,3355.1
12935,1948.8,3605.1
12935,1948.8,3855.1
12935,1948.8,4105.1
12935,1948.8,3605.1
12935,1948.8,3855.1
12935,1948.8,4105.1
12935,1948.8,2855.1
12935,1948.8,3105.1
12935,1948.8,3355.1
12935,1948.8,3605.1
12935,1948.8,3855.1
12935,1948.8,3105.1
12935,1948.8,3355.1
12935,1948.8,3605.1
12935,1948.8,3855.1
12935,1948.8,4105.1
12935,1948.8,3355.1
12935,1948.8,3605.1
12935,1948.8,3855.1
12935,1948.8,4105.1
12935,1948.8,3605.1
12935,1948.8,3855.1
12935,1948.8,4105.1
12935,1948.8,3105.1
12935,1948.8,3355.1
12935,1948.8,3605.1
12935,1948.8,3855.1
12935,1948.8,4105.1
12935,1948.8,3355.1
12935,1948.8,3605.1
12935,1948.8,3855.1
12935,1948.8,4105.1
12935,1948.8,3605.1
12935,1948.8,3855.1
12935,1948.8,4105.1
12935,1948.8,2605.1
12935,1948.8,2855.1
12935,1948.8,3105.1
12935,1948.8,3355.1
12935,1948.8,3605.1
12935,1948.8,2855.1
12935,1948.8,3105.1
12935,1948.8,3355.1
12935,1948.8,3605.1
12935,1948.8,3855.1
12935,1948.8,3105.1
12935,1948.8,3355.1
12935,1948.8,3605.1
12935,1948.8,3855.1
12935,1948.8,4105.1
12935,1948.8,3355.1
12935,1948.8,3605.1
12935,1948.8,3855.1
12935,1948.8,4105.1
12935,1948.8,3605.1
12935,1948.8,3855.1
12935,1948.8,4105.1
12935,1948.8,2855.1
12935,1948.8,3105.1
12935,1948.8,3355.1
12935,1948.8,3605.1
12935,1948.8,3855.1
12935,1948.8,3105.1
12935,1948.8,3355.1
12935,1948.8,3605.1
12935,1948.8,3855.1
12935,1948.8,4105.1
12935,1948.8,3355.1
12935,1948.8,3605.1
12935,1948.8,3855.1
12935,1948.8,4105.1
12935,1948.8,3605.1
12935,1948.8,3855.1
12935,1948.8,4105.1
12935,1948.8,3105.1
12935,1948.8,3355.1
12935,1948.8,3605.1
12935,1948.8,3855.1
12935,1948.8,4105.1
12935,1948.8,3355.1
12935,1948.8,3605.1
12935,1948.8,3855.1
12935,1948.8,4105.1
12935,1948.8,3605.1
12935,1948.8,3855.1
12935,1948.8,4105.1
12935,1948.8,2105.1
12935,1948.8,2355.1
12935,1948.8,2605.1
12935,1948.8,2855.1
12935,1948.8,3105.1
12935,1948.8,2355.1
12935,1948.8,2605.1
12935,1948.8,2855.1
12935,1948.8,3105.1
12935,1948.8,3355.1
12935,1948.8,2605.1
12935,1948.8,2855.1
12935,1948.8,3105.1
12935,1948.8,3355.1
12935,1948.8,3605.1
12935,1948.8,2855.1
12935,1948.8,3105.1
12935,1948.8,3355.1
12935,1948.8,3605.1
12935,1948.8,3855.1
12935,1948.8,3105.1
12935,1948.8,3355.1
12935,1948.8,3605.1
12935,1948.8,3855.1
12935,1948.8,4105.1
12935,1948.8,2355.1
12935,1948.8,2605.1
12935,1948.8,2855.1
12935,1948.8,3105.1
12935,1948.8,3355.1
12935,1948.8,2605.1
12935,1948.8,2855.1
12935,1948.8,3105.1
12935,1948.8,3355.1
12935,1948.8,3605.1
12935,1948.8,2855.1
12935,1948.8,3105.1
12935,1948.8,3355.1
12935,1948.8,3605.1
12935,1948.8,3855.1
12935,1948.8,3105.1
12935,1948.8,3355.1
12935,1948.8,3605.1
12935,1948.8,3855.1
12935,1948.8,4105.1
12935,1948.8,3355.1
12935,1948.8,3605.1
12935,1948.8,3855.1
12935,1948.8,4105.1
12935,1948.8,2605.1
12935,1948.8,2855.1
12935,1948.8,3105.1
12935,1948.8,3355.1
12935,1948.8,3605.1
12935,1948.8,2855.1
12935,1948.8,3105.1
12935,1948.8,3355.1
12935,1948.8,3605.1
12935,1948.8,3855.1
12935,1948.8,3105.1
12935,1948.8,3355.1
12935,1948.8,3605.1
12935,1948.8,3855.1
12935,1948.8,4105.1
12935,1948.8,3355.1
12935,1948.8,3605.1
12935,1948.8,3855.1
12935,1948.8,4105.1
12935,1948.8,3605.1
12935,1948.8,3855.1
12935,1948.8,4105.1
12935,1948.8,2855.1
12935,1948.8,3105.1
12935,1948.8,3355.1
12935,1948.8,3605.1
12935,1948.8,3855.1
12935,1948.8,3105.1
12935,1948.8,3355.1
12935,1948.8,3605.1
12935,1948.8,3855.1
12935,1948.8,4105.1
12935,1948.8,3355.1
12935,1948.8,3605.1
12935,1948.8,3855.1
12935,1948.8,4105.1
12935,1948.8,3605.1
12935,1948.8,3855.1
12935,1948.8,4105.1
12935,1948.8,3105.1
12935,1948.8,3355.1
12935,1948.8,3605.1
12935,1948.8,3855.1
12935,1948.8,4105.1
12935,1948.8,3355.1
12935,1948.8,3605.1
12935,1948.8,3855.1
12935,1948.8,4105.1
12935,1948.8,3605.1
12935,1948.8,3855.1
12935,1948.8,4105.1
12935,1948.8,2355.1
12935,1948.8,2605.1
12935,1948.8,2855.1
12935,1948.8,3105.1
12935,1948.8,3355.1
12935,1948.8,2605.1
12935,1948.8,2855.1
12935,1948.8,3105.1
12935,1948.8,3355.1
12935,1948.8,3605.1
12935,1948.8,2855.1
12935,1948.8,3105.1
12935,1948.8,3355.1
12935,1948.8,3605.1
12935,1948.8,3855.1
12935,1948.8,3105.1
12935,1948.8,3355.1
12935,1948.8,3605.1
12935,1948.8,3855.1
12935,1948.8,4105.1
12935,1948.8,3355.1
12935,1948.8,3605.1
12935,1948.8,3855.1
12935,1948.8,4105.1
12935,1948.8,2605.1
12935,1948.8,2855.1
12935,1948.8,3105.1
12935,1948.8,3355.1
12935,1948.8,3605.1
12935,1948.8,2855.1
12935,1948.8,3105.1
12935,1948.8,3355.1
12935,1948.8,3605.1
12935,1948.8,3855.1
12935,1948.8,3105.1
12935,1948.8,3355.1
12935,1948.8,3605.1
12935,1948.8,3855.1
12935,1948.8,4105.1
12935,1948.8,3355.1
12935,1948.8,3605.1
12935,1948.8,3855.1
12935,1948.8,4105.1
12935,1948.8,3605.1
12935,1948.8,3855.1
12935,1948.8,4105.1
12935,1948.8,2855.1
12935,1948.8,3105.1
12935,1948.8,3355.1
12935,1948.8,3605.1
12935,1948.8,3855.1
12935,1948.8,3105.1
12935,1948.8,3355.1
12935,1948.8,3605.1
12935,1948.8,3855.1
12935,1948.8,4105.1
12935,1948.8,3355.1
12935,1948.8,3605.1
12935,1948.8,3855.1
12935,1948.8,4105.1
12935,1948.8,3605.1
12935,1948.8,3855.1
12935,1948.8,4105.1
12935,1948.8,3105.1
12935,1948.8,3355.1
12935,1948.8,3605.1
12935,1948.8,3855.1
12935,1948.8,4105.1
12935,1948.8,3355.1
12935,1948.8,3605.1
12935,1948.8,3855.1
12935,1948.8,4105.1
12935,1948.8,3605.1
12935,1948.8,3855.1
12935,1948.8,4105.1
12935,1948.8,2605.1
12935,1948.8,2855.1
12935,1948.8,3105.1
12935,1948.8,3355.1
12935,1948.8,3605.1
12935,1948.8,2855.1
12935,1948.8,3105.1
12935,1948.8,3355.1
12935,1948.8,3605.1
12935,1948.8,3855.1
12935,1948.8,3105.1
12935,1948.8,3355.1
12935,1948.8,3605.1
12935,1948.8,3855.1
12935,1948.8,4105.1
12935,1948.8,3355.1
12935,1948.8,3605.1
12935,1948.8,3855.1
12935,1948.8,4105.1
12935,1948.8,3605.1
12935,1948.8,3855.1
12935,1948.8,4105.1
12935,1948.8,2855.1
12935,1948.8,3105.1
12935,1948.8,3355.1
12935,1948.8,3605.1
12935,1948.8,3855.1
12935,1948.8,3105.1
12935,1948.8,3355.1
12935,1948.8,3605.1
12935,1948.8,3855.1
12935,1948.8,4105.1
12935,1948.8,3355.1
12935,1948.8,3605.1
12935,1948.8,3855.1
12935,1948.8,4105.1
12935,1948.8,3605.1
12935,1948.8,3855.1
12935,1948.8,4105.1
12935,1948.8,3105.1
12935,1948.8,3355.1
12935,1948.8,3605.1
12935,1948.8,3855.1
12935,1948.8,4105.1
12935,1948.8,3355.1
12935,1948.8,3605.1
12935,1948.8,3855.1
12935,1948.8,4105.1
12935,1948.8,3605.1
12935,1948.8,3855.1
12935,1948.8,4105.1
12935,1948.8,1605.1
12935,1948.8,1855.1
12935,1948.8,2105.1
12935,1948.8,2355.1
12935,1948.8,2605.1
12935,1948.8,1855.1
12935,1948.8,2105.1
12935,1948.8,2355.1
12935,1948.8,2605.1
12935,1948.8,2855.1
12935,1948.8,2105.1
12935,1948.8,2355.1
12935,1948.8,2605.1
12935,1948.8,2855.1
12935,1948.8,3105.1
12935,1948.8,2355.1
12935,1948.8,2605.1
12935,1948.8,2855.1
12935,1948.8,3105.1
12935,1948.8,3355.1
12935,1948.8,2605.1
12935,1948.8,2855.1
12935,1948.8,3105.1
12935,1948.8,3355.1
12935,1948.8,3605.1
12935,1948.8,1855.1
12935,1948.8,2105.1
12935,1948.8,2355.1
12935,1948.8,2605.1
12935,1948.8,2855.1
12935,1948.8,2105.1
12935,1948.8,2355.1
12935,1948.8,2605.1
12935,1948.8,2855.1
12935,1948.8,3105.1
12935,1948.8,2355.1
12935,1948.8,2605.1
12935,1948.8,2855.1
12935,1948.8,3105.1
12935,1948.8,3355.1
12935,1948.8,2605.1
12935,1948.8,2855.1
12935,1948.8,3105.1
12935,1948.8,3355.1
12935,1948.8,3605.1
12935,1948.8,2855.1
12935,1948.8,3105.1
12935,1948.8,3355.1
12935,1948.8,3605.1
12935,1948.8,3855.1
12935,1948.8,2105.1
12935,1948.8,2355.1
12935,1948.8,2605.1
12935,1948.8,2855.1
12935,1948.8,3105.1
12935,1948.8,2355.1
12935,1948.8,2605.1
12935,1948.8,2855.1
12935,1948.8,3105.1
12935,1948.8,3355.1
12935,1948.8,2605.1
12935,1948.8,2855.1
12935,1948.8,3105.1
12935,1948.8,3355.1
12935,1948.8,3605.1
12935,1948.8,2855.1
12935,1948.8,3105.1
12935,1948.8,3355.1
12935,1948.8,3605.1
12935,1948.8,3855.1
12935,1948.8,3105.1
12935,1948.8,3355.1
12935,1948.8,3605.1
12935,1948.8,3855.1
12935,1948.8,4105.1
12935,1948.8,2355.1
12935,1948.8,2605.1
12935,1948.8,2855.1
12935,1948.8,3105.1
12935,1948.8,3355.1
12935,1948.8,2605.1
12935,1948.8,2855.1
12935,1948.8,3105.1
12935,1948.8,3355.1
12935,1948.8,3605.1
12935,1948.8,2855.1
12935,1948.8,3105.1
12935,1948.8,3355.1
12935,1948.8,3605.1
12935,1948.8,3855.1
12935,1948.8,3105.1
12935,1948.8,3355.1
12935,1948.8,3605.1
12935,1948.8,3855.1
12935,1948.8,4105.1
12935,1948.8,3355.1
12935,1948.8,3605.1
12935,1948.8,3855.1
12935,1948.8,4105.1
12935,1948.8,2605.1
12935,1948.8,2855.1
12935,1948.8,3105.1
12935,1948.8,3355.1
12935,1948.8,3605.1
12935,1948.8,2855.1
12935,1948.8,3105.1
12935,1948.8,3355.1
12935,1948.8,3605.1
12935,1948.8,3855.1
12935,1948.8,3105.1
12935,1948.8,3355.1
12935,1948.8,3605.1
12935,1948.8,3855.1
12935,1948.8,4105.1
12935,1948.8,3355.1
12935,1948.8,3605.1
12935,1948.8,3855.1
12935,1948.8,4105.1
12935,1948.8,3605.1
12935,1948.8,3855.1
12935,1948.8,4105.1
12935,1948.8,1855.1
12935,1948.8,2105.1
12935,1948.8,2355.1
12935,1948.8,2605.1
12935,1948.8,2855.1
12935,1948.8,2105.1
12935,1948.8,2355.1
12935,1948.8,2605.1
12935,1948.8,2855.1
12935,1948.8,3105.1
12935,1948.8,2355.1
12935,1948.8,2605.1
12935,1948.8,2855.1
12935,1948.8,3105.1
12935,1948.8,3355.1
12935,1948.8,2605.1
12935,1948.8,2855.1
12935,1948.8,3105.1
12935,1948.8,3355.1
12935,1948.8,3605.1
12935,1948.8,2855.1
12935,1948.8,3105.1
12935,1948.8,3355.1
12935,1948.8,3605.1
12935,1948.8,3855.1
12935,1948.8,2105.1
12935,1948.8,2355.1
12935,1948.8,2605.1
12935,1948.8,2855.1
12935,1948.8,3105.1
12935,1948.8,2355.1
12935,1948.8,2605.1
12935,1948.8,2855.1
12935,1948.8,3105.1
12935,1948.8,3355.1
12935,1948.8,2605.1
12935,1948.8,2855.1
12935,1948.8,3105.1
12935,1948.8,3355.1
12935,1948.8,3605.1
12935,1948.8,2855.1
12935,1948.8,3105.1
12935,1948.8,3355.1
12935,1948.8,3605.1
12935,1948.8,3855.1
12935,1948.8,3105.1
12935,1948.8,3355.1
12935,1948.8,3605.1
12935,1948.8,3855.1
12935,1948.8,4105.1
12935,1948.8,2355.1
12935,1948.8,2605.1
12935,1948.8,2855.1
12935,1948.8,3105.1
12935,1948.8,3355.1
12935,1948.8,2605.1
12935,1948.8,2855.1
12935,1948.8,3105.1
12935,1948.8,3355.1
12935,1948.8,3605.1
12935,1948.8,2855.1
12935,1948.8,3105.1
12935,1948.8,3355.1
12935,1948.8,3605.1
12935,1948.8,3855.1
12935,1948.8,3105.1
12935,1948.8,3355.1
12935,1948.8,3605.1
12935,1948.8,3855.1
12935,1948.8,4105.1
12935,1948.8,3355.1
12935,1948.8,3605.1
12935,1948.8,3855.1
12935,1948.8,4105.1
12935,1948.8,2605.1
12935,1948.8,2855.1
12935,1948.8,3105.1
12935,1948.8,3355.1
12935,1948.8,3605.1
12935,1948.8,2855.1
12935,1948.8,3105.1
12935,1948.8,3355.1
12935,1948.8,3605.1
12935,1948.8,3855.1
12935,1948.8,3105.1
12935,1948.8,3355.1
12935,1948.8,3605.1
12935,1948.8,3855.1
12935,1948.8,4105.1
12935,1948.8,3355.1
12935,1948.8,3605.1
12935,1948.8,3855.1
12935,1948.8,4105.1
12935,1948.8,3605.1
12935,1948.8,3855.1
12935,1948.8,4105.1
12935,1948.8,2855.1
12935,1948.8,3105.1
12935,1948.8,3355.1
12935,1948.8,3605.1
12935,1948.8,3855.1
12935,1948.8,3105.1
12935,1948.8,3355.1
12935,1948.8,3605.1
12935,1948.8,3855.1
12935,1948.8,4105.1
12935,1948.8,3355.1
12935,1948.8,3605.1
12935,1948.8,3855.1
12935,1948.8,4105.1
12935,1948.8,3605.1
12935,1948.8,3855.1
12935,1948.8,4105.1
12935,1948.8,2105.1
12935,1948.8,2355.1
12935,1948.8,2605.1
12935,1948.8,2855.1
12935,1948.8,3105.1
12935,1948.8,2355.1
12935,1948.8,2605.1
12935,1948.8,2855.1
12935,1948.8,3105.1
12935,1948.8,3355.1
12935,1948.8,2605.1
12935,1948.8,2855.1
12935,1948.8,3105.1
12935,1948.8,3355.1
12935,1948.8,3605.1
12935,1948.8,2855.1
12935,1948.8,3105.1
12935,1948.8,3355.1
12935,1948.8,3605.1
12935,1948.8,3855.1
12935,1948.8,3105.1
12935,1948.8,3355.1
12935,1948.8,3605.1
12935,1948.8,3855.1
12935,1948.8,4105.1
12935,1948.8,2355.1
12935,1948.8,2605.1
12935,1948.8,2855.1
12935,1948.8,3105.1
12935,1948.8,3355.1
12935,1948.8,2605.1
12935,1948.8,2855.1
12935,1948.8,3105.1
12935,1948.8,3355.1
12935,1948.8,3605.1
12935,1948.8,2855.1
12935,1948.8,3105.1
12935,1948.8,3355.1
12935,1948.8,3605.1
12935,1948.8,3855.1
12935,1948.8,3105.1
12935,1948.8,3355.1
12935,1948.8,3605.1
12935,1948.8,3855.1
12935,1948.8,4105.1
12935,1948.8,3355.1
12935,1948.8,3605.1
12935,1948.8,3855.1
12935,1948.8,4105.1
12935,1948.8,2605.1
12935,1948.8,2855.1
12935,1948.8,3105.1
12935,1948.8,3355.1
12935,1948.8,3605.1
12935,1948.8,2855.1
12935,1948.8,3105.1
12935,1948.8,3355.1
12935,1948.8,3605.1
12935,1948.8,3855.1
12935,1948.8,3105.1
12935,1948.8,3355.1
12935,1948.8,3605.1
12935,1948.8,3855.1
12935,1948.8,4105.1
12935,1948.8,3355.1
12935,1948.8,3605.1
12935,1948.8,3855.1
12935,1948.8,4105.1
12935,1948.8,3605.1
12935,1948.8,3855.1
12935,1948.8,4105.1
12935,1948.8,2855.1
12935,1948.8,3105.1
12935,1948.8,3355.1
12935,1948.8,3605.1
12935,1948.8,3855.1
12935,1948.8,3105.1
12935,1948.8,3355.1
12935,1948.8,3605.1
12935,1948.8,3855.1
12935,1948.8,4105.1
12935,1948.8,3355.1
12935,1948.8,3605.1
12935,1948.8,3855.1
12935,1948.8,4105.1
12935,1948.8,3605.1
12935,1948.8,3855.1
12935,1948.8,4105.1
12935,1948.8,3105.1
12935,1948.8,3355.1
12935,1948.8,3605.1
12935,1948.8,3855.1
12935,1948.8,4105.1
12935,1948.8,3355.1
12935,1948.8,3605.1
12935,1948.8,3855.1
12935,1948.8,4105.1
12935,1948.8,3605.1
12935,1948.8,3855.1
12935,1948.8,4105.1
12935,1948.8,2355.1
12935,1948.8,2605.1
12935,1948.8,2855.1
12935,1948.8,3105.1
12935,1948.8,3355.1
12935,1948.8,2605.1
12935,1948.8,2855.1
12935,1948.8,3105.1
12935,1948.8,3355.1
12935,1948.8,3605.1
12935,1948.8,2855.1
12935,1948.8,3105.1
12935,1948.8,3355.1
12935,1948.8,3605.1
12935,1948.8,3855.1
12935,1948.8,3105.1
12935,1948.8,3355.1
12935,1948.8,3605.1
12935,1948.8,3855.1
12935,1948.8,4105.1
12935,1948.8,3355.1
12935,1948.8,3605.1
12935,1948.8,3855.1
12935,1948.8,4105.1
12935,1948.8,2605.1
12935,1948.8,2855.1
12935,1948.8,3105.1
12935,1948.8,3355.1
12935,1948.8,3605.1
12935,1948.8,2855.1
12935,1948.8,3105.1
12935,1948.8,3355.1
12935,1948.8,3605.1
12935,1948.8,3855.1
12935,1948.8,3105.1
12935,1948.8,3355.1
12935,1948.8,3605.1
12935,1948.8,3855.1
12935,1948.8,4105.1
12935,1948.8,3355.1
12935,1948.8,3605.1
12935,1948.8,3855.1
12935,1948.8,4105.1
12935,1948.8,3605.1
12935,1948.8,3855.1
12935,1948.8,4105.1
12935,1948.8,2855.1
12935,1948.8,3105.1
12935,1948.8,3355.1
12935,1948.8,3605.1
12935,1948.8,3855.1
12935,1948.8,3105.1
12935,1948.8,3355.1
12935,1948.8,3605.1
12935,1948.8,3855.1
12935,1948.8,4105.1
12935,1948.8,3355.1
12935,1948.8,3605.1
12935,1948.8,3855.1
12935,1948.8,4105.1
12935,1948.8,3605.1
12935,1948.8,3855.1
12935,1948.8,4105.1
12935,1948.8,3105.1
12935,1948.8,3355.1
12935,1948.8,3605.1
12935,1948.8,3855.1
12935,1948.8,4105.1
12935,1948.8,3355.1
12935,1948.8,3605.1
12935,1948.8,3855.1
12935,1948.8,4105.1
12935,1948.8,3605.1
12935,1948.8,3855.1
12935,1948.8,4105.1
12935,1948.8,2605.1
12935,1948.8,2855.1
12935,1948.8,3105.1
12935,1948.8,3355.1
12935,1948.8,3605.1
12935,1948.8,2855.1
12935,1948.8,3105.1
12935,1948.8,3355.1
12935,1948.8,3605.1
12935,1948.8,3855.1
12935,1948.8,3105.1
12935,1948.8,3355.1
12935,1948.8,3605.1
12935,1948.8,3855.1
12935,1948.8,4105.1
12935,1948.8,3355.1
12935,1948.8,3605.1
12935,1948.8,3855.1
12935,1948.8,4105.1
12935,1948.8,3605.1
12935,1948.8,3855.1
12935,1948.8,4105.1
12935,1948.8,2855.1
12935,1948.8,3105.1
12935,1948.8,3355.1
12935,1948.8,3605.1
12935,1948.8,3855.1
12935,1948.8,3105.1
12935,1948.8,3355.1
12935,1948.8,3605.1
12935,1948.8,3855.1
12935,1948.8,4105.1
12935,1948.8,3355.1
12935,1948.8,3605.1
12935,1948.8,3855.1
12935,1948.8,4105.1
12935,1948.8,3605.1
12935,1948.8,3855.1
12935,1948.8,4105.1
12935,1948.8,3105.1
12935,1948.8,3355.1
12935,1948.8,3605.1
12935,1948.8,3855.1
12935,1948.8,4105.1
12935,1948.8,3355.1
12935,1948.8,3605.1
12935,1948.8,3855.1
12935,1948.8,4105.1
12935,1948.8,3605.1
12935,1948.8,3855.1
12935,1948.8,4105.1
12935,1948.8,1855.1
12935,1948.8,2105.1
12935,1948.8,2355.1
12935,1948.8,2605.1
12935,1948.8,2855.1
12935,1948.8,2105.1
12935,1948.8,2355.1
12935,1948.8,2605.1
12935,1948.8,2855.1
12935,1948.8,3105.1
12935,1948.8,2355.1
12935,1948.8,2605.1
12935,1948.8,2855.1
12935,1948.8,3105.1
12935,1948.8,3355.1
12935,1948.8,2605.1
12935,1948.8,2855.1
12935,1948.8,3105.1
12935,1948.8,3355.1
12935,1948.8,3605.1
12935,1948.8,2855.1
12935,1948.8,3105.1
12935,1948.8,3355.1
12935,1948.8,3605.1
12935,1948.8,3855.1
12935,1948.8,2105.1
12935,1948.8,2355.1
12935,1948.8,2605.1
12935,1948.8,2855.1
12935,1948.8,3105.1
12935,1948.8,2355.1
12935,1948.8,2605.1
12935,1948.8,2855.1
12935,1948.8,3105.1
12935,1948.8,3355.1
12935,1948.8,2605.1
12935,1948.8,2855.1
12935,1948.8,3105.1
12935,1948.8,3355.1
12935,1948.8,3605.1
12935,1948.8,2855.1
12935,1948.8,3105.1
12935,1948.8,3355.1
12935,1948.8,3605.1
12935,1948.8,3855.1
12935,1948.8,3105.1
12935,1948.8,3355.1
12935,1948.8,3605.1
12935,1948.8,3855.1
12935,1948.8,4105.1
12935,1948.8,2355.1
12935,1948.8,2605.1
12935,1948.8,2855.1
12935,1948.8,3105.1
12935,1948.8,3355.1
12935,1948.8,2605.1
12935,1948.8,2855.1
12935,1948.8,3105.1
12935,1948.8,3355.1
12935,1948.8,3605.1
12935,1948.8,2855.1
12935,1948.8,3105.1
12935,1948.8,3355.1
12935,1948.8,3605.1
12935,1948.8,3855.1
12935,1948.8,3105.1
12935,1948.8,3355.1
12935,1948.8,3605.1
12935,1948.8,3855.1
12935,1948.8,4105.1
12935,1948.8,3355.1
12935,1948.8,3605.1
12935,1948.8,3855.1
12935,1948.8,4105.1
12935,1948.8,2605.1
12935,1948.8,2855.1
12935,1948.8,3105.1
12935,1948.8,3355.1
12935,1948.8,3605.1
12935,1948.8,2855.1
12935,1948.8,3105.1
12935,1948.8,3355.1
12935,1948.8,3605.1
12935,1948.8,3855.1
12935,1948.8,3105.1
12935,1948.8,3355.1
12935,1948.8,3605.1
12935,1948.8,3855.1
12935,1948.8,4105.1
12935,1948.8,3355.1
12935,1948.8,3605.1
12935,1948.8,3855.1
12935,1948.8,4105.1
12935,1948.8,3605.1
12935,1948.8,3855.1
12935,1948.8,4105.1
12935,1948.8,2855.1
12935,1948.8,3105.1
12935,1948.8,3355.1
12935,1948.8,3605.1
12935,1948.8,3855.1
12935,1948.8,3105.1
12935,1948.8,3355.1
12935,1948.8,3605.1
12935,1948.8,3855.1
12935,1948.8,4105.1
12935,1948.8,3355.1
12935,1948.8,3605.1
12935,1948.8,3855.1
12935,1948.8,4105.1
12935,1948.8,3605.1
12935,1948.8,3855.1
12935,1948.8,4105.1
12935,1948.8,2105.1
12935,1948.8,2355.1
12935,1948.8,2605.1
12935,1948.8,2855.1
12935,1948.8,3105.1
12935,1948.8,2355.1
12935,1948.8,2605.1
12935,1948.8,2855.1
12935,1948.8,3105.1
12935,1948.8,3355.1
12935,1948.8,2605.1
12935,1948.8,2855.1
12935,1948.8,3105.1
12935,1948.8,3355.1
12935,1948.8,3605.1
12935,1948.8,2855.1
12935,1948.8,3105.1
12935,1948.8,3355.1
12935,1948.8,3605.1
12935,1948.8,3855.1
12935,1948.8,3105.1
12935,1948.8,3355.1
12935,1948.8,3605.1
12935,1948.8,3855.1
12935,1948.8,4105.1
12935,1948.8,2355.1
12935,1948.8,2605.1
12935,1948.8,2855.1
12935,1948.8,3105.1
12935,1948.8,3355.1
12935,1948.8,2605.1
12935,1948.8,2855.1
12935,1948.8,3105.1
12935,1948.8,3355.1
12935,1948.8,3605.1
12935,1948.8,2855.1
12935,1948.8,3105.1
12935,1948.8,3355.1
12935,1948.8,3605.1
12935,1948.8,3855.1
12935,1948.8,3105.1
12935,1948.8,3355.1
12935,1948.8,3605.1
12935,1948.8,3855.1
12935,1948.8,4105.1
12935,1948.8,3355.1
12935,1948.8,3605.1
12935,1948.8,3855.1
12935,1948.8,4105.1
12935,1948.8,2605.1
12935,1948.8,2855.1
12935,1948.8,3105.1
12935,1948.8,3355.1
12935,1948.8,3605.1
12935,1948.8,2855.1
12935,1948.8,3105.1
12935,1948.8,3355.1
12935,1948.8,3605.1
12935,1948.8,3855.1
12935,1948.8,3105.1
12935,1948.8,3355.1
12935,1948.8,3605.1
12935,1948.8,3855.1
12935,1948.8,4105.1
12935,1948.8,3355.1
12935,1948.8,3605.1
12935,1948.8,3855.1
12935,1948.8,4105.1
12935,1948.8,3605.1
12935,1948.8,3855.1
12935,1948.8,4105.1
12935,1948.8,2855.1
12935,1948.8,3105.1
12935,1948.8,3355.1
12935,1948.8,3605.1
12935,1948.8,3855.1
12935,1948.8,3105.1
12935,1948.8,3355.1
12935,1948.8,3605.1
12935,1948.8,3855.1
12935,1948.8,4105.1
12935,1948.8,3355.1
12935,1948.8,3605.1
12935,1948.8,3855.1
12935,1948.8,4105.1
12935,1948.8,3605.1
12935,1948.8,3855.1
12935,1948.8,4105.1
12935,1948.8,3105.1
12935,1948.8,3355.1
12935,1948.8,3605.1
12935,1948.8,3855.1
12935,1948.8,4105.1
12935,1948.8,3355.1
12935,1948.8,3605.1
12935,1948.8,3855.1
12935,1948.8,4105.1
12935,1948.8,3605.1
12935,1948.8,3855.1
12935,1948.8,4105.1
12935,1948.8,2355.1
12935,1948.8,2605.1
12935,1948.8,2855.1
12935,1948.8,3105.1
12935,1948.8,3355.1
12935,1948.8,2605.1
12935,1948.8,2855.1
12935,1948.8,3105.1
12935,1948.8,3355.1
12935,1948.8,3605.1
12935,1948.8,2855.1
12935,1948.8,3105.1
12935,1948.8,3355.1
12935,1948.8,3605.1
12935,1948.8,3855.1
12935,1948.8,3105.1
12935,1948.8,3355.1
12935,1948.8,3605.1
12935,1948.8,3855.1
12935,1948.8,4105.1
12935,1948.8,3355.1
12935,1948.8,3605.1
12935,1948.8,3855.1
12935,1948.8,4105.1
12935,1948.8,2605.1
12935,1948.8,2855.1
12935,1948.8,3105.1
12935,1948.8,3355.1
12935,1948.8,3605.1
12935,1948.8,2855.1
12935,1948.8,3105.1
12935,1948.8,3355.1
12935,1948.8,3605.1
12935,1948.8,3855.1
12935,1948.8,3105.1
12935,1948.8,3355.1
12935,1948.8,3605.1
12935,1948.8,3855.1
12935,1948.8,4105.1
12935,1948.8,3355.1
12935,1948.8,3605.1
12935,1948.8,3855.1
12935,1948.8,4105.1
12935,1948.8,3605.1
12935,1948.8,3855.1
12935,1948.8,4105.1
12935,1948.8,2855.1
12935,1948.8,3105.1
12935,1948.8,3355.1
12935,1948.8,3605.1
12935,1948.8,3855.1
12935,1948.8,3105.1
12935,1948.8,3355.1
12935,1948.8,3605.1
12935,1948.8,3855.1
12935,1948.8,4105.1
12935,1948.8,3355.1
12935,1948.8,3605.1
12935,1948.8,3855.1
12935,1948.8,4105.1
12935,1948.8,3605.1
12935,1948.8,3855.1
12935,1948.8,4105.1
12935,1948.8,3105.1
12935,1948.8,3355.1
12935,1948.8,3605.1
12935,1948.8,3855.1
12935,1948.8,4105.1
12935,1948.8,3355.1
12935,1948.8,3605.1
12935,1948.8,3855.1
12935,1948.8,4105.1
12935,1948.8,3605.1
12935,1948.8,3855.1
12935,1948.8,4105.1
12935,1948.8,2605.1
12935,1948.8,2855.1
12935,1948.8,3105.1
12935,1948.8,3355.1
12935,1948.8,3605.1
12935,1948.8,2855.1
12935,1948.8,3105.1
12935,1948.8,3355.1
12935,1948.8,3605.1
12935,1948.8,3855.1
12935,1948.8,3105.1
12935,1948.8,3355.1
12935,1948.8,3605.1
12935,1948.8,3855.1
12935,1948.8,4105.1
12935,1948.8,3355.1
12935,1948.8,3605.1
12935,1948.8,3855.1
12935,1948.8,4105.1
12935,1948.8,3605.1
12935,1948.8,3855.1
12935,1948.8,4105.1
12935,1948.8,2855.1
12935,1948.8,3105.1
12935,1948.8,3355.1
12935,1948.8,3605.1
12935,1948.8,3855.1
12935,1948.8,3105.1
12935,1948.8,3355.1
12935,1948.8,3605.1
12935,1948.8,3855.1
12935,1948.8,4105.1
12935,1948.8,3355.1
12935,1948.8,3605.1
12935,1948.8,3855.1
12935,1948.8,4105.1
12935,1948.8,3605.1
12935,1948.8,3855.1
12935,1948.8,4105.1
12935,1948.8,3105.1
12935,1948.8,3355.1
12935,1948.8,3605.1
12935,1948.8,3855.1
12935,1948.8,4105.1
12935,1948.8,3355.1
12935,1948.8,3605.1
12935,1948.8,3855.1
12935,1948.8,4105.1
12935,1948.8,3605.1
12935,1948.8,3855.1
12935,1948.8,4105.1
12935,1948.8,2105.1
12935,1948.8,2355.1
12935,1948.8,2605.1
12935,1948.8,2855.1
12935,1948.8,3105.1
12935,1948.8,2355.1
12935,1948.8,2605.1
12935,1948.8,2855.1
12935,1948.8,3105.1
12935,1948.8,3355.1
12935,1948.8,2605.1
12935,1948.8,2855.1
12935,1948.8,3105.1
12935,1948.8,3355.1
12935,1948.8,3605.1
12935,1948.8,2855.1
12935,1948.8,3105.1
12935,1948.8,3355.1
12935,1948.8,3605.1
12935,1948.8,3855.1
12935,1948.8,3105.1
12935,1948.8,3355.1
12935,1948.8,3605.1
12935,1948.8,3855.1
12935,1948.8,4105.1
12935,1948.8,2355.1
12935,1948.8,2605.1
12935,1948.8,2855.1
12935,1948.8,3105.1
12935,1948.8,3355.1
12935,1948.8,2605.1
12935,1948.8,2855.1
12935,1948.8,3105.1
12935,1948.8,3355.1
12935,1948.8,3605.1
12935,1948.8,2855.1
12935,1948.8,3105.1
12935,1948.8,3355.1
12935,1948.8,3605.1
12935,1948.8,3855.1
12935,1948.8,3105.1
12935,1948.8,3355.1
12935,1948.8,3605.1
12935,1948.8,3855.1
12935,1948.8,4105.1
12935,1948.8,3355.1
12935,1948.8,3605.1
12935,1948.8,3855.1
12935,1948.8,4105.1
12935,1948.8,2605.1
12935,1948.8,2855.1
12935,1948.8,3105.1
12935,1948.8,3355.1
12935,1948.8,3605.1
12935,1948.8,2855.1
12935,1948.8,3105.1
12935,1948.8,3355.1
12935,1948.8,3605.1
12935,1948.8,3855.1
12935,1948.8,3105.1
12935,1948.8,3355.1
12935,1948.8,3605.1
12935,1948.8,3855.1
12935,1948.8,4105.1
12935,1948.8,3355.1
12935,1948.8,3605.1
12935,1948.8,3855.1
12935,1948.8,4105.1
12935,1948.8,3605.1
12935,1948.8,3855.1
12935,1948.8,4105.1
12935,1948.8,2855.1
12935,1948.8,3105.1
12935,1948.8,3355.1
12935,1948.8,3605.1
12935,1948.8,3855.1
12935,1948.8,3105.1
12935,1948.8,3355.1
12935,1948.8,3605.1
12935,1948.8,3855.1
12935,1948.8,4105.1
12935,1948.8,3355.1
12935,1948.8,3605.1
12935,1948.8,3855.1
12935,1948.8,4105.1
12935,1948.8,3605.1
12935,1948.8,3855.1
12935,1948.8,4105.1
12935,1948.8,3105.1
12935,1948.8,3355.1
12935,1948.8,3605.1
12935,1948.8,3855.1
12935,1948.8,4105.1
12935,1948.8,3355.1
12935,1948.8,3605.1
12935,1948.8,3855.1
12935,1948.8,4105.1
12935,1948.8,3605.1
12935,1948.8,3855.1
12935,1948.8,4105.1
12935,1948.8,2355.1
12935,1948.8,2605.1
12935,1948.8,2855.1
12935,1948.8,3105.1
12935,1948.8,3355.1
12935,1948.8,2605.1
12935,1948.8,2855.1
12935,1948.8,3105.1
12935,1948.8,3355.1
12935,1948.8,3605.1
12935,1948.8,2855.1
12935,1948.8,3105.1
12935,1948.8,3355.1
12935,1948.8,3605.1
12935,1948.8,3855.1
12935,1948.8,3105.1
12935,1948.8,3355.1
12935,1948.8,3605.1
12935,1948.8,3855.1
12935,1948.8,4105.1
12935,1948.8,3355.1
12935,1948.8,3605.1
12935,1948.8,3855.1
12935,1948.8,4105.1
12935,1948.8,2605.1
12935,1948.8,2855.1
12935,1948.8,3105.1
12935,1948.8,3355.1
12935,1948.8,3605.1
12935,1948.8,2855.1
12935,1948.8,3105.1
12935,1948.8,3355.1
12935,1948.8,3605.1
12935,1948.8,3855.1
12935,1948.8,3105.1
12935,1948.8,3355.1
12935,1948.8,3605.1
12935,1948.8,3855.1
12935,1948.8,4105.1
12935,1948.8,3355.1
12935,1948.8,3605.1
12935,1948.8,3855.1
12935,1948.8,4105.1
12935,1948.8,3605.1
12935,1948.8,3855.1
12935,1948.8,4105.1
12935,1948.8,2855.1
12935,1948.8,3105.1
12935,1948.8,3355.1
12935,1948.8,3605.1
12935,1948.8,3855.1
12935,1948.8,3105.1
12935,1948.8,3355.1
12935,1948.8,3605.1
12935,1948.8,3855.1
12935,1948.8,4105.1
12935,1948.8,3355.1
12935,1948.8,3605.1
12935,1948.8,3855.1
12935,1948.8,4105.1
12935,1948.8,3605.1
12935,1948.8,3855.1
12935,1948.8,4105.1
12935,1948.8,3105.1
12935,1948.8,3355.1
12935,1948.8,3605.1
12935,1948.8,3855.1
12935,1948.8,4105.1
12935,1948.8,3355.1
12935,1948.8,3605.1
12935,1948.8,3855.1
12935,1948.8,4105.1
12935,1948.8,3605.1
12935,1948.8,3855.1
12935,1948.8,4105.1
12935,1948.8,2605.1
12935,1948.8,2855.1
12935,1948.8,3105.1
12935,1948.8,3355.1
12935,1948.8,3605.1
12935,1948.8,2855.1
12935,1948.8,3105.1
12935,1948.8,3355.1
12935,1948.8,3605.1
12935,1948.8,3855.1
12935,1948.8,3105.1
12935,1948.8,3355.1
12935,1948.8,3605.1
12935,1948.8,3855.1
12935,1948.8,4105.1
12935,1948.8,3355.1
12935,1948.8,3605.1
12935,1948.8,3855.1
12935,1948.8,4105.1
12935,1948.8,3605.1
12935,1948.8,3855.1
12935,1948.8,4105.1
12935,1948.8,2855.1
12935,1948.8,3105.1
12935,1948.8,3355.1
12935,1948.8,3605.1
12935,1948.8,3855.1
12935,1948.8,3105.1
12935,1948.8,3355.1
12935,1948.8,3605.1
12935,1948.8,3855.1
12935,1948.8,4105.1
12935,1948.8,3355.1
12935,1948.8,3605.1
12935,1948.8,3855.1
12935,1948.8,4105.1
12935,1948.8,3605.1
12935,1948.8,3855.1
12935,1948.8,4105.1
12935,1948.8,3105.1
12935,1948.8,3355.1
12935,1948.8,3605.1
12935,1948.8,3855.1
12935,1948.8,4105.1
12935,1948.8,3355.1
12935,1948.8,3605.1
12935,1948.8,3855.1
12935,1948.8,4105.1
12935,1948.8,3605.1
12935,1948.8,3855.1
12935,1948.8,4105.1
