9263.7,1948.8,4500
9263.7,1948.8,4500
9263.7,1948.8,4750
9263.7,1948.8,4500
9263.7,1948.8,4750
9263.7,1948.8,5000
9263.7,1948.8,4500
9263.7,1948.8,4750
9263.7,1948.8,5000
9263.7,1948.8,5250
9263.7,1948.8,4500
9263.7,1948.8,4750
9263.7,1948.8,5000
9263.7,1948.8,5250
9263.7,1948.8,5500
9263.7,1948.8,4500
9263.7,1948.8,4750
9263.7,1948.8,4500
9263.7,1948.8,4750
9263.7,1948.8,5000
9263.7,1948.8,4500
9263.7,1948.8,4750
9263.7,1948.8,5000
9263.7,1948.8,5250
9263.7,1948.8,4500
9263.7,1948.8,4750
9263.7,1948.8,5000
9263.7,1948.8,5250
9263.7,1948.8,5500
9263.7,1948.8,4750
9263.7,1948.8,5000
9263.7,1948.8,5250
9263.7,1948.8,5500
9263.7,1948.8,4500
9263.7,1948.8,4750
9263.7,1948.8,5000
9263.7,1948.8,4500
9263.7,1948.8,4750
9263.7,1948.8,5000
9263.7,1948.8,5250
9263.7,1948.8,4500
9263.7,1948.8,4750
9263.7,1948.8,5000
9263.7,1948.8,5250
9263.7,1948.8,5500
9263.7,1948.8,4750
9263.7,1948.8,5000
9263.7,1948.8,5250
9263.7,1948.8,5500
9263.7,1948.8,5000
9263.7,1948.8,5250
9263.7,1948.8,5500
9263.7,1948.8,4500
9263.7,1948.8,4750
9263.7,1948.8,5000
9263.7,1948.8,5250
9263.7,1948.8,4500
9263.7,1948.8,4750
9263.7,1948.8,5000
9263.7,1948.8,5250
9263.7,1948.8,5500
9263.7,1948.8,4750
9263.7,1948.8,5000
9263.7,1948.8,5250
9263.7,1948.8,5500
9263.7,1948.8,5000
9263.7,1948.8,5250
9263.7,1948.8,5500
9263.7,1948.8,5250
9263.7,1948.8,5500
9263.7,1948.8,4500
9263.7,1948.8,4750
9263.7,1948.8,5000
9263.7,1948.8,5250
9263.7,1948.8,5500
9263.7,1948.8,4750
9263.7,1948.8,5000
9263.7,1948.8,5250
9263.7,1948.8,5500
9263.7,1948.8,5000
9263.7,1948.8,5250
9263.7,1948.8,5500
9263.7,1948.8,5250
9263.7,1948.8,5500
9263.7,1948.8,5500
8361.8,1948.8,4500
8361.8,1948.8,4500
8361.8,1948.8,4750
8361.8,1948.8,4500
8361.8,1948.8,4500
8361.8,1948.8,4750
8361.8,1948.8,4500
8361.8,1948.8,4500
8361.8,1948.8,4750
8361.8,1948.8,4500
8361.8,1948.8,4750
8361.8,1948.8,4500
8361.8,1948.8,4500
8361.8,1948.8,4750
8361.8,1948.8,4500
8361.8,1948.8,4500
8361.8,1948.8,4750
8361.8,1948.8,4500
8361.8,1948.8,4750
8361.8,1948.8,5250
8361.8,1948.8,5500
8361.8,1948.8,4500
8361.8,1948.8,4500
8361.8,1948.8,4750
8361.8,1948.8,4500
8361.8,1948.8,4750
8361.8,1948.8,5250
8361.8,1948.8,5500
8361.8,1948.8,5250
8361.8,1948.8,5500
8361.8,1948.8,5500
8361.8,1948.8,4500
8361.8,1948.8,4750
8361.8,1948.8,5250
8361.8,1948.8,5500
8361.8,1948.8,5250
8361.8,1948.8,5500
8361.8,1948.8,5500
8361.8,1948.8,5250
8361.8,1948.8,5500
8361.8,1948.8,5500
8361.8,1948.8,5250
8361.8,1948.8,5500
8361.8,1948.8,5250
8361.8,1948.8,5500
8361.8,1948.8,5500
8361.8,1948.8,5250
8361.8,1948.8,5500
8361.8,1948.8,5500
8361.8,1948.8,5250
8361.8,1948.8,5500
8361.8,1948.8,5500
