4444.5,1948.8,5500
4444.5,1948.8,5500
4444.5,1948.8,5832.5
4444.5,1948.8,5500
4444.5,1948.8,5832.5
4444.5,1948.8,6165
4444.5,1948.8,5500
4444.5,1948.8,5500
4444.5,1948.8,5832.5
4444.5,1948.8,5500
4444.5,1948.8,5832.5
4444.5,1948.8,6165
4444.5,1948.8,5500
4444.5,1948.8,5832.5
4444.5,1948.8,6165
4444.5,1948.8,6497.5
4444.5,1948.8,5500
4444.5,1948.8,5500
4444.5,1948.8,5832.5
4444.5,1948.8,5500
4444.5,1948.8,5832.5
4444.5,1948.8,6165
4444.5,1948.8,5500
4444.5,1948.8,5832.5
4444.5,1948.8,6165
4444.5,1948.8,6497.5
4444.5,1948.8,5500
4444.5,1948.8,5832.5
4444.5,1948.8,6165
4444.5,1948.8,6497.5
4444.5,1948.8,5500
4444.5,1948.8,5832.5
4444.5,1948.8,5500
4444.5,1948.8,5832.5
4444.5,1948.8,6165
4444.5,1948.8,5500
4444.5,1948.8,5832.5
4444.5,1948.8,6165
4444.5,1948.8,6497.5
4444.5,1948.8,5500
4444.5,1948.8,5832.5
4444.5,1948.8,6165
4444.5,1948.8,6497.5
4444.5,1948.8,5832.5
4444.5,1948.8,6165
4444.5,1948.8,6497.5
4444.5,1948.8,5500
4444.5,1948.8,5832.5
4444.5,1948.8,6165
4444.5,1948.8,5500
4444.5,1948.8,5832.5
4444.5,1948.8,6165
4444.5,1948.8,6497.5
4444.5,1948.8,5500
4444.5,1948.8,5832.5
4444.5,1948.8,6165
4444.5,1948.8,6497.5
4444.5,1948.8,5832.5
4444.5,1948.8,6165
4444.5,1948.8,6497.5
4444.5,1948.8,6165
4444.5,1948.8,6497.5
5346.5,1948.8,4502.5
5346.5,1948.8,4502.5
5346.5,1948.8,4835
5346.5,1948.8,4502.5
5346.5,1948.8,4835
5346.5,1948.8,5167.5
5346.5,1948.8,4502.5
5346.5,1948.8,4835
5346.5,1948.8,5167.5
5346.5,1948.8,5500
5346.5,1948.8,4502.5
5346.5,1948.8,4502.5
5346.5,1948.8,4835
5346.5,1948.8,4502.5
5346.5,1948.8,4835
5346.5,1948.8,5167.5
5346.5,1948.8,4502.5
5346.5,1948.8,4835
5346.5,1948.8,5167.5
5346.5,1948.8,5500
5346.5,1948.8,4502.5
5346.5,1948.8,4835
5346.5,1948.8,5167.5
5346.5,1948.8,5500
5346.5,1948.8,5832.5
5346.5,1948.8,4502.5
5346.5,1948.8,4835
5346.5,1948.8,4502.5
5346.5,1948.8,4835
5346.5,1948.8,5167.5
5346.5,1948.8,4502.5
5346.5,1948.8,4835
5346.5,1948.8,5167.5
5346.5,1948.8,5500
5346.5,1948.8,4502.5
5346.5,1948.8,4835
5346.5,1948.8,5167.5
5346.5,1948.8,5500
5346.5,1948.8,5832.5
5346.5,1948.8,4502.5
5346.5,1948.8,4835
5346.5,1948.8,5167.5
5346.5,1948.8,4502.5
5346.5,1948.8,4835
5346.5,1948.8,5167.5
5346.5,1948.8,5500
5346.5,1948.8,4502.5
5346.5,1948.8,4835
5346.5,1948.8,5167.5
5346.5,1948.8,5500
5346.5,1948.8,5832.5
5346.5,1948.8,4502.5
5346.5,1948.8,4835
5346.5,1948.8,5167.5
5346.5,1948.8,5500
5346.5,1948.8,4502.5
5346.5,1948.8,4835
5346.5,1948.8,5167.5
5346.5,1948.8,5500
5346.5,1948.8,5832.5
5346.5,1948.8,4502.5
5346.5,1948.8,4502.5
5346.5,1948.8,4835
5346.5,1948.8,4502.5
5346.5,1948.8,4835
5346.5,1948.8,5167.5
5346.5,1948.8,4502.5
5346.5,1948.8,4835
5346.5,1948.8,5167.5
5346.5,1948.8,5500
5346.5,1948.8,4502.5
5346.5,1948.8,4835
5346.5,1948.8,5167.5
5346.5,1948.8,5500
5346.5,1948.8,5832.5
5346.5,1948.8,4502.5
5346.5,1948.8,4835
5346.5,1948.8,4502.5
5346.5,1948.8,4835
5346.5,1948.8,5167.5
5346.5,1948.8,4502.5
5346.5,1948.8,4835
5346.5,1948.8,5167.5
5346.5,1948.8,5500
5346.5,1948.8,4502.5
5346.5,1948.8,4835
5346.5,1948.8,5167.5
5346.5,1948.8,5500
5346.5,1948.8,5832.5
5346.5,1948.8,4502.5
5346.5,1948.8,4835
5346.5,1948.8,5167.5
5346.5,1948.8,4502.5
5346.5,1948.8,4835
5346.5,1948.8,5167.5
5346.5,1948.8,5500
5346.5,1948.8,4502.5
5346.5,1948.8,4835
5346.5,1948.8,5167.5
5346.5,1948.8,5500
5346.5,1948.8,5832.5
5346.5,1948.8,4502.5
5346.5,1948.8,4835
5346.5,1948.8,5167.5
5346.5,1948.8,5500
5346.5,1948.8,4502.5
5346.5,1948.8,4835
5346.5,1948.8,5167.5
5346.5,1948.8,5500
5346.5,1948.8,5832.5
5346.5,1948.8,4502.5
5346.5,1948.8,4835
5346.5,1948.8,5167.5
5346.5,1948.8,5500
5346.5,1948.8,5832.5
5346.5,1948.8,4502.5
5346.5,1948.8,4835
5346.5,1948.8,4502.5
5346.5,1948.8,4835
5346.5,1948.8,5167.5
5346.5,1948.8,4502.5
5346.5,1948.8,4835
5346.5,1948.8,5167.5
5346.5,1948.8,5500
5346.5,1948.8,4502.5
5346.5,1948.8,4835
5346.5,1948.8,5167.5
5346.5,1948.8,5500
5346.5,1948.8,5832.5
5346.5,1948.8,4502.5
5346.5,1948.8,4835
5346.5,1948.8,5167.5
5346.5,1948.8,4502.5
5346.5,1948.8,4835
5346.5,1948.8,5167.5
5346.5,1948.8,5500
5346.5,1948.8,4502.5
5346.5,1948.8,4835
5346.5,1948.8,5167.5
5346.5,1948.8,5500
5346.5,1948.8,5832.5
5346.5,1948.8,4502.5
5346.5,1948.8,4835
5346.5,1948.8,5167.5
5346.5,1948.8,5500
5346.5,1948.8,4502.5
5346.5,1948.8,4835
5346.5,1948.8,5167.5
5346.5,1948.8,5500
5346.5,1948.8,5832.5
5346.5,1948.8,4502.5
5346.5,1948.8,4835
5346.5,1948.8,5167.5
5346.5,1948.8,5500
5346.5,1948.8,5832.5
5346.5,1948.8,6165
5346.5,1948.8,6497.5
5346.5,1948.8,4502.5
5346.5,1948.8,4835
5346.5,1948.8,5167.5
5346.5,1948.8,4502.5
5346.5,1948.8,4835
5346.5,1948.8,5167.5
5346.5,1948.8,5500
5346.5,1948.8,4502.5
5346.5,1948.8,4835
5346.5,1948.8,5167.5
5346.5,1948.8,5500
5346.5,1948.8,5832.5
5346.5,1948.8,4502.5
5346.5,1948.8,4835
5346.5,1948.8,5167.5
5346.5,1948.8,5500
5346.5,1948.8,4502.5
5346.5,1948.8,4835
5346.5,1948.8,5167.5
5346.5,1948.8,5500
5346.5,1948.8,5832.5
5346.5,1948.8,4502.5
5346.5,1948.8,4835
5346.5,1948.8,5167.5
5346.5,1948.8,5500
5346.5,1948.8,5832.5
5346.5,1948.8,6165
5346.5,1948.8,6497.5
5346.5,1948.8,6165
5346.5,1948.8,6497.5
5346.5,1948.8,6497.5
5346.5,1948.8,4502.5
5346.5,1948.8,4835
5346.5,1948.8,5167.5
5346.5,1948.8,5500
5346.5,1948.8,4502.5
5346.5,1948.8,4835
5346.5,1948.8,5167.5
5346.5,1948.8,5500
5346.5,1948.8,5832.5
5346.5,1948.8,4502.5
5346.5,1948.8,4835
5346.5,1948.8,5167.5
5346.5,1948.8,5500
5346.5,1948.8,5832.5
5346.5,1948.8,6165
5346.5,1948.8,6497.5
5346.5,1948.8,6165
5346.5,1948.8,6497.5
5346.5,1948.8,6497.5
5346.5,1948.8,6165
5346.5,1948.8,6497.5
5346.5,1948.8,6497.5
