19337,1948.8,5449.8
19337,1948.8,5449.8
19337,1948.8,6000
19337,1948.8,5449.8
19337,1948.8,6000
19337,1948.8,6550.2
19337,1948.8,5449.8
19337,1948.8,6000
19337,1948.8,6550.2
19337,1948.8,5449.8
19337,1948.8,5449.8
19337,1948.8,6000
19337,1948.8,5449.8
19337,1948.8,6000
19337,1948.8,6550.2
19337,1948.8,5449.8
19337,1948.8,6000
19337,1948.8,6550.2
19337,1948.8,5449.8
19337,1948.8,6000
19337,1948.8,6550.2
19337,1948.8,5449.8
19337,1948.8,6000
19337,1948.8,5449.8
19337,1948.8,6000
19337,1948.8,6550.2
19337,1948.8,5449.8
19337,1948.8,6000
19337,1948.8,6550.2
19337,1948.8,5449.8
19337,1948.8,6000
19337,1948.8,6550.2
19337,1948.8,6000
19337,1948.8,6550.2
19337,1948.8,5449.8
19337,1948.8,6000
19337,1948.8,6550.2
19337,1948.8,5449.8
19337,1948.8,6000
19337,1948.8,6550.2
19337,1948.8,5449.8
19337,1948.8,6000
19337,1948.8,6550.2
19337,1948.8,6000
19337,1948.8,6550.2
19337,1948.8,6550.2
19337,1948.8,5449.8
19337,1948.8,6000
19337,1948.8,6550.2
19337,1948.8,5449.8
19337,1948.8,6000
19337,1948.8,6550.2
19337,1948.8,6000
19337,1948.8,6550.2
19337,1948.8,6550.2
17533,1948.8,497.84
16631,1948.8,-52.373
16631,1948.8,497.84
16631,1948.8,497.84
16631,1948.8,-52.373
16631,1948.8,497.84
16631,1948.8,497.84
16631,1948.8,497.84
16631,1948.8,-52.373
16631,1948.8,497.84
16631,1948.8,497.84
16631,1948.8,497.84
16631,1948.8,497.84
16631,1948.8,-52.373
16631,1948.8,497.84
16631,1948.8,497.84
16631,1948.8,497.84
16631,1948.8,497.84
16631,1948.8,497.84
16631,1948.8,-52.373
16631,1948.8,497.84
16631,1948.8,497.84
16631,1948.8,497.84
16631,1948.8,497.84
16631,1948.8,497.84
16631,1948.8,497.84
