2.3581e+05,1948.8,6000
2.3491e+05,1948.8,5115.4
2.3491e+05,1948.8,6884.6
2.3401e+05,1948.8,4230.8
2.3401e+05,1948.8,4673.1
2.3401e+05,1948.8,5115.4
2.3401e+05,1948.8,6884.6
2.3401e+05,1948.8,7326.9
2.3401e+05,1948.8,7769.2
2.3311e+05,1948.8,3346.3
2.3311e+05,1948.8,3788.5
2.3311e+05,1948.8,4230.8
2.3311e+05,1948.8,4673.1
2.3311e+05,1948.8,5115.4
2.3311e+05,1948.8,3788.5
2.3311e+05,1948.8,4230.8
2.3311e+05,1948.8,4673.1
2.3311e+05,1948.8,5115.4
2.3311e+05,1948.8,4230.8
2.3311e+05,1948.8,4673.1
2.3311e+05,1948.8,5115.4
2.3311e+05,1948.8,6884.6
2.3311e+05,1948.8,7326.9
2.3311e+05,1948.8,7769.2
2.3311e+05,1948.8,6884.6
2.3311e+05,1948.8,7326.9
2.3311e+05,1948.8,7769.2
2.3311e+05,1948.8,8211.5
2.3311e+05,1948.8,6884.6
2.3311e+05,1948.8,7326.9
2.3311e+05,1948.8,7769.2
2.3311e+05,1948.8,8211.5
2.3311e+05,1948.8,8653.7
2.322e+05,1948.8,2461.7
2.322e+05,1948.8,2904
2.322e+05,1948.8,3346.3
2.322e+05,1948.8,3788.5
2.322e+05,1948.8,4230.8
2.322e+05,1948.8,2904
2.322e+05,1948.8,3346.3
2.322e+05,1948.8,3788.5
2.322e+05,1948.8,4230.8
2.322e+05,1948.8,4673.1
2.322e+05,1948.8,3346.3
2.322e+05,1948.8,3788.5
2.322e+05,1948.8,4230.8
2.322e+05,1948.8,4673.1
2.322e+05,1948.8,5115.4
2.322e+05,1948.8,3788.5
2.322e+05,1948.8,4230.8
2.322e+05,1948.8,4673.1
2.322e+05,1948.8,5115.4
2.322e+05,1948.8,4230.8
2.322e+05,1948.8,4673.1
2.322e+05,1948.8,5115.4
2.322e+05,1948.8,2904
2.322e+05,1948.8,3346.3
2.322e+05,1948.8,3788.5
2.322e+05,1948.8,4230.8
2.322e+05,1948.8,4673.1
2.322e+05,1948.8,3346.3
2.322e+05,1948.8,3788.5
2.322e+05,1948.8,4230.8
2.322e+05,1948.8,4673.1
2.322e+05,1948.8,5115.4
2.322e+05,1948.8,3788.5
2.322e+05,1948.8,4230.8
2.322e+05,1948.8,4673.1
2.322e+05,1948.8,5115.4
2.322e+05,1948.8,4230.8
2.322e+05,1948.8,4673.1
2.322e+05,1948.8,5115.4
2.322e+05,1948.8,3346.3
2.322e+05,1948.8,3788.5
2.322e+05,1948.8,4230.8
2.322e+05,1948.8,4673.1
2.322e+05,1948.8,5115.4
2.322e+05,1948.8,3788.5
2.322e+05,1948.8,4230.8
2.322e+05,1948.8,4673.1
2.322e+05,1948.8,5115.4
2.322e+05,1948.8,4230.8
2.322e+05,1948.8,4673.1
2.322e+05,1948.8,5115.4
2.322e+05,1948.8,6884.6
2.322e+05,1948.8,7326.9
2.322e+05,1948.8,7769.2
2.322e+05,1948.8,6884.6
2.322e+05,1948.8,7326.9
2.322e+05,1948.8,7769.2
2.322e+05,1948.8,8211.5
2.322e+05,1948.8,6884.6
2.322e+05,1948.8,7326.9
2.322e+05,1948.8,7769.2
2.322e+05,1948.8,8211.5
2.322e+05,1948.8,8653.7
2.322e+05,1948.8,6884.6
2.322e+05,1948.8,7326.9
2.322e+05,1948.8,7769.2
2.322e+05,1948.8,6884.6
2.322e+05,1948.8,7326.9
2.322e+05,1948.8,7769.2
2.322e+05,1948.8,8211.5
2.322e+05,1948.8,6884.6
2.322e+05,1948.8,7326.9
2.322e+05,1948.8,7769.2
2.322e+05,1948.8,8211.5
2.322e+05,1948.8,8653.7
2.322e+05,1948.8,7326.9
2.322e+05,1948.8,7769.2
2.322e+05,1948.8,8211.5
2.322e+05,1948.8,8653.7
2.322e+05,1948.8,9096
2.322e+05,1948.8,6884.6
2.322e+05,1948.8,7326.9
2.322e+05,1948.8,7769.2
2.322e+05,1948.8,6884.6
2.322e+05,1948.8,7326.9
2.322e+05,1948.8,7769.2
2.322e+05,1948.8,8211.5
2.322e+05,1948.8,6884.6
2.322e+05,1948.8,7326.9
2.322e+05,1948.8,7769.2
2.322e+05,1948.8,8211.5
2.322e+05,1948.8,8653.7
2.322e+05,1948.8,7326.9
2.322e+05,1948.8,7769.2
2.322e+05,1948.8,8211.5
2.322e+05,1948.8,8653.7
2.322e+05,1948.8,9096
2.322e+05,1948.8,7769.2
2.322e+05,1948.8,8211.5
2.322e+05,1948.8,8653.7
2.322e+05,1948.8,9096
2.322e+05,1948.8,9538.3
2.313e+05,1948.8,1577.1
2.313e+05,1948.8,2019.4
2.313e+05,1948.8,2461.7
2.313e+05,1948.8,2904
2.313e+05,1948.8,3346.3
2.313e+05,1948.8,2019.4
2.313e+05,1948.8,2461.7
2.313e+05,1948.8,2904
2.313e+05,1948.8,3346.3
2.313e+05,1948.8,3788.5
2.313e+05,1948.8,2461.7
2.313e+05,1948.8,2904
2.313e+05,1948.8,3346.3
2.313e+05,1948.8,3788.5
2.313e+05,1948.8,4230.8
2.313e+05,1948.8,2904
2.313e+05,1948.8,3346.3
2.313e+05,1948.8,3788.5
2.313e+05,1948.8,4230.8
2.313e+05,1948.8,4673.1
2.313e+05,1948.8,3346.3
2.313e+05,1948.8,3788.5
2.313e+05,1948.8,4230.8
2.313e+05,1948.8,4673.1
2.313e+05,1948.8,5115.4
2.313e+05,1948.8,2019.4
2.313e+05,1948.8,2461.7
2.313e+05,1948.8,2904
2.313e+05,1948.8,3346.3
2.313e+05,1948.8,3788.5
2.313e+05,1948.8,2461.7
2.313e+05,1948.8,2904
2.313e+05,1948.8,3346.3
2.313e+05,1948.8,3788.5
2.313e+05,1948.8,4230.8
2.313e+05,1948.8,2904
2.313e+05,1948.8,3346.3
2.313e+05,1948.8,3788.5
2.313e+05,1948.8,4230.8
2.313e+05,1948.8,4673.1
2.313e+05,1948.8,3346.3
2.313e+05,1948.8,3788.5
2.313e+05,1948.8,4230.8
2.313e+05,1948.8,4673.1
2.313e+05,1948.8,5115.4
2.313e+05,1948.8,3788.5
2.313e+05,1948.8,4230.8
2.313e+05,1948.8,4673.1
2.313e+05,1948.8,5115.4
2.313e+05,1948.8,2461.7
2.313e+05,1948.8,2904
2.313e+05,1948.8,3346.3
2.313e+05,1948.8,3788.5
2.313e+05,1948.8,4230.8
2.313e+05,1948.8,2904
2.313e+05,1948.8,3346.3
2.313e+05,1948.8,3788.5
2.313e+05,1948.8,4230.8
2.313e+05,1948.8,4673.1
2.313e+05,1948.8,3346.3
2.313e+05,1948.8,3788.5
2.313e+05,1948.8,4230.8
2.313e+05,1948.8,4673.1
2.313e+05,1948.8,5115.4
2.313e+05,1948.8,3788.5
2.313e+05,1948.8,4230.8
2.313e+05,1948.8,4673.1
2.313e+05,1948.8,5115.4
2.313e+05,1948.8,4230.8
2.313e+05,1948.8,4673.1
2.313e+05,1948.8,5115.4
2.313e+05,1948.8,2904
2.313e+05,1948.8,3346.3
2.313e+05,1948.8,3788.5
2.313e+05,1948.8,4230.8
2.313e+05,1948.8,4673.1
2.313e+05,1948.8,3346.3
2.313e+05,1948.8,3788.5
2.313e+05,1948.8,4230.8
2.313e+05,1948.8,4673.1
2.313e+05,1948.8,5115.4
2.313e+05,1948.8,3788.5
2.313e+05,1948.8,4230.8
2.313e+05,1948.8,4673.1
2.313e+05,1948.8,5115.4
2.313e+05,1948.8,4230.8
2.313e+05,1948.8,4673.1
2.313e+05,1948.8,5115.4
2.313e+05,1948.8,3346.3
2.313e+05,1948.8,3788.5
2.313e+05,1948.8,4230.8
2.313e+05,1948.8,4673.1
2.313e+05,1948.8,5115.4
2.313e+05,1948.8,3788.5
2.313e+05,1948.8,4230.8
2.313e+05,1948.8,4673.1
2.313e+05,1948.8,5115.4
2.313e+05,1948.8,4230.8
2.313e+05,1948.8,4673.1
2.313e+05,1948.8,5115.4
2.313e+05,1948.8,2019.4
2.313e+05,1948.8,2461.7
2.313e+05,1948.8,2904
2.313e+05,1948.8,3346.3
2.313e+05,1948.8,3788.5
2.313e+05,1948.8,2461.7
2.313e+05,1948.8,2904
2.313e+05,1948.8,3346.3
2.313e+05,1948.8,3788.5
2.313e+05,1948.8,4230.8
2.313e+05,1948.8,2904
2.313e+05,1948.8,3346.3
2.313e+05,1948.8,3788.5
2.313e+05,1948.8,4230.8
2.313e+05,1948.8,4673.1
2.313e+05,1948.8,3346.3
2.313e+05,1948.8,3788.5
2.313e+05,1948.8,4230.8
2.313e+05,1948.8,4673.1
2.313e+05,1948.8,5115.4
2.313e+05,1948.8,3788.5
2.313e+05,1948.8,4230.8
2.313e+05,1948.8,4673.1
2.313e+05,1948.8,5115.4
2.313e+05,1948.8,2461.7
2.313e+05,1948.8,2904
2.313e+05,1948.8,3346.3
2.313e+05,1948.8,3788.5
2.313e+05,1948.8,4230.8
2.313e+05,1948.8,2904
2.313e+05,1948.8,3346.3
2.313e+05,1948.8,3788.5
2.313e+05,1948.8,4230.8
2.313e+05,1948.8,4673.1
2.313e+05,1948.8,3346.3
2.313e+05,1948.8,3788.5
2.313e+05,1948.8,4230.8
2.313e+05,1948.8,4673.1
2.313e+05,1948.8,5115.4
2.313e+05,1948.8,3788.5
2.313e+05,1948.8,4230.8
2.313e+05,1948.8,4673.1
2.313e+05,1948.8,5115.4
2.313e+05,1948.8,4230.8
2.313e+05,1948.8,4673.1
2.313e+05,1948.8,5115.4
2.313e+05,1948.8,2904
2.313e+05,1948.8,3346.3
2.313e+05,1948.8,3788.5
2.313e+05,1948.8,4230.8
2.313e+05,1948.8,4673.1
2.313e+05,1948.8,3346.3
2.313e+05,1948.8,3788.5
2.313e+05,1948.8,4230.8
2.313e+05,1948.8,4673.1
2.313e+05,1948.8,5115.4
2.313e+05,1948.8,3788.5
2.313e+05,1948.8,4230.8
2.313e+05,1948.8,4673.1
2.313e+05,1948.8,5115.4
2.313e+05,1948.8,4230.8
2.313e+05,1948.8,4673.1
2.313e+05,1948.8,5115.4
2.313e+05,1948.8,3346.3
2.313e+05,1948.8,3788.5
2.313e+05,1948.8,4230.8
2.313e+05,1948.8,4673.1
2.313e+05,1948.8,5115.4
2.313e+05,1948.8,3788.5
2.313e+05,1948.8,4230.8
2.313e+05,1948.8,4673.1
2.313e+05,1948.8,5115.4
2.313e+05,1948.8,4230.8
2.313e+05,1948.8,4673.1
2.313e+05,1948.8,5115.4
2.313e+05,1948.8,2461.7
2.313e+05,1948.8,2904
2.313e+05,1948.8,3346.3
2.313e+05,1948.8,3788.5
2.313e+05,1948.8,4230.8
2.313e+05,1948.8,2904
2.313e+05,1948.8,3346.3
2.313e+05,1948.8,3788.5
2.313e+05,1948.8,4230.8
2.313e+05,1948.8,4673.1
2.313e+05,1948.8,3346.3
2.313e+05,1948.8,3788.5
2.313e+05,1948.8,4230.8
2.313e+05,1948.8,4673.1
2.313e+05,1948.8,5115.4
2.313e+05,1948.8,3788.5
2.313e+05,1948.8,4230.8
2.313e+05,1948.8,4673.1
2.313e+05,1948.8,5115.4
2.313e+05,1948.8,4230.8
2.313e+05,1948.8,4673.1
2.313e+05,1948.8,5115.4
2.313e+05,1948.8,2904
2.313e+05,1948.8,3346.3
2.313e+05,1948.8,3788.5
2.313e+05,1948.8,4230.8
2.313e+05,1948.8,4673.1
2.313e+05,1948.8,3346.3
2.313e+05,1948.8,3788.5
2.313e+05,1948.8,4230.8
2.313e+05,1948.8,4673.1
2.313e+05,1948.8,5115.4
2.313e+05,1948.8,3788.5
2.313e+05,1948.8,4230.8
2.313e+05,1948.8,4673.1
2.313e+05,1948.8,5115.4
2.313e+05,1948.8,4230.8
2.313e+05,1948.8,4673.1
2.313e+05,1948.8,5115.4
2.313e+05,1948.8,3346.3
2.313e+05,1948.8,3788.5
2.313e+05,1948.8,4230.8
2.313e+05,1948.8,4673.1
2.313e+05,1948.8,5115.4
2.313e+05,1948.8,3788.5
2.313e+05,1948.8,4230.8
2.313e+05,1948.8,4673.1
2.313e+05,1948.8,5115.4
2.313e+05,1948.8,4230.8
2.313e+05,1948.8,4673.1
2.313e+05,1948.8,5115.4
2.313e+05,1948.8,6884.6
2.313e+05,1948.8,7326.9
2.313e+05,1948.8,7769.2
2.313e+05,1948.8,6884.6
2.313e+05,1948.8,7326.9
2.313e+05,1948.8,7769.2
2.313e+05,1948.8,8211.5
2.313e+05,1948.8,6884.6
2.313e+05,1948.8,7326.9
2.313e+05,1948.8,7769.2
2.313e+05,1948.8,8211.5
2.313e+05,1948.8,8653.7
2.313e+05,1948.8,6884.6
2.313e+05,1948.8,7326.9
2.313e+05,1948.8,7769.2
2.313e+05,1948.8,6884.6
2.313e+05,1948.8,7326.9
2.313e+05,1948.8,7769.2
2.313e+05,1948.8,8211.5
2.313e+05,1948.8,6884.6
2.313e+05,1948.8,7326.9
2.313e+05,1948.8,7769.2
2.313e+05,1948.8,8211.5
2.313e+05,1948.8,8653.7
2.313e+05,1948.8,7326.9
2.313e+05,1948.8,7769.2
2.313e+05,1948.8,8211.5
2.313e+05,1948.8,8653.7
2.313e+05,1948.8,9096
2.313e+05,1948.8,6884.6
2.313e+05,1948.8,7326.9
2.313e+05,1948.8,7769.2
2.313e+05,1948.8,6884.6
2.313e+05,1948.8,7326.9
2.313e+05,1948.8,7769.2
2.313e+05,1948.8,8211.5
2.313e+05,1948.8,6884.6
2.313e+05,1948.8,7326.9
2.313e+05,1948.8,7769.2
2.313e+05,1948.8,8211.5
2.313e+05,1948.8,8653.7
2.313e+05,1948.8,7326.9
2.313e+05,1948.8,7769.2
2.313e+05,1948.8,8211.5
2.313e+05,1948.8,8653.7
2.313e+05,1948.8,9096
2.313e+05,1948.8,7769.2
2.313e+05,1948.8,8211.5
2.313e+05,1948.8,8653.7
2.313e+05,1948.8,9096
2.313e+05,1948.8,9538.3
2.313e+05,1948.8,6884.6
2.313e+05,1948.8,7326.9
2.313e+05,1948.8,7769.2
2.313e+05,1948.8,6884.6
2.313e+05,1948.8,7326.9
2.313e+05,1948.8,7769.2
2.313e+05,1948.8,8211.5
2.313e+05,1948.8,6884.6
2.313e+05,1948.8,7326.9
2.313e+05,1948.8,7769.2
2.313e+05,1948.8,8211.5
2.313e+05,1948.8,8653.7
2.313e+05,1948.8,6884.6
2.313e+05,1948.8,7326.9
2.313e+05,1948.8,7769.2
2.313e+05,1948.8,6884.6
2.313e+05,1948.8,7326.9
2.313e+05,1948.8,7769.2
2.313e+05,1948.8,8211.5
2.313e+05,1948.8,6884.6
2.313e+05,1948.8,7326.9
2.313e+05,1948.8,7769.2
2.313e+05,1948.8,8211.5
2.313e+05,1948.8,8653.7
2.313e+05,1948.8,7326.9
2.313e+05,1948.8,7769.2
2.313e+05,1948.8,8211.5
2.313e+05,1948.8,8653.7
2.313e+05,1948.8,9096
2.313e+05,1948.8,6884.6
2.313e+05,1948.8,7326.9
2.313e+05,1948.8,7769.2
2.313e+05,1948.8,6884.6
2.313e+05,1948.8,7326.9
2.313e+05,1948.8,7769.2
2.313e+05,1948.8,8211.5
2.313e+05,1948.8,6884.6
2.313e+05,1948.8,7326.9
2.313e+05,1948.8,7769.2
2.313e+05,1948.8,8211.5
2.313e+05,1948.8,8653.7
2.313e+05,1948.8,7326.9
2.313e+05,1948.8,7769.2
2.313e+05,1948.8,8211.5
2.313e+05,1948.8,8653.7
2.313e+05,1948.8,9096
2.313e+05,1948.8,7769.2
2.313e+05,1948.8,8211.5
2.313e+05,1948.8,8653.7
2.313e+05,1948.8,9096
2.313e+05,1948.8,9538.3
2.313e+05,1948.8,6884.6
2.313e+05,1948.8,7326.9
2.313e+05,1948.8,7769.2
2.313e+05,1948.8,8211.5
2.313e+05,1948.8,6884.6
2.313e+05,1948.8,7326.9
2.313e+05,1948.8,7769.2
2.313e+05,1948.8,8211.5
2.313e+05,1948.8,8653.7
2.313e+05,1948.8,7326.9
2.313e+05,1948.8,7769.2
2.313e+05,1948.8,8211.5
2.313e+05,1948.8,8653.7
2.313e+05,1948.8,9096
2.313e+05,1948.8,7769.2
2.313e+05,1948.8,8211.5
2.313e+05,1948.8,8653.7
2.313e+05,1948.8,9096
2.313e+05,1948.8,9538.3
2.313e+05,1948.8,8211.5
2.313e+05,1948.8,8653.7
2.313e+05,1948.8,9096
2.313e+05,1948.8,9538.3
2.313e+05,1948.8,9980.6
2.313e+05,1948.8,6884.6
2.313e+05,1948.8,7326.9
2.313e+05,1948.8,7769.2
2.313e+05,1948.8,6884.6
2.313e+05,1948.8,7326.9
2.313e+05,1948.8,7769.2
2.313e+05,1948.8,8211.5
2.313e+05,1948.8,6884.6
2.313e+05,1948.8,7326.9
2.313e+05,1948.8,7769.2
2.313e+05,1948.8,8211.5
2.313e+05,1948.8,8653.7
2.313e+05,1948.8,6884.6
2.313e+05,1948.8,7326.9
2.313e+05,1948.8,7769.2
2.313e+05,1948.8,6884.6
2.313e+05,1948.8,7326.9
2.313e+05,1948.8,7769.2
2.313e+05,1948.8,8211.5
2.313e+05,1948.8,6884.6
2.313e+05,1948.8,7326.9
2.313e+05,1948.8,7769.2
2.313e+05,1948.8,8211.5
2.313e+05,1948.8,8653.7
2.313e+05,1948.8,7326.9
2.313e+05,1948.8,7769.2
2.313e+05,1948.8,8211.5
2.313e+05,1948.8,8653.7
2.313e+05,1948.8,9096
2.313e+05,1948.8,6884.6
2.313e+05,1948.8,7326.9
2.313e+05,1948.8,7769.2
2.313e+05,1948.8,6884.6
2.313e+05,1948.8,7326.9
2.313e+05,1948.8,7769.2
2.313e+05,1948.8,8211.5
2.313e+05,1948.8,6884.6
2.313e+05,1948.8,7326.9
2.313e+05,1948.8,7769.2
2.313e+05,1948.8,8211.5
2.313e+05,1948.8,8653.7
2.313e+05,1948.8,7326.9
2.313e+05,1948.8,7769.2
2.313e+05,1948.8,8211.5
2.313e+05,1948.8,8653.7
2.313e+05,1948.8,9096
2.313e+05,1948.8,7769.2
2.313e+05,1948.8,8211.5
2.313e+05,1948.8,8653.7
2.313e+05,1948.8,9096
2.313e+05,1948.8,9538.3
2.313e+05,1948.8,6884.6
2.313e+05,1948.8,7326.9
2.313e+05,1948.8,7769.2
2.313e+05,1948.8,8211.5
2.313e+05,1948.8,6884.6
2.313e+05,1948.8,7326.9
2.313e+05,1948.8,7769.2
2.313e+05,1948.8,8211.5
2.313e+05,1948.8,8653.7
2.313e+05,1948.8,7326.9
2.313e+05,1948.8,7769.2
2.313e+05,1948.8,8211.5
2.313e+05,1948.8,8653.7
2.313e+05,1948.8,9096
2.313e+05,1948.8,7769.2
2.313e+05,1948.8,8211.5
2.313e+05,1948.8,8653.7
2.313e+05,1948.8,9096
2.313e+05,1948.8,9538.3
2.313e+05,1948.8,8211.5
2.313e+05,1948.8,8653.7
2.313e+05,1948.8,9096
2.313e+05,1948.8,9538.3
2.313e+05,1948.8,9980.6
2.313e+05,1948.8,6884.6
2.313e+05,1948.8,7326.9
2.313e+05,1948.8,7769.2
2.313e+05,1948.8,8211.5
2.313e+05,1948.8,8653.7
2.313e+05,1948.8,7326.9
2.313e+05,1948.8,7769.2
2.313e+05,1948.8,8211.5
2.313e+05,1948.8,8653.7
2.313e+05,1948.8,9096
2.313e+05,1948.8,7769.2
2.313e+05,1948.8,8211.5
2.313e+05,1948.8,8653.7
2.313e+05,1948.8,9096
2.313e+05,1948.8,9538.3
2.313e+05,1948.8,8211.5
2.313e+05,1948.8,8653.7
2.313e+05,1948.8,9096
2.313e+05,1948.8,9538.3
2.313e+05,1948.8,9980.6
2.313e+05,1948.8,8653.7
2.313e+05,1948.8,9096
2.313e+05,1948.8,9538.3
2.313e+05,1948.8,9980.6
2.313e+05,1948.8,10423
2.304e+05,1948.8,1134.8
2.304e+05,1948.8,1577.1
2.304e+05,1948.8,2019.4
2.304e+05,1948.8,2461.7
2.304e+05,1948.8,1134.8
2.304e+05,1948.8,1577.1
2.304e+05,1948.8,2019.4
2.304e+05,1948.8,2461.7
2.304e+05,1948.8,2904
2.304e+05,1948.8,1577.1
2.304e+05,1948.8,2019.4
2.304e+05,1948.8,2461.7
2.304e+05,1948.8,2904
2.304e+05,1948.8,3346.3
2.304e+05,1948.8,2019.4
2.304e+05,1948.8,2461.7
2.304e+05,1948.8,2904
2.304e+05,1948.8,3346.3
2.304e+05,1948.8,3788.5
2.304e+05,1948.8,2461.7
2.304e+05,1948.8,2904
2.304e+05,1948.8,3346.3
2.304e+05,1948.8,3788.5
2.304e+05,1948.8,4230.8
2.304e+05,1948.8,1134.8
2.304e+05,1948.8,1577.1
2.304e+05,1948.8,2019.4
2.304e+05,1948.8,2461.7
2.304e+05,1948.8,2904
2.304e+05,1948.8,1577.1
2.304e+05,1948.8,2019.4
2.304e+05,1948.8,2461.7
2.304e+05,1948.8,2904
2.304e+05,1948.8,3346.3
2.304e+05,1948.8,2019.4
2.304e+05,1948.8,2461.7
2.304e+05,1948.8,2904
2.304e+05,1948.8,3346.3
2.304e+05,1948.8,3788.5
2.304e+05,1948.8,2461.7
2.304e+05,1948.8,2904
2.304e+05,1948.8,3346.3
2.304e+05,1948.8,3788.5
2.304e+05,1948.8,4230.8
2.304e+05,1948.8,2904
2.304e+05,1948.8,3346.3
2.304e+05,1948.8,3788.5
2.304e+05,1948.8,4230.8
2.304e+05,1948.8,4673.1
2.304e+05,1948.8,1577.1
2.304e+05,1948.8,2019.4
2.304e+05,1948.8,2461.7
2.304e+05,1948.8,2904
2.304e+05,1948.8,3346.3
2.304e+05,1948.8,2019.4
2.304e+05,1948.8,2461.7
2.304e+05,1948.8,2904
2.304e+05,1948.8,3346.3
2.304e+05,1948.8,3788.5
2.304e+05,1948.8,2461.7
2.304e+05,1948.8,2904
2.304e+05,1948.8,3346.3
2.304e+05,1948.8,3788.5
2.304e+05,1948.8,4230.8
2.304e+05,1948.8,2904
2.304e+05,1948.8,3346.3
2.304e+05,1948.8,3788.5
2.304e+05,1948.8,4230.8
2.304e+05,1948.8,4673.1
2.304e+05,1948.8,3346.3
2.304e+05,1948.8,3788.5
2.304e+05,1948.8,4230.8
2.304e+05,1948.8,4673.1
2.304e+05,1948.8,5115.4
2.304e+05,1948.8,2019.4
2.304e+05,1948.8,2461.7
2.304e+05,1948.8,2904
2.304e+05,1948.8,3346.3
2.304e+05,1948.8,3788.5
2.304e+05,1948.8,2461.7
2.304e+05,1948.8,2904
2.304e+05,1948.8,3346.3
2.304e+05,1948.8,3788.5
2.304e+05,1948.8,4230.8
2.304e+05,1948.8,2904
2.304e+05,1948.8,3346.3
2.304e+05,1948.8,3788.5
2.304e+05,1948.8,4230.8
2.304e+05,1948.8,4673.1
2.304e+05,1948.8,3346.3
2.304e+05,1948.8,3788.5
2.304e+05,1948.8,4230.8
2.304e+05,1948.8,4673.1
2.304e+05,1948.8,5115.4
2.304e+05,1948.8,3788.5
2.304e+05,1948.8,4230.8
2.304e+05,1948.8,4673.1
2.304e+05,1948.8,5115.4
2.304e+05,1948.8,2461.7
2.304e+05,1948.8,2904
2.304e+05,1948.8,3346.3
2.304e+05,1948.8,3788.5
2.304e+05,1948.8,4230.8
2.304e+05,1948.8,2904
2.304e+05,1948.8,3346.3
2.304e+05,1948.8,3788.5
2.304e+05,1948.8,4230.8
2.304e+05,1948.8,4673.1
2.304e+05,1948.8,3346.3
2.304e+05,1948.8,3788.5
2.304e+05,1948.8,4230.8
2.304e+05,1948.8,4673.1
2.304e+05,1948.8,5115.4
2.304e+05,1948.8,3788.5
2.304e+05,1948.8,4230.8
2.304e+05,1948.8,4673.1
2.304e+05,1948.8,5115.4
2.304e+05,1948.8,4230.8
2.304e+05,1948.8,4673.1
2.304e+05,1948.8,5115.4
2.304e+05,1948.8,1134.8
2.304e+05,1948.8,1577.1
2.304e+05,1948.8,2019.4
2.304e+05,1948.8,2461.7
2.304e+05,1948.8,2904
2.304e+05,1948.8,1577.1
2.304e+05,1948.8,2019.4
2.304e+05,1948.8,2461.7
2.304e+05,1948.8,2904
2.304e+05,1948.8,3346.3
2.304e+05,1948.8,2019.4
2.304e+05,1948.8,2461.7
2.304e+05,1948.8,2904
2.304e+05,1948.8,3346.3
2.304e+05,1948.8,3788.5
2.304e+05,1948.8,2461.7
2.304e+05,1948.8,2904
2.304e+05,1948.8,3346.3
2.304e+05,1948.8,3788.5
2.304e+05,1948.8,4230.8
2.304e+05,1948.8,2904
2.304e+05,1948.8,3346.3
2.304e+05,1948.8,3788.5
2.304e+05,1948.8,4230.8
2.304e+05,1948.8,4673.1
2.304e+05,1948.8,1577.1
2.304e+05,1948.8,2019.4
2.304e+05,1948.8,2461.7
2.304e+05,1948.8,2904
2.304e+05,1948.8,3346.3
2.304e+05,1948.8,2019.4
2.304e+05,1948.8,2461.7
2.304e+05,1948.8,2904
2.304e+05,1948.8,3346.3
2.304e+05,1948.8,3788.5
2.304e+05,1948.8,2461.7
2.304e+05,1948.8,2904
2.304e+05,1948.8,3346.3
2.304e+05,1948.8,3788.5
2.304e+05,1948.8,4230.8
2.304e+05,1948.8,2904
2.304e+05,1948.8,3346.3
2.304e+05,1948.8,3788.5
2.304e+05,1948.8,4230.8
2.304e+05,1948.8,4673.1
2.304e+05,1948.8,3346.3
2.304e+05,1948.8,3788.5
2.304e+05,1948.8,4230.8
2.304e+05,1948.8,4673.1
2.304e+05,1948.8,5115.4
2.304e+05,1948.8,2019.4
2.304e+05,1948.8,2461.7
2.304e+05,1948.8,2904
2.304e+05,1948.8,3346.3
2.304e+05,1948.8,3788.5
2.304e+05,1948.8,2461.7
2.304e+05,1948.8,2904
2.304e+05,1948.8,3346.3
2.304e+05,1948.8,3788.5
2.304e+05,1948.8,4230.8
2.304e+05,1948.8,2904
2.304e+05,1948.8,3346.3
2.304e+05,1948.8,3788.5
2.304e+05,1948.8,4230.8
2.304e+05,1948.8,4673.1
2.304e+05,1948.8,3346.3
2.304e+05,1948.8,3788.5
2.304e+05,1948.8,4230.8
2.304e+05,1948.8,4673.1
2.304e+05,1948.8,5115.4
2.304e+05,1948.8,3788.5
2.304e+05,1948.8,4230.8
2.304e+05,1948.8,4673.1
2.304e+05,1948.8,5115.4
2.304e+05,1948.8,2461.7
2.304e+05,1948.8,2904
2.304e+05,1948.8,3346.3
2.304e+05,1948.8,3788.5
2.304e+05,1948.8,4230.8
2.304e+05,1948.8,2904
2.304e+05,1948.8,3346.3
2.304e+05,1948.8,3788.5
2.304e+05,1948.8,4230.8
2.304e+05,1948.8,4673.1
2.304e+05,1948.8,3346.3
2.304e+05,1948.8,3788.5
2.304e+05,1948.8,4230.8
2.304e+05,1948.8,4673.1
2.304e+05,1948.8,5115.4
2.304e+05,1948.8,3788.5
2.304e+05,1948.8,4230.8
2.304e+05,1948.8,4673.1
2.304e+05,1948.8,5115.4
2.304e+05,1948.8,4230.8
2.304e+05,1948.8,4673.1
2.304e+05,1948.8,5115.4
2.304e+05,1948.8,2904
2.304e+05,1948.8,3346.3
2.304e+05,1948.8,3788.5
2.304e+05,1948.8,4230.8
2.304e+05,1948.8,4673.1
2.304e+05,1948.8,3346.3
2.304e+05,1948.8,3788.5
2.304e+05,1948.8,4230.8
2.304e+05,1948.8,4673.1
2.304e+05,1948.8,5115.4
2.304e+05,1948.8,3788.5
2.304e+05,1948.8,4230.8
2.304e+05,1948.8,4673.1
2.304e+05,1948.8,5115.4
2.304e+05,1948.8,4230.8
2.304e+05,1948.8,4673.1
2.304e+05,1948.8,5115.4
2.304e+05,1948.8,1577.1
2.304e+05,1948.8,2019.4
2.304e+05,1948.8,2461.7
2.304e+05,1948.8,2904
2.304e+05,1948.8,3346.3
2.304e+05,1948.8,2019.4
2.304e+05,1948.8,2461.7
2.304e+05,1948.8,2904
2.304e+05,1948.8,3346.3
2.304e+05,1948.8,3788.5
2.304e+05,1948.8,2461.7
2.304e+05,1948.8,2904
2.304e+05,1948.8,3346.3
2.304e+05,1948.8,3788.5
2.304e+05,1948.8,4230.8
2.304e+05,1948.8,2904
2.304e+05,1948.8,3346.3
2.304e+05,1948.8,3788.5
2.304e+05,1948.8,4230.8
2.304e+05,1948.8,4673.1
2.304e+05,1948.8,3346.3
2.304e+05,1948.8,3788.5
2.304e+05,1948.8,4230.8
2.304e+05,1948.8,4673.1
2.304e+05,1948.8,5115.4
2.304e+05,1948.8,2019.4
2.304e+05,1948.8,2461.7
2.304e+05,1948.8,2904
2.304e+05,1948.8,3346.3
2.304e+05,1948.8,3788.5
2.304e+05,1948.8,2461.7
2.304e+05,1948.8,2904
2.304e+05,1948.8,3346.3
2.304e+05,1948.8,3788.5
2.304e+05,1948.8,4230.8
2.304e+05,1948.8,2904
2.304e+05,1948.8,3346.3
2.304e+05,1948.8,3788.5
2.304e+05,1948.8,4230.8
2.304e+05,1948.8,4673.1
2.304e+05,1948.8,3346.3
2.304e+05,1948.8,3788.5
2.304e+05,1948.8,4230.8
2.304e+05,1948.8,4673.1
2.304e+05,1948.8,5115.4
2.304e+05,1948.8,3788.5
2.304e+05,1948.8,4230.8
2.304e+05,1948.8,4673.1
2.304e+05,1948.8,5115.4
2.304e+05,1948.8,2461.7
2.304e+05,1948.8,2904
2.304e+05,1948.8,3346.3
2.304e+05,1948.8,3788.5
2.304e+05,1948.8,4230.8
2.304e+05,1948.8,2904
2.304e+05,1948.8,3346.3
2.304e+05,1948.8,3788.5
2.304e+05,1948.8,4230.8
2.304e+05,1948.8,4673.1
2.304e+05,1948.8,3346.3
2.304e+05,1948.8,3788.5
2.304e+05,1948.8,4230.8
2.304e+05,1948.8,4673.1
2.304e+05,1948.8,5115.4
2.304e+05,1948.8,3788.5
2.304e+05,1948.8,4230.8
2.304e+05,1948.8,4673.1
2.304e+05,1948.8,5115.4
2.304e+05,1948.8,4230.8
2.304e+05,1948.8,4673.1
2.304e+05,1948.8,5115.4
2.304e+05,1948.8,2904
2.304e+05,1948.8,3346.3
2.304e+05,1948.8,3788.5
2.304e+05,1948.8,4230.8
2.304e+05,1948.8,4673.1
2.304e+05,1948.8,3346.3
2.304e+05,1948.8,3788.5
2.304e+05,1948.8,4230.8
2.304e+05,1948.8,4673.1
2.304e+05,1948.8,5115.4
2.304e+05,1948.8,3788.5
2.304e+05,1948.8,4230.8
2.304e+05,1948.8,4673.1
2.304e+05,1948.8,5115.4
2.304e+05,1948.8,4230.8
2.304e+05,1948.8,4673.1
2.304e+05,1948.8,5115.4
2.304e+05,1948.8,3346.3
2.304e+05,1948.8,3788.5
2.304e+05,1948.8,4230.8
2.304e+05,1948.8,4673.1
2.304e+05,1948.8,5115.4
2.304e+05,1948.8,3788.5
2.304e+05,1948.8,4230.8
2.304e+05,1948.8,4673.1
2.304e+05,1948.8,5115.4
2.304e+05,1948.8,4230.8
2.304e+05,1948.8,4673.1
2.304e+05,1948.8,5115.4
2.304e+05,1948.8,2019.4
2.304e+05,1948.8,2461.7
2.304e+05,1948.8,2904
2.304e+05,1948.8,3346.3
2.304e+05,1948.8,3788.5
2.304e+05,1948.8,2461.7
2.304e+05,1948.8,2904
2.304e+05,1948.8,3346.3
2.304e+05,1948.8,3788.5
2.304e+05,1948.8,4230.8
2.304e+05,1948.8,2904
2.304e+05,1948.8,3346.3
2.304e+05,1948.8,3788.5
2.304e+05,1948.8,4230.8
2.304e+05,1948.8,4673.1
2.304e+05,1948.8,3346.3
2.304e+05,1948.8,3788.5
2.304e+05,1948.8,4230.8
2.304e+05,1948.8,4673.1
2.304e+05,1948.8,5115.4
2.304e+05,1948.8,3788.5
2.304e+05,1948.8,4230.8
2.304e+05,1948.8,4673.1
2.304e+05,1948.8,5115.4
2.304e+05,1948.8,2461.7
2.304e+05,1948.8,2904
2.304e+05,1948.8,3346.3
2.304e+05,1948.8,3788.5
2.304e+05,1948.8,4230.8
2.304e+05,1948.8,2904
2.304e+05,1948.8,3346.3
2.304e+05,1948.8,3788.5
2.304e+05,1948.8,4230.8
2.304e+05,1948.8,4673.1
2.304e+05,1948.8,3346.3
2.304e+05,1948.8,3788.5
2.304e+05,1948.8,4230.8
2.304e+05,1948.8,4673.1
2.304e+05,1948.8,5115.4
2.304e+05,1948.8,3788.5
2.304e+05,1948.8,4230.8
2.304e+05,1948.8,4673.1
2.304e+05,1948.8,5115.4
2.304e+05,1948.8,4230.8
2.304e+05,1948.8,4673.1
2.304e+05,1948.8,5115.4
2.304e+05,1948.8,2904
2.304e+05,1948.8,3346.3
2.304e+05,1948.8,3788.5
2.304e+05,1948.8,4230.8
2.304e+05,1948.8,4673.1
2.304e+05,1948.8,3346.3
2.304e+05,1948.8,3788.5
2.304e+05,1948.8,4230.8
2.304e+05,1948.8,4673.1
2.304e+05,1948.8,5115.4
2.304e+05,1948.8,3788.5
2.304e+05,1948.8,4230.8
2.304e+05,1948.8,4673.1
2.304e+05,1948.8,5115.4
2.304e+05,1948.8,4230.8
2.304e+05,1948.8,4673.1
2.304e+05,1948.8,5115.4
2.304e+05,1948.8,3346.3
2.304e+05,1948.8,3788.5
2.304e+05,1948.8,4230.8
2.304e+05,1948.8,4673.1
2.304e+05,1948.8,5115.4
2.304e+05,1948.8,3788.5
2.304e+05,1948.8,4230.8
2.304e+05,1948.8,4673.1
2.304e+05,1948.8,5115.4
2.304e+05,1948.8,4230.8
2.304e+05,1948.8,4673.1
2.304e+05,1948.8,5115.4
2.304e+05,1948.8,2461.7
2.304e+05,1948.8,2904
2.304e+05,1948.8,3346.3
2.304e+05,1948.8,3788.5
2.304e+05,1948.8,4230.8
2.304e+05,1948.8,2904
2.304e+05,1948.8,3346.3
2.304e+05,1948.8,3788.5
2.304e+05,1948.8,4230.8
2.304e+05,1948.8,4673.1
2.304e+05,1948.8,3346.3
2.304e+05,1948.8,3788.5
2.304e+05,1948.8,4230.8
2.304e+05,1948.8,4673.1
2.304e+05,1948.8,5115.4
2.304e+05,1948.8,3788.5
2.304e+05,1948.8,4230.8
2.304e+05,1948.8,4673.1
2.304e+05,1948.8,5115.4
2.304e+05,1948.8,4230.8
2.304e+05,1948.8,4673.1
2.304e+05,1948.8,5115.4
2.304e+05,1948.8,2904
2.304e+05,1948.8,3346.3
2.304e+05,1948.8,3788.5
2.304e+05,1948.8,4230.8
2.304e+05,1948.8,4673.1
2.304e+05,1948.8,3346.3
2.304e+05,1948.8,3788.5
2.304e+05,1948.8,4230.8
2.304e+05,1948.8,4673.1
2.304e+05,1948.8,5115.4
2.304e+05,1948.8,3788.5
2.304e+05,1948.8,4230.8
2.304e+05,1948.8,4673.1
2.304e+05,1948.8,5115.4
2.304e+05,1948.8,4230.8
2.304e+05,1948.8,4673.1
2.304e+05,1948.8,5115.4
2.304e+05,1948.8,3346.3
2.304e+05,1948.8,3788.5
2.304e+05,1948.8,4230.8
2.304e+05,1948.8,4673.1
2.304e+05,1948.8,5115.4
2.304e+05,1948.8,3788.5
2.304e+05,1948.8,4230.8
2.304e+05,1948.8,4673.1
2.304e+05,1948.8,5115.4
2.304e+05,1948.8,4230.8
2.304e+05,1948.8,4673.1
2.304e+05,1948.8,5115.4
2.304e+05,1948.8,1134.8
2.304e+05,1948.8,1577.1
2.304e+05,1948.8,2019.4
2.304e+05,1948.8,2461.7
2.304e+05,1948.8,2904
2.304e+05,1948.8,1577.1
2.304e+05,1948.8,2019.4
2.304e+05,1948.8,2461.7
2.304e+05,1948.8,2904
2.304e+05,1948.8,3346.3
2.304e+05,1948.8,2019.4
2.304e+05,1948.8,2461.7
2.304e+05,1948.8,2904
2.304e+05,1948.8,3346.3
2.304e+05,1948.8,3788.5
2.304e+05,1948.8,2461.7
2.304e+05,1948.8,2904
2.304e+05,1948.8,3346.3
2.304e+05,1948.8,3788.5
2.304e+05,1948.8,4230.8
2.304e+05,1948.8,2904
2.304e+05,1948.8,3346.3
2.304e+05,1948.8,3788.5
2.304e+05,1948.8,4230.8
2.304e+05,1948.8,4673.1
2.304e+05,1948.8,1577.1
2.304e+05,1948.8,2019.4
2.304e+05,1948.8,2461.7
2.304e+05,1948.8,2904
2.304e+05,1948.8,3346.3
2.304e+05,1948.8,2019.4
2.304e+05,1948.8,2461.7
2.304e+05,1948.8,2904
2.304e+05,1948.8,3346.3
2.304e+05,1948.8,3788.5
2.304e+05,1948.8,2461.7
2.304e+05,1948.8,2904
2.304e+05,1948.8,3346.3
2.304e+05,1948.8,3788.5
2.304e+05,1948.8,4230.8
2.304e+05,1948.8,2904
2.304e+05,1948.8,3346.3
2.304e+05,1948.8,3788.5
2.304e+05,1948.8,4230.8
2.304e+05,1948.8,4673.1
2.304e+05,1948.8,3346.3
2.304e+05,1948.8,3788.5
2.304e+05,1948.8,4230.8
2.304e+05,1948.8,4673.1
2.304e+05,1948.8,5115.4
2.304e+05,1948.8,2019.4
2.304e+05,1948.8,2461.7
2.304e+05,1948.8,2904
2.304e+05,1948.8,3346.3
2.304e+05,1948.8,3788.5
2.304e+05,1948.8,2461.7
2.304e+05,1948.8,2904
2.304e+05,1948.8,3346.3
2.304e+05,1948.8,3788.5
2.304e+05,1948.8,4230.8
2.304e+05,1948.8,2904
2.304e+05,1948.8,3346.3
2.304e+05,1948.8,3788.5
2.304e+05,1948.8,4230.8
2.304e+05,1948.8,4673.1
2.304e+05,1948.8,3346.3
2.304e+05,1948.8,3788.5
2.304e+05,1948.8,4230.8
2.304e+05,1948.8,4673.1
2.304e+05,1948.8,5115.4
2.304e+05,1948.8,3788.5
2.304e+05,1948.8,4230.8
2.304e+05,1948.8,4673.1
2.304e+05,1948.8,5115.4
2.304e+05,1948.8,2461.7
2.304e+05,1948.8,2904
2.304e+05,1948.8,3346.3
2.304e+05,1948.8,3788.5
2.304e+05,1948.8,4230.8
2.304e+05,1948.8,2904
2.304e+05,1948.8,3346.3
2.304e+05,1948.8,3788.5
2.304e+05,1948.8,4230.8
2.304e+05,1948.8,4673.1
2.304e+05,1948.8,3346.3
2.304e+05,1948.8,3788.5
2.304e+05,1948.8,4230.8
2.304e+05,1948.8,4673.1
2.304e+05,1948.8,5115.4
2.304e+05,1948.8,3788.5
2.304e+05,1948.8,4230.8
2.304e+05,1948.8,4673.1
2.304e+05,1948.8,5115.4
2.304e+05,1948.8,4230.8
2.304e+05,1948.8,4673.1
2.304e+05,1948.8,5115.4
2.304e+05,1948.8,2904
2.304e+05,1948.8,3346.3
2.304e+05,1948.8,3788.5
2.304e+05,1948.8,4230.8
2.304e+05,1948.8,4673.1
2.304e+05,1948.8,3346.3
2.304e+05,1948.8,3788.5
2.304e+05,1948.8,4230.8
2.304e+05,1948.8,4673.1
2.304e+05,1948.8,5115.4
2.304e+05,1948.8,3788.5
2.304e+05,1948.8,4230.8
2.304e+05,1948.8,4673.1
2.304e+05,1948.8,5115.4
2.304e+05,1948.8,4230.8
2.304e+05,1948.8,4673.1
2.304e+05,1948.8,5115.4
2.304e+05,1948.8,1577.1
2.304e+05,1948.8,2019.4
2.304e+05,1948.8,2461.7
2.304e+05,1948.8,2904
2.304e+05,1948.8,3346.3
2.304e+05,1948.8,2019.4
2.304e+05,1948.8,2461.7
2.304e+05,1948.8,2904
2.304e+05,1948.8,3346.3
2.304e+05,1948.8,3788.5
2.304e+05,1948.8,2461.7
2.304e+05,1948.8,2904
2.304e+05,1948.8,3346.3
2.304e+05,1948.8,3788.5
2.304e+05,1948.8,4230.8
2.304e+05,1948.8,2904
2.304e+05,1948.8,3346.3
2.304e+05,1948.8,3788.5
2.304e+05,1948.8,4230.8
2.304e+05,1948.8,4673.1
2.304e+05,1948.8,3346.3
2.304e+05,1948.8,3788.5
2.304e+05,1948.8,4230.8
2.304e+05,1948.8,4673.1
2.304e+05,1948.8,5115.4
2.304e+05,1948.8,2019.4
2.304e+05,1948.8,2461.7
2.304e+05,1948.8,2904
2.304e+05,1948.8,3346.3
2.304e+05,1948.8,3788.5
2.304e+05,1948.8,2461.7
2.304e+05,1948.8,2904
2.304e+05,1948.8,3346.3
2.304e+05,1948.8,3788.5
2.304e+05,1948.8,4230.8
2.304e+05,1948.8,2904
2.304e+05,1948.8,3346.3
2.304e+05,1948.8,3788.5
2.304e+05,1948.8,4230.8
2.304e+05,1948.8,4673.1
2.304e+05,1948.8,3346.3
2.304e+05,1948.8,3788.5
2.304e+05,1948.8,4230.8
2.304e+05,1948.8,4673.1
2.304e+05,1948.8,5115.4
2.304e+05,1948.8,3788.5
2.304e+05,1948.8,4230.8
2.304e+05,1948.8,4673.1
2.304e+05,1948.8,5115.4
2.304e+05,1948.8,2461.7
2.304e+05,1948.8,2904
2.304e+05,1948.8,3346.3
2.304e+05,1948.8,3788.5
2.304e+05,1948.8,4230.8
2.304e+05,1948.8,2904
2.304e+05,1948.8,3346.3
2.304e+05,1948.8,3788.5
2.304e+05,1948.8,4230.8
2.304e+05,1948.8,4673.1
2.304e+05,1948.8,3346.3
2.304e+05,1948.8,3788.5
2.304e+05,1948.8,4230.8
2.304e+05,1948.8,4673.1
2.304e+05,1948.8,5115.4
2.304e+05,1948.8,3788.5
2.304e+05,1948.8,4230.8
2.304e+05,1948.8,4673.1
2.304e+05,1948.8,5115.4
2.304e+05,1948.8,4230.8
2.304e+05,1948.8,4673.1
2.304e+05,1948.8,5115.4
2.304e+05,1948.8,2904
2.304e+05,1948.8,3346.3
2.304e+05,1948.8,3788.5
2.304e+05,1948.8,4230.8
2.304e+05,1948.8,4673.1
2.304e+05,1948.8,3346.3
2.304e+05,1948.8,3788.5
2.304e+05,1948.8,4230.8
2.304e+05,1948.8,4673.1
2.304e+05,1948.8,5115.4
2.304e+05,1948.8,3788.5
2.304e+05,1948.8,4230.8
2.304e+05,1948.8,4673.1
2.304e+05,1948.8,5115.4
2.304e+05,1948.8,4230.8
2.304e+05,1948.8,4673.1
2.304e+05,1948.8,5115.4
2.304e+05,1948.8,3346.3
2.304e+05,1948.8,3788.5
2.304e+05,1948.8,4230.8
2.304e+05,1948.8,4673.1
2.304e+05,1948.8,5115.4
2.304e+05,1948.8,3788.5
2.304e+05,1948.8,4230.8
2.304e+05,1948.8,4673.1
2.304e+05,1948.8,5115.4
2.304e+05,1948.8,4230.8
2.304e+05,1948.8,4673.1
2.304e+05,1948.8,5115.4
2.304e+05,1948.8,2019.4
2.304e+05,1948.8,2461.7
2.304e+05,1948.8,2904
2.304e+05,1948.8,3346.3
2.304e+05,1948.8,3788.5
2.304e+05,1948.8,2461.7
2.304e+05,1948.8,2904
2.304e+05,1948.8,3346.3
2.304e+05,1948.8,3788.5
2.304e+05,1948.8,4230.8
2.304e+05,1948.8,2904
2.304e+05,1948.8,3346.3
2.304e+05,1948.8,3788.5
2.304e+05,1948.8,4230.8
2.304e+05,1948.8,4673.1
2.304e+05,1948.8,3346.3
2.304e+05,1948.8,3788.5
2.304e+05,1948.8,4230.8
2.304e+05,1948.8,4673.1
2.304e+05,1948.8,5115.4
2.304e+05,1948.8,3788.5
2.304e+05,1948.8,4230.8
2.304e+05,1948.8,4673.1
2.304e+05,1948.8,5115.4
2.304e+05,1948.8,2461.7
2.304e+05,1948.8,2904
2.304e+05,1948.8,3346.3
2.304e+05,1948.8,3788.5
2.304e+05,1948.8,4230.8
2.304e+05,1948.8,2904
2.304e+05,1948.8,3346.3
2.304e+05,1948.8,3788.5
2.304e+05,1948.8,4230.8
2.304e+05,1948.8,4673.1
2.304e+05,1948.8,3346.3
2.304e+05,1948.8,3788.5
2.304e+05,1948.8,4230.8
2.304e+05,1948.8,4673.1
2.304e+05,1948.8,5115.4
2.304e+05,1948.8,3788.5
2.304e+05,1948.8,4230.8
2.304e+05,1948.8,4673.1
2.304e+05,1948.8,5115.4
2.304e+05,1948.8,4230.8
2.304e+05,1948.8,4673.1
2.304e+05,1948.8,5115.4
2.304e+05,1948.8,2904
2.304e+05,1948.8,3346.3
2.304e+05,1948.8,3788.5
2.304e+05,1948.8,4230.8
2.304e+05,1948.8,4673.1
2.304e+05,1948.8,3346.3
2.304e+05,1948.8,3788.5
2.304e+05,1948.8,4230.8
2.304e+05,1948.8,4673.1
2.304e+05,1948.8,5115.4
2.304e+05,1948.8,3788.5
2.304e+05,1948.8,4230.8
2.304e+05,1948.8,4673.1
2.304e+05,1948.8,5115.4
2.304e+05,1948.8,4230.8
2.304e+05,1948.8,4673.1
2.304e+05,1948.8,5115.4
2.304e+05,1948.8,3346.3
2.304e+05,1948.8,3788.5
2.304e+05,1948.8,4230.8
2.304e+05,1948.8,4673.1
2.304e+05,1948.8,5115.4
2.304e+05,1948.8,3788.5
2.304e+05,1948.8,4230.8
2.304e+05,1948.8,4673.1
2.304e+05,1948.8,5115.4
2.304e+05,1948.8,4230.8
2.304e+05,1948.8,4673.1
2.304e+05,1948.8,5115.4
2.304e+05,1948.8,2461.7
2.304e+05,1948.8,2904
2.304e+05,1948.8,3346.3
2.304e+05,1948.8,3788.5
2.304e+05,1948.8,4230.8
2.304e+05,1948.8,2904
2.304e+05,1948.8,3346.3
2.304e+05,1948.8,3788.5
2.304e+05,1948.8,4230.8
2.304e+05,1948.8,4673.1
2.304e+05,1948.8,3346.3
2.304e+05,1948.8,3788.5
2.304e+05,1948.8,4230.8
2.304e+05,1948.8,4673.1
2.304e+05,1948.8,5115.4
2.304e+05,1948.8,3788.5
2.304e+05,1948.8,4230.8
2.304e+05,1948.8,4673.1
2.304e+05,1948.8,5115.4
2.304e+05,1948.8,4230.8
2.304e+05,1948.8,4673.1
2.304e+05,1948.8,5115.4
2.304e+05,1948.8,2904
2.304e+05,1948.8,3346.3
2.304e+05,1948.8,3788.5
2.304e+05,1948.8,4230.8
2.304e+05,1948.8,4673.1
2.304e+05,1948.8,3346.3
2.304e+05,1948.8,3788.5
2.304e+05,1948.8,4230.8
2.304e+05,1948.8,4673.1
2.304e+05,1948.8,5115.4
2.304e+05,1948.8,3788.5
2.304e+05,1948.8,4230.8
2.304e+05,1948.8,4673.1
2.304e+05,1948.8,5115.4
2.304e+05,1948.8,4230.8
2.304e+05,1948.8,4673.1
2.304e+05,1948.8,5115.4
2.304e+05,1948.8,3346.3
2.304e+05,1948.8,3788.5
2.304e+05,1948.8,4230.8
2.304e+05,1948.8,4673.1
2.304e+05,1948.8,5115.4
2.304e+05,1948.8,3788.5
2.304e+05,1948.8,4230.8
2.304e+05,1948.8,4673.1
2.304e+05,1948.8,5115.4
2.304e+05,1948.8,4230.8
2.304e+05,1948.8,4673.1
2.304e+05,1948.8,5115.4
2.304e+05,1948.8,1577.1
2.304e+05,1948.8,2019.4
2.304e+05,1948.8,2461.7
2.304e+05,1948.8,2904
2.304e+05,1948.8,3346.3
2.304e+05,1948.8,2019.4
2.304e+05,1948.8,2461.7
2.304e+05,1948.8,2904
2.304e+05,1948.8,3346.3
2.304e+05,1948.8,3788.5
2.304e+05,1948.8,2461.7
2.304e+05,1948.8,2904
2.304e+05,1948.8,3346.3
2.304e+05,1948.8,3788.5
2.304e+05,1948.8,4230.8
2.304e+05,1948.8,2904
2.304e+05,1948.8,3346.3
2.304e+05,1948.8,3788.5
2.304e+05,1948.8,4230.8
2.304e+05,1948.8,4673.1
2.304e+05,1948.8,3346.3
2.304e+05,1948.8,3788.5
2.304e+05,1948.8,4230.8
2.304e+05,1948.8,4673.1
2.304e+05,1948.8,5115.4
2.304e+05,1948.8,2019.4
2.304e+05,1948.8,2461.7
2.304e+05,1948.8,2904
2.304e+05,1948.8,3346.3
2.304e+05,1948.8,3788.5
2.304e+05,1948.8,2461.7
2.304e+05,1948.8,2904
2.304e+05,1948.8,3346.3
2.304e+05,1948.8,3788.5
2.304e+05,1948.8,4230.8
2.304e+05,1948.8,2904
2.304e+05,1948.8,3346.3
2.304e+05,1948.8,3788.5
2.304e+05,1948.8,4230.8
2.304e+05,1948.8,4673.1
2.304e+05,1948.8,3346.3
2.304e+05,1948.8,3788.5
2.304e+05,1948.8,4230.8
2.304e+05,1948.8,4673.1
2.304e+05,1948.8,5115.4
2.304e+05,1948.8,3788.5
2.304e+05,1948.8,4230.8
2.304e+05,1948.8,4673.1
2.304e+05,1948.8,5115.4
2.304e+05,1948.8,2461.7
2.304e+05,1948.8,2904
2.304e+05,1948.8,3346.3
2.304e+05,1948.8,3788.5
2.304e+05,1948.8,4230.8
2.304e+05,1948.8,2904
2.304e+05,1948.8,3346.3
2.304e+05,1948.8,3788.5
2.304e+05,1948.8,4230.8
2.304e+05,1948.8,4673.1
2.304e+05,1948.8,3346.3
2.304e+05,1948.8,3788.5
2.304e+05,1948.8,4230.8
2.304e+05,1948.8,4673.1
2.304e+05,1948.8,5115.4
2.304e+05,1948.8,3788.5
2.304e+05,1948.8,4230.8
2.304e+05,1948.8,4673.1
2.304e+05,1948.8,5115.4
2.304e+05,1948.8,4230.8
2.304e+05,1948.8,4673.1
2.304e+05,1948.8,5115.4
2.304e+05,1948.8,2904
2.304e+05,1948.8,3346.3
2.304e+05,1948.8,3788.5
2.304e+05,1948.8,4230.8
2.304e+05,1948.8,4673.1
2.304e+05,1948.8,3346.3
2.304e+05,1948.8,3788.5
2.304e+05,1948.8,4230.8
2.304e+05,1948.8,4673.1
2.304e+05,1948.8,5115.4
2.304e+05,1948.8,3788.5
2.304e+05,1948.8,4230.8
2.304e+05,1948.8,4673.1
2.304e+05,1948.8,5115.4
2.304e+05,1948.8,4230.8
2.304e+05,1948.8,4673.1
2.304e+05,1948.8,5115.4
2.304e+05,1948.8,3346.3
2.304e+05,1948.8,3788.5
2.304e+05,1948.8,4230.8
2.304e+05,1948.8,4673.1
2.304e+05,1948.8,5115.4
2.304e+05,1948.8,3788.5
2.304e+05,1948.8,4230.8
2.304e+05,1948.8,4673.1
2.304e+05,1948.8,5115.4
2.304e+05,1948.8,4230.8
2.304e+05,1948.8,4673.1
2.304e+05,1948.8,5115.4
2.304e+05,1948.8,2019.4
2.304e+05,1948.8,2461.7
2.304e+05,1948.8,2904
2.304e+05,1948.8,3346.3
2.304e+05,1948.8,3788.5
2.304e+05,1948.8,2461.7
2.304e+05,1948.8,2904
2.304e+05,1948.8,3346.3
2.304e+05,1948.8,3788.5
2.304e+05,1948.8,4230.8
2.304e+05,1948.8,2904
2.304e+05,1948.8,3346.3
2.304e+05,1948.8,3788.5
2.304e+05,1948.8,4230.8
2.304e+05,1948.8,4673.1
2.304e+05,1948.8,3346.3
2.304e+05,1948.8,3788.5
2.304e+05,1948.8,4230.8
2.304e+05,1948.8,4673.1
2.304e+05,1948.8,5115.4
2.304e+05,1948.8,3788.5
2.304e+05,1948.8,4230.8
2.304e+05,1948.8,4673.1
2.304e+05,1948.8,5115.4
2.304e+05,1948.8,2461.7
2.304e+05,1948.8,2904
2.304e+05,1948.8,3346.3
2.304e+05,1948.8,3788.5
2.304e+05,1948.8,4230.8
2.304e+05,1948.8,2904
2.304e+05,1948.8,3346.3
2.304e+05,1948.8,3788.5
2.304e+05,1948.8,4230.8
2.304e+05,1948.8,4673.1
2.304e+05,1948.8,3346.3
2.304e+05,1948.8,3788.5
2.304e+05,1948.8,4230.8
2.304e+05,1948.8,4673.1
2.304e+05,1948.8,5115.4
2.304e+05,1948.8,3788.5
2.304e+05,1948.8,4230.8
2.304e+05,1948.8,4673.1
2.304e+05,1948.8,5115.4
2.304e+05,1948.8,4230.8
2.304e+05,1948.8,4673.1
2.304e+05,1948.8,5115.4
2.304e+05,1948.8,2904
2.304e+05,1948.8,3346.3
2.304e+05,1948.8,3788.5
2.304e+05,1948.8,4230.8
2.304e+05,1948.8,4673.1
2.304e+05,1948.8,3346.3
2.304e+05,1948.8,3788.5
2.304e+05,1948.8,4230.8
2.304e+05,1948.8,4673.1
2.304e+05,1948.8,5115.4
2.304e+05,1948.8,3788.5
2.304e+05,1948.8,4230.8
2.304e+05,1948.8,4673.1
2.304e+05,1948.8,5115.4
2.304e+05,1948.8,4230.8
2.304e+05,1948.8,4673.1
2.304e+05,1948.8,5115.4
2.304e+05,1948.8,3346.3
2.304e+05,1948.8,3788.5
2.304e+05,1948.8,4230.8
2.304e+05,1948.8,4673.1
2.304e+05,1948.8,5115.4
2.304e+05,1948.8,3788.5
2.304e+05,1948.8,4230.8
2.304e+05,1948.8,4673.1
2.304e+05,1948.8,5115.4
2.304e+05,1948.8,4230.8
2.304e+05,1948.8,4673.1
2.304e+05,1948.8,5115.4
2.304e+05,1948.8,2461.7
2.304e+05,1948.8,2904
2.304e+05,1948.8,3346.3
2.304e+05,1948.8,3788.5
2.304e+05,1948.8,4230.8
2.304e+05,1948.8,2904
2.304e+05,1948.8,3346.3
2.304e+05,1948.8,3788.5
2.304e+05,1948.8,4230.8
2.304e+05,1948.8,4673.1
2.304e+05,1948.8,3346.3
2.304e+05,1948.8,3788.5
2.304e+05,1948.8,4230.8
2.304e+05,1948.8,4673.1
2.304e+05,1948.8,5115.4
2.304e+05,1948.8,3788.5
2.304e+05,1948.8,4230.8
2.304e+05,1948.8,4673.1
2.304e+05,1948.8,5115.4
2.304e+05,1948.8,4230.8
2.304e+05,1948.8,4673.1
2.304e+05,1948.8,5115.4
2.304e+05,1948.8,2904
2.304e+05,1948.8,3346.3
2.304e+05,1948.8,3788.5
2.304e+05,1948.8,4230.8
2.304e+05,1948.8,4673.1
2.304e+05,1948.8,3346.3
2.304e+05,1948.8,3788.5
2.304e+05,1948.8,4230.8
2.304e+05,1948.8,4673.1
2.304e+05,1948.8,5115.4
2.304e+05,1948.8,3788.5
2.304e+05,1948.8,4230.8
2.304e+05,1948.8,4673.1
2.304e+05,1948.8,5115.4
2.304e+05,1948.8,4230.8
2.304e+05,1948.8,4673.1
2.304e+05,1948.8,5115.4
2.304e+05,1948.8,3346.3
2.304e+05,1948.8,3788.5
2.304e+05,1948.8,4230.8
2.304e+05,1948.8,4673.1
2.304e+05,1948.8,5115.4
2.304e+05,1948.8,3788.5
2.304e+05,1948.8,4230.8
2.304e+05,1948.8,4673.1
2.304e+05,1948.8,5115.4
2.304e+05,1948.8,4230.8
2.304e+05,1948.8,4673.1
2.304e+05,1948.8,5115.4
2.304e+05,1948.8,6884.6
2.304e+05,1948.8,7326.9
2.304e+05,1948.8,7769.2
2.304e+05,1948.8,6884.6
2.304e+05,1948.8,7326.9
2.304e+05,1948.8,7769.2
2.304e+05,1948.8,8211.5
2.304e+05,1948.8,6884.6
2.304e+05,1948.8,7326.9
2.304e+05,1948.8,7769.2
2.304e+05,1948.8,8211.5
2.304e+05,1948.8,8653.7
2.304e+05,1948.8,6884.6
2.304e+05,1948.8,7326.9
2.304e+05,1948.8,7769.2
2.304e+05,1948.8,6884.6
2.304e+05,1948.8,7326.9
2.304e+05,1948.8,7769.2
2.304e+05,1948.8,8211.5
2.304e+05,1948.8,6884.6
2.304e+05,1948.8,7326.9
2.304e+05,1948.8,7769.2
2.304e+05,1948.8,8211.5
2.304e+05,1948.8,8653.7
2.304e+05,1948.8,7326.9
2.304e+05,1948.8,7769.2
2.304e+05,1948.8,8211.5
2.304e+05,1948.8,8653.7
2.304e+05,1948.8,9096
2.304e+05,1948.8,6884.6
2.304e+05,1948.8,7326.9
2.304e+05,1948.8,7769.2
2.304e+05,1948.8,6884.6
2.304e+05,1948.8,7326.9
2.304e+05,1948.8,7769.2
2.304e+05,1948.8,8211.5
2.304e+05,1948.8,6884.6
2.304e+05,1948.8,7326.9
2.304e+05,1948.8,7769.2
2.304e+05,1948.8,8211.5
2.304e+05,1948.8,8653.7
2.304e+05,1948.8,7326.9
2.304e+05,1948.8,7769.2
2.304e+05,1948.8,8211.5
2.304e+05,1948.8,8653.7
2.304e+05,1948.8,9096
2.304e+05,1948.8,7769.2
2.304e+05,1948.8,8211.5
2.304e+05,1948.8,8653.7
2.304e+05,1948.8,9096
2.304e+05,1948.8,9538.3
2.304e+05,1948.8,6884.6
2.304e+05,1948.8,7326.9
2.304e+05,1948.8,7769.2
2.304e+05,1948.8,6884.6
2.304e+05,1948.8,7326.9
2.304e+05,1948.8,7769.2
2.304e+05,1948.8,8211.5
2.304e+05,1948.8,6884.6
2.304e+05,1948.8,7326.9
2.304e+05,1948.8,7769.2
2.304e+05,1948.8,8211.5
2.304e+05,1948.8,8653.7
2.304e+05,1948.8,6884.6
2.304e+05,1948.8,7326.9
2.304e+05,1948.8,7769.2
2.304e+05,1948.8,6884.6
2.304e+05,1948.8,7326.9
2.304e+05,1948.8,7769.2
2.304e+05,1948.8,8211.5
2.304e+05,1948.8,6884.6
2.304e+05,1948.8,7326.9
2.304e+05,1948.8,7769.2
2.304e+05,1948.8,8211.5
2.304e+05,1948.8,8653.7
2.304e+05,1948.8,7326.9
2.304e+05,1948.8,7769.2
2.304e+05,1948.8,8211.5
2.304e+05,1948.8,8653.7
2.304e+05,1948.8,9096
2.304e+05,1948.8,6884.6
2.304e+05,1948.8,7326.9
2.304e+05,1948.8,7769.2
2.304e+05,1948.8,6884.6
2.304e+05,1948.8,7326.9
2.304e+05,1948.8,7769.2
2.304e+05,1948.8,8211.5
2.304e+05,1948.8,6884.6
2.304e+05,1948.8,7326.9
2.304e+05,1948.8,7769.2
2.304e+05,1948.8,8211.5
2.304e+05,1948.8,8653.7
2.304e+05,1948.8,7326.9
2.304e+05,1948.8,7769.2
2.304e+05,1948.8,8211.5
2.304e+05,1948.8,8653.7
2.304e+05,1948.8,9096
2.304e+05,1948.8,7769.2
2.304e+05,1948.8,8211.5
2.304e+05,1948.8,8653.7
2.304e+05,1948.8,9096
2.304e+05,1948.8,9538.3
2.304e+05,1948.8,6884.6
2.304e+05,1948.8,7326.9
2.304e+05,1948.8,7769.2
2.304e+05,1948.8,8211.5
2.304e+05,1948.8,6884.6
2.304e+05,1948.8,7326.9
2.304e+05,1948.8,7769.2
2.304e+05,1948.8,8211.5
2.304e+05,1948.8,8653.7
2.304e+05,1948.8,7326.9
2.304e+05,1948.8,7769.2
2.304e+05,1948.8,8211.5
2.304e+05,1948.8,8653.7
2.304e+05,1948.8,9096
2.304e+05,1948.8,7769.2
2.304e+05,1948.8,8211.5
2.304e+05,1948.8,8653.7
2.304e+05,1948.8,9096
2.304e+05,1948.8,9538.3
2.304e+05,1948.8,8211.5
2.304e+05,1948.8,8653.7
2.304e+05,1948.8,9096
2.304e+05,1948.8,9538.3
2.304e+05,1948.8,9980.6
2.304e+05,1948.8,6884.6
2.304e+05,1948.8,7326.9
2.304e+05,1948.8,7769.2
2.304e+05,1948.8,6884.6
2.304e+05,1948.8,7326.9
2.304e+05,1948.8,7769.2
2.304e+05,1948.8,8211.5
2.304e+05,1948.8,6884.6
2.304e+05,1948.8,7326.9
2.304e+05,1948.8,7769.2
2.304e+05,1948.8,8211.5
2.304e+05,1948.8,8653.7
2.304e+05,1948.8,6884.6
2.304e+05,1948.8,7326.9
2.304e+05,1948.8,7769.2
2.304e+05,1948.8,6884.6
2.304e+05,1948.8,7326.9
2.304e+05,1948.8,7769.2
2.304e+05,1948.8,8211.5
2.304e+05,1948.8,6884.6
2.304e+05,1948.8,7326.9
2.304e+05,1948.8,7769.2
2.304e+05,1948.8,8211.5
2.304e+05,1948.8,8653.7
2.304e+05,1948.8,7326.9
2.304e+05,1948.8,7769.2
2.304e+05,1948.8,8211.5
2.304e+05,1948.8,8653.7
2.304e+05,1948.8,9096
2.304e+05,1948.8,6884.6
2.304e+05,1948.8,7326.9
2.304e+05,1948.8,7769.2
2.304e+05,1948.8,6884.6
2.304e+05,1948.8,7326.9
2.304e+05,1948.8,7769.2
2.304e+05,1948.8,8211.5
2.304e+05,1948.8,6884.6
2.304e+05,1948.8,7326.9
2.304e+05,1948.8,7769.2
2.304e+05,1948.8,8211.5
2.304e+05,1948.8,8653.7
2.304e+05,1948.8,7326.9
2.304e+05,1948.8,7769.2
2.304e+05,1948.8,8211.5
2.304e+05,1948.8,8653.7
2.304e+05,1948.8,9096
2.304e+05,1948.8,7769.2
2.304e+05,1948.8,8211.5
2.304e+05,1948.8,8653.7
2.304e+05,1948.8,9096
2.304e+05,1948.8,9538.3
2.304e+05,1948.8,6884.6
2.304e+05,1948.8,7326.9
2.304e+05,1948.8,7769.2
2.304e+05,1948.8,8211.5
2.304e+05,1948.8,6884.6
2.304e+05,1948.8,7326.9
2.304e+05,1948.8,7769.2
2.304e+05,1948.8,8211.5
2.304e+05,1948.8,8653.7
2.304e+05,1948.8,7326.9
2.304e+05,1948.8,7769.2
2.304e+05,1948.8,8211.5
2.304e+05,1948.8,8653.7
2.304e+05,1948.8,9096
2.304e+05,1948.8,7769.2
2.304e+05,1948.8,8211.5
2.304e+05,1948.8,8653.7
2.304e+05,1948.8,9096
2.304e+05,1948.8,9538.3
2.304e+05,1948.8,8211.5
2.304e+05,1948.8,8653.7
2.304e+05,1948.8,9096
2.304e+05,1948.8,9538.3
2.304e+05,1948.8,9980.6
2.304e+05,1948.8,6884.6
2.304e+05,1948.8,7326.9
2.304e+05,1948.8,7769.2
2.304e+05,1948.8,8211.5
2.304e+05,1948.8,8653.7
2.304e+05,1948.8,7326.9
2.304e+05,1948.8,7769.2
2.304e+05,1948.8,8211.5
2.304e+05,1948.8,8653.7
2.304e+05,1948.8,9096
2.304e+05,1948.8,7769.2
2.304e+05,1948.8,8211.5
2.304e+05,1948.8,8653.7
2.304e+05,1948.8,9096
2.304e+05,1948.8,9538.3
2.304e+05,1948.8,8211.5
2.304e+05,1948.8,8653.7
2.304e+05,1948.8,9096
2.304e+05,1948.8,9538.3
2.304e+05,1948.8,9980.6
2.304e+05,1948.8,8653.7
2.304e+05,1948.8,9096
2.304e+05,1948.8,9538.3
2.304e+05,1948.8,9980.6
2.304e+05,1948.8,10423
2.304e+05,1948.8,6884.6
2.304e+05,1948.8,7326.9
2.304e+05,1948.8,7769.2
2.304e+05,1948.8,6884.6
2.304e+05,1948.8,7326.9
2.304e+05,1948.8,7769.2
2.304e+05,1948.8,8211.5
2.304e+05,1948.8,6884.6
2.304e+05,1948.8,7326.9
2.304e+05,1948.8,7769.2
2.304e+05,1948.8,8211.5
2.304e+05,1948.8,8653.7
2.304e+05,1948.8,6884.6
2.304e+05,1948.8,7326.9
2.304e+05,1948.8,7769.2
2.304e+05,1948.8,6884.6
2.304e+05,1948.8,7326.9
2.304e+05,1948.8,7769.2
2.304e+05,1948.8,8211.5
2.304e+05,1948.8,6884.6
2.304e+05,1948.8,7326.9
2.304e+05,1948.8,7769.2
2.304e+05,1948.8,8211.5
2.304e+05,1948.8,8653.7
2.304e+05,1948.8,7326.9
2.304e+05,1948.8,7769.2
2.304e+05,1948.8,8211.5
2.304e+05,1948.8,8653.7
2.304e+05,1948.8,9096
2.304e+05,1948.8,6884.6
2.304e+05,1948.8,7326.9
2.304e+05,1948.8,7769.2
2.304e+05,1948.8,6884.6
2.304e+05,1948.8,7326.9
2.304e+05,1948.8,7769.2
2.304e+05,1948.8,8211.5
2.304e+05,1948.8,6884.6
2.304e+05,1948.8,7326.9
2.304e+05,1948.8,7769.2
2.304e+05,1948.8,8211.5
2.304e+05,1948.8,8653.7
2.304e+05,1948.8,7326.9
2.304e+05,1948.8,7769.2
2.304e+05,1948.8,8211.5
2.304e+05,1948.8,8653.7
2.304e+05,1948.8,9096
2.304e+05,1948.8,7769.2
2.304e+05,1948.8,8211.5
2.304e+05,1948.8,8653.7
2.304e+05,1948.8,9096
2.304e+05,1948.8,9538.3
2.304e+05,1948.8,6884.6
2.304e+05,1948.8,7326.9
2.304e+05,1948.8,7769.2
2.304e+05,1948.8,6884.6
2.304e+05,1948.8,7326.9
2.304e+05,1948.8,7769.2
2.304e+05,1948.8,8211.5
2.304e+05,1948.8,6884.6
2.304e+05,1948.8,7326.9
2.304e+05,1948.8,7769.2
2.304e+05,1948.8,8211.5
2.304e+05,1948.8,8653.7
2.304e+05,1948.8,6884.6
2.304e+05,1948.8,7326.9
2.304e+05,1948.8,7769.2
2.304e+05,1948.8,6884.6
2.304e+05,1948.8,7326.9
2.304e+05,1948.8,7769.2
2.304e+05,1948.8,8211.5
2.304e+05,1948.8,6884.6
2.304e+05,1948.8,7326.9
2.304e+05,1948.8,7769.2
2.304e+05,1948.8,8211.5
2.304e+05,1948.8,8653.7
2.304e+05,1948.8,7326.9
2.304e+05,1948.8,7769.2
2.304e+05,1948.8,8211.5
2.304e+05,1948.8,8653.7
2.304e+05,1948.8,9096
2.304e+05,1948.8,6884.6
2.304e+05,1948.8,7326.9
2.304e+05,1948.8,7769.2
2.304e+05,1948.8,6884.6
2.304e+05,1948.8,7326.9
2.304e+05,1948.8,7769.2
2.304e+05,1948.8,8211.5
2.304e+05,1948.8,6884.6
2.304e+05,1948.8,7326.9
2.304e+05,1948.8,7769.2
2.304e+05,1948.8,8211.5
2.304e+05,1948.8,8653.7
2.304e+05,1948.8,7326.9
2.304e+05,1948.8,7769.2
2.304e+05,1948.8,8211.5
2.304e+05,1948.8,8653.7
2.304e+05,1948.8,9096
2.304e+05,1948.8,7769.2
2.304e+05,1948.8,8211.5
2.304e+05,1948.8,8653.7
2.304e+05,1948.8,9096
2.304e+05,1948.8,9538.3
2.304e+05,1948.8,6884.6
2.304e+05,1948.8,7326.9
2.304e+05,1948.8,7769.2
2.304e+05,1948.8,8211.5
2.304e+05,1948.8,6884.6
2.304e+05,1948.8,7326.9
2.304e+05,1948.8,7769.2
2.304e+05,1948.8,8211.5
2.304e+05,1948.8,8653.7
2.304e+05,1948.8,7326.9
2.304e+05,1948.8,7769.2
2.304e+05,1948.8,8211.5
2.304e+05,1948.8,8653.7
2.304e+05,1948.8,9096
2.304e+05,1948.8,7769.2
2.304e+05,1948.8,8211.5
2.304e+05,1948.8,8653.7
2.304e+05,1948.8,9096
2.304e+05,1948.8,9538.3
2.304e+05,1948.8,8211.5
2.304e+05,1948.8,8653.7
2.304e+05,1948.8,9096
2.304e+05,1948.8,9538.3
2.304e+05,1948.8,9980.6
2.304e+05,1948.8,6884.6
2.304e+05,1948.8,7326.9
2.304e+05,1948.8,7769.2
2.304e+05,1948.8,6884.6
2.304e+05,1948.8,7326.9
2.304e+05,1948.8,7769.2
2.304e+05,1948.8,8211.5
2.304e+05,1948.8,6884.6
2.304e+05,1948.8,7326.9
2.304e+05,1948.8,7769.2
2.304e+05,1948.8,8211.5
2.304e+05,1948.8,8653.7
2.304e+05,1948.8,6884.6
2.304e+05,1948.8,7326.9
2.304e+05,1948.8,7769.2
2.304e+05,1948.8,6884.6
2.304e+05,1948.8,7326.9
2.304e+05,1948.8,7769.2
2.304e+05,1948.8,8211.5
2.304e+05,1948.8,6884.6
2.304e+05,1948.8,7326.9
2.304e+05,1948.8,7769.2
2.304e+05,1948.8,8211.5
2.304e+05,1948.8,8653.7
2.304e+05,1948.8,7326.9
2.304e+05,1948.8,7769.2
2.304e+05,1948.8,8211.5
2.304e+05,1948.8,8653.7
2.304e+05,1948.8,9096
2.304e+05,1948.8,6884.6
2.304e+05,1948.8,7326.9
2.304e+05,1948.8,7769.2
2.304e+05,1948.8,6884.6
2.304e+05,1948.8,7326.9
2.304e+05,1948.8,7769.2
2.304e+05,1948.8,8211.5
2.304e+05,1948.8,6884.6
2.304e+05,1948.8,7326.9
2.304e+05,1948.8,7769.2
2.304e+05,1948.8,8211.5
2.304e+05,1948.8,8653.7
2.304e+05,1948.8,7326.9
2.304e+05,1948.8,7769.2
2.304e+05,1948.8,8211.5
2.304e+05,1948.8,8653.7
2.304e+05,1948.8,9096
2.304e+05,1948.8,7769.2
2.304e+05,1948.8,8211.5
2.304e+05,1948.8,8653.7
2.304e+05,1948.8,9096
2.304e+05,1948.8,9538.3
2.304e+05,1948.8,6884.6
2.304e+05,1948.8,7326.9
2.304e+05,1948.8,7769.2
2.304e+05,1948.8,8211.5
2.304e+05,1948.8,6884.6
2.304e+05,1948.8,7326.9
2.304e+05,1948.8,7769.2
2.304e+05,1948.8,8211.5
2.304e+05,1948.8,8653.7
2.304e+05,1948.8,7326.9
2.304e+05,1948.8,7769.2
2.304e+05,1948.8,8211.5
2.304e+05,1948.8,8653.7
2.304e+05,1948.8,9096
2.304e+05,1948.8,7769.2
2.304e+05,1948.8,8211.5
2.304e+05,1948.8,8653.7
2.304e+05,1948.8,9096
2.304e+05,1948.8,9538.3
2.304e+05,1948.8,8211.5
2.304e+05,1948.8,8653.7
2.304e+05,1948.8,9096
2.304e+05,1948.8,9538.3
2.304e+05,1948.8,9980.6
2.304e+05,1948.8,6884.6
2.304e+05,1948.8,7326.9
2.304e+05,1948.8,7769.2
2.304e+05,1948.8,8211.5
2.304e+05,1948.8,8653.7
2.304e+05,1948.8,7326.9
2.304e+05,1948.8,7769.2
2.304e+05,1948.8,8211.5
2.304e+05,1948.8,8653.7
2.304e+05,1948.8,9096
2.304e+05,1948.8,7769.2
2.304e+05,1948.8,8211.5
2.304e+05,1948.8,8653.7
2.304e+05,1948.8,9096
2.304e+05,1948.8,9538.3
2.304e+05,1948.8,8211.5
2.304e+05,1948.8,8653.7
2.304e+05,1948.8,9096
2.304e+05,1948.8,9538.3
2.304e+05,1948.8,9980.6
2.304e+05,1948.8,8653.7
2.304e+05,1948.8,9096
2.304e+05,1948.8,9538.3
2.304e+05,1948.8,9980.6
2.304e+05,1948.8,10423
2.304e+05,1948.8,6884.6
2.304e+05,1948.8,7326.9
2.304e+05,1948.8,7769.2
2.304e+05,1948.8,6884.6
2.304e+05,1948.8,7326.9
2.304e+05,1948.8,7769.2
2.304e+05,1948.8,8211.5
2.304e+05,1948.8,6884.6
2.304e+05,1948.8,7326.9
2.304e+05,1948.8,7769.2
2.304e+05,1948.8,8211.5
2.304e+05,1948.8,8653.7
2.304e+05,1948.8,7326.9
2.304e+05,1948.8,7769.2
2.304e+05,1948.8,8211.5
2.304e+05,1948.8,8653.7
2.304e+05,1948.8,9096
2.304e+05,1948.8,6884.6
2.304e+05,1948.8,7326.9
2.304e+05,1948.8,7769.2
2.304e+05,1948.8,6884.6
2.304e+05,1948.8,7326.9
2.304e+05,1948.8,7769.2
2.304e+05,1948.8,8211.5
2.304e+05,1948.8,6884.6
2.304e+05,1948.8,7326.9
2.304e+05,1948.8,7769.2
2.304e+05,1948.8,8211.5
2.304e+05,1948.8,8653.7
2.304e+05,1948.8,7326.9
2.304e+05,1948.8,7769.2
2.304e+05,1948.8,8211.5
2.304e+05,1948.8,8653.7
2.304e+05,1948.8,9096
2.304e+05,1948.8,7769.2
2.304e+05,1948.8,8211.5
2.304e+05,1948.8,8653.7
2.304e+05,1948.8,9096
2.304e+05,1948.8,9538.3
2.304e+05,1948.8,6884.6
2.304e+05,1948.8,7326.9
2.304e+05,1948.8,7769.2
2.304e+05,1948.8,8211.5
2.304e+05,1948.8,6884.6
2.304e+05,1948.8,7326.9
2.304e+05,1948.8,7769.2
2.304e+05,1948.8,8211.5
2.304e+05,1948.8,8653.7
2.304e+05,1948.8,7326.9
2.304e+05,1948.8,7769.2
2.304e+05,1948.8,8211.5
2.304e+05,1948.8,8653.7
2.304e+05,1948.8,9096
2.304e+05,1948.8,7769.2
2.304e+05,1948.8,8211.5
2.304e+05,1948.8,8653.7
2.304e+05,1948.8,9096
2.304e+05,1948.8,9538.3
2.304e+05,1948.8,8211.5
2.304e+05,1948.8,8653.7
2.304e+05,1948.8,9096
2.304e+05,1948.8,9538.3
2.304e+05,1948.8,9980.6
2.304e+05,1948.8,6884.6
2.304e+05,1948.8,7326.9
2.304e+05,1948.8,7769.2
2.304e+05,1948.8,8211.5
2.304e+05,1948.8,8653.7
2.304e+05,1948.8,7326.9
2.304e+05,1948.8,7769.2
2.304e+05,1948.8,8211.5
2.304e+05,1948.8,8653.7
2.304e+05,1948.8,9096
2.304e+05,1948.8,7769.2
2.304e+05,1948.8,8211.5
2.304e+05,1948.8,8653.7
2.304e+05,1948.8,9096
2.304e+05,1948.8,9538.3
2.304e+05,1948.8,8211.5
2.304e+05,1948.8,8653.7
2.304e+05,1948.8,9096
2.304e+05,1948.8,9538.3
2.304e+05,1948.8,9980.6
2.304e+05,1948.8,8653.7
2.304e+05,1948.8,9096
2.304e+05,1948.8,9538.3
2.304e+05,1948.8,9980.6
2.304e+05,1948.8,10423
2.304e+05,1948.8,7326.9
2.304e+05,1948.8,7769.2
2.304e+05,1948.8,8211.5
2.304e+05,1948.8,8653.7
2.304e+05,1948.8,9096
2.304e+05,1948.8,7769.2
2.304e+05,1948.8,8211.5
2.304e+05,1948.8,8653.7
2.304e+05,1948.8,9096
2.304e+05,1948.8,9538.3
2.304e+05,1948.8,8211.5
2.304e+05,1948.8,8653.7
2.304e+05,1948.8,9096
2.304e+05,1948.8,9538.3
2.304e+05,1948.8,9980.6
2.304e+05,1948.8,8653.7
2.304e+05,1948.8,9096
2.304e+05,1948.8,9538.3
2.304e+05,1948.8,9980.6
2.304e+05,1948.8,10423
2.304e+05,1948.8,9096
2.304e+05,1948.8,9538.3
2.304e+05,1948.8,9980.6
2.304e+05,1948.8,10423
2.304e+05,1948.8,10865
2.304e+05,1948.8,6884.6
2.304e+05,1948.8,7326.9
2.304e+05,1948.8,7769.2
2.304e+05,1948.8,6884.6
2.304e+05,1948.8,7326.9
2.304e+05,1948.8,7769.2
2.304e+05,1948.8,8211.5
2.304e+05,1948.8,6884.6
2.304e+05,1948.8,7326.9
2.304e+05,1948.8,7769.2
2.304e+05,1948.8,8211.5
2.304e+05,1948.8,8653.7
2.304e+05,1948.8,6884.6
2.304e+05,1948.8,7326.9
2.304e+05,1948.8,7769.2
2.304e+05,1948.8,6884.6
2.304e+05,1948.8,7326.9
2.304e+05,1948.8,7769.2
2.304e+05,1948.8,8211.5
2.304e+05,1948.8,6884.6
2.304e+05,1948.8,7326.9
2.304e+05,1948.8,7769.2
2.304e+05,1948.8,8211.5
2.304e+05,1948.8,8653.7
2.304e+05,1948.8,7326.9
2.304e+05,1948.8,7769.2
2.304e+05,1948.8,8211.5
2.304e+05,1948.8,8653.7
2.304e+05,1948.8,9096
2.304e+05,1948.8,6884.6
2.304e+05,1948.8,7326.9
2.304e+05,1948.8,7769.2
2.304e+05,1948.8,6884.6
2.304e+05,1948.8,7326.9
2.304e+05,1948.8,7769.2
2.304e+05,1948.8,8211.5
2.304e+05,1948.8,6884.6
2.304e+05,1948.8,7326.9
2.304e+05,1948.8,7769.2
2.304e+05,1948.8,8211.5
2.304e+05,1948.8,8653.7
2.304e+05,1948.8,7326.9
2.304e+05,1948.8,7769.2
2.304e+05,1948.8,8211.5
2.304e+05,1948.8,8653.7
2.304e+05,1948.8,9096
2.304e+05,1948.8,7769.2
2.304e+05,1948.8,8211.5
2.304e+05,1948.8,8653.7
2.304e+05,1948.8,9096
2.304e+05,1948.8,9538.3
2.304e+05,1948.8,6884.6
2.304e+05,1948.8,7326.9
2.304e+05,1948.8,7769.2
2.304e+05,1948.8,6884.6
2.304e+05,1948.8,7326.9
2.304e+05,1948.8,7769.2
2.304e+05,1948.8,8211.5
2.304e+05,1948.8,6884.6
2.304e+05,1948.8,7326.9
2.304e+05,1948.8,7769.2
2.304e+05,1948.8,8211.5
2.304e+05,1948.8,8653.7
2.304e+05,1948.8,6884.6
2.304e+05,1948.8,7326.9
2.304e+05,1948.8,7769.2
2.304e+05,1948.8,6884.6
2.304e+05,1948.8,7326.9
2.304e+05,1948.8,7769.2
2.304e+05,1948.8,8211.5
2.304e+05,1948.8,6884.6
2.304e+05,1948.8,7326.9
2.304e+05,1948.8,7769.2
2.304e+05,1948.8,8211.5
2.304e+05,1948.8,8653.7
2.304e+05,1948.8,7326.9
2.304e+05,1948.8,7769.2
2.304e+05,1948.8,8211.5
2.304e+05,1948.8,8653.7
2.304e+05,1948.8,9096
2.304e+05,1948.8,6884.6
2.304e+05,1948.8,7326.9
2.304e+05,1948.8,7769.2
2.304e+05,1948.8,6884.6
2.304e+05,1948.8,7326.9
2.304e+05,1948.8,7769.2
2.304e+05,1948.8,8211.5
2.304e+05,1948.8,6884.6
2.304e+05,1948.8,7326.9
2.304e+05,1948.8,7769.2
2.304e+05,1948.8,8211.5
2.304e+05,1948.8,8653.7
2.304e+05,1948.8,7326.9
2.304e+05,1948.8,7769.2
2.304e+05,1948.8,8211.5
2.304e+05,1948.8,8653.7
2.304e+05,1948.8,9096
2.304e+05,1948.8,7769.2
2.304e+05,1948.8,8211.5
2.304e+05,1948.8,8653.7
2.304e+05,1948.8,9096
2.304e+05,1948.8,9538.3
2.304e+05,1948.8,6884.6
2.304e+05,1948.8,7326.9
2.304e+05,1948.8,7769.2
2.304e+05,1948.8,8211.5
2.304e+05,1948.8,6884.6
2.304e+05,1948.8,7326.9
2.304e+05,1948.8,7769.2
2.304e+05,1948.8,8211.5
2.304e+05,1948.8,8653.7
2.304e+05,1948.8,7326.9
2.304e+05,1948.8,7769.2
2.304e+05,1948.8,8211.5
2.304e+05,1948.8,8653.7
2.304e+05,1948.8,9096
2.304e+05,1948.8,7769.2
2.304e+05,1948.8,8211.5
2.304e+05,1948.8,8653.7
2.304e+05,1948.8,9096
2.304e+05,1948.8,9538.3
2.304e+05,1948.8,8211.5
2.304e+05,1948.8,8653.7
2.304e+05,1948.8,9096
2.304e+05,1948.8,9538.3
2.304e+05,1948.8,9980.6
2.304e+05,1948.8,6884.6
2.304e+05,1948.8,7326.9
2.304e+05,1948.8,7769.2
2.304e+05,1948.8,6884.6
2.304e+05,1948.8,7326.9
2.304e+05,1948.8,7769.2
2.304e+05,1948.8,8211.5
2.304e+05,1948.8,6884.6
2.304e+05,1948.8,7326.9
2.304e+05,1948.8,7769.2
2.304e+05,1948.8,8211.5
2.304e+05,1948.8,8653.7
2.304e+05,1948.8,6884.6
2.304e+05,1948.8,7326.9
2.304e+05,1948.8,7769.2
2.304e+05,1948.8,6884.6
2.304e+05,1948.8,7326.9
2.304e+05,1948.8,7769.2
2.304e+05,1948.8,8211.5
2.304e+05,1948.8,6884.6
2.304e+05,1948.8,7326.9
2.304e+05,1948.8,7769.2
2.304e+05,1948.8,8211.5
2.304e+05,1948.8,8653.7
2.304e+05,1948.8,7326.9
2.304e+05,1948.8,7769.2
2.304e+05,1948.8,8211.5
2.304e+05,1948.8,8653.7
2.304e+05,1948.8,9096
2.304e+05,1948.8,6884.6
2.304e+05,1948.8,7326.9
2.304e+05,1948.8,7769.2
2.304e+05,1948.8,6884.6
2.304e+05,1948.8,7326.9
2.304e+05,1948.8,7769.2
2.304e+05,1948.8,8211.5
2.304e+05,1948.8,6884.6
2.304e+05,1948.8,7326.9
2.304e+05,1948.8,7769.2
2.304e+05,1948.8,8211.5
2.304e+05,1948.8,8653.7
2.304e+05,1948.8,7326.9
2.304e+05,1948.8,7769.2
2.304e+05,1948.8,8211.5
2.304e+05,1948.8,8653.7
2.304e+05,1948.8,9096
2.304e+05,1948.8,7769.2
2.304e+05,1948.8,8211.5
2.304e+05,1948.8,8653.7
2.304e+05,1948.8,9096
2.304e+05,1948.8,9538.3
2.304e+05,1948.8,6884.6
2.304e+05,1948.8,7326.9
2.304e+05,1948.8,7769.2
2.304e+05,1948.8,8211.5
2.304e+05,1948.8,6884.6
2.304e+05,1948.8,7326.9
2.304e+05,1948.8,7769.2
2.304e+05,1948.8,8211.5
2.304e+05,1948.8,8653.7
2.304e+05,1948.8,7326.9
2.304e+05,1948.8,7769.2
2.304e+05,1948.8,8211.5
2.304e+05,1948.8,8653.7
2.304e+05,1948.8,9096
2.304e+05,1948.8,7769.2
2.304e+05,1948.8,8211.5
2.304e+05,1948.8,8653.7
2.304e+05,1948.8,9096
2.304e+05,1948.8,9538.3
2.304e+05,1948.8,8211.5
2.304e+05,1948.8,8653.7
2.304e+05,1948.8,9096
2.304e+05,1948.8,9538.3
2.304e+05,1948.8,9980.6
2.304e+05,1948.8,6884.6
2.304e+05,1948.8,7326.9
2.304e+05,1948.8,7769.2
2.304e+05,1948.8,8211.5
2.304e+05,1948.8,8653.7
2.304e+05,1948.8,7326.9
2.304e+05,1948.8,7769.2
2.304e+05,1948.8,8211.5
2.304e+05,1948.8,8653.7
2.304e+05,1948.8,9096
2.304e+05,1948.8,7769.2
2.304e+05,1948.8,8211.5
2.304e+05,1948.8,8653.7
2.304e+05,1948.8,9096
2.304e+05,1948.8,9538.3
2.304e+05,1948.8,8211.5
2.304e+05,1948.8,8653.7
2.304e+05,1948.8,9096
2.304e+05,1948.8,9538.3
2.304e+05,1948.8,9980.6
2.304e+05,1948.8,8653.7
2.304e+05,1948.8,9096
2.304e+05,1948.8,9538.3
2.304e+05,1948.8,9980.6
2.304e+05,1948.8,10423
2.304e+05,1948.8,6884.6
2.304e+05,1948.8,7326.9
2.304e+05,1948.8,7769.2
2.304e+05,1948.8,6884.6
2.304e+05,1948.8,7326.9
2.304e+05,1948.8,7769.2
2.304e+05,1948.8,8211.5
2.304e+05,1948.8,6884.6
2.304e+05,1948.8,7326.9
2.304e+05,1948.8,7769.2
2.304e+05,1948.8,8211.5
2.304e+05,1948.8,8653.7
2.304e+05,1948.8,7326.9
2.304e+05,1948.8,7769.2
2.304e+05,1948.8,8211.5
2.304e+05,1948.8,8653.7
2.304e+05,1948.8,9096
2.304e+05,1948.8,6884.6
2.304e+05,1948.8,7326.9
2.304e+05,1948.8,7769.2
2.304e+05,1948.8,6884.6
2.304e+05,1948.8,7326.9
2.304e+05,1948.8,7769.2
2.304e+05,1948.8,8211.5
2.304e+05,1948.8,6884.6
2.304e+05,1948.8,7326.9
2.304e+05,1948.8,7769.2
2.304e+05,1948.8,8211.5
2.304e+05,1948.8,8653.7
2.304e+05,1948.8,7326.9
2.304e+05,1948.8,7769.2
2.304e+05,1948.8,8211.5
2.304e+05,1948.8,8653.7
2.304e+05,1948.8,9096
2.304e+05,1948.8,7769.2
2.304e+05,1948.8,8211.5
2.304e+05,1948.8,8653.7
2.304e+05,1948.8,9096
2.304e+05,1948.8,9538.3
2.304e+05,1948.8,6884.6
2.304e+05,1948.8,7326.9
2.304e+05,1948.8,7769.2
2.304e+05,1948.8,8211.5
2.304e+05,1948.8,6884.6
2.304e+05,1948.8,7326.9
2.304e+05,1948.8,7769.2
2.304e+05,1948.8,8211.5
2.304e+05,1948.8,8653.7
2.304e+05,1948.8,7326.9
2.304e+05,1948.8,7769.2
2.304e+05,1948.8,8211.5
2.304e+05,1948.8,8653.7
2.304e+05,1948.8,9096
2.304e+05,1948.8,7769.2
2.304e+05,1948.8,8211.5
2.304e+05,1948.8,8653.7
2.304e+05,1948.8,9096
2.304e+05,1948.8,9538.3
2.304e+05,1948.8,8211.5
2.304e+05,1948.8,8653.7
2.304e+05,1948.8,9096
2.304e+05,1948.8,9538.3
2.304e+05,1948.8,9980.6
2.304e+05,1948.8,6884.6
2.304e+05,1948.8,7326.9
2.304e+05,1948.8,7769.2
2.304e+05,1948.8,8211.5
2.304e+05,1948.8,8653.7
2.304e+05,1948.8,7326.9
2.304e+05,1948.8,7769.2
2.304e+05,1948.8,8211.5
2.304e+05,1948.8,8653.7
2.304e+05,1948.8,9096
2.304e+05,1948.8,7769.2
2.304e+05,1948.8,8211.5
2.304e+05,1948.8,8653.7
2.304e+05,1948.8,9096
2.304e+05,1948.8,9538.3
2.304e+05,1948.8,8211.5
2.304e+05,1948.8,8653.7
2.304e+05,1948.8,9096
2.304e+05,1948.8,9538.3
2.304e+05,1948.8,9980.6
2.304e+05,1948.8,8653.7
2.304e+05,1948.8,9096
2.304e+05,1948.8,9538.3
2.304e+05,1948.8,9980.6
2.304e+05,1948.8,10423
2.304e+05,1948.8,7326.9
2.304e+05,1948.8,7769.2
2.304e+05,1948.8,8211.5
2.304e+05,1948.8,8653.7
2.304e+05,1948.8,9096
2.304e+05,1948.8,7769.2
2.304e+05,1948.8,8211.5
2.304e+05,1948.8,8653.7
2.304e+05,1948.8,9096
2.304e+05,1948.8,9538.3
2.304e+05,1948.8,8211.5
2.304e+05,1948.8,8653.7
2.304e+05,1948.8,9096
2.304e+05,1948.8,9538.3
2.304e+05,1948.8,9980.6
2.304e+05,1948.8,8653.7
2.304e+05,1948.8,9096
2.304e+05,1948.8,9538.3
2.304e+05,1948.8,9980.6
2.304e+05,1948.8,10423
2.304e+05,1948.8,9096
2.304e+05,1948.8,9538.3
2.304e+05,1948.8,9980.6
2.304e+05,1948.8,10423
2.304e+05,1948.8,10865
2.304e+05,1948.8,6884.6
2.304e+05,1948.8,7326.9
2.304e+05,1948.8,7769.2
2.304e+05,1948.8,6884.6
2.304e+05,1948.8,7326.9
2.304e+05,1948.8,7769.2
2.304e+05,1948.8,8211.5
2.304e+05,1948.8,6884.6
2.304e+05,1948.8,7326.9
2.304e+05,1948.8,7769.2
2.304e+05,1948.8,8211.5
2.304e+05,1948.8,8653.7
2.304e+05,1948.8,7326.9
2.304e+05,1948.8,7769.2
2.304e+05,1948.8,8211.5
2.304e+05,1948.8,8653.7
2.304e+05,1948.8,9096
2.304e+05,1948.8,7769.2
2.304e+05,1948.8,8211.5
2.304e+05,1948.8,8653.7
2.304e+05,1948.8,9096
2.304e+05,1948.8,9538.3
2.304e+05,1948.8,6884.6
2.304e+05,1948.8,7326.9
2.304e+05,1948.8,7769.2
2.304e+05,1948.8,8211.5
2.304e+05,1948.8,6884.6
2.304e+05,1948.8,7326.9
2.304e+05,1948.8,7769.2
2.304e+05,1948.8,8211.5
2.304e+05,1948.8,8653.7
2.304e+05,1948.8,7326.9
2.304e+05,1948.8,7769.2
2.304e+05,1948.8,8211.5
2.304e+05,1948.8,8653.7
2.304e+05,1948.8,9096
2.304e+05,1948.8,7769.2
2.304e+05,1948.8,8211.5
2.304e+05,1948.8,8653.7
2.304e+05,1948.8,9096
2.304e+05,1948.8,9538.3
2.304e+05,1948.8,8211.5
2.304e+05,1948.8,8653.7
2.304e+05,1948.8,9096
2.304e+05,1948.8,9538.3
2.304e+05,1948.8,9980.6
2.304e+05,1948.8,6884.6
2.304e+05,1948.8,7326.9
2.304e+05,1948.8,7769.2
2.304e+05,1948.8,8211.5
2.304e+05,1948.8,8653.7
2.304e+05,1948.8,7326.9
2.304e+05,1948.8,7769.2
2.304e+05,1948.8,8211.5
2.304e+05,1948.8,8653.7
2.304e+05,1948.8,9096
2.304e+05,1948.8,7769.2
2.304e+05,1948.8,8211.5
2.304e+05,1948.8,8653.7
2.304e+05,1948.8,9096
2.304e+05,1948.8,9538.3
2.304e+05,1948.8,8211.5
2.304e+05,1948.8,8653.7
2.304e+05,1948.8,9096
2.304e+05,1948.8,9538.3
2.304e+05,1948.8,9980.6
2.304e+05,1948.8,8653.7
2.304e+05,1948.8,9096
2.304e+05,1948.8,9538.3
2.304e+05,1948.8,9980.6
2.304e+05,1948.8,10423
2.304e+05,1948.8,7326.9
2.304e+05,1948.8,7769.2
2.304e+05,1948.8,8211.5
2.304e+05,1948.8,8653.7
2.304e+05,1948.8,9096
2.304e+05,1948.8,7769.2
2.304e+05,1948.8,8211.5
2.304e+05,1948.8,8653.7
2.304e+05,1948.8,9096
2.304e+05,1948.8,9538.3
2.304e+05,1948.8,8211.5
2.304e+05,1948.8,8653.7
2.304e+05,1948.8,9096
2.304e+05,1948.8,9538.3
2.304e+05,1948.8,9980.6
2.304e+05,1948.8,8653.7
2.304e+05,1948.8,9096
2.304e+05,1948.8,9538.3
2.304e+05,1948.8,9980.6
2.304e+05,1948.8,10423
2.304e+05,1948.8,9096
2.304e+05,1948.8,9538.3
2.304e+05,1948.8,9980.6
2.304e+05,1948.8,10423
2.304e+05,1948.8,10865
2.304e+05,1948.8,7769.2
2.304e+05,1948.8,8211.5
2.304e+05,1948.8,8653.7
2.304e+05,1948.8,9096
2.304e+05,1948.8,9538.3
2.304e+05,1948.8,8211.5
2.304e+05,1948.8,8653.7
2.304e+05,1948.8,9096
2.304e+05,1948.8,9538.3
2.304e+05,1948.8,9980.6
2.304e+05,1948.8,8653.7
2.304e+05,1948.8,9096
2.304e+05,1948.8,9538.3
2.304e+05,1948.8,9980.6
2.304e+05,1948.8,10423
2.304e+05,1948.8,9096
2.304e+05,1948.8,9538.3
2.304e+05,1948.8,9980.6
2.304e+05,1948.8,10423
2.304e+05,1948.8,10865
2.304e+05,1948.8,9538.3
2.304e+05,1948.8,9980.6
2.304e+05,1948.8,10423
2.304e+05,1948.8,10865
2.304e+05,1948.8,11307
