11473,1948.8,6000
10571,1948.8,5500
10571,1948.8,5750
10571,1948.8,6000
10571,1948.8,6250
10571,1948.8,6500
9669.4,1948.8,5000
9669.4,1948.8,5250
9669.4,1948.8,5500
9669.4,1948.8,5750
9669.4,1948.8,6000
9669.4,1948.8,5250
9669.4,1948.8,5500
9669.4,1948.8,5750
9669.4,1948.8,6000
9669.4,1948.8,6250
9669.4,1948.8,5500
9669.4,1948.8,5750
9669.4,1948.8,6000
9669.4,1948.8,6250
9669.4,1948.8,6500
9669.4,1948.8,5750
9669.4,1948.8,6000
9669.4,1948.8,6250
9669.4,1948.8,6500
9669.4,1948.8,6750
9669.4,1948.8,6000
9669.4,1948.8,6250
9669.4,1948.8,6500
9669.4,1948.8,6750
9669.4,1948.8,7000
8767.5,1948.8,4500
8767.5,1948.8,4750
8767.5,1948.8,4750
8767.5,1948.8,4750
8767.5,1948.8,7250
8767.5,1948.8,7250
8767.5,1948.8,7250
8767.5,1948.8,7500
7865.5,1948.8,4000
7865.5,1948.8,4250
7865.5,1948.8,4500
7865.5,1948.8,4750
7865.5,1948.8,4250
7865.5,1948.8,4500
7865.5,1948.8,4750
7865.5,1948.8,4250
7865.5,1948.8,4500
7865.5,1948.8,4750
7865.5,1948.8,4250
7865.5,1948.8,4500
7865.5,1948.8,4750
7865.5,1948.8,7250
7865.5,1948.8,7500
7865.5,1948.8,7750
7865.5,1948.8,7250
7865.5,1948.8,7500
7865.5,1948.8,7750
7865.5,1948.8,7250
7865.5,1948.8,7500
7865.5,1948.8,7750
7865.5,1948.8,7250
7865.5,1948.8,7500
7865.5,1948.8,7750
7865.5,1948.8,8000
6963.6,1948.8,3500
6963.6,1948.8,3750
6963.6,1948.8,4000
6963.6,1948.8,4250
6963.6,1948.8,4500
6963.6,1948.8,3750
6963.6,1948.8,4000
6963.6,1948.8,4250
6963.6,1948.8,4500
6963.6,1948.8,4750
6963.6,1948.8,4000
6963.6,1948.8,4250
6963.6,1948.8,4500
6963.6,1948.8,4750
6963.6,1948.8,5000
6963.6,1948.8,4250
6963.6,1948.8,4500
6963.6,1948.8,4750
6963.6,1948.8,5000
6963.6,1948.8,5250
6963.6,1948.8,3750
6963.6,1948.8,4000
6963.6,1948.8,4250
6963.6,1948.8,4500
6963.6,1948.8,4750
6963.6,1948.8,4000
6963.6,1948.8,4250
6963.6,1948.8,4500
6963.6,1948.8,4750
6963.6,1948.8,5000
6963.6,1948.8,4250
6963.6,1948.8,4500
6963.6,1948.8,4750
6963.6,1948.8,5000
6963.6,1948.8,5250
6963.6,1948.8,3750
6963.6,1948.8,4000
6963.6,1948.8,4250
6963.6,1948.8,4500
6963.6,1948.8,4750
6963.6,1948.8,4000
6963.6,1948.8,4250
6963.6,1948.8,4500
6963.6,1948.8,4750
6963.6,1948.8,5000
6963.6,1948.8,4250
6963.6,1948.8,4500
6963.6,1948.8,4750
6963.6,1948.8,5000
6963.6,1948.8,5250
6963.6,1948.8,3750
6963.6,1948.8,4000
6963.6,1948.8,4250
6963.6,1948.8,4500
6963.6,1948.8,4750
6963.6,1948.8,4000
6963.6,1948.8,4250
6963.6,1948.8,4500
6963.6,1948.8,4750
6963.6,1948.8,5000
6963.6,1948.8,4250
6963.6,1948.8,4500
6963.6,1948.8,4750
6963.6,1948.8,5000
6963.6,1948.8,5250
6963.6,1948.8,6750
6963.6,1948.8,7000
6963.6,1948.8,7250
6963.6,1948.8,7500
6963.6,1948.8,7750
6963.6,1948.8,7000
6963.6,1948.8,7250
6963.6,1948.8,7500
6963.6,1948.8,7750
6963.6,1948.8,8000
6963.6,1948.8,7250
6963.6,1948.8,7500
6963.6,1948.8,7750
6963.6,1948.8,8000
6963.6,1948.8,8250
6963.6,1948.8,6750
6963.6,1948.8,7000
6963.6,1948.8,7250
6963.6,1948.8,7500
6963.6,1948.8,7750
6963.6,1948.8,7000
6963.6,1948.8,7250
6963.6,1948.8,7500
6963.6,1948.8,7750
6963.6,1948.8,8000
6963.6,1948.8,7250
6963.6,1948.8,7500
6963.6,1948.8,7750
6963.6,1948.8,8000
6963.6,1948.8,8250
6963.6,1948.8,6750
6963.6,1948.8,7000
6963.6,1948.8,7250
6963.6,1948.8,7500
6963.6,1948.8,7750
6963.6,1948.8,7000
6963.6,1948.8,7250
6963.6,1948.8,7500
6963.6,1948.8,7750
6963.6,1948.8,8000
6963.6,1948.8,7250
6963.6,1948.8,7500
6963.6,1948.8,7750
6963.6,1948.8,8000
6963.6,1948.8,8250
6963.6,1948.8,6750
6963.6,1948.8,7000
6963.6,1948.8,7250
6963.6,1948.8,7500
6963.6,1948.8,7750
6963.6,1948.8,7000
6963.6,1948.8,7250
6963.6,1948.8,7500
6963.6,1948.8,7750
6963.6,1948.8,8000
6963.6,1948.8,7250
6963.6,1948.8,7500
6963.6,1948.8,7750
6963.6,1948.8,8000
6963.6,1948.8,8250
6963.6,1948.8,7500
6963.6,1948.8,7750
6963.6,1948.8,8000
6963.6,1948.8,8250
6963.6,1948.8,8500
6061.7,1948.8,3000
6061.7,1948.8,3250
6061.7,1948.8,3500
6061.7,1948.8,3750
6061.7,1948.8,4000
6061.7,1948.8,3250
6061.7,1948.8,3500
6061.7,1948.8,3750
6061.7,1948.8,4000
6061.7,1948.8,4250
6061.7,1948.8,3500
6061.7,1948.8,3750
6061.7,1948.8,4000
6061.7,1948.8,4250
6061.7,1948.8,4500
6061.7,1948.8,3750
6061.7,1948.8,4000
6061.7,1948.8,4250
6061.7,1948.8,4500
6061.7,1948.8,4750
6061.7,1948.8,4000
6061.7,1948.8,4250
6061.7,1948.8,4500
6061.7,1948.8,4750
6061.7,1948.8,5000
6061.7,1948.8,3250
6061.7,1948.8,3500
6061.7,1948.8,3750
6061.7,1948.8,4000
6061.7,1948.8,4250
6061.7,1948.8,3500
6061.7,1948.8,3750
6061.7,1948.8,4000
6061.7,1948.8,4250
6061.7,1948.8,4500
6061.7,1948.8,3750
6061.7,1948.8,4000
6061.7,1948.8,4250
6061.7,1948.8,4500
6061.7,1948.8,4750
6061.7,1948.8,4000
6061.7,1948.8,4250
6061.7,1948.8,4500
6061.7,1948.8,4750
6061.7,1948.8,5000
6061.7,1948.8,4250
6061.7,1948.8,4500
6061.7,1948.8,4750
6061.7,1948.8,5000
6061.7,1948.8,5250
6061.7,1948.8,3500
6061.7,1948.8,3750
6061.7,1948.8,4000
6061.7,1948.8,4250
6061.7,1948.8,4500
6061.7,1948.8,3750
6061.7,1948.8,4000
6061.7,1948.8,4250
6061.7,1948.8,4500
6061.7,1948.8,4750
6061.7,1948.8,4000
6061.7,1948.8,4250
6061.7,1948.8,4500
6061.7,1948.8,4750
6061.7,1948.8,5000
6061.7,1948.8,4250
6061.7,1948.8,4500
6061.7,1948.8,4750
6061.7,1948.8,5000
6061.7,1948.8,5250
6061.7,1948.8,4500
6061.7,1948.8,4750
6061.7,1948.8,5000
6061.7,1948.8,5250
6061.7,1948.8,5500
6061.7,1948.8,3750
6061.7,1948.8,4000
6061.7,1948.8,4250
6061.7,1948.8,4500
6061.7,1948.8,4750
6061.7,1948.8,4000
6061.7,1948.8,4250
6061.7,1948.8,4500
6061.7,1948.8,4750
6061.7,1948.8,5000
6061.7,1948.8,4250
6061.7,1948.8,4500
6061.7,1948.8,4750
6061.7,1948.8,5000
6061.7,1948.8,5250
6061.7,1948.8,4500
6061.7,1948.8,4750
6061.7,1948.8,5000
6061.7,1948.8,5250
6061.7,1948.8,5500
6061.7,1948.8,4750
6061.7,1948.8,5000
6061.7,1948.8,5250
6061.7,1948.8,5500
6061.7,1948.8,5750
6061.7,1948.8,3250
6061.7,1948.8,3500
6061.7,1948.8,3750
6061.7,1948.8,4000
6061.7,1948.8,4250
6061.7,1948.8,3500
6061.7,1948.8,3750
6061.7,1948.8,4000
6061.7,1948.8,4250
6061.7,1948.8,4500
6061.7,1948.8,3750
6061.7,1948.8,4000
6061.7,1948.8,4250
6061.7,1948.8,4500
6061.7,1948.8,4750
6061.7,1948.8,4000
6061.7,1948.8,4250
6061.7,1948.8,4500
6061.7,1948.8,4750
6061.7,1948.8,5000
6061.7,1948.8,4250
6061.7,1948.8,4500
6061.7,1948.8,4750
6061.7,1948.8,5000
6061.7,1948.8,5250
6061.7,1948.8,3500
6061.7,1948.8,3750
6061.7,1948.8,4000
6061.7,1948.8,4250
6061.7,1948.8,4500
6061.7,1948.8,3750
6061.7,1948.8,4000
6061.7,1948.8,4250
6061.7,1948.8,4500
6061.7,1948.8,4750
6061.7,1948.8,4000
6061.7,1948.8,4250
6061.7,1948.8,4500
6061.7,1948.8,4750
6061.7,1948.8,5000
6061.7,1948.8,4250
6061.7,1948.8,4500
6061.7,1948.8,4750
6061.7,1948.8,5000
6061.7,1948.8,5250
6061.7,1948.8,4500
6061.7,1948.8,4750
6061.7,1948.8,5000
6061.7,1948.8,5250
6061.7,1948.8,5500
6061.7,1948.8,3750
6061.7,1948.8,4000
6061.7,1948.8,4250
6061.7,1948.8,4500
6061.7,1948.8,4750
6061.7,1948.8,4000
6061.7,1948.8,4250
6061.7,1948.8,4500
6061.7,1948.8,4750
6061.7,1948.8,5000
6061.7,1948.8,4250
6061.7,1948.8,4500
6061.7,1948.8,4750
6061.7,1948.8,5000
6061.7,1948.8,5250
6061.7,1948.8,4500
6061.7,1948.8,4750
6061.7,1948.8,5000
6061.7,1948.8,5250
6061.7,1948.8,5500
6061.7,1948.8,4750
6061.7,1948.8,5000
6061.7,1948.8,5250
6061.7,1948.8,5500
6061.7,1948.8,5750
6061.7,1948.8,3250
6061.7,1948.8,3500
6061.7,1948.8,3750
6061.7,1948.8,4000
6061.7,1948.8,4250
6061.7,1948.8,3500
6061.7,1948.8,3750
6061.7,1948.8,4000
6061.7,1948.8,4250
6061.7,1948.8,4500
6061.7,1948.8,3750
6061.7,1948.8,4000
6061.7,1948.8,4250
6061.7,1948.8,4500
6061.7,1948.8,4750
6061.7,1948.8,4000
6061.7,1948.8,4250
6061.7,1948.8,4500
6061.7,1948.8,4750
6061.7,1948.8,5000
6061.7,1948.8,4250
6061.7,1948.8,4500
6061.7,1948.8,4750
6061.7,1948.8,5000
6061.7,1948.8,5250
6061.7,1948.8,3500
6061.7,1948.8,3750
6061.7,1948.8,4000
6061.7,1948.8,4250
6061.7,1948.8,4500
6061.7,1948.8,3750
6061.7,1948.8,4000
6061.7,1948.8,4250
6061.7,1948.8,4500
6061.7,1948.8,4750
6061.7,1948.8,4000
6061.7,1948.8,4250
6061.7,1948.8,4500
6061.7,1948.8,4750
6061.7,1948.8,5000
6061.7,1948.8,4250
6061.7,1948.8,4500
6061.7,1948.8,4750
6061.7,1948.8,5000
6061.7,1948.8,5250
6061.7,1948.8,4500
6061.7,1948.8,4750
6061.7,1948.8,5000
6061.7,1948.8,5250
6061.7,1948.8,5500
6061.7,1948.8,3750
6061.7,1948.8,4000
6061.7,1948.8,4250
6061.7,1948.8,4500
6061.7,1948.8,4750
6061.7,1948.8,4000
6061.7,1948.8,4250
6061.7,1948.8,4500
6061.7,1948.8,4750
6061.7,1948.8,5000
6061.7,1948.8,4250
6061.7,1948.8,4500
6061.7,1948.8,4750
6061.7,1948.8,5000
6061.7,1948.8,5250
6061.7,1948.8,4500
6061.7,1948.8,4750
6061.7,1948.8,5000
6061.7,1948.8,5250
6061.7,1948.8,5500
6061.7,1948.8,4750
6061.7,1948.8,5000
6061.7,1948.8,5250
6061.7,1948.8,5500
6061.7,1948.8,5750
6061.7,1948.8,3250
6061.7,1948.8,3500
6061.7,1948.8,3750
6061.7,1948.8,4000
6061.7,1948.8,4250
6061.7,1948.8,3500
6061.7,1948.8,3750
6061.7,1948.8,4000
6061.7,1948.8,4250
6061.7,1948.8,4500
6061.7,1948.8,3750
6061.7,1948.8,4000
6061.7,1948.8,4250
6061.7,1948.8,4500
6061.7,1948.8,4750
6061.7,1948.8,4000
6061.7,1948.8,4250
6061.7,1948.8,4500
6061.7,1948.8,4750
6061.7,1948.8,5000
6061.7,1948.8,4250
6061.7,1948.8,4500
6061.7,1948.8,4750
6061.7,1948.8,5000
6061.7,1948.8,5250
6061.7,1948.8,3500
6061.7,1948.8,3750
6061.7,1948.8,4000
6061.7,1948.8,4250
6061.7,1948.8,4500
6061.7,1948.8,3750
6061.7,1948.8,4000
6061.7,1948.8,4250
6061.7,1948.8,4500
6061.7,1948.8,4750
6061.7,1948.8,4000
6061.7,1948.8,4250
6061.7,1948.8,4500
6061.7,1948.8,4750
6061.7,1948.8,5000
6061.7,1948.8,4250
6061.7,1948.8,4500
6061.7,1948.8,4750
6061.7,1948.8,5000
6061.7,1948.8,5250
6061.7,1948.8,4500
6061.7,1948.8,4750
6061.7,1948.8,5000
6061.7,1948.8,5250
6061.7,1948.8,5500
6061.7,1948.8,3750
6061.7,1948.8,4000
6061.7,1948.8,4250
6061.7,1948.8,4500
6061.7,1948.8,4750
6061.7,1948.8,4000
6061.7,1948.8,4250
6061.7,1948.8,4500
6061.7,1948.8,4750
6061.7,1948.8,5000
6061.7,1948.8,4250
6061.7,1948.8,4500
6061.7,1948.8,4750
6061.7,1948.8,5000
6061.7,1948.8,5250
6061.7,1948.8,4500
6061.7,1948.8,4750
6061.7,1948.8,5000
6061.7,1948.8,5250
6061.7,1948.8,5500
6061.7,1948.8,4750
6061.7,1948.8,5000
6061.7,1948.8,5250
6061.7,1948.8,5500
6061.7,1948.8,5750
6061.7,1948.8,6250
6061.7,1948.8,6500
6061.7,1948.8,6750
6061.7,1948.8,7000
6061.7,1948.8,7250
6061.7,1948.8,6500
6061.7,1948.8,6750
6061.7,1948.8,7000
6061.7,1948.8,7250
6061.7,1948.8,7500
6061.7,1948.8,6750
6061.7,1948.8,7000
6061.7,1948.8,7250
6061.7,1948.8,7500
6061.7,1948.8,7750
6061.7,1948.8,7000
6061.7,1948.8,7250
6061.7,1948.8,7500
6061.7,1948.8,7750
6061.7,1948.8,8000
6061.7,1948.8,7250
6061.7,1948.8,7500
6061.7,1948.8,7750
6061.7,1948.8,8000
6061.7,1948.8,8250
6061.7,1948.8,6500
6061.7,1948.8,6750
6061.7,1948.8,7000
6061.7,1948.8,7250
6061.7,1948.8,7500
6061.7,1948.8,6750
6061.7,1948.8,7000
6061.7,1948.8,7250
6061.7,1948.8,7500
6061.7,1948.8,7750
6061.7,1948.8,7000
6061.7,1948.8,7250
6061.7,1948.8,7500
6061.7,1948.8,7750
6061.7,1948.8,8000
6061.7,1948.8,7250
6061.7,1948.8,7500
6061.7,1948.8,7750
6061.7,1948.8,8000
6061.7,1948.8,8250
6061.7,1948.8,7500
6061.7,1948.8,7750
6061.7,1948.8,8000
6061.7,1948.8,8250
6061.7,1948.8,8500
6061.7,1948.8,6750
6061.7,1948.8,7000
6061.7,1948.8,7250
6061.7,1948.8,7500
6061.7,1948.8,7750
6061.7,1948.8,7000
6061.7,1948.8,7250
6061.7,1948.8,7500
6061.7,1948.8,7750
6061.7,1948.8,8000
6061.7,1948.8,7250
6061.7,1948.8,7500
6061.7,1948.8,7750
6061.7,1948.8,8000
6061.7,1948.8,8250
6061.7,1948.8,7500
6061.7,1948.8,7750
6061.7,1948.8,8000
6061.7,1948.8,8250
6061.7,1948.8,8500
6061.7,1948.8,7750
6061.7,1948.8,8000
6061.7,1948.8,8250
6061.7,1948.8,8500
6061.7,1948.8,8750
6061.7,1948.8,6250
6061.7,1948.8,6500
6061.7,1948.8,6750
6061.7,1948.8,7000
6061.7,1948.8,7250
6061.7,1948.8,6500
6061.7,1948.8,6750
6061.7,1948.8,7000
6061.7,1948.8,7250
6061.7,1948.8,7500
6061.7,1948.8,6750
6061.7,1948.8,7000
6061.7,1948.8,7250
6061.7,1948.8,7500
6061.7,1948.8,7750
6061.7,1948.8,7000
6061.7,1948.8,7250
6061.7,1948.8,7500
6061.7,1948.8,7750
6061.7,1948.8,8000
6061.7,1948.8,7250
6061.7,1948.8,7500
6061.7,1948.8,7750
6061.7,1948.8,8000
6061.7,1948.8,8250
6061.7,1948.8,6500
6061.7,1948.8,6750
6061.7,1948.8,7000
6061.7,1948.8,7250
6061.7,1948.8,7500
6061.7,1948.8,6750
6061.7,1948.8,7000
6061.7,1948.8,7250
6061.7,1948.8,7500
6061.7,1948.8,7750
6061.7,1948.8,7000
6061.7,1948.8,7250
6061.7,1948.8,7500
6061.7,1948.8,7750
6061.7,1948.8,8000
6061.7,1948.8,7250
6061.7,1948.8,7500
6061.7,1948.8,7750
6061.7,1948.8,8000
6061.7,1948.8,8250
6061.7,1948.8,7500
6061.7,1948.8,7750
6061.7,1948.8,8000
6061.7,1948.8,8250
6061.7,1948.8,8500
6061.7,1948.8,6750
6061.7,1948.8,7000
6061.7,1948.8,7250
6061.7,1948.8,7500
6061.7,1948.8,7750
6061.7,1948.8,7000
6061.7,1948.8,7250
6061.7,1948.8,7500
6061.7,1948.8,7750
6061.7,1948.8,8000
6061.7,1948.8,7250
6061.7,1948.8,7500
6061.7,1948.8,7750
6061.7,1948.8,8000
6061.7,1948.8,8250
6061.7,1948.8,7500
6061.7,1948.8,7750
6061.7,1948.8,8000
6061.7,1948.8,8250
6061.7,1948.8,8500
6061.7,1948.8,7750
6061.7,1948.8,8000
6061.7,1948.8,8250
6061.7,1948.8,8500
6061.7,1948.8,8750
6061.7,1948.8,6250
6061.7,1948.8,6500
6061.7,1948.8,6750
6061.7,1948.8,7000
6061.7,1948.8,7250
6061.7,1948.8,6500
6061.7,1948.8,6750
6061.7,1948.8,7000
6061.7,1948.8,7250
6061.7,1948.8,7500
6061.7,1948.8,6750
6061.7,1948.8,7000
6061.7,1948.8,7250
6061.7,1948.8,7500
6061.7,1948.8,7750
6061.7,1948.8,7000
6061.7,1948.8,7250
6061.7,1948.8,7500
6061.7,1948.8,7750
6061.7,1948.8,8000
6061.7,1948.8,7250
6061.7,1948.8,7500
6061.7,1948.8,7750
6061.7,1948.8,8000
6061.7,1948.8,8250
6061.7,1948.8,6500
6061.7,1948.8,6750
6061.7,1948.8,7000
6061.7,1948.8,7250
6061.7,1948.8,7500
6061.7,1948.8,6750
6061.7,1948.8,7000
6061.7,1948.8,7250
6061.7,1948.8,7500
6061.7,1948.8,7750
6061.7,1948.8,7000
6061.7,1948.8,7250
6061.7,1948.8,7500
6061.7,1948.8,7750
6061.7,1948.8,8000
6061.7,1948.8,7250
6061.7,1948.8,7500
6061.7,1948.8,7750
6061.7,1948.8,8000
6061.7,1948.8,8250
6061.7,1948.8,7500
6061.7,1948.8,7750
6061.7,1948.8,8000
6061.7,1948.8,8250
6061.7,1948.8,8500
6061.7,1948.8,6750
6061.7,1948.8,7000
6061.7,1948.8,7250
6061.7,1948.8,7500
6061.7,1948.8,7750
6061.7,1948.8,7000
6061.7,1948.8,7250
6061.7,1948.8,7500
6061.7,1948.8,7750
6061.7,1948.8,8000
6061.7,1948.8,7250
6061.7,1948.8,7500
6061.7,1948.8,7750
6061.7,1948.8,8000
6061.7,1948.8,8250
6061.7,1948.8,7500
6061.7,1948.8,7750
6061.7,1948.8,8000
6061.7,1948.8,8250
6061.7,1948.8,8500
6061.7,1948.8,7750
6061.7,1948.8,8000
6061.7,1948.8,8250
6061.7,1948.8,8500
6061.7,1948.8,8750
6061.7,1948.8,6250
6061.7,1948.8,6500
6061.7,1948.8,6750
6061.7,1948.8,7000
6061.7,1948.8,7250
6061.7,1948.8,6500
6061.7,1948.8,6750
6061.7,1948.8,7000
6061.7,1948.8,7250
6061.7,1948.8,7500
6061.7,1948.8,6750
6061.7,1948.8,7000
6061.7,1948.8,7250
6061.7,1948.8,7500
6061.7,1948.8,7750
6061.7,1948.8,7000
6061.7,1948.8,7250
6061.7,1948.8,7500
6061.7,1948.8,7750
6061.7,1948.8,8000
6061.7,1948.8,7250
6061.7,1948.8,7500
6061.7,1948.8,7750
6061.7,1948.8,8000
6061.7,1948.8,8250
6061.7,1948.8,6500
6061.7,1948.8,6750
6061.7,1948.8,7000
6061.7,1948.8,7250
6061.7,1948.8,7500
6061.7,1948.8,6750
6061.7,1948.8,7000
6061.7,1948.8,7250
6061.7,1948.8,7500
6061.7,1948.8,7750
6061.7,1948.8,7000
6061.7,1948.8,7250
6061.7,1948.8,7500
6061.7,1948.8,7750
6061.7,1948.8,8000
6061.7,1948.8,7250
6061.7,1948.8,7500
6061.7,1948.8,7750
6061.7,1948.8,8000
6061.7,1948.8,8250
6061.7,1948.8,7500
6061.7,1948.8,7750
6061.7,1948.8,8000
6061.7,1948.8,8250
6061.7,1948.8,8500
6061.7,1948.8,6750
6061.7,1948.8,7000
6061.7,1948.8,7250
6061.7,1948.8,7500
6061.7,1948.8,7750
6061.7,1948.8,7000
6061.7,1948.8,7250
6061.7,1948.8,7500
6061.7,1948.8,7750
6061.7,1948.8,8000
6061.7,1948.8,7250
6061.7,1948.8,7500
6061.7,1948.8,7750
6061.7,1948.8,8000
6061.7,1948.8,8250
6061.7,1948.8,7500
6061.7,1948.8,7750
6061.7,1948.8,8000
6061.7,1948.8,8250
6061.7,1948.8,8500
6061.7,1948.8,7750
6061.7,1948.8,8000
6061.7,1948.8,8250
6061.7,1948.8,8500
6061.7,1948.8,8750
6061.7,1948.8,7000
6061.7,1948.8,7250
6061.7,1948.8,7500
6061.7,1948.8,7750
6061.7,1948.8,8000
6061.7,1948.8,7250
6061.7,1948.8,7500
6061.7,1948.8,7750
6061.7,1948.8,8000
6061.7,1948.8,8250
6061.7,1948.8,7500
6061.7,1948.8,7750
6061.7,1948.8,8000
6061.7,1948.8,8250
6061.7,1948.8,8500
6061.7,1948.8,7750
6061.7,1948.8,8000
6061.7,1948.8,8250
6061.7,1948.8,8500
6061.7,1948.8,8750
6061.7,1948.8,8000
6061.7,1948.8,8250
6061.7,1948.8,8500
6061.7,1948.8,8750
6061.7,1948.8,9000
