6593.1,1948.8,5500
6593.1,1948.8,5500
6593.1,1948.8,5750
6593.1,1948.8,5500
6593.1,1948.8,5750
6593.1,1948.8,6000
6593.1,1948.8,5500
6593.1,1948.8,5750
6593.1,1948.8,6000
6593.1,1948.8,6250
6593.1,1948.8,5500
6593.1,1948.8,5750
6593.1,1948.8,6000
6593.1,1948.8,6250
6593.1,1948.8,6500
6593.1,1948.8,5500
6593.1,1948.8,5750
6593.1,1948.8,5500
6593.1,1948.8,5750
6593.1,1948.8,6000
6593.1,1948.8,5500
6593.1,1948.8,5750
6593.1,1948.8,6000
6593.1,1948.8,6250
6593.1,1948.8,5500
6593.1,1948.8,5750
6593.1,1948.8,6000
6593.1,1948.8,6250
6593.1,1948.8,6500
6593.1,1948.8,5750
6593.1,1948.8,6000
6593.1,1948.8,6250
6593.1,1948.8,6500
6593.1,1948.8,6750
6593.1,1948.8,5500
6593.1,1948.8,5750
6593.1,1948.8,6000
6593.1,1948.8,5500
6593.1,1948.8,5750
6593.1,1948.8,6000
6593.1,1948.8,6250
6593.1,1948.8,5500
6593.1,1948.8,5750
6593.1,1948.8,6000
6593.1,1948.8,6250
6593.1,1948.8,6500
6593.1,1948.8,5750
6593.1,1948.8,6000
6593.1,1948.8,6250
6593.1,1948.8,6500
6593.1,1948.8,6750
6593.1,1948.8,6000
6593.1,1948.8,6250
6593.1,1948.8,6500
6593.1,1948.8,6750
6593.1,1948.8,5500
6593.1,1948.8,5750
6593.1,1948.8,6000
6593.1,1948.8,6250
6593.1,1948.8,5500
6593.1,1948.8,5750
6593.1,1948.8,6000
6593.1,1948.8,6250
6593.1,1948.8,6500
6593.1,1948.8,5750
6593.1,1948.8,6000
6593.1,1948.8,6250
6593.1,1948.8,6500
6593.1,1948.8,6750
6593.1,1948.8,6000
6593.1,1948.8,6250
6593.1,1948.8,6500
6593.1,1948.8,6750
6593.1,1948.8,6250
6593.1,1948.8,6500
6593.1,1948.8,6750
6593.1,1948.8,5500
6593.1,1948.8,5750
6593.1,1948.8,6000
6593.1,1948.8,6250
6593.1,1948.8,6500
6593.1,1948.8,5750
6593.1,1948.8,6000
6593.1,1948.8,6250
6593.1,1948.8,6500
6593.1,1948.8,6750
6593.1,1948.8,6000
6593.1,1948.8,6250
6593.1,1948.8,6500
6593.1,1948.8,6750
6593.1,1948.8,6250
6593.1,1948.8,6500
6593.1,1948.8,6750
6593.1,1948.8,6500
6593.1,1948.8,6750
7495.1,1948.8,5500
7495.1,1948.8,5500
7495.1,1948.8,5750
7495.1,1948.8,5500
7495.1,1948.8,5500
7495.1,1948.8,5750
7495.1,1948.8,5500
7495.1,1948.8,5500
7495.1,1948.8,5750
7495.1,1948.8,5500
7495.1,1948.8,5750
7495.1,1948.8,5500
7495.1,1948.8,5500
7495.1,1948.8,5750
7495.1,1948.8,5500
7495.1,1948.8,5500
7495.1,1948.8,5750
7495.1,1948.8,5500
7495.1,1948.8,5750
7495.1,1948.8,5500
7495.1,1948.8,5500
7495.1,1948.8,5750
7495.1,1948.8,5500
7495.1,1948.8,5750
7495.1,1948.8,6500
7495.1,1948.8,6750
7495.1,1948.8,5500
7495.1,1948.8,5750
7495.1,1948.8,6500
7495.1,1948.8,6750
7495.1,1948.8,6500
7495.1,1948.8,6750
7495.1,1948.8,6750
7495.1,1948.8,6500
7495.1,1948.8,6750
7495.1,1948.8,6500
7495.1,1948.8,6750
7495.1,1948.8,6750
7495.1,1948.8,6500
7495.1,1948.8,6750
7495.1,1948.8,6750
8397,1948.8,5500
8397,1948.8,5500
8397,1948.8,5500
8397,1948.8,5750
8397,1948.8,5500
8397,1948.8,5500
8397,1948.8,5750
8397,1948.8,5500
8397,1948.8,5500
8397,1948.8,5750
8397,1948.8,5500
8397,1948.8,5500
8397,1948.8,5750
8397,1948.8,5500
8397,1948.8,5500
8397,1948.8,5750
8397,1948.8,5500
8397,1948.8,5500
8397,1948.8,5750
8397,1948.8,5500
8397,1948.8,5500
8397,1948.8,5750
8397,1948.8,5500
8397,1948.8,5500
8397,1948.8,5750
8397,1948.8,5500
8397,1948.8,5500
8397,1948.8,5750
8397,1948.8,5500
8397,1948.8,5500
8397,1948.8,5750
8397,1948.8,5500
8397,1948.8,5500
8397,1948.8,5750
8397,1948.8,5500
8397,1948.8,5500
8397,1948.8,5750
8397,1948.8,5500
8397,1948.8,5500
8397,1948.8,5750
8397,1948.8,5500
8397,1948.8,5500
8397,1948.8,5750
8397,1948.8,5500
8397,1948.8,5500
8397,1948.8,5750
8397,1948.8,5500
8397,1948.8,5500
8397,1948.8,5750
8397,1948.8,5500
8397,1948.8,5500
8397,1948.8,5750
8397,1948.8,5500
8397,1948.8,5500
8397,1948.8,5750
8397,1948.8,6500
8397,1948.8,6750
8397,1948.8,6750
8397,1948.8,5500
8397,1948.8,5500
8397,1948.8,5750
8397,1948.8,6500
8397,1948.8,6750
8397,1948.8,6750
8397,1948.8,6500
8397,1948.8,6750
8397,1948.8,6750
8397,1948.8,6500
8397,1948.8,6750
8397,1948.8,6750
8397,1948.8,6500
8397,1948.8,6750
8397,1948.8,6750
8397,1948.8,6500
8397,1948.8,6750
8397,1948.8,6750
8397,1948.8,6500
8397,1948.8,6750
8397,1948.8,6750
8397,1948.8,6500
8397,1948.8,6750
8397,1948.8,6750
8397,1948.8,6500
8397,1948.8,6750
8397,1948.8,6750
8397,1948.8,6500
8397,1948.8,6750
8397,1948.8,6750
9299,1948.8,5500
9299,1948.8,5500
9299,1948.8,5500
9299,1948.8,5750
9299,1948.8,5500
9299,1948.8,5500
9299,1948.8,5750
9299,1948.8,5500
9299,1948.8,5500
9299,1948.8,5500
9299,1948.8,5750
9299,1948.8,5500
9299,1948.8,5500
9299,1948.8,5750
9299,1948.8,5500
9299,1948.8,5500
9299,1948.8,5750
9299,1948.8,5500
9299,1948.8,5500
9299,1948.8,5500
9299,1948.8,5750
9299,1948.8,5500
9299,1948.8,5500
9299,1948.8,5750
9299,1948.8,5500
9299,1948.8,5500
9299,1948.8,5750
9299,1948.8,5500
9299,1948.8,5500
9299,1948.8,5750
9299,1948.8,5500
9299,1948.8,5500
9299,1948.8,5750
9299,1948.8,5500
9299,1948.8,5500
9299,1948.8,5750
9299,1948.8,5500
9299,1948.8,5500
9299,1948.8,5500
9299,1948.8,5750
9299,1948.8,5500
9299,1948.8,5500
9299,1948.8,5750
9299,1948.8,5500
9299,1948.8,5500
9299,1948.8,5750
9299,1948.8,5500
9299,1948.8,5500
9299,1948.8,5500
9299,1948.8,5750
9299,1948.8,5500
9299,1948.8,5500
9299,1948.8,5750
9299,1948.8,5500
9299,1948.8,5500
9299,1948.8,5750
9299,1948.8,5500
9299,1948.8,5500
9299,1948.8,5750
9299,1948.8,5500
9299,1948.8,5500
9299,1948.8,5750
9299,1948.8,5500
9299,1948.8,5500
9299,1948.8,5750
9299,1948.8,5500
9299,1948.8,5500
9299,1948.8,5500
9299,1948.8,5750
9299,1948.8,5500
9299,1948.8,5500
9299,1948.8,5750
9299,1948.8,5500
9299,1948.8,5500
9299,1948.8,5750
9299,1948.8,5500
9299,1948.8,5500
9299,1948.8,5750
9299,1948.8,5500
9299,1948.8,5500
9299,1948.8,5750
9299,1948.8,5500
9299,1948.8,5500
9299,1948.8,5750
9299,1948.8,5500
9299,1948.8,5500
9299,1948.8,5750
9299,1948.8,5500
9299,1948.8,5500
9299,1948.8,5750
9299,1948.8,5500
9299,1948.8,5500
9299,1948.8,5750
9299,1948.8,5500
9299,1948.8,5500
9299,1948.8,5500
9299,1948.8,5750
9299,1948.8,5500
9299,1948.8,5500
9299,1948.8,5750
9299,1948.8,5500
9299,1948.8,5500
9299,1948.8,5750
9299,1948.8,5500
9299,1948.8,5500
9299,1948.8,5500
9299,1948.8,5750
9299,1948.8,5500
9299,1948.8,5500
9299,1948.8,5750
9299,1948.8,5500
9299,1948.8,5500
9299,1948.8,5750
9299,1948.8,5500
9299,1948.8,5500
9299,1948.8,5750
9299,1948.8,5500
9299,1948.8,5500
9299,1948.8,5750
9299,1948.8,5500
9299,1948.8,5500
9299,1948.8,5750
9299,1948.8,5500
9299,1948.8,5500
9299,1948.8,5500
9299,1948.8,5750
9299,1948.8,5500
9299,1948.8,5500
9299,1948.8,5750
9299,1948.8,5500
9299,1948.8,5500
9299,1948.8,5750
9299,1948.8,5500
9299,1948.8,5500
9299,1948.8,5750
9299,1948.8,5500
9299,1948.8,5500
9299,1948.8,5750
9299,1948.8,5500
9299,1948.8,5500
9299,1948.8,5750
9299,1948.8,5500
9299,1948.8,5500
9299,1948.8,5750
9299,1948.8,5500
9299,1948.8,5500
9299,1948.8,5750
9299,1948.8,5500
9299,1948.8,5500
9299,1948.8,5750
9299,1948.8,5500
9299,1948.8,5500
9299,1948.8,5500
9299,1948.8,5750
9299,1948.8,5500
9299,1948.8,5500
9299,1948.8,5750
9299,1948.8,5500
9299,1948.8,5500
9299,1948.8,5750
9299,1948.8,5500
9299,1948.8,5500
9299,1948.8,5750
9299,1948.8,5500
9299,1948.8,5500
9299,1948.8,5750
9299,1948.8,5500
9299,1948.8,5500
9299,1948.8,5750
9299,1948.8,5500
9299,1948.8,5500
9299,1948.8,5750
9299,1948.8,5500
9299,1948.8,5500
9299,1948.8,5750
9299,1948.8,5500
9299,1948.8,5500
9299,1948.8,5750
9299,1948.8,6500
9299,1948.8,6750
9299,1948.8,6750
9299,1948.8,6500
9299,1948.8,6750
9299,1948.8,6750
9299,1948.8,6500
9299,1948.8,6750
9299,1948.8,6750
9299,1948.8,5500
9299,1948.8,5500
9299,1948.8,5750
9299,1948.8,5500
9299,1948.8,5500
9299,1948.8,5750
9299,1948.8,5500
9299,1948.8,5500
9299,1948.8,5750
9299,1948.8,6500
9299,1948.8,6750
9299,1948.8,6750
9299,1948.8,6500
9299,1948.8,6750
9299,1948.8,6750
9299,1948.8,6500
9299,1948.8,6750
9299,1948.8,6750
9299,1948.8,6500
9299,1948.8,6750
9299,1948.8,6750
9299,1948.8,6500
9299,1948.8,6750
9299,1948.8,6750
9299,1948.8,6500
9299,1948.8,6750
9299,1948.8,6750
9299,1948.8,6500
9299,1948.8,6750
9299,1948.8,6750
9299,1948.8,6500
9299,1948.8,6750
9299,1948.8,6750
9299,1948.8,6500
9299,1948.8,6750
9299,1948.8,6750
9299,1948.8,6750
9299,1948.8,6500
9299,1948.8,6750
9299,1948.8,6750
9299,1948.8,6500
9299,1948.8,6750
9299,1948.8,6750
9299,1948.8,6500
9299,1948.8,6750
9299,1948.8,6750
9299,1948.8,6500
9299,1948.8,6750
9299,1948.8,6750
9299,1948.8,6500
9299,1948.8,6750
9299,1948.8,6750
9299,1948.8,6500
9299,1948.8,6750
9299,1948.8,6750
9299,1948.8,6500
9299,1948.8,6750
9299,1948.8,6750
9299,1948.8,6500
9299,1948.8,6750
9299,1948.8,6750
9299,1948.8,6500
9299,1948.8,6750
9299,1948.8,6750
9299,1948.8,6750
9299,1948.8,6500
9299,1948.8,6750
9299,1948.8,6750
9299,1948.8,6500
9299,1948.8,6750
9299,1948.8,6750
9299,1948.8,6500
9299,1948.8,6750
9299,1948.8,6750
9299,1948.8,6500
9299,1948.8,6750
9299,1948.8,6750
9299,1948.8,6500
9299,1948.8,6750
9299,1948.8,6750
9299,1948.8,6500
9299,1948.8,6750
9299,1948.8,6750
9299,1948.8,6750
9299,1948.8,6500
9299,1948.8,6750
9299,1948.8,6750
9299,1948.8,6500
9299,1948.8,6750
9299,1948.8,6750
9299,1948.8,6500
9299,1948.8,6750
9299,1948.8,6750
9299,1948.8,6750
