9535,1948.8,6100
10237,1948.8,6100
10237,1948.8,6350
10237,1948.8,6600
10939,1948.8,6100
10939,1948.8,6350
10939,1948.8,6600
10939,1948.8,6100
10939,1948.8,6350
10939,1948.8,6600
10939,1948.8,6850
10939,1948.8,6100
10939,1948.8,6350
10939,1948.8,6600
10939,1948.8,6850
10939,1948.8,7100
11641,1948.8,6850
11641,1948.8,6850
11641,1948.8,7100
11641,1948.8,6850
11641,1948.8,6850
11641,1948.8,7100
11641,1948.8,6850
11641,1948.8,7100
11641,1948.8,7350
11641,1948.8,6850
11641,1948.8,6850
11641,1948.8,7100
11641,1948.8,6850
11641,1948.8,7100
11641,1948.8,7350
11641,1948.8,6850
11641,1948.8,7100
11641,1948.8,7350
11641,1948.8,7600
12343,1948.8,7100
12343,1948.8,7350
12343,1948.8,7100
12343,1948.8,7350
12343,1948.8,7100
12343,1948.8,7350
12343,1948.8,7600
12343,1948.8,7100
12343,1948.8,7350
12343,1948.8,7100
12343,1948.8,7350
12343,1948.8,7100
12343,1948.8,7350
12343,1948.8,7600
12343,1948.8,7100
12343,1948.8,7350
12343,1948.8,7100
12343,1948.8,7350
12343,1948.8,7600
12343,1948.8,7100
12343,1948.8,7350
12343,1948.8,7600
12343,1948.8,7850
12343,1948.8,7100
12343,1948.8,7350
12343,1948.8,7100
12343,1948.8,7350
12343,1948.8,7100
12343,1948.8,7350
12343,1948.8,7600
12343,1948.8,7100
12343,1948.8,7350
12343,1948.8,7100
12343,1948.8,7350
12343,1948.8,7600
12343,1948.8,7100
12343,1948.8,7350
12343,1948.8,7600
12343,1948.8,7850
12343,1948.8,7100
12343,1948.8,7350
12343,1948.8,7100
12343,1948.8,7350
12343,1948.8,7600
12343,1948.8,7100
12343,1948.8,7350
12343,1948.8,7600
12343,1948.8,7850
12343,1948.8,7100
12343,1948.8,7350
12343,1948.8,7600
12343,1948.8,7850
12343,1948.8,8100
13045,1948.8,6850
13045,1948.8,7100
13045,1948.8,7350
13045,1948.8,7600
13045,1948.8,6850
13045,1948.8,7100
13045,1948.8,7350
13045,1948.8,7600
13045,1948.8,7850
13045,1948.8,6850
13045,1948.8,7100
13045,1948.8,7350
13045,1948.8,7600
13045,1948.8,6850
13045,1948.8,7100
13045,1948.8,7350
13045,1948.8,7600
13045,1948.8,7850
13045,1948.8,6850
13045,1948.8,7100
13045,1948.8,7350
13045,1948.8,7600
13045,1948.8,6850
13045,1948.8,7100
13045,1948.8,7350
13045,1948.8,7600
13045,1948.8,7850
13045,1948.8,7100
13045,1948.8,7350
13045,1948.8,7600
13045,1948.8,7850
13045,1948.8,8100
13045,1948.8,6850
13045,1948.8,7100
13045,1948.8,7350
13045,1948.8,7600
13045,1948.8,6850
13045,1948.8,7100
13045,1948.8,7350
13045,1948.8,7600
13045,1948.8,7850
13045,1948.8,6850
13045,1948.8,7100
13045,1948.8,7350
13045,1948.8,7600
13045,1948.8,6850
13045,1948.8,7100
13045,1948.8,7350
13045,1948.8,7600
13045,1948.8,7850
13045,1948.8,6850
13045,1948.8,7100
13045,1948.8,7350
13045,1948.8,7600
13045,1948.8,6850
13045,1948.8,7100
13045,1948.8,7350
13045,1948.8,7600
13045,1948.8,7850
13045,1948.8,7100
13045,1948.8,7350
13045,1948.8,7600
13045,1948.8,7850
13045,1948.8,8100
13045,1948.8,6850
13045,1948.8,7100
13045,1948.8,7350
13045,1948.8,7600
13045,1948.8,6850
13045,1948.8,7100
13045,1948.8,7350
13045,1948.8,7600
13045,1948.8,7850
13045,1948.8,6850
13045,1948.8,7100
13045,1948.8,7350
13045,1948.8,7600
13045,1948.8,6850
13045,1948.8,7100
13045,1948.8,7350
13045,1948.8,7600
13045,1948.8,7850
13045,1948.8,7100
13045,1948.8,7350
13045,1948.8,7600
13045,1948.8,7850
13045,1948.8,8100
13045,1948.8,6850
13045,1948.8,7100
13045,1948.8,7350
13045,1948.8,7600
13045,1948.8,6850
13045,1948.8,7100
13045,1948.8,7350
13045,1948.8,7600
13045,1948.8,7850
13045,1948.8,7100
13045,1948.8,7350
13045,1948.8,7600
13045,1948.8,7850
13045,1948.8,8100
13045,1948.8,7350
13045,1948.8,7600
13045,1948.8,7850
13045,1948.8,8100
13045,1948.8,8350
13045,1948.8,6850
13045,1948.8,7100
13045,1948.8,7350
13045,1948.8,7600
13045,1948.8,6850
13045,1948.8,7100
13045,1948.8,7350
13045,1948.8,7600
13045,1948.8,7850
13045,1948.8,6850
13045,1948.8,7100
13045,1948.8,7350
13045,1948.8,7600
13045,1948.8,6850
13045,1948.8,7100
13045,1948.8,7350
13045,1948.8,7600
13045,1948.8,7850
13045,1948.8,6850
13045,1948.8,7100
13045,1948.8,7350
13045,1948.8,7600
13045,1948.8,6850
13045,1948.8,7100
13045,1948.8,7350
13045,1948.8,7600
13045,1948.8,7850
13045,1948.8,7100
13045,1948.8,7350
13045,1948.8,7600
13045,1948.8,7850
13045,1948.8,8100
13045,1948.8,6850
13045,1948.8,7100
13045,1948.8,7350
13045,1948.8,7600
13045,1948.8,6850
13045,1948.8,7100
13045,1948.8,7350
13045,1948.8,7600
13045,1948.8,7850
13045,1948.8,6850
13045,1948.8,7100
13045,1948.8,7350
13045,1948.8,7600
13045,1948.8,6850
13045,1948.8,7100
13045,1948.8,7350
13045,1948.8,7600
13045,1948.8,7850
13045,1948.8,7100
13045,1948.8,7350
13045,1948.8,7600
13045,1948.8,7850
13045,1948.8,8100
13045,1948.8,6850
13045,1948.8,7100
13045,1948.8,7350
13045,1948.8,7600
13045,1948.8,6850
13045,1948.8,7100
13045,1948.8,7350
13045,1948.8,7600
13045,1948.8,7850
13045,1948.8,7100
13045,1948.8,7350
13045,1948.8,7600
13045,1948.8,7850
13045,1948.8,8100
13045,1948.8,7350
13045,1948.8,7600
13045,1948.8,7850
13045,1948.8,8100
13045,1948.8,8350
13045,1948.8,6850
13045,1948.8,7100
13045,1948.8,7350
13045,1948.8,7600
13045,1948.8,6850
13045,1948.8,7100
13045,1948.8,7350
13045,1948.8,7600
13045,1948.8,7850
13045,1948.8,6850
13045,1948.8,7100
13045,1948.8,7350
13045,1948.8,7600
13045,1948.8,6850
13045,1948.8,7100
13045,1948.8,7350
13045,1948.8,7600
13045,1948.8,7850
13045,1948.8,7100
13045,1948.8,7350
13045,1948.8,7600
13045,1948.8,7850
13045,1948.8,8100
13045,1948.8,6850
13045,1948.8,7100
13045,1948.8,7350
13045,1948.8,7600
13045,1948.8,6850
13045,1948.8,7100
13045,1948.8,7350
13045,1948.8,7600
13045,1948.8,7850
13045,1948.8,7100
13045,1948.8,7350
13045,1948.8,7600
13045,1948.8,7850
13045,1948.8,8100
13045,1948.8,7350
13045,1948.8,7600
13045,1948.8,7850
13045,1948.8,8100
13045,1948.8,8350
13045,1948.8,6850
13045,1948.8,7100
13045,1948.8,7350
13045,1948.8,7600
13045,1948.8,6850
13045,1948.8,7100
13045,1948.8,7350
13045,1948.8,7600
13045,1948.8,7850
13045,1948.8,7100
13045,1948.8,7350
13045,1948.8,7600
13045,1948.8,7850
13045,1948.8,8100
13045,1948.8,7350
13045,1948.8,7600
13045,1948.8,7850
13045,1948.8,8100
13045,1948.8,8350
13045,1948.8,7600
13045,1948.8,7850
13045,1948.8,8100
13045,1948.8,8350
13045,1948.8,8600
13747,1948.8,7100
13747,1948.8,7350
13747,1948.8,7100
13747,1948.8,7350
13747,1948.8,7600
13747,1948.8,7100
13747,1948.8,7350
13747,1948.8,7600
13747,1948.8,7850
13747,1948.8,7100
13747,1948.8,7350
13747,1948.8,7600
13747,1948.8,7850
13747,1948.8,8100
13747,1948.8,7100
13747,1948.8,7350
13747,1948.8,7100
13747,1948.8,7350
13747,1948.8,7600
13747,1948.8,7100
13747,1948.8,7350
13747,1948.8,7600
13747,1948.8,7850
13747,1948.8,7100
13747,1948.8,7350
13747,1948.8,7600
13747,1948.8,7850
13747,1948.8,8100
13747,1948.8,7350
13747,1948.8,7600
13747,1948.8,7850
13747,1948.8,8100
13747,1948.8,8350
13747,1948.8,7100
13747,1948.8,7350
13747,1948.8,7100
13747,1948.8,7350
13747,1948.8,7600
13747,1948.8,7100
13747,1948.8,7350
13747,1948.8,7600
13747,1948.8,7850
13747,1948.8,7100
13747,1948.8,7350
13747,1948.8,7600
13747,1948.8,7850
13747,1948.8,8100
13747,1948.8,7100
13747,1948.8,7350
13747,1948.8,7100
13747,1948.8,7350
13747,1948.8,7600
13747,1948.8,7100
13747,1948.8,7350
13747,1948.8,7600
13747,1948.8,7850
13747,1948.8,7100
13747,1948.8,7350
13747,1948.8,7600
13747,1948.8,7850
13747,1948.8,8100
13747,1948.8,7350
13747,1948.8,7600
13747,1948.8,7850
13747,1948.8,8100
13747,1948.8,8350
13747,1948.8,7100
13747,1948.8,7350
13747,1948.8,7100
13747,1948.8,7350
13747,1948.8,7600
13747,1948.8,7100
13747,1948.8,7350
13747,1948.8,7600
13747,1948.8,7850
13747,1948.8,7100
13747,1948.8,7350
13747,1948.8,7600
13747,1948.8,7850
13747,1948.8,8100
13747,1948.8,7100
13747,1948.8,7350
13747,1948.8,7100
13747,1948.8,7350
13747,1948.8,7600
13747,1948.8,7100
13747,1948.8,7350
13747,1948.8,7600
13747,1948.8,7850
13747,1948.8,7100
13747,1948.8,7350
13747,1948.8,7600
13747,1948.8,7850
13747,1948.8,8100
13747,1948.8,7350
13747,1948.8,7600
13747,1948.8,7850
13747,1948.8,8100
13747,1948.8,8350
13747,1948.8,7100
13747,1948.8,7350
13747,1948.8,7600
13747,1948.8,7100
13747,1948.8,7350
13747,1948.8,7600
13747,1948.8,7850
13747,1948.8,7100
13747,1948.8,7350
13747,1948.8,7600
13747,1948.8,7850
13747,1948.8,8100
13747,1948.8,7350
13747,1948.8,7600
13747,1948.8,7850
13747,1948.8,8100
13747,1948.8,8350
13747,1948.8,7600
13747,1948.8,7850
13747,1948.8,8100
13747,1948.8,8350
13747,1948.8,8600
13747,1948.8,7100
13747,1948.8,7350
13747,1948.8,7100
13747,1948.8,7350
13747,1948.8,7600
13747,1948.8,7100
13747,1948.8,7350
13747,1948.8,7600
13747,1948.8,7850
13747,1948.8,7100
13747,1948.8,7350
13747,1948.8,7600
13747,1948.8,7850
13747,1948.8,8100
13747,1948.8,7100
13747,1948.8,7350
13747,1948.8,7100
13747,1948.8,7350
13747,1948.8,7600
13747,1948.8,7100
13747,1948.8,7350
13747,1948.8,7600
13747,1948.8,7850
13747,1948.8,7100
13747,1948.8,7350
13747,1948.8,7600
13747,1948.8,7850
13747,1948.8,8100
13747,1948.8,7350
13747,1948.8,7600
13747,1948.8,7850
13747,1948.8,8100
13747,1948.8,8350
13747,1948.8,7100
13747,1948.8,7350
13747,1948.8,7100
13747,1948.8,7350
13747,1948.8,7600
13747,1948.8,7100
13747,1948.8,7350
13747,1948.8,7600
13747,1948.8,7850
13747,1948.8,7100
13747,1948.8,7350
13747,1948.8,7600
13747,1948.8,7850
13747,1948.8,8100
13747,1948.8,7100
13747,1948.8,7350
13747,1948.8,7100
13747,1948.8,7350
13747,1948.8,7600
13747,1948.8,7100
13747,1948.8,7350
13747,1948.8,7600
13747,1948.8,7850
13747,1948.8,7100
13747,1948.8,7350
13747,1948.8,7600
13747,1948.8,7850
13747,1948.8,8100
13747,1948.8,7350
13747,1948.8,7600
13747,1948.8,7850
13747,1948.8,8100
13747,1948.8,8350
13747,1948.8,7100
13747,1948.8,7350
13747,1948.8,7100
13747,1948.8,7350
13747,1948.8,7600
13747,1948.8,7100
13747,1948.8,7350
13747,1948.8,7600
13747,1948.8,7850
13747,1948.8,7100
13747,1948.8,7350
13747,1948.8,7600
13747,1948.8,7850
13747,1948.8,8100
13747,1948.8,7100
13747,1948.8,7350
13747,1948.8,7100
13747,1948.8,7350
13747,1948.8,7600
13747,1948.8,7100
13747,1948.8,7350
13747,1948.8,7600
13747,1948.8,7850
13747,1948.8,7100
13747,1948.8,7350
13747,1948.8,7600
13747,1948.8,7850
13747,1948.8,8100
13747,1948.8,7350
13747,1948.8,7600
13747,1948.8,7850
13747,1948.8,8100
13747,1948.8,8350
13747,1948.8,7100
13747,1948.8,7350
13747,1948.8,7600
13747,1948.8,7100
13747,1948.8,7350
13747,1948.8,7600
13747,1948.8,7850
13747,1948.8,7100
13747,1948.8,7350
13747,1948.8,7600
13747,1948.8,7850
13747,1948.8,8100
13747,1948.8,7350
13747,1948.8,7600
13747,1948.8,7850
13747,1948.8,8100
13747,1948.8,8350
13747,1948.8,7600
13747,1948.8,7850
13747,1948.8,8100
13747,1948.8,8350
13747,1948.8,8600
13747,1948.8,7100
13747,1948.8,7350
13747,1948.8,7100
13747,1948.8,7350
13747,1948.8,7600
13747,1948.8,7100
13747,1948.8,7350
13747,1948.8,7600
13747,1948.8,7850
13747,1948.8,7100
13747,1948.8,7350
13747,1948.8,7600
13747,1948.8,7850
13747,1948.8,8100
13747,1948.8,7100
13747,1948.8,7350
13747,1948.8,7100
13747,1948.8,7350
13747,1948.8,7600
13747,1948.8,7100
13747,1948.8,7350
13747,1948.8,7600
13747,1948.8,7850
13747,1948.8,7100
13747,1948.8,7350
13747,1948.8,7600
13747,1948.8,7850
13747,1948.8,8100
13747,1948.8,7350
13747,1948.8,7600
13747,1948.8,7850
13747,1948.8,8100
13747,1948.8,8350
13747,1948.8,7100
13747,1948.8,7350
13747,1948.8,7100
13747,1948.8,7350
13747,1948.8,7600
13747,1948.8,7100
13747,1948.8,7350
13747,1948.8,7600
13747,1948.8,7850
13747,1948.8,7100
13747,1948.8,7350
13747,1948.8,7600
13747,1948.8,7850
13747,1948.8,8100
13747,1948.8,7100
13747,1948.8,7350
13747,1948.8,7100
13747,1948.8,7350
13747,1948.8,7600
13747,1948.8,7100
13747,1948.8,7350
13747,1948.8,7600
13747,1948.8,7850
13747,1948.8,7100
13747,1948.8,7350
13747,1948.8,7600
13747,1948.8,7850
13747,1948.8,8100
13747,1948.8,7350
13747,1948.8,7600
13747,1948.8,7850
13747,1948.8,8100
13747,1948.8,8350
13747,1948.8,7100
13747,1948.8,7350
13747,1948.8,7600
13747,1948.8,7100
13747,1948.8,7350
13747,1948.8,7600
13747,1948.8,7850
13747,1948.8,7100
13747,1948.8,7350
13747,1948.8,7600
13747,1948.8,7850
13747,1948.8,8100
13747,1948.8,7350
13747,1948.8,7600
13747,1948.8,7850
13747,1948.8,8100
13747,1948.8,8350
13747,1948.8,7600
13747,1948.8,7850
13747,1948.8,8100
13747,1948.8,8350
13747,1948.8,8600
13747,1948.8,7100
13747,1948.8,7350
13747,1948.8,7100
13747,1948.8,7350
13747,1948.8,7600
13747,1948.8,7100
13747,1948.8,7350
13747,1948.8,7600
13747,1948.8,7850
13747,1948.8,7100
13747,1948.8,7350
13747,1948.8,7600
13747,1948.8,7850
13747,1948.8,8100
13747,1948.8,7100
13747,1948.8,7350
13747,1948.8,7100
13747,1948.8,7350
13747,1948.8,7600
13747,1948.8,7100
13747,1948.8,7350
13747,1948.8,7600
13747,1948.8,7850
13747,1948.8,7100
13747,1948.8,7350
13747,1948.8,7600
13747,1948.8,7850
13747,1948.8,8100
13747,1948.8,7350
13747,1948.8,7600
13747,1948.8,7850
13747,1948.8,8100
13747,1948.8,8350
13747,1948.8,7100
13747,1948.8,7350
13747,1948.8,7600
13747,1948.8,7100
13747,1948.8,7350
13747,1948.8,7600
13747,1948.8,7850
13747,1948.8,7100
13747,1948.8,7350
13747,1948.8,7600
13747,1948.8,7850
13747,1948.8,8100
13747,1948.8,7350
13747,1948.8,7600
13747,1948.8,7850
13747,1948.8,8100
13747,1948.8,8350
13747,1948.8,7600
13747,1948.8,7850
13747,1948.8,8100
13747,1948.8,8350
13747,1948.8,8600
13747,1948.8,7100
13747,1948.8,7350
13747,1948.8,7600
13747,1948.8,7850
13747,1948.8,7100
13747,1948.8,7350
13747,1948.8,7600
13747,1948.8,7850
13747,1948.8,8100
13747,1948.8,7350
13747,1948.8,7600
13747,1948.8,7850
13747,1948.8,8100
13747,1948.8,8350
13747,1948.8,7600
13747,1948.8,7850
13747,1948.8,8100
13747,1948.8,8350
13747,1948.8,8600
13747,1948.8,7850
13747,1948.8,8100
13747,1948.8,8350
13747,1948.8,8600
13747,1948.8,8850
13747,1948.8,7100
13747,1948.8,7350
13747,1948.8,7100
13747,1948.8,7350
13747,1948.8,7600
13747,1948.8,7100
13747,1948.8,7350
13747,1948.8,7600
13747,1948.8,7850
13747,1948.8,7100
13747,1948.8,7350
13747,1948.8,7600
13747,1948.8,7850
13747,1948.8,8100
13747,1948.8,7100
13747,1948.8,7350
13747,1948.8,7100
13747,1948.8,7350
13747,1948.8,7600
13747,1948.8,7100
13747,1948.8,7350
13747,1948.8,7600
13747,1948.8,7850
13747,1948.8,7100
13747,1948.8,7350
13747,1948.8,7600
13747,1948.8,7850
13747,1948.8,8100
13747,1948.8,7350
13747,1948.8,7600
13747,1948.8,7850
13747,1948.8,8100
13747,1948.8,8350
13747,1948.8,7100
13747,1948.8,7350
13747,1948.8,7100
13747,1948.8,7350
13747,1948.8,7600
13747,1948.8,7100
13747,1948.8,7350
13747,1948.8,7600
13747,1948.8,7850
13747,1948.8,7100
13747,1948.8,7350
13747,1948.8,7600
13747,1948.8,7850
13747,1948.8,8100
13747,1948.8,7100
13747,1948.8,7350
13747,1948.8,7100
13747,1948.8,7350
13747,1948.8,7600
13747,1948.8,7100
13747,1948.8,7350
13747,1948.8,7600
13747,1948.8,7850
13747,1948.8,7100
13747,1948.8,7350
13747,1948.8,7600
13747,1948.8,7850
13747,1948.8,8100
13747,1948.8,7350
13747,1948.8,7600
13747,1948.8,7850
13747,1948.8,8100
13747,1948.8,8350
13747,1948.8,7100
13747,1948.8,7350
13747,1948.8,7100
13747,1948.8,7350
13747,1948.8,7600
13747,1948.8,7100
13747,1948.8,7350
13747,1948.8,7600
13747,1948.8,7850
13747,1948.8,7100
13747,1948.8,7350
13747,1948.8,7600
13747,1948.8,7850
13747,1948.8,8100
13747,1948.8,7100
13747,1948.8,7350
13747,1948.8,7100
13747,1948.8,7350
13747,1948.8,7600
13747,1948.8,7100
13747,1948.8,7350
13747,1948.8,7600
13747,1948.8,7850
13747,1948.8,7100
13747,1948.8,7350
13747,1948.8,7600
13747,1948.8,7850
13747,1948.8,8100
13747,1948.8,7350
13747,1948.8,7600
13747,1948.8,7850
13747,1948.8,8100
13747,1948.8,8350
13747,1948.8,7100
13747,1948.8,7350
13747,1948.8,7600
13747,1948.8,7100
13747,1948.8,7350
13747,1948.8,7600
13747,1948.8,7850
13747,1948.8,7100
13747,1948.8,7350
13747,1948.8,7600
13747,1948.8,7850
13747,1948.8,8100
13747,1948.8,7350
13747,1948.8,7600
13747,1948.8,7850
13747,1948.8,8100
13747,1948.8,8350
13747,1948.8,7600
13747,1948.8,7850
13747,1948.8,8100
13747,1948.8,8350
13747,1948.8,8600
13747,1948.8,7100
13747,1948.8,7350
13747,1948.8,7100
13747,1948.8,7350
13747,1948.8,7600
13747,1948.8,7100
13747,1948.8,7350
13747,1948.8,7600
13747,1948.8,7850
13747,1948.8,7100
13747,1948.8,7350
13747,1948.8,7600
13747,1948.8,7850
13747,1948.8,8100
13747,1948.8,7100
13747,1948.8,7350
13747,1948.8,7100
13747,1948.8,7350
13747,1948.8,7600
13747,1948.8,7100
13747,1948.8,7350
13747,1948.8,7600
13747,1948.8,7850
13747,1948.8,7100
13747,1948.8,7350
13747,1948.8,7600
13747,1948.8,7850
13747,1948.8,8100
13747,1948.8,7350
13747,1948.8,7600
13747,1948.8,7850
13747,1948.8,8100
13747,1948.8,8350
13747,1948.8,7100
13747,1948.8,7350
13747,1948.8,7100
13747,1948.8,7350
13747,1948.8,7600
13747,1948.8,7100
13747,1948.8,7350
13747,1948.8,7600
13747,1948.8,7850
13747,1948.8,7100
13747,1948.8,7350
13747,1948.8,7600
13747,1948.8,7850
13747,1948.8,8100
13747,1948.8,7100
13747,1948.8,7350
13747,1948.8,7100
13747,1948.8,7350
13747,1948.8,7600
13747,1948.8,7100
13747,1948.8,7350
13747,1948.8,7600
13747,1948.8,7850
13747,1948.8,7100
13747,1948.8,7350
13747,1948.8,7600
13747,1948.8,7850
13747,1948.8,8100
13747,1948.8,7350
13747,1948.8,7600
13747,1948.8,7850
13747,1948.8,8100
13747,1948.8,8350
13747,1948.8,7100
13747,1948.8,7350
13747,1948.8,7600
13747,1948.8,7100
13747,1948.8,7350
13747,1948.8,7600
13747,1948.8,7850
13747,1948.8,7100
13747,1948.8,7350
13747,1948.8,7600
13747,1948.8,7850
13747,1948.8,8100
13747,1948.8,7350
13747,1948.8,7600
13747,1948.8,7850
13747,1948.8,8100
13747,1948.8,8350
13747,1948.8,7600
13747,1948.8,7850
13747,1948.8,8100
13747,1948.8,8350
13747,1948.8,8600
13747,1948.8,7100
13747,1948.8,7350
13747,1948.8,7100
13747,1948.8,7350
13747,1948.8,7600
13747,1948.8,7100
13747,1948.8,7350
13747,1948.8,7600
13747,1948.8,7850
13747,1948.8,7100
13747,1948.8,7350
13747,1948.8,7600
13747,1948.8,7850
13747,1948.8,8100
13747,1948.8,7100
13747,1948.8,7350
13747,1948.8,7100
13747,1948.8,7350
13747,1948.8,7600
13747,1948.8,7100
13747,1948.8,7350
13747,1948.8,7600
13747,1948.8,7850
13747,1948.8,7100
13747,1948.8,7350
13747,1948.8,7600
13747,1948.8,7850
13747,1948.8,8100
13747,1948.8,7350
13747,1948.8,7600
13747,1948.8,7850
13747,1948.8,8100
13747,1948.8,8350
13747,1948.8,7100
13747,1948.8,7350
13747,1948.8,7600
13747,1948.8,7100
13747,1948.8,7350
13747,1948.8,7600
13747,1948.8,7850
13747,1948.8,7100
13747,1948.8,7350
13747,1948.8,7600
13747,1948.8,7850
13747,1948.8,8100
13747,1948.8,7350
13747,1948.8,7600
13747,1948.8,7850
13747,1948.8,8100
13747,1948.8,8350
13747,1948.8,7600
13747,1948.8,7850
13747,1948.8,8100
13747,1948.8,8350
13747,1948.8,8600
13747,1948.8,7100
13747,1948.8,7350
13747,1948.8,7600
13747,1948.8,7850
13747,1948.8,7100
13747,1948.8,7350
13747,1948.8,7600
13747,1948.8,7850
13747,1948.8,8100
13747,1948.8,7350
13747,1948.8,7600
13747,1948.8,7850
13747,1948.8,8100
13747,1948.8,8350
13747,1948.8,7600
13747,1948.8,7850
13747,1948.8,8100
13747,1948.8,8350
13747,1948.8,8600
13747,1948.8,7850
13747,1948.8,8100
13747,1948.8,8350
13747,1948.8,8600
13747,1948.8,8850
13747,1948.8,7100
13747,1948.8,7350
13747,1948.8,7100
13747,1948.8,7350
13747,1948.8,7600
13747,1948.8,7100
13747,1948.8,7350
13747,1948.8,7600
13747,1948.8,7850
13747,1948.8,7100
13747,1948.8,7350
13747,1948.8,7600
13747,1948.8,7850
13747,1948.8,8100
13747,1948.8,7100
13747,1948.8,7350
13747,1948.8,7100
13747,1948.8,7350
13747,1948.8,7600
13747,1948.8,7100
13747,1948.8,7350
13747,1948.8,7600
13747,1948.8,7850
13747,1948.8,7100
13747,1948.8,7350
13747,1948.8,7600
13747,1948.8,7850
13747,1948.8,8100
13747,1948.8,7350
13747,1948.8,7600
13747,1948.8,7850
13747,1948.8,8100
13747,1948.8,8350
13747,1948.8,7100
13747,1948.8,7350
13747,1948.8,7100
13747,1948.8,7350
13747,1948.8,7600
13747,1948.8,7100
13747,1948.8,7350
13747,1948.8,7600
13747,1948.8,7850
13747,1948.8,7100
13747,1948.8,7350
13747,1948.8,7600
13747,1948.8,7850
13747,1948.8,8100
13747,1948.8,7100
13747,1948.8,7350
13747,1948.8,7100
13747,1948.8,7350
13747,1948.8,7600
13747,1948.8,7100
13747,1948.8,7350
13747,1948.8,7600
13747,1948.8,7850
13747,1948.8,7100
13747,1948.8,7350
13747,1948.8,7600
13747,1948.8,7850
13747,1948.8,8100
13747,1948.8,7350
13747,1948.8,7600
13747,1948.8,7850
13747,1948.8,8100
13747,1948.8,8350
13747,1948.8,7100
13747,1948.8,7350
13747,1948.8,7600
13747,1948.8,7100
13747,1948.8,7350
13747,1948.8,7600
13747,1948.8,7850
13747,1948.8,7100
13747,1948.8,7350
13747,1948.8,7600
13747,1948.8,7850
13747,1948.8,8100
13747,1948.8,7350
13747,1948.8,7600
13747,1948.8,7850
13747,1948.8,8100
13747,1948.8,8350
13747,1948.8,7600
13747,1948.8,7850
13747,1948.8,8100
13747,1948.8,8350
13747,1948.8,8600
13747,1948.8,7100
13747,1948.8,7350
13747,1948.8,7100
13747,1948.8,7350
13747,1948.8,7600
13747,1948.8,7100
13747,1948.8,7350
13747,1948.8,7600
13747,1948.8,7850
13747,1948.8,7100
13747,1948.8,7350
13747,1948.8,7600
13747,1948.8,7850
13747,1948.8,8100
13747,1948.8,7100
13747,1948.8,7350
13747,1948.8,7100
13747,1948.8,7350
13747,1948.8,7600
13747,1948.8,7100
13747,1948.8,7350
13747,1948.8,7600
13747,1948.8,7850
13747,1948.8,7100
13747,1948.8,7350
13747,1948.8,7600
13747,1948.8,7850
13747,1948.8,8100
13747,1948.8,7350
13747,1948.8,7600
13747,1948.8,7850
13747,1948.8,8100
13747,1948.8,8350
13747,1948.8,7100
13747,1948.8,7350
13747,1948.8,7600
13747,1948.8,7100
13747,1948.8,7350
13747,1948.8,7600
13747,1948.8,7850
13747,1948.8,7100
13747,1948.8,7350
13747,1948.8,7600
13747,1948.8,7850
13747,1948.8,8100
13747,1948.8,7350
13747,1948.8,7600
13747,1948.8,7850
13747,1948.8,8100
13747,1948.8,8350
13747,1948.8,7600
13747,1948.8,7850
13747,1948.8,8100
13747,1948.8,8350
13747,1948.8,8600
13747,1948.8,7100
13747,1948.8,7350
13747,1948.8,7600
13747,1948.8,7850
13747,1948.8,7100
13747,1948.8,7350
13747,1948.8,7600
13747,1948.8,7850
13747,1948.8,8100
13747,1948.8,7350
13747,1948.8,7600
13747,1948.8,7850
13747,1948.8,8100
13747,1948.8,8350
13747,1948.8,7600
13747,1948.8,7850
13747,1948.8,8100
13747,1948.8,8350
13747,1948.8,8600
13747,1948.8,7850
13747,1948.8,8100
13747,1948.8,8350
13747,1948.8,8600
13747,1948.8,8850
13747,1948.8,7100
13747,1948.8,7350
13747,1948.8,7100
13747,1948.8,7350
13747,1948.8,7600
13747,1948.8,7100
13747,1948.8,7350
13747,1948.8,7600
13747,1948.8,7850
13747,1948.8,7100
13747,1948.8,7350
13747,1948.8,7600
13747,1948.8,7850
13747,1948.8,8100
13747,1948.8,7100
13747,1948.8,7350
13747,1948.8,7100
13747,1948.8,7350
13747,1948.8,7600
13747,1948.8,7100
13747,1948.8,7350
13747,1948.8,7600
13747,1948.8,7850
13747,1948.8,7100
13747,1948.8,7350
13747,1948.8,7600
13747,1948.8,7850
13747,1948.8,8100
13747,1948.8,7350
13747,1948.8,7600
13747,1948.8,7850
13747,1948.8,8100
13747,1948.8,8350
13747,1948.8,7100
13747,1948.8,7350
13747,1948.8,7600
13747,1948.8,7100
13747,1948.8,7350
13747,1948.8,7600
13747,1948.8,7850
13747,1948.8,7100
13747,1948.8,7350
13747,1948.8,7600
13747,1948.8,7850
13747,1948.8,8100
13747,1948.8,7350
13747,1948.8,7600
13747,1948.8,7850
13747,1948.8,8100
13747,1948.8,8350
13747,1948.8,7600
13747,1948.8,7850
13747,1948.8,8100
13747,1948.8,8350
13747,1948.8,8600
13747,1948.8,7100
13747,1948.8,7350
13747,1948.8,7600
13747,1948.8,7850
13747,1948.8,7100
13747,1948.8,7350
13747,1948.8,7600
13747,1948.8,7850
13747,1948.8,8100
13747,1948.8,7350
13747,1948.8,7600
13747,1948.8,7850
13747,1948.8,8100
13747,1948.8,8350
13747,1948.8,7600
13747,1948.8,7850
13747,1948.8,8100
13747,1948.8,8350
13747,1948.8,8600
13747,1948.8,7850
13747,1948.8,8100
13747,1948.8,8350
13747,1948.8,8600
13747,1948.8,8850
13747,1948.8,7100
13747,1948.8,7350
13747,1948.8,7600
13747,1948.8,7850
13747,1948.8,8100
13747,1948.8,7350
13747,1948.8,7600
13747,1948.8,7850
13747,1948.8,8100
13747,1948.8,8350
13747,1948.8,7600
13747,1948.8,7850
13747,1948.8,8100
13747,1948.8,8350
13747,1948.8,8600
13747,1948.8,7850
13747,1948.8,8100
13747,1948.8,8350
13747,1948.8,8600
13747,1948.8,8850
13747,1948.8,8100
13747,1948.8,8350
13747,1948.8,8600
13747,1948.8,8850
13747,1948.8,9100
