1.096e+05,1948.8,6648.7
1.088e+05,1948.8,6898.7
1.088e+05,1948.8,7148.7
1.08e+05,1948.8,6898.7
1.08e+05,1948.8,7148.7
1.08e+05,1948.8,7398.7
1.08e+05,1948.8,6898.7
1.08e+05,1948.8,7148.7
1.08e+05,1948.8,7398.7
1.08e+05,1948.8,7648.7
1.0719e+05,1948.8,6898.7
1.0719e+05,1948.8,7148.7
1.0719e+05,1948.8,7398.7
1.0719e+05,1948.8,6898.7
1.0719e+05,1948.8,7148.7
1.0719e+05,1948.8,7398.7
1.0719e+05,1948.8,7648.7
1.0719e+05,1948.8,6898.7
1.0719e+05,1948.8,7148.7
1.0719e+05,1948.8,7398.7
1.0719e+05,1948.8,7648.7
1.0719e+05,1948.8,7898.7
1.0719e+05,1948.8,6898.7
1.0719e+05,1948.8,7148.7
1.0719e+05,1948.8,7398.7
1.0719e+05,1948.8,6898.7
1.0719e+05,1948.8,7148.7
1.0719e+05,1948.8,7398.7
1.0719e+05,1948.8,7648.7
1.0719e+05,1948.8,6898.7
1.0719e+05,1948.8,7148.7
1.0719e+05,1948.8,7398.7
1.0719e+05,1948.8,7648.7
1.0719e+05,1948.8,7898.7
1.0719e+05,1948.8,7148.7
1.0719e+05,1948.8,7398.7
1.0719e+05,1948.8,7648.7
1.0719e+05,1948.8,7898.7
1.0719e+05,1948.8,8148.7
1.0639e+05,1948.8,6898.7
1.0639e+05,1948.8,7148.7
1.0639e+05,1948.8,7398.7
1.0639e+05,1948.8,6898.7
1.0639e+05,1948.8,7148.7
1.0639e+05,1948.8,7398.7
1.0639e+05,1948.8,7648.7
1.0639e+05,1948.8,6898.7
1.0639e+05,1948.8,7148.7
1.0639e+05,1948.8,7398.7
1.0639e+05,1948.8,7648.7
1.0639e+05,1948.8,7898.7
1.0639e+05,1948.8,6898.7
1.0639e+05,1948.8,7148.7
1.0639e+05,1948.8,7398.7
1.0639e+05,1948.8,6898.7
1.0639e+05,1948.8,7148.7
1.0639e+05,1948.8,7398.7
1.0639e+05,1948.8,7648.7
1.0639e+05,1948.8,6898.7
1.0639e+05,1948.8,7148.7
1.0639e+05,1948.8,7398.7
1.0639e+05,1948.8,7648.7
1.0639e+05,1948.8,7898.7
1.0639e+05,1948.8,7148.7
1.0639e+05,1948.8,7398.7
1.0639e+05,1948.8,7648.7
1.0639e+05,1948.8,7898.7
1.0639e+05,1948.8,8148.7
1.0639e+05,1948.8,6898.7
1.0639e+05,1948.8,7148.7
1.0639e+05,1948.8,7398.7
1.0639e+05,1948.8,6898.7
1.0639e+05,1948.8,7148.7
1.0639e+05,1948.8,7398.7
1.0639e+05,1948.8,7648.7
1.0639e+05,1948.8,6898.7
1.0639e+05,1948.8,7148.7
1.0639e+05,1948.8,7398.7
1.0639e+05,1948.8,7648.7
1.0639e+05,1948.8,7898.7
1.0639e+05,1948.8,7148.7
1.0639e+05,1948.8,7398.7
1.0639e+05,1948.8,7648.7
1.0639e+05,1948.8,7898.7
1.0639e+05,1948.8,8148.7
1.0639e+05,1948.8,7398.7
1.0639e+05,1948.8,7648.7
1.0639e+05,1948.8,7898.7
1.0639e+05,1948.8,8148.7
1.0639e+05,1948.8,8398.7
1.0639e+05,1948.8,6898.7
1.0639e+05,1948.8,7148.7
1.0639e+05,1948.8,7398.7
1.0639e+05,1948.8,6898.7
1.0639e+05,1948.8,7148.7
1.0639e+05,1948.8,7398.7
1.0639e+05,1948.8,7648.7
1.0639e+05,1948.8,6898.7
1.0639e+05,1948.8,7148.7
1.0639e+05,1948.8,7398.7
1.0639e+05,1948.8,7648.7
1.0639e+05,1948.8,7898.7
1.0639e+05,1948.8,6898.7
1.0639e+05,1948.8,7148.7
1.0639e+05,1948.8,7398.7
1.0639e+05,1948.8,6898.7
1.0639e+05,1948.8,7148.7
1.0639e+05,1948.8,7398.7
1.0639e+05,1948.8,7648.7
1.0639e+05,1948.8,6898.7
1.0639e+05,1948.8,7148.7
1.0639e+05,1948.8,7398.7
1.0639e+05,1948.8,7648.7
1.0639e+05,1948.8,7898.7
1.0639e+05,1948.8,7148.7
1.0639e+05,1948.8,7398.7
1.0639e+05,1948.8,7648.7
1.0639e+05,1948.8,7898.7
1.0639e+05,1948.8,8148.7
1.0639e+05,1948.8,6898.7
1.0639e+05,1948.8,7148.7
1.0639e+05,1948.8,7398.7
1.0639e+05,1948.8,6898.7
1.0639e+05,1948.8,7148.7
1.0639e+05,1948.8,7398.7
1.0639e+05,1948.8,7648.7
1.0639e+05,1948.8,6898.7
1.0639e+05,1948.8,7148.7
1.0639e+05,1948.8,7398.7
1.0639e+05,1948.8,7648.7
1.0639e+05,1948.8,7898.7
1.0639e+05,1948.8,7148.7
1.0639e+05,1948.8,7398.7
1.0639e+05,1948.8,7648.7
1.0639e+05,1948.8,7898.7
1.0639e+05,1948.8,8148.7
1.0639e+05,1948.8,7398.7
1.0639e+05,1948.8,7648.7
1.0639e+05,1948.8,7898.7
1.0639e+05,1948.8,8148.7
1.0639e+05,1948.8,8398.7
1.0639e+05,1948.8,6898.7
1.0639e+05,1948.8,7148.7
1.0639e+05,1948.8,7398.7
1.0639e+05,1948.8,7648.7
1.0639e+05,1948.8,6898.7
1.0639e+05,1948.8,7148.7
1.0639e+05,1948.8,7398.7
1.0639e+05,1948.8,7648.7
1.0639e+05,1948.8,7898.7
1.0639e+05,1948.8,7148.7
1.0639e+05,1948.8,7398.7
1.0639e+05,1948.8,7648.7
1.0639e+05,1948.8,7898.7
1.0639e+05,1948.8,8148.7
1.0639e+05,1948.8,7398.7
1.0639e+05,1948.8,7648.7
1.0639e+05,1948.8,7898.7
1.0639e+05,1948.8,8148.7
1.0639e+05,1948.8,8398.7
1.0639e+05,1948.8,7648.7
1.0639e+05,1948.8,7898.7
1.0639e+05,1948.8,8148.7
1.0639e+05,1948.8,8398.7
1.0639e+05,1948.8,8648.7
1.0559e+05,1948.8,6898.7
1.0559e+05,1948.8,7148.7
1.0559e+05,1948.8,7398.7
1.0559e+05,1948.8,6898.7
1.0559e+05,1948.8,7148.7
1.0559e+05,1948.8,7398.7
1.0559e+05,1948.8,7648.7
1.0559e+05,1948.8,6898.7
1.0559e+05,1948.8,7148.7
1.0559e+05,1948.8,7398.7
1.0559e+05,1948.8,7648.7
1.0559e+05,1948.8,7898.7
1.0559e+05,1948.8,6898.7
1.0559e+05,1948.8,7148.7
1.0559e+05,1948.8,7398.7
1.0559e+05,1948.8,6898.7
1.0559e+05,1948.8,7148.7
1.0559e+05,1948.8,7398.7
1.0559e+05,1948.8,7648.7
1.0559e+05,1948.8,6898.7
1.0559e+05,1948.8,7148.7
1.0559e+05,1948.8,7398.7
1.0559e+05,1948.8,7648.7
1.0559e+05,1948.8,7898.7
1.0559e+05,1948.8,7148.7
1.0559e+05,1948.8,7398.7
1.0559e+05,1948.8,7648.7
1.0559e+05,1948.8,7898.7
1.0559e+05,1948.8,8148.7
1.0559e+05,1948.8,6898.7
1.0559e+05,1948.8,7148.7
1.0559e+05,1948.8,7398.7
1.0559e+05,1948.8,6898.7
1.0559e+05,1948.8,7148.7
1.0559e+05,1948.8,7398.7
1.0559e+05,1948.8,7648.7
1.0559e+05,1948.8,6898.7
1.0559e+05,1948.8,7148.7
1.0559e+05,1948.8,7398.7
1.0559e+05,1948.8,7648.7
1.0559e+05,1948.8,7898.7
1.0559e+05,1948.8,7148.7
1.0559e+05,1948.8,7398.7
1.0559e+05,1948.8,7648.7
1.0559e+05,1948.8,7898.7
1.0559e+05,1948.8,8148.7
1.0559e+05,1948.8,7398.7
1.0559e+05,1948.8,7648.7
1.0559e+05,1948.8,7898.7
1.0559e+05,1948.8,8148.7
1.0559e+05,1948.8,8398.7
1.0559e+05,1948.8,6898.7
1.0559e+05,1948.8,7148.7
1.0559e+05,1948.8,7398.7
1.0559e+05,1948.8,6898.7
1.0559e+05,1948.8,7148.7
1.0559e+05,1948.8,7398.7
1.0559e+05,1948.8,7648.7
1.0559e+05,1948.8,6898.7
1.0559e+05,1948.8,7148.7
1.0559e+05,1948.8,7398.7
1.0559e+05,1948.8,7648.7
1.0559e+05,1948.8,7898.7
1.0559e+05,1948.8,6898.7
1.0559e+05,1948.8,7148.7
1.0559e+05,1948.8,7398.7
1.0559e+05,1948.8,6898.7
1.0559e+05,1948.8,7148.7
1.0559e+05,1948.8,7398.7
1.0559e+05,1948.8,7648.7
1.0559e+05,1948.8,6898.7
1.0559e+05,1948.8,7148.7
1.0559e+05,1948.8,7398.7
1.0559e+05,1948.8,7648.7
1.0559e+05,1948.8,7898.7
1.0559e+05,1948.8,7148.7
1.0559e+05,1948.8,7398.7
1.0559e+05,1948.8,7648.7
1.0559e+05,1948.8,7898.7
1.0559e+05,1948.8,8148.7
1.0559e+05,1948.8,6898.7
1.0559e+05,1948.8,7148.7
1.0559e+05,1948.8,7398.7
1.0559e+05,1948.8,6898.7
1.0559e+05,1948.8,7148.7
1.0559e+05,1948.8,7398.7
1.0559e+05,1948.8,7648.7
1.0559e+05,1948.8,6898.7
1.0559e+05,1948.8,7148.7
1.0559e+05,1948.8,7398.7
1.0559e+05,1948.8,7648.7
1.0559e+05,1948.8,7898.7
1.0559e+05,1948.8,7148.7
1.0559e+05,1948.8,7398.7
1.0559e+05,1948.8,7648.7
1.0559e+05,1948.8,7898.7
1.0559e+05,1948.8,8148.7
1.0559e+05,1948.8,7398.7
1.0559e+05,1948.8,7648.7
1.0559e+05,1948.8,7898.7
1.0559e+05,1948.8,8148.7
1.0559e+05,1948.8,8398.7
1.0559e+05,1948.8,6898.7
1.0559e+05,1948.8,7148.7
1.0559e+05,1948.8,7398.7
1.0559e+05,1948.8,7648.7
1.0559e+05,1948.8,6898.7
1.0559e+05,1948.8,7148.7
1.0559e+05,1948.8,7398.7
1.0559e+05,1948.8,7648.7
1.0559e+05,1948.8,7898.7
1.0559e+05,1948.8,7148.7
1.0559e+05,1948.8,7398.7
1.0559e+05,1948.8,7648.7
1.0559e+05,1948.8,7898.7
1.0559e+05,1948.8,8148.7
1.0559e+05,1948.8,7398.7
1.0559e+05,1948.8,7648.7
1.0559e+05,1948.8,7898.7
1.0559e+05,1948.8,8148.7
1.0559e+05,1948.8,8398.7
1.0559e+05,1948.8,7648.7
1.0559e+05,1948.8,7898.7
1.0559e+05,1948.8,8148.7
1.0559e+05,1948.8,8398.7
1.0559e+05,1948.8,8648.7
1.0559e+05,1948.8,6898.7
1.0559e+05,1948.8,7148.7
1.0559e+05,1948.8,7398.7
1.0559e+05,1948.8,6898.7
1.0559e+05,1948.8,7148.7
1.0559e+05,1948.8,7398.7
1.0559e+05,1948.8,7648.7
1.0559e+05,1948.8,6898.7
1.0559e+05,1948.8,7148.7
1.0559e+05,1948.8,7398.7
1.0559e+05,1948.8,7648.7
1.0559e+05,1948.8,7898.7
1.0559e+05,1948.8,6898.7
1.0559e+05,1948.8,7148.7
1.0559e+05,1948.8,7398.7
1.0559e+05,1948.8,6898.7
1.0559e+05,1948.8,7148.7
1.0559e+05,1948.8,7398.7
1.0559e+05,1948.8,7648.7
1.0559e+05,1948.8,6898.7
1.0559e+05,1948.8,7148.7
1.0559e+05,1948.8,7398.7
1.0559e+05,1948.8,7648.7
1.0559e+05,1948.8,7898.7
1.0559e+05,1948.8,7148.7
1.0559e+05,1948.8,7398.7
1.0559e+05,1948.8,7648.7
1.0559e+05,1948.8,7898.7
1.0559e+05,1948.8,8148.7
1.0559e+05,1948.8,6898.7
1.0559e+05,1948.8,7148.7
1.0559e+05,1948.8,7398.7
1.0559e+05,1948.8,6898.7
1.0559e+05,1948.8,7148.7
1.0559e+05,1948.8,7398.7
1.0559e+05,1948.8,7648.7
1.0559e+05,1948.8,6898.7
1.0559e+05,1948.8,7148.7
1.0559e+05,1948.8,7398.7
1.0559e+05,1948.8,7648.7
1.0559e+05,1948.8,7898.7
1.0559e+05,1948.8,7148.7
1.0559e+05,1948.8,7398.7
1.0559e+05,1948.8,7648.7
1.0559e+05,1948.8,7898.7
1.0559e+05,1948.8,8148.7
1.0559e+05,1948.8,7398.7
1.0559e+05,1948.8,7648.7
1.0559e+05,1948.8,7898.7
1.0559e+05,1948.8,8148.7
1.0559e+05,1948.8,8398.7
1.0559e+05,1948.8,6898.7
1.0559e+05,1948.8,7148.7
1.0559e+05,1948.8,7398.7
1.0559e+05,1948.8,7648.7
1.0559e+05,1948.8,6898.7
1.0559e+05,1948.8,7148.7
1.0559e+05,1948.8,7398.7
1.0559e+05,1948.8,7648.7
1.0559e+05,1948.8,7898.7
1.0559e+05,1948.8,7148.7
1.0559e+05,1948.8,7398.7
1.0559e+05,1948.8,7648.7
1.0559e+05,1948.8,7898.7
1.0559e+05,1948.8,8148.7
1.0559e+05,1948.8,7398.7
1.0559e+05,1948.8,7648.7
1.0559e+05,1948.8,7898.7
1.0559e+05,1948.8,8148.7
1.0559e+05,1948.8,8398.7
1.0559e+05,1948.8,7648.7
1.0559e+05,1948.8,7898.7
1.0559e+05,1948.8,8148.7
1.0559e+05,1948.8,8398.7
1.0559e+05,1948.8,8648.7
1.0559e+05,1948.8,6898.7
1.0559e+05,1948.8,7148.7
1.0559e+05,1948.8,7398.7
1.0559e+05,1948.8,7648.7
1.0559e+05,1948.8,7898.7
1.0559e+05,1948.8,7148.7
1.0559e+05,1948.8,7398.7
1.0559e+05,1948.8,7648.7
1.0559e+05,1948.8,7898.7
1.0559e+05,1948.8,8148.7
1.0559e+05,1948.8,7398.7
1.0559e+05,1948.8,7648.7
1.0559e+05,1948.8,7898.7
1.0559e+05,1948.8,8148.7
1.0559e+05,1948.8,8398.7
1.0559e+05,1948.8,7648.7
1.0559e+05,1948.8,7898.7
1.0559e+05,1948.8,8148.7
1.0559e+05,1948.8,8398.7
1.0559e+05,1948.8,8648.7
1.0559e+05,1948.8,7898.7
1.0559e+05,1948.8,8148.7
1.0559e+05,1948.8,8398.7
1.0559e+05,1948.8,8648.7
1.0559e+05,1948.8,8898.7
1.0559e+05,1948.8,6898.7
1.0559e+05,1948.8,7148.7
1.0559e+05,1948.8,7398.7
1.0559e+05,1948.8,6898.7
1.0559e+05,1948.8,7148.7
1.0559e+05,1948.8,7398.7
1.0559e+05,1948.8,7648.7
1.0559e+05,1948.8,6898.7
1.0559e+05,1948.8,7148.7
1.0559e+05,1948.8,7398.7
1.0559e+05,1948.8,7648.7
1.0559e+05,1948.8,7898.7
1.0559e+05,1948.8,6898.7
1.0559e+05,1948.8,7148.7
1.0559e+05,1948.8,7398.7
1.0559e+05,1948.8,6898.7
1.0559e+05,1948.8,7148.7
1.0559e+05,1948.8,7398.7
1.0559e+05,1948.8,7648.7
1.0559e+05,1948.8,6898.7
1.0559e+05,1948.8,7148.7
1.0559e+05,1948.8,7398.7
1.0559e+05,1948.8,7648.7
1.0559e+05,1948.8,7898.7
1.0559e+05,1948.8,7148.7
1.0559e+05,1948.8,7398.7
1.0559e+05,1948.8,7648.7
1.0559e+05,1948.8,7898.7
1.0559e+05,1948.8,8148.7
1.0559e+05,1948.8,6898.7
1.0559e+05,1948.8,7148.7
1.0559e+05,1948.8,7398.7
1.0559e+05,1948.8,6898.7
1.0559e+05,1948.8,7148.7
1.0559e+05,1948.8,7398.7
1.0559e+05,1948.8,7648.7
1.0559e+05,1948.8,6898.7
1.0559e+05,1948.8,7148.7
1.0559e+05,1948.8,7398.7
1.0559e+05,1948.8,7648.7
1.0559e+05,1948.8,7898.7
1.0559e+05,1948.8,7148.7
1.0559e+05,1948.8,7398.7
1.0559e+05,1948.8,7648.7
1.0559e+05,1948.8,7898.7
1.0559e+05,1948.8,8148.7
1.0559e+05,1948.8,7398.7
1.0559e+05,1948.8,7648.7
1.0559e+05,1948.8,7898.7
1.0559e+05,1948.8,8148.7
1.0559e+05,1948.8,8398.7
1.0559e+05,1948.8,6898.7
1.0559e+05,1948.8,7148.7
1.0559e+05,1948.8,7398.7
1.0559e+05,1948.8,6898.7
1.0559e+05,1948.8,7148.7
1.0559e+05,1948.8,7398.7
1.0559e+05,1948.8,7648.7
1.0559e+05,1948.8,6898.7
1.0559e+05,1948.8,7148.7
1.0559e+05,1948.8,7398.7
1.0559e+05,1948.8,7648.7
1.0559e+05,1948.8,7898.7
1.0559e+05,1948.8,6898.7
1.0559e+05,1948.8,7148.7
1.0559e+05,1948.8,7398.7
1.0559e+05,1948.8,6898.7
1.0559e+05,1948.8,7148.7
1.0559e+05,1948.8,7398.7
1.0559e+05,1948.8,7648.7
1.0559e+05,1948.8,6898.7
1.0559e+05,1948.8,7148.7
1.0559e+05,1948.8,7398.7
1.0559e+05,1948.8,7648.7
1.0559e+05,1948.8,7898.7
1.0559e+05,1948.8,7148.7
1.0559e+05,1948.8,7398.7
1.0559e+05,1948.8,7648.7
1.0559e+05,1948.8,7898.7
1.0559e+05,1948.8,8148.7
1.0559e+05,1948.8,6898.7
1.0559e+05,1948.8,7148.7
1.0559e+05,1948.8,7398.7
1.0559e+05,1948.8,6898.7
1.0559e+05,1948.8,7148.7
1.0559e+05,1948.8,7398.7
1.0559e+05,1948.8,7648.7
1.0559e+05,1948.8,6898.7
1.0559e+05,1948.8,7148.7
1.0559e+05,1948.8,7398.7
1.0559e+05,1948.8,7648.7
1.0559e+05,1948.8,7898.7
1.0559e+05,1948.8,7148.7
1.0559e+05,1948.8,7398.7
1.0559e+05,1948.8,7648.7
1.0559e+05,1948.8,7898.7
1.0559e+05,1948.8,8148.7
1.0559e+05,1948.8,7398.7
1.0559e+05,1948.8,7648.7
1.0559e+05,1948.8,7898.7
1.0559e+05,1948.8,8148.7
1.0559e+05,1948.8,8398.7
1.0559e+05,1948.8,6898.7
1.0559e+05,1948.8,7148.7
1.0559e+05,1948.8,7398.7
1.0559e+05,1948.8,7648.7
1.0559e+05,1948.8,6898.7
1.0559e+05,1948.8,7148.7
1.0559e+05,1948.8,7398.7
1.0559e+05,1948.8,7648.7
1.0559e+05,1948.8,7898.7
1.0559e+05,1948.8,7148.7
1.0559e+05,1948.8,7398.7
1.0559e+05,1948.8,7648.7
1.0559e+05,1948.8,7898.7
1.0559e+05,1948.8,8148.7
1.0559e+05,1948.8,7398.7
1.0559e+05,1948.8,7648.7
1.0559e+05,1948.8,7898.7
1.0559e+05,1948.8,8148.7
1.0559e+05,1948.8,8398.7
1.0559e+05,1948.8,7648.7
1.0559e+05,1948.8,7898.7
1.0559e+05,1948.8,8148.7
1.0559e+05,1948.8,8398.7
1.0559e+05,1948.8,8648.7
1.0559e+05,1948.8,6898.7
1.0559e+05,1948.8,7148.7
1.0559e+05,1948.8,7398.7
1.0559e+05,1948.8,6898.7
1.0559e+05,1948.8,7148.7
1.0559e+05,1948.8,7398.7
1.0559e+05,1948.8,7648.7
1.0559e+05,1948.8,6898.7
1.0559e+05,1948.8,7148.7
1.0559e+05,1948.8,7398.7
1.0559e+05,1948.8,7648.7
1.0559e+05,1948.8,7898.7
1.0559e+05,1948.8,6898.7
1.0559e+05,1948.8,7148.7
1.0559e+05,1948.8,7398.7
1.0559e+05,1948.8,6898.7
1.0559e+05,1948.8,7148.7
1.0559e+05,1948.8,7398.7
1.0559e+05,1948.8,7648.7
1.0559e+05,1948.8,6898.7
1.0559e+05,1948.8,7148.7
1.0559e+05,1948.8,7398.7
1.0559e+05,1948.8,7648.7
1.0559e+05,1948.8,7898.7
1.0559e+05,1948.8,7148.7
1.0559e+05,1948.8,7398.7
1.0559e+05,1948.8,7648.7
1.0559e+05,1948.8,7898.7
1.0559e+05,1948.8,8148.7
1.0559e+05,1948.8,6898.7
1.0559e+05,1948.8,7148.7
1.0559e+05,1948.8,7398.7
1.0559e+05,1948.8,6898.7
1.0559e+05,1948.8,7148.7
1.0559e+05,1948.8,7398.7
1.0559e+05,1948.8,7648.7
1.0559e+05,1948.8,6898.7
1.0559e+05,1948.8,7148.7
1.0559e+05,1948.8,7398.7
1.0559e+05,1948.8,7648.7
1.0559e+05,1948.8,7898.7
1.0559e+05,1948.8,7148.7
1.0559e+05,1948.8,7398.7
1.0559e+05,1948.8,7648.7
1.0559e+05,1948.8,7898.7
1.0559e+05,1948.8,8148.7
1.0559e+05,1948.8,7398.7
1.0559e+05,1948.8,7648.7
1.0559e+05,1948.8,7898.7
1.0559e+05,1948.8,8148.7
1.0559e+05,1948.8,8398.7
1.0559e+05,1948.8,6898.7
1.0559e+05,1948.8,7148.7
1.0559e+05,1948.8,7398.7
1.0559e+05,1948.8,7648.7
1.0559e+05,1948.8,6898.7
1.0559e+05,1948.8,7148.7
1.0559e+05,1948.8,7398.7
1.0559e+05,1948.8,7648.7
1.0559e+05,1948.8,7898.7
1.0559e+05,1948.8,7148.7
1.0559e+05,1948.8,7398.7
1.0559e+05,1948.8,7648.7
1.0559e+05,1948.8,7898.7
1.0559e+05,1948.8,8148.7
1.0559e+05,1948.8,7398.7
1.0559e+05,1948.8,7648.7
1.0559e+05,1948.8,7898.7
1.0559e+05,1948.8,8148.7
1.0559e+05,1948.8,8398.7
1.0559e+05,1948.8,7648.7
1.0559e+05,1948.8,7898.7
1.0559e+05,1948.8,8148.7
1.0559e+05,1948.8,8398.7
1.0559e+05,1948.8,8648.7
1.0559e+05,1948.8,6898.7
1.0559e+05,1948.8,7148.7
1.0559e+05,1948.8,7398.7
1.0559e+05,1948.8,7648.7
1.0559e+05,1948.8,7898.7
1.0559e+05,1948.8,7148.7
1.0559e+05,1948.8,7398.7
1.0559e+05,1948.8,7648.7
1.0559e+05,1948.8,7898.7
1.0559e+05,1948.8,8148.7
1.0559e+05,1948.8,7398.7
1.0559e+05,1948.8,7648.7
1.0559e+05,1948.8,7898.7
1.0559e+05,1948.8,8148.7
1.0559e+05,1948.8,8398.7
1.0559e+05,1948.8,7648.7
1.0559e+05,1948.8,7898.7
1.0559e+05,1948.8,8148.7
1.0559e+05,1948.8,8398.7
1.0559e+05,1948.8,8648.7
1.0559e+05,1948.8,7898.7
1.0559e+05,1948.8,8148.7
1.0559e+05,1948.8,8398.7
1.0559e+05,1948.8,8648.7
1.0559e+05,1948.8,8898.7
1.0559e+05,1948.8,6898.7
1.0559e+05,1948.8,7148.7
1.0559e+05,1948.8,7398.7
1.0559e+05,1948.8,6898.7
1.0559e+05,1948.8,7148.7
1.0559e+05,1948.8,7398.7
1.0559e+05,1948.8,7648.7
1.0559e+05,1948.8,6898.7
1.0559e+05,1948.8,7148.7
1.0559e+05,1948.8,7398.7
1.0559e+05,1948.8,7648.7
1.0559e+05,1948.8,7898.7
1.0559e+05,1948.8,7148.7
1.0559e+05,1948.8,7398.7
1.0559e+05,1948.8,7648.7
1.0559e+05,1948.8,7898.7
1.0559e+05,1948.8,8148.7
1.0559e+05,1948.8,6898.7
1.0559e+05,1948.8,7148.7
1.0559e+05,1948.8,7398.7
1.0559e+05,1948.8,6898.7
1.0559e+05,1948.8,7148.7
1.0559e+05,1948.8,7398.7
1.0559e+05,1948.8,7648.7
1.0559e+05,1948.8,6898.7
1.0559e+05,1948.8,7148.7
1.0559e+05,1948.8,7398.7
1.0559e+05,1948.8,7648.7
1.0559e+05,1948.8,7898.7
1.0559e+05,1948.8,7148.7
1.0559e+05,1948.8,7398.7
1.0559e+05,1948.8,7648.7
1.0559e+05,1948.8,7898.7
1.0559e+05,1948.8,8148.7
1.0559e+05,1948.8,7398.7
1.0559e+05,1948.8,7648.7
1.0559e+05,1948.8,7898.7
1.0559e+05,1948.8,8148.7
1.0559e+05,1948.8,8398.7
1.0559e+05,1948.8,6898.7
1.0559e+05,1948.8,7148.7
1.0559e+05,1948.8,7398.7
1.0559e+05,1948.8,7648.7
1.0559e+05,1948.8,6898.7
1.0559e+05,1948.8,7148.7
1.0559e+05,1948.8,7398.7
1.0559e+05,1948.8,7648.7
1.0559e+05,1948.8,7898.7
1.0559e+05,1948.8,7148.7
1.0559e+05,1948.8,7398.7
1.0559e+05,1948.8,7648.7
1.0559e+05,1948.8,7898.7
1.0559e+05,1948.8,8148.7
1.0559e+05,1948.8,7398.7
1.0559e+05,1948.8,7648.7
1.0559e+05,1948.8,7898.7
1.0559e+05,1948.8,8148.7
1.0559e+05,1948.8,8398.7
1.0559e+05,1948.8,7648.7
1.0559e+05,1948.8,7898.7
1.0559e+05,1948.8,8148.7
1.0559e+05,1948.8,8398.7
1.0559e+05,1948.8,8648.7
1.0559e+05,1948.8,6898.7
1.0559e+05,1948.8,7148.7
1.0559e+05,1948.8,7398.7
1.0559e+05,1948.8,7648.7
1.0559e+05,1948.8,7898.7
1.0559e+05,1948.8,7148.7
1.0559e+05,1948.8,7398.7
1.0559e+05,1948.8,7648.7
1.0559e+05,1948.8,7898.7
1.0559e+05,1948.8,8148.7
1.0559e+05,1948.8,7398.7
1.0559e+05,1948.8,7648.7
1.0559e+05,1948.8,7898.7
1.0559e+05,1948.8,8148.7
1.0559e+05,1948.8,8398.7
1.0559e+05,1948.8,7648.7
1.0559e+05,1948.8,7898.7
1.0559e+05,1948.8,8148.7
1.0559e+05,1948.8,8398.7
1.0559e+05,1948.8,8648.7
1.0559e+05,1948.8,7898.7
1.0559e+05,1948.8,8148.7
1.0559e+05,1948.8,8398.7
1.0559e+05,1948.8,8648.7
1.0559e+05,1948.8,8898.7
1.0559e+05,1948.8,7148.7
1.0559e+05,1948.8,7398.7
1.0559e+05,1948.8,7648.7
1.0559e+05,1948.8,7898.7
1.0559e+05,1948.8,8148.7
1.0559e+05,1948.8,7398.7
1.0559e+05,1948.8,7648.7
1.0559e+05,1948.8,7898.7
1.0559e+05,1948.8,8148.7
1.0559e+05,1948.8,8398.7
1.0559e+05,1948.8,7648.7
1.0559e+05,1948.8,7898.7
1.0559e+05,1948.8,8148.7
1.0559e+05,1948.8,8398.7
1.0559e+05,1948.8,8648.7
1.0559e+05,1948.8,7898.7
1.0559e+05,1948.8,8148.7
1.0559e+05,1948.8,8398.7
1.0559e+05,1948.8,8648.7
1.0559e+05,1948.8,8898.7
1.0559e+05,1948.8,8148.7
1.0559e+05,1948.8,8398.7
1.0559e+05,1948.8,8648.7
1.0559e+05,1948.8,8898.7
1.0559e+05,1948.8,9148.7
1.0479e+05,1948.8,6898.7
1.0479e+05,1948.8,7148.7
1.0479e+05,1948.8,7398.7
1.0479e+05,1948.8,6898.7
1.0479e+05,1948.8,7148.7
1.0479e+05,1948.8,7398.7
1.0479e+05,1948.8,7648.7
1.0479e+05,1948.8,6898.7
1.0479e+05,1948.8,7148.7
1.0479e+05,1948.8,7398.7
1.0479e+05,1948.8,7648.7
1.0479e+05,1948.8,7898.7
1.0479e+05,1948.8,6898.7
1.0479e+05,1948.8,7148.7
1.0479e+05,1948.8,7398.7
1.0479e+05,1948.8,6898.7
1.0479e+05,1948.8,7148.7
1.0479e+05,1948.8,7398.7
1.0479e+05,1948.8,7648.7
1.0479e+05,1948.8,6898.7
1.0479e+05,1948.8,7148.7
1.0479e+05,1948.8,7398.7
1.0479e+05,1948.8,7648.7
1.0479e+05,1948.8,7898.7
1.0479e+05,1948.8,7148.7
1.0479e+05,1948.8,7398.7
1.0479e+05,1948.8,7648.7
1.0479e+05,1948.8,7898.7
1.0479e+05,1948.8,8148.7
1.0479e+05,1948.8,6898.7
1.0479e+05,1948.8,7148.7
1.0479e+05,1948.8,7398.7
1.0479e+05,1948.8,6898.7
1.0479e+05,1948.8,7148.7
1.0479e+05,1948.8,7398.7
1.0479e+05,1948.8,7648.7
1.0479e+05,1948.8,6898.7
1.0479e+05,1948.8,7148.7
1.0479e+05,1948.8,7398.7
1.0479e+05,1948.8,7648.7
1.0479e+05,1948.8,7898.7
1.0479e+05,1948.8,7148.7
1.0479e+05,1948.8,7398.7
1.0479e+05,1948.8,7648.7
1.0479e+05,1948.8,7898.7
1.0479e+05,1948.8,8148.7
1.0479e+05,1948.8,7398.7
1.0479e+05,1948.8,7648.7
1.0479e+05,1948.8,7898.7
1.0479e+05,1948.8,8148.7
1.0479e+05,1948.8,8398.7
1.0479e+05,1948.8,6898.7
1.0479e+05,1948.8,7148.7
1.0479e+05,1948.8,7398.7
1.0479e+05,1948.8,6898.7
1.0479e+05,1948.8,7148.7
1.0479e+05,1948.8,7398.7
1.0479e+05,1948.8,7648.7
1.0479e+05,1948.8,6898.7
1.0479e+05,1948.8,7148.7
1.0479e+05,1948.8,7398.7
1.0479e+05,1948.8,7648.7
1.0479e+05,1948.8,7898.7
1.0479e+05,1948.8,6898.7
1.0479e+05,1948.8,7148.7
1.0479e+05,1948.8,7398.7
1.0479e+05,1948.8,6898.7
1.0479e+05,1948.8,7148.7
1.0479e+05,1948.8,7398.7
1.0479e+05,1948.8,7648.7
1.0479e+05,1948.8,6898.7
1.0479e+05,1948.8,7148.7
1.0479e+05,1948.8,7398.7
1.0479e+05,1948.8,7648.7
1.0479e+05,1948.8,7898.7
1.0479e+05,1948.8,7148.7
1.0479e+05,1948.8,7398.7
1.0479e+05,1948.8,7648.7
1.0479e+05,1948.8,7898.7
1.0479e+05,1948.8,8148.7
1.0479e+05,1948.8,6898.7
1.0479e+05,1948.8,7148.7
1.0479e+05,1948.8,7398.7
1.0479e+05,1948.8,6898.7
1.0479e+05,1948.8,7148.7
1.0479e+05,1948.8,7398.7
1.0479e+05,1948.8,7648.7
1.0479e+05,1948.8,6898.7
1.0479e+05,1948.8,7148.7
1.0479e+05,1948.8,7398.7
1.0479e+05,1948.8,7648.7
1.0479e+05,1948.8,7898.7
1.0479e+05,1948.8,7148.7
1.0479e+05,1948.8,7398.7
1.0479e+05,1948.8,7648.7
1.0479e+05,1948.8,7898.7
1.0479e+05,1948.8,8148.7
1.0479e+05,1948.8,7398.7
1.0479e+05,1948.8,7648.7
1.0479e+05,1948.8,7898.7
1.0479e+05,1948.8,8148.7
1.0479e+05,1948.8,8398.7
1.0479e+05,1948.8,6898.7
1.0479e+05,1948.8,7148.7
1.0479e+05,1948.8,7398.7
1.0479e+05,1948.8,7648.7
1.0479e+05,1948.8,6898.7
1.0479e+05,1948.8,7148.7
1.0479e+05,1948.8,7398.7
1.0479e+05,1948.8,7648.7
1.0479e+05,1948.8,7898.7
1.0479e+05,1948.8,7148.7
1.0479e+05,1948.8,7398.7
1.0479e+05,1948.8,7648.7
1.0479e+05,1948.8,7898.7
1.0479e+05,1948.8,8148.7
1.0479e+05,1948.8,7398.7
1.0479e+05,1948.8,7648.7
1.0479e+05,1948.8,7898.7
1.0479e+05,1948.8,8148.7
1.0479e+05,1948.8,8398.7
1.0479e+05,1948.8,7648.7
1.0479e+05,1948.8,7898.7
1.0479e+05,1948.8,8148.7
1.0479e+05,1948.8,8398.7
1.0479e+05,1948.8,8648.7
1.0479e+05,1948.8,6898.7
1.0479e+05,1948.8,7148.7
1.0479e+05,1948.8,7398.7
1.0479e+05,1948.8,6898.7
1.0479e+05,1948.8,7148.7
1.0479e+05,1948.8,7398.7
1.0479e+05,1948.8,7648.7
1.0479e+05,1948.8,6898.7
1.0479e+05,1948.8,7148.7
1.0479e+05,1948.8,7398.7
1.0479e+05,1948.8,7648.7
1.0479e+05,1948.8,7898.7
1.0479e+05,1948.8,6898.7
1.0479e+05,1948.8,7148.7
1.0479e+05,1948.8,7398.7
1.0479e+05,1948.8,6898.7
1.0479e+05,1948.8,7148.7
1.0479e+05,1948.8,7398.7
1.0479e+05,1948.8,7648.7
1.0479e+05,1948.8,6898.7
1.0479e+05,1948.8,7148.7
1.0479e+05,1948.8,7398.7
1.0479e+05,1948.8,7648.7
1.0479e+05,1948.8,7898.7
1.0479e+05,1948.8,7148.7
1.0479e+05,1948.8,7398.7
1.0479e+05,1948.8,7648.7
1.0479e+05,1948.8,7898.7
1.0479e+05,1948.8,8148.7
1.0479e+05,1948.8,6898.7
1.0479e+05,1948.8,7148.7
1.0479e+05,1948.8,7398.7
1.0479e+05,1948.8,6898.7
1.0479e+05,1948.8,7148.7
1.0479e+05,1948.8,7398.7
1.0479e+05,1948.8,7648.7
1.0479e+05,1948.8,6898.7
1.0479e+05,1948.8,7148.7
1.0479e+05,1948.8,7398.7
1.0479e+05,1948.8,7648.7
1.0479e+05,1948.8,7898.7
1.0479e+05,1948.8,7148.7
1.0479e+05,1948.8,7398.7
1.0479e+05,1948.8,7648.7
1.0479e+05,1948.8,7898.7
1.0479e+05,1948.8,8148.7
1.0479e+05,1948.8,7398.7
1.0479e+05,1948.8,7648.7
1.0479e+05,1948.8,7898.7
1.0479e+05,1948.8,8148.7
1.0479e+05,1948.8,8398.7
1.0479e+05,1948.8,6898.7
1.0479e+05,1948.8,7148.7
1.0479e+05,1948.8,7398.7
1.0479e+05,1948.8,7648.7
1.0479e+05,1948.8,6898.7
1.0479e+05,1948.8,7148.7
1.0479e+05,1948.8,7398.7
1.0479e+05,1948.8,7648.7
1.0479e+05,1948.8,7898.7
1.0479e+05,1948.8,7148.7
1.0479e+05,1948.8,7398.7
1.0479e+05,1948.8,7648.7
1.0479e+05,1948.8,7898.7
1.0479e+05,1948.8,8148.7
1.0479e+05,1948.8,7398.7
1.0479e+05,1948.8,7648.7
1.0479e+05,1948.8,7898.7
1.0479e+05,1948.8,8148.7
1.0479e+05,1948.8,8398.7
1.0479e+05,1948.8,7648.7
1.0479e+05,1948.8,7898.7
1.0479e+05,1948.8,8148.7
1.0479e+05,1948.8,8398.7
1.0479e+05,1948.8,8648.7
1.0479e+05,1948.8,6898.7
1.0479e+05,1948.8,7148.7
1.0479e+05,1948.8,7398.7
1.0479e+05,1948.8,7648.7
1.0479e+05,1948.8,7898.7
1.0479e+05,1948.8,7148.7
1.0479e+05,1948.8,7398.7
1.0479e+05,1948.8,7648.7
1.0479e+05,1948.8,7898.7
1.0479e+05,1948.8,8148.7
1.0479e+05,1948.8,7398.7
1.0479e+05,1948.8,7648.7
1.0479e+05,1948.8,7898.7
1.0479e+05,1948.8,8148.7
1.0479e+05,1948.8,8398.7
1.0479e+05,1948.8,7648.7
1.0479e+05,1948.8,7898.7
1.0479e+05,1948.8,8148.7
1.0479e+05,1948.8,8398.7
1.0479e+05,1948.8,8648.7
1.0479e+05,1948.8,7898.7
1.0479e+05,1948.8,8148.7
1.0479e+05,1948.8,8398.7
1.0479e+05,1948.8,8648.7
1.0479e+05,1948.8,8898.7
1.0479e+05,1948.8,6898.7
1.0479e+05,1948.8,7148.7
1.0479e+05,1948.8,7398.7
1.0479e+05,1948.8,6898.7
1.0479e+05,1948.8,7148.7
1.0479e+05,1948.8,7398.7
1.0479e+05,1948.8,7648.7
1.0479e+05,1948.8,6898.7
1.0479e+05,1948.8,7148.7
1.0479e+05,1948.8,7398.7
1.0479e+05,1948.8,7648.7
1.0479e+05,1948.8,7898.7
1.0479e+05,1948.8,6898.7
1.0479e+05,1948.8,7148.7
1.0479e+05,1948.8,7398.7
1.0479e+05,1948.8,6898.7
1.0479e+05,1948.8,7148.7
1.0479e+05,1948.8,7398.7
1.0479e+05,1948.8,7648.7
1.0479e+05,1948.8,6898.7
1.0479e+05,1948.8,7148.7
1.0479e+05,1948.8,7398.7
1.0479e+05,1948.8,7648.7
1.0479e+05,1948.8,7898.7
1.0479e+05,1948.8,7148.7
1.0479e+05,1948.8,7398.7
1.0479e+05,1948.8,7648.7
1.0479e+05,1948.8,7898.7
1.0479e+05,1948.8,8148.7
1.0479e+05,1948.8,6898.7
1.0479e+05,1948.8,7148.7
1.0479e+05,1948.8,7398.7
1.0479e+05,1948.8,6898.7
1.0479e+05,1948.8,7148.7
1.0479e+05,1948.8,7398.7
1.0479e+05,1948.8,7648.7
1.0479e+05,1948.8,6898.7
1.0479e+05,1948.8,7148.7
1.0479e+05,1948.8,7398.7
1.0479e+05,1948.8,7648.7
1.0479e+05,1948.8,7898.7
1.0479e+05,1948.8,7148.7
1.0479e+05,1948.8,7398.7
1.0479e+05,1948.8,7648.7
1.0479e+05,1948.8,7898.7
1.0479e+05,1948.8,8148.7
1.0479e+05,1948.8,7398.7
1.0479e+05,1948.8,7648.7
1.0479e+05,1948.8,7898.7
1.0479e+05,1948.8,8148.7
1.0479e+05,1948.8,8398.7
1.0479e+05,1948.8,6898.7
1.0479e+05,1948.8,7148.7
1.0479e+05,1948.8,7398.7
1.0479e+05,1948.8,6898.7
1.0479e+05,1948.8,7148.7
1.0479e+05,1948.8,7398.7
1.0479e+05,1948.8,7648.7
1.0479e+05,1948.8,6898.7
1.0479e+05,1948.8,7148.7
1.0479e+05,1948.8,7398.7
1.0479e+05,1948.8,7648.7
1.0479e+05,1948.8,7898.7
1.0479e+05,1948.8,6898.7
1.0479e+05,1948.8,7148.7
1.0479e+05,1948.8,7398.7
1.0479e+05,1948.8,6898.7
1.0479e+05,1948.8,7148.7
1.0479e+05,1948.8,7398.7
1.0479e+05,1948.8,7648.7
1.0479e+05,1948.8,6898.7
1.0479e+05,1948.8,7148.7
1.0479e+05,1948.8,7398.7
1.0479e+05,1948.8,7648.7
1.0479e+05,1948.8,7898.7
1.0479e+05,1948.8,7148.7
1.0479e+05,1948.8,7398.7
1.0479e+05,1948.8,7648.7
1.0479e+05,1948.8,7898.7
1.0479e+05,1948.8,8148.7
1.0479e+05,1948.8,6898.7
1.0479e+05,1948.8,7148.7
1.0479e+05,1948.8,7398.7
1.0479e+05,1948.8,6898.7
1.0479e+05,1948.8,7148.7
1.0479e+05,1948.8,7398.7
1.0479e+05,1948.8,7648.7
1.0479e+05,1948.8,6898.7
1.0479e+05,1948.8,7148.7
1.0479e+05,1948.8,7398.7
1.0479e+05,1948.8,7648.7
1.0479e+05,1948.8,7898.7
1.0479e+05,1948.8,7148.7
1.0479e+05,1948.8,7398.7
1.0479e+05,1948.8,7648.7
1.0479e+05,1948.8,7898.7
1.0479e+05,1948.8,8148.7
1.0479e+05,1948.8,7398.7
1.0479e+05,1948.8,7648.7
1.0479e+05,1948.8,7898.7
1.0479e+05,1948.8,8148.7
1.0479e+05,1948.8,8398.7
1.0479e+05,1948.8,6898.7
1.0479e+05,1948.8,7148.7
1.0479e+05,1948.8,7398.7
1.0479e+05,1948.8,7648.7
1.0479e+05,1948.8,6898.7
1.0479e+05,1948.8,7148.7
1.0479e+05,1948.8,7398.7
1.0479e+05,1948.8,7648.7
1.0479e+05,1948.8,7898.7
1.0479e+05,1948.8,7148.7
1.0479e+05,1948.8,7398.7
1.0479e+05,1948.8,7648.7
1.0479e+05,1948.8,7898.7
1.0479e+05,1948.8,8148.7
1.0479e+05,1948.8,7398.7
1.0479e+05,1948.8,7648.7
1.0479e+05,1948.8,7898.7
1.0479e+05,1948.8,8148.7
1.0479e+05,1948.8,8398.7
1.0479e+05,1948.8,7648.7
1.0479e+05,1948.8,7898.7
1.0479e+05,1948.8,8148.7
1.0479e+05,1948.8,8398.7
1.0479e+05,1948.8,8648.7
1.0479e+05,1948.8,6898.7
1.0479e+05,1948.8,7148.7
1.0479e+05,1948.8,7398.7
1.0479e+05,1948.8,6898.7
1.0479e+05,1948.8,7148.7
1.0479e+05,1948.8,7398.7
1.0479e+05,1948.8,7648.7
1.0479e+05,1948.8,6898.7
1.0479e+05,1948.8,7148.7
1.0479e+05,1948.8,7398.7
1.0479e+05,1948.8,7648.7
1.0479e+05,1948.8,7898.7
1.0479e+05,1948.8,6898.7
1.0479e+05,1948.8,7148.7
1.0479e+05,1948.8,7398.7
1.0479e+05,1948.8,6898.7
1.0479e+05,1948.8,7148.7
1.0479e+05,1948.8,7398.7
1.0479e+05,1948.8,7648.7
1.0479e+05,1948.8,6898.7
1.0479e+05,1948.8,7148.7
1.0479e+05,1948.8,7398.7
1.0479e+05,1948.8,7648.7
1.0479e+05,1948.8,7898.7
1.0479e+05,1948.8,7148.7
1.0479e+05,1948.8,7398.7
1.0479e+05,1948.8,7648.7
1.0479e+05,1948.8,7898.7
1.0479e+05,1948.8,8148.7
1.0479e+05,1948.8,6898.7
1.0479e+05,1948.8,7148.7
1.0479e+05,1948.8,7398.7
1.0479e+05,1948.8,6898.7
1.0479e+05,1948.8,7148.7
1.0479e+05,1948.8,7398.7
1.0479e+05,1948.8,7648.7
1.0479e+05,1948.8,6898.7
1.0479e+05,1948.8,7148.7
1.0479e+05,1948.8,7398.7
1.0479e+05,1948.8,7648.7
1.0479e+05,1948.8,7898.7
1.0479e+05,1948.8,7148.7
1.0479e+05,1948.8,7398.7
1.0479e+05,1948.8,7648.7
1.0479e+05,1948.8,7898.7
1.0479e+05,1948.8,8148.7
1.0479e+05,1948.8,7398.7
1.0479e+05,1948.8,7648.7
1.0479e+05,1948.8,7898.7
1.0479e+05,1948.8,8148.7
1.0479e+05,1948.8,8398.7
1.0479e+05,1948.8,6898.7
1.0479e+05,1948.8,7148.7
1.0479e+05,1948.8,7398.7
1.0479e+05,1948.8,7648.7
1.0479e+05,1948.8,6898.7
1.0479e+05,1948.8,7148.7
1.0479e+05,1948.8,7398.7
1.0479e+05,1948.8,7648.7
1.0479e+05,1948.8,7898.7
1.0479e+05,1948.8,7148.7
1.0479e+05,1948.8,7398.7
1.0479e+05,1948.8,7648.7
1.0479e+05,1948.8,7898.7
1.0479e+05,1948.8,8148.7
1.0479e+05,1948.8,7398.7
1.0479e+05,1948.8,7648.7
1.0479e+05,1948.8,7898.7
1.0479e+05,1948.8,8148.7
1.0479e+05,1948.8,8398.7
1.0479e+05,1948.8,7648.7
1.0479e+05,1948.8,7898.7
1.0479e+05,1948.8,8148.7
1.0479e+05,1948.8,8398.7
1.0479e+05,1948.8,8648.7
1.0479e+05,1948.8,6898.7
1.0479e+05,1948.8,7148.7
1.0479e+05,1948.8,7398.7
1.0479e+05,1948.8,7648.7
1.0479e+05,1948.8,7898.7
1.0479e+05,1948.8,7148.7
1.0479e+05,1948.8,7398.7
1.0479e+05,1948.8,7648.7
1.0479e+05,1948.8,7898.7
1.0479e+05,1948.8,8148.7
1.0479e+05,1948.8,7398.7
1.0479e+05,1948.8,7648.7
1.0479e+05,1948.8,7898.7
1.0479e+05,1948.8,8148.7
1.0479e+05,1948.8,8398.7
1.0479e+05,1948.8,7648.7
1.0479e+05,1948.8,7898.7
1.0479e+05,1948.8,8148.7
1.0479e+05,1948.8,8398.7
1.0479e+05,1948.8,8648.7
1.0479e+05,1948.8,7898.7
1.0479e+05,1948.8,8148.7
1.0479e+05,1948.8,8398.7
1.0479e+05,1948.8,8648.7
1.0479e+05,1948.8,8898.7
1.0479e+05,1948.8,6898.7
1.0479e+05,1948.8,7148.7
1.0479e+05,1948.8,7398.7
1.0479e+05,1948.8,6898.7
1.0479e+05,1948.8,7148.7
1.0479e+05,1948.8,7398.7
1.0479e+05,1948.8,7648.7
1.0479e+05,1948.8,6898.7
1.0479e+05,1948.8,7148.7
1.0479e+05,1948.8,7398.7
1.0479e+05,1948.8,7648.7
1.0479e+05,1948.8,7898.7
1.0479e+05,1948.8,7148.7
1.0479e+05,1948.8,7398.7
1.0479e+05,1948.8,7648.7
1.0479e+05,1948.8,7898.7
1.0479e+05,1948.8,8148.7
1.0479e+05,1948.8,6898.7
1.0479e+05,1948.8,7148.7
1.0479e+05,1948.8,7398.7
1.0479e+05,1948.8,6898.7
1.0479e+05,1948.8,7148.7
1.0479e+05,1948.8,7398.7
1.0479e+05,1948.8,7648.7
1.0479e+05,1948.8,6898.7
1.0479e+05,1948.8,7148.7
1.0479e+05,1948.8,7398.7
1.0479e+05,1948.8,7648.7
1.0479e+05,1948.8,7898.7
1.0479e+05,1948.8,7148.7
1.0479e+05,1948.8,7398.7
1.0479e+05,1948.8,7648.7
1.0479e+05,1948.8,7898.7
1.0479e+05,1948.8,8148.7
1.0479e+05,1948.8,7398.7
1.0479e+05,1948.8,7648.7
1.0479e+05,1948.8,7898.7
1.0479e+05,1948.8,8148.7
1.0479e+05,1948.8,8398.7
1.0479e+05,1948.8,6898.7
1.0479e+05,1948.8,7148.7
1.0479e+05,1948.8,7398.7
1.0479e+05,1948.8,7648.7
1.0479e+05,1948.8,6898.7
1.0479e+05,1948.8,7148.7
1.0479e+05,1948.8,7398.7
1.0479e+05,1948.8,7648.7
1.0479e+05,1948.8,7898.7
1.0479e+05,1948.8,7148.7
1.0479e+05,1948.8,7398.7
1.0479e+05,1948.8,7648.7
1.0479e+05,1948.8,7898.7
1.0479e+05,1948.8,8148.7
1.0479e+05,1948.8,7398.7
1.0479e+05,1948.8,7648.7
1.0479e+05,1948.8,7898.7
1.0479e+05,1948.8,8148.7
1.0479e+05,1948.8,8398.7
1.0479e+05,1948.8,7648.7
1.0479e+05,1948.8,7898.7
1.0479e+05,1948.8,8148.7
1.0479e+05,1948.8,8398.7
1.0479e+05,1948.8,8648.7
1.0479e+05,1948.8,6898.7
1.0479e+05,1948.8,7148.7
1.0479e+05,1948.8,7398.7
1.0479e+05,1948.8,7648.7
1.0479e+05,1948.8,7898.7
1.0479e+05,1948.8,7148.7
1.0479e+05,1948.8,7398.7
1.0479e+05,1948.8,7648.7
1.0479e+05,1948.8,7898.7
1.0479e+05,1948.8,8148.7
1.0479e+05,1948.8,7398.7
1.0479e+05,1948.8,7648.7
1.0479e+05,1948.8,7898.7
1.0479e+05,1948.8,8148.7
1.0479e+05,1948.8,8398.7
1.0479e+05,1948.8,7648.7
1.0479e+05,1948.8,7898.7
1.0479e+05,1948.8,8148.7
1.0479e+05,1948.8,8398.7
1.0479e+05,1948.8,8648.7
1.0479e+05,1948.8,7898.7
1.0479e+05,1948.8,8148.7
1.0479e+05,1948.8,8398.7
1.0479e+05,1948.8,8648.7
1.0479e+05,1948.8,8898.7
1.0479e+05,1948.8,7148.7
1.0479e+05,1948.8,7398.7
1.0479e+05,1948.8,7648.7
1.0479e+05,1948.8,7898.7
1.0479e+05,1948.8,8148.7
1.0479e+05,1948.8,7398.7
1.0479e+05,1948.8,7648.7
1.0479e+05,1948.8,7898.7
1.0479e+05,1948.8,8148.7
1.0479e+05,1948.8,8398.7
1.0479e+05,1948.8,7648.7
1.0479e+05,1948.8,7898.7
1.0479e+05,1948.8,8148.7
1.0479e+05,1948.8,8398.7
1.0479e+05,1948.8,8648.7
1.0479e+05,1948.8,7898.7
1.0479e+05,1948.8,8148.7
1.0479e+05,1948.8,8398.7
1.0479e+05,1948.8,8648.7
1.0479e+05,1948.8,8898.7
1.0479e+05,1948.8,8148.7
1.0479e+05,1948.8,8398.7
1.0479e+05,1948.8,8648.7
1.0479e+05,1948.8,8898.7
1.0479e+05,1948.8,9148.7
1.0479e+05,1948.8,6898.7
1.0479e+05,1948.8,7148.7
1.0479e+05,1948.8,7398.7
1.0479e+05,1948.8,6898.7
1.0479e+05,1948.8,7148.7
1.0479e+05,1948.8,7398.7
1.0479e+05,1948.8,7648.7
1.0479e+05,1948.8,6898.7
1.0479e+05,1948.8,7148.7
1.0479e+05,1948.8,7398.7
1.0479e+05,1948.8,7648.7
1.0479e+05,1948.8,7898.7
1.0479e+05,1948.8,6898.7
1.0479e+05,1948.8,7148.7
1.0479e+05,1948.8,7398.7
1.0479e+05,1948.8,6898.7
1.0479e+05,1948.8,7148.7
1.0479e+05,1948.8,7398.7
1.0479e+05,1948.8,7648.7
1.0479e+05,1948.8,6898.7
1.0479e+05,1948.8,7148.7
1.0479e+05,1948.8,7398.7
1.0479e+05,1948.8,7648.7
1.0479e+05,1948.8,7898.7
1.0479e+05,1948.8,7148.7
1.0479e+05,1948.8,7398.7
1.0479e+05,1948.8,7648.7
1.0479e+05,1948.8,7898.7
1.0479e+05,1948.8,8148.7
1.0479e+05,1948.8,6898.7
1.0479e+05,1948.8,7148.7
1.0479e+05,1948.8,7398.7
1.0479e+05,1948.8,6898.7
1.0479e+05,1948.8,7148.7
1.0479e+05,1948.8,7398.7
1.0479e+05,1948.8,7648.7
1.0479e+05,1948.8,6898.7
1.0479e+05,1948.8,7148.7
1.0479e+05,1948.8,7398.7
1.0479e+05,1948.8,7648.7
1.0479e+05,1948.8,7898.7
1.0479e+05,1948.8,7148.7
1.0479e+05,1948.8,7398.7
1.0479e+05,1948.8,7648.7
1.0479e+05,1948.8,7898.7
1.0479e+05,1948.8,8148.7
1.0479e+05,1948.8,7398.7
1.0479e+05,1948.8,7648.7
1.0479e+05,1948.8,7898.7
1.0479e+05,1948.8,8148.7
1.0479e+05,1948.8,8398.7
1.0479e+05,1948.8,6898.7
1.0479e+05,1948.8,7148.7
1.0479e+05,1948.8,7398.7
1.0479e+05,1948.8,6898.7
1.0479e+05,1948.8,7148.7
1.0479e+05,1948.8,7398.7
1.0479e+05,1948.8,7648.7
1.0479e+05,1948.8,6898.7
1.0479e+05,1948.8,7148.7
1.0479e+05,1948.8,7398.7
1.0479e+05,1948.8,7648.7
1.0479e+05,1948.8,7898.7
1.0479e+05,1948.8,6898.7
1.0479e+05,1948.8,7148.7
1.0479e+05,1948.8,7398.7
1.0479e+05,1948.8,6898.7
1.0479e+05,1948.8,7148.7
1.0479e+05,1948.8,7398.7
1.0479e+05,1948.8,7648.7
1.0479e+05,1948.8,6898.7
1.0479e+05,1948.8,7148.7
1.0479e+05,1948.8,7398.7
1.0479e+05,1948.8,7648.7
1.0479e+05,1948.8,7898.7
1.0479e+05,1948.8,7148.7
1.0479e+05,1948.8,7398.7
1.0479e+05,1948.8,7648.7
1.0479e+05,1948.8,7898.7
1.0479e+05,1948.8,8148.7
1.0479e+05,1948.8,6898.7
1.0479e+05,1948.8,7148.7
1.0479e+05,1948.8,7398.7
1.0479e+05,1948.8,6898.7
1.0479e+05,1948.8,7148.7
1.0479e+05,1948.8,7398.7
1.0479e+05,1948.8,7648.7
1.0479e+05,1948.8,6898.7
1.0479e+05,1948.8,7148.7
1.0479e+05,1948.8,7398.7
1.0479e+05,1948.8,7648.7
1.0479e+05,1948.8,7898.7
1.0479e+05,1948.8,7148.7
1.0479e+05,1948.8,7398.7
1.0479e+05,1948.8,7648.7
1.0479e+05,1948.8,7898.7
1.0479e+05,1948.8,8148.7
1.0479e+05,1948.8,7398.7
1.0479e+05,1948.8,7648.7
1.0479e+05,1948.8,7898.7
1.0479e+05,1948.8,8148.7
1.0479e+05,1948.8,8398.7
1.0479e+05,1948.8,6898.7
1.0479e+05,1948.8,7148.7
1.0479e+05,1948.8,7398.7
1.0479e+05,1948.8,7648.7
1.0479e+05,1948.8,6898.7
1.0479e+05,1948.8,7148.7
1.0479e+05,1948.8,7398.7
1.0479e+05,1948.8,7648.7
1.0479e+05,1948.8,7898.7
1.0479e+05,1948.8,7148.7
1.0479e+05,1948.8,7398.7
1.0479e+05,1948.8,7648.7
1.0479e+05,1948.8,7898.7
1.0479e+05,1948.8,8148.7
1.0479e+05,1948.8,7398.7
1.0479e+05,1948.8,7648.7
1.0479e+05,1948.8,7898.7
1.0479e+05,1948.8,8148.7
1.0479e+05,1948.8,8398.7
1.0479e+05,1948.8,7648.7
1.0479e+05,1948.8,7898.7
1.0479e+05,1948.8,8148.7
1.0479e+05,1948.8,8398.7
1.0479e+05,1948.8,8648.7
1.0479e+05,1948.8,6898.7
1.0479e+05,1948.8,7148.7
1.0479e+05,1948.8,7398.7
1.0479e+05,1948.8,6898.7
1.0479e+05,1948.8,7148.7
1.0479e+05,1948.8,7398.7
1.0479e+05,1948.8,7648.7
1.0479e+05,1948.8,6898.7
1.0479e+05,1948.8,7148.7
1.0479e+05,1948.8,7398.7
1.0479e+05,1948.8,7648.7
1.0479e+05,1948.8,7898.7
1.0479e+05,1948.8,6898.7
1.0479e+05,1948.8,7148.7
1.0479e+05,1948.8,7398.7
1.0479e+05,1948.8,6898.7
1.0479e+05,1948.8,7148.7
1.0479e+05,1948.8,7398.7
1.0479e+05,1948.8,7648.7
1.0479e+05,1948.8,6898.7
1.0479e+05,1948.8,7148.7
1.0479e+05,1948.8,7398.7
1.0479e+05,1948.8,7648.7
1.0479e+05,1948.8,7898.7
1.0479e+05,1948.8,7148.7
1.0479e+05,1948.8,7398.7
1.0479e+05,1948.8,7648.7
1.0479e+05,1948.8,7898.7
1.0479e+05,1948.8,8148.7
1.0479e+05,1948.8,6898.7
1.0479e+05,1948.8,7148.7
1.0479e+05,1948.8,7398.7
1.0479e+05,1948.8,6898.7
1.0479e+05,1948.8,7148.7
1.0479e+05,1948.8,7398.7
1.0479e+05,1948.8,7648.7
1.0479e+05,1948.8,6898.7
1.0479e+05,1948.8,7148.7
1.0479e+05,1948.8,7398.7
1.0479e+05,1948.8,7648.7
1.0479e+05,1948.8,7898.7
1.0479e+05,1948.8,7148.7
1.0479e+05,1948.8,7398.7
1.0479e+05,1948.8,7648.7
1.0479e+05,1948.8,7898.7
1.0479e+05,1948.8,8148.7
1.0479e+05,1948.8,7398.7
1.0479e+05,1948.8,7648.7
1.0479e+05,1948.8,7898.7
1.0479e+05,1948.8,8148.7
1.0479e+05,1948.8,8398.7
1.0479e+05,1948.8,6898.7
1.0479e+05,1948.8,7148.7
1.0479e+05,1948.8,7398.7
1.0479e+05,1948.8,7648.7
1.0479e+05,1948.8,6898.7
1.0479e+05,1948.8,7148.7
1.0479e+05,1948.8,7398.7
1.0479e+05,1948.8,7648.7
1.0479e+05,1948.8,7898.7
1.0479e+05,1948.8,7148.7
1.0479e+05,1948.8,7398.7
1.0479e+05,1948.8,7648.7
1.0479e+05,1948.8,7898.7
1.0479e+05,1948.8,8148.7
1.0479e+05,1948.8,7398.7
1.0479e+05,1948.8,7648.7
1.0479e+05,1948.8,7898.7
1.0479e+05,1948.8,8148.7
1.0479e+05,1948.8,8398.7
1.0479e+05,1948.8,7648.7
1.0479e+05,1948.8,7898.7
1.0479e+05,1948.8,8148.7
1.0479e+05,1948.8,8398.7
1.0479e+05,1948.8,8648.7
1.0479e+05,1948.8,6898.7
1.0479e+05,1948.8,7148.7
1.0479e+05,1948.8,7398.7
1.0479e+05,1948.8,7648.7
1.0479e+05,1948.8,7898.7
1.0479e+05,1948.8,7148.7
1.0479e+05,1948.8,7398.7
1.0479e+05,1948.8,7648.7
1.0479e+05,1948.8,7898.7
1.0479e+05,1948.8,8148.7
1.0479e+05,1948.8,7398.7
1.0479e+05,1948.8,7648.7
1.0479e+05,1948.8,7898.7
1.0479e+05,1948.8,8148.7
1.0479e+05,1948.8,8398.7
1.0479e+05,1948.8,7648.7
1.0479e+05,1948.8,7898.7
1.0479e+05,1948.8,8148.7
1.0479e+05,1948.8,8398.7
1.0479e+05,1948.8,8648.7
1.0479e+05,1948.8,7898.7
1.0479e+05,1948.8,8148.7
1.0479e+05,1948.8,8398.7
1.0479e+05,1948.8,8648.7
1.0479e+05,1948.8,8898.7
1.0479e+05,1948.8,6898.7
1.0479e+05,1948.8,7148.7
1.0479e+05,1948.8,7398.7
1.0479e+05,1948.8,6898.7
1.0479e+05,1948.8,7148.7
1.0479e+05,1948.8,7398.7
1.0479e+05,1948.8,7648.7
1.0479e+05,1948.8,6898.7
1.0479e+05,1948.8,7148.7
1.0479e+05,1948.8,7398.7
1.0479e+05,1948.8,7648.7
1.0479e+05,1948.8,7898.7
1.0479e+05,1948.8,7148.7
1.0479e+05,1948.8,7398.7
1.0479e+05,1948.8,7648.7
1.0479e+05,1948.8,7898.7
1.0479e+05,1948.8,8148.7
1.0479e+05,1948.8,6898.7
1.0479e+05,1948.8,7148.7
1.0479e+05,1948.8,7398.7
1.0479e+05,1948.8,6898.7
1.0479e+05,1948.8,7148.7
1.0479e+05,1948.8,7398.7
1.0479e+05,1948.8,7648.7
1.0479e+05,1948.8,6898.7
1.0479e+05,1948.8,7148.7
1.0479e+05,1948.8,7398.7
1.0479e+05,1948.8,7648.7
1.0479e+05,1948.8,7898.7
1.0479e+05,1948.8,7148.7
1.0479e+05,1948.8,7398.7
1.0479e+05,1948.8,7648.7
1.0479e+05,1948.8,7898.7
1.0479e+05,1948.8,8148.7
1.0479e+05,1948.8,7398.7
1.0479e+05,1948.8,7648.7
1.0479e+05,1948.8,7898.7
1.0479e+05,1948.8,8148.7
1.0479e+05,1948.8,8398.7
1.0479e+05,1948.8,6898.7
1.0479e+05,1948.8,7148.7
1.0479e+05,1948.8,7398.7
1.0479e+05,1948.8,7648.7
1.0479e+05,1948.8,6898.7
1.0479e+05,1948.8,7148.7
1.0479e+05,1948.8,7398.7
1.0479e+05,1948.8,7648.7
1.0479e+05,1948.8,7898.7
1.0479e+05,1948.8,7148.7
1.0479e+05,1948.8,7398.7
1.0479e+05,1948.8,7648.7
1.0479e+05,1948.8,7898.7
1.0479e+05,1948.8,8148.7
1.0479e+05,1948.8,7398.7
1.0479e+05,1948.8,7648.7
1.0479e+05,1948.8,7898.7
1.0479e+05,1948.8,8148.7
1.0479e+05,1948.8,8398.7
1.0479e+05,1948.8,7648.7
1.0479e+05,1948.8,7898.7
1.0479e+05,1948.8,8148.7
1.0479e+05,1948.8,8398.7
1.0479e+05,1948.8,8648.7
1.0479e+05,1948.8,6898.7
1.0479e+05,1948.8,7148.7
1.0479e+05,1948.8,7398.7
1.0479e+05,1948.8,7648.7
1.0479e+05,1948.8,7898.7
1.0479e+05,1948.8,7148.7
1.0479e+05,1948.8,7398.7
1.0479e+05,1948.8,7648.7
1.0479e+05,1948.8,7898.7
1.0479e+05,1948.8,8148.7
1.0479e+05,1948.8,7398.7
1.0479e+05,1948.8,7648.7
1.0479e+05,1948.8,7898.7
1.0479e+05,1948.8,8148.7
1.0479e+05,1948.8,8398.7
1.0479e+05,1948.8,7648.7
1.0479e+05,1948.8,7898.7
1.0479e+05,1948.8,8148.7
1.0479e+05,1948.8,8398.7
1.0479e+05,1948.8,8648.7
1.0479e+05,1948.8,7898.7
1.0479e+05,1948.8,8148.7
1.0479e+05,1948.8,8398.7
1.0479e+05,1948.8,8648.7
1.0479e+05,1948.8,8898.7
1.0479e+05,1948.8,7148.7
1.0479e+05,1948.8,7398.7
1.0479e+05,1948.8,7648.7
1.0479e+05,1948.8,7898.7
1.0479e+05,1948.8,8148.7
1.0479e+05,1948.8,7398.7
1.0479e+05,1948.8,7648.7
1.0479e+05,1948.8,7898.7
1.0479e+05,1948.8,8148.7
1.0479e+05,1948.8,8398.7
1.0479e+05,1948.8,7648.7
1.0479e+05,1948.8,7898.7
1.0479e+05,1948.8,8148.7
1.0479e+05,1948.8,8398.7
1.0479e+05,1948.8,8648.7
1.0479e+05,1948.8,7898.7
1.0479e+05,1948.8,8148.7
1.0479e+05,1948.8,8398.7
1.0479e+05,1948.8,8648.7
1.0479e+05,1948.8,8898.7
1.0479e+05,1948.8,8148.7
1.0479e+05,1948.8,8398.7
1.0479e+05,1948.8,8648.7
1.0479e+05,1948.8,8898.7
1.0479e+05,1948.8,9148.7
1.0479e+05,1948.8,6898.7
1.0479e+05,1948.8,7148.7
1.0479e+05,1948.8,7398.7
1.0479e+05,1948.8,6898.7
1.0479e+05,1948.8,7148.7
1.0479e+05,1948.8,7398.7
1.0479e+05,1948.8,7648.7
1.0479e+05,1948.8,6898.7
1.0479e+05,1948.8,7148.7
1.0479e+05,1948.8,7398.7
1.0479e+05,1948.8,7648.7
1.0479e+05,1948.8,7898.7
1.0479e+05,1948.8,7148.7
1.0479e+05,1948.8,7398.7
1.0479e+05,1948.8,7648.7
1.0479e+05,1948.8,7898.7
1.0479e+05,1948.8,8148.7
1.0479e+05,1948.8,7398.7
1.0479e+05,1948.8,7648.7
1.0479e+05,1948.8,7898.7
1.0479e+05,1948.8,8148.7
1.0479e+05,1948.8,8398.7
1.0479e+05,1948.8,6898.7
1.0479e+05,1948.8,7148.7
1.0479e+05,1948.8,7398.7
1.0479e+05,1948.8,7648.7
1.0479e+05,1948.8,6898.7
1.0479e+05,1948.8,7148.7
1.0479e+05,1948.8,7398.7
1.0479e+05,1948.8,7648.7
1.0479e+05,1948.8,7898.7
1.0479e+05,1948.8,7148.7
1.0479e+05,1948.8,7398.7
1.0479e+05,1948.8,7648.7
1.0479e+05,1948.8,7898.7
1.0479e+05,1948.8,8148.7
1.0479e+05,1948.8,7398.7
1.0479e+05,1948.8,7648.7
1.0479e+05,1948.8,7898.7
1.0479e+05,1948.8,8148.7
1.0479e+05,1948.8,8398.7
1.0479e+05,1948.8,7648.7
1.0479e+05,1948.8,7898.7
1.0479e+05,1948.8,8148.7
1.0479e+05,1948.8,8398.7
1.0479e+05,1948.8,8648.7
1.0479e+05,1948.8,6898.7
1.0479e+05,1948.8,7148.7
1.0479e+05,1948.8,7398.7
1.0479e+05,1948.8,7648.7
1.0479e+05,1948.8,7898.7
1.0479e+05,1948.8,7148.7
1.0479e+05,1948.8,7398.7
1.0479e+05,1948.8,7648.7
1.0479e+05,1948.8,7898.7
1.0479e+05,1948.8,8148.7
1.0479e+05,1948.8,7398.7
1.0479e+05,1948.8,7648.7
1.0479e+05,1948.8,7898.7
1.0479e+05,1948.8,8148.7
1.0479e+05,1948.8,8398.7
1.0479e+05,1948.8,7648.7
1.0479e+05,1948.8,7898.7
1.0479e+05,1948.8,8148.7
1.0479e+05,1948.8,8398.7
1.0479e+05,1948.8,8648.7
1.0479e+05,1948.8,7898.7
1.0479e+05,1948.8,8148.7
1.0479e+05,1948.8,8398.7
1.0479e+05,1948.8,8648.7
1.0479e+05,1948.8,8898.7
1.0479e+05,1948.8,7148.7
1.0479e+05,1948.8,7398.7
1.0479e+05,1948.8,7648.7
1.0479e+05,1948.8,7898.7
1.0479e+05,1948.8,8148.7
1.0479e+05,1948.8,7398.7
1.0479e+05,1948.8,7648.7
1.0479e+05,1948.8,7898.7
1.0479e+05,1948.8,8148.7
1.0479e+05,1948.8,8398.7
1.0479e+05,1948.8,7648.7
1.0479e+05,1948.8,7898.7
1.0479e+05,1948.8,8148.7
1.0479e+05,1948.8,8398.7
1.0479e+05,1948.8,8648.7
1.0479e+05,1948.8,7898.7
1.0479e+05,1948.8,8148.7
1.0479e+05,1948.8,8398.7
1.0479e+05,1948.8,8648.7
1.0479e+05,1948.8,8898.7
1.0479e+05,1948.8,8148.7
1.0479e+05,1948.8,8398.7
1.0479e+05,1948.8,8648.7
1.0479e+05,1948.8,8898.7
1.0479e+05,1948.8,9148.7
1.0479e+05,1948.8,7398.7
1.0479e+05,1948.8,7648.7
1.0479e+05,1948.8,7898.7
1.0479e+05,1948.8,8148.7
1.0479e+05,1948.8,8398.7
1.0479e+05,1948.8,7648.7
1.0479e+05,1948.8,7898.7
1.0479e+05,1948.8,8148.7
1.0479e+05,1948.8,8398.7
1.0479e+05,1948.8,8648.7
1.0479e+05,1948.8,7898.7
1.0479e+05,1948.8,8148.7
1.0479e+05,1948.8,8398.7
1.0479e+05,1948.8,8648.7
1.0479e+05,1948.8,8898.7
1.0479e+05,1948.8,8148.7
1.0479e+05,1948.8,8398.7
1.0479e+05,1948.8,8648.7
1.0479e+05,1948.8,8898.7
1.0479e+05,1948.8,9148.7
1.0479e+05,1948.8,8398.7
1.0479e+05,1948.8,8648.7
1.0479e+05,1948.8,8898.7
1.0479e+05,1948.8,9148.7
1.0479e+05,1948.8,9398.7
1.0479e+05,1948.8,6898.7
1.0479e+05,1948.8,7148.7
1.0479e+05,1948.8,7398.7
1.0479e+05,1948.8,6898.7
1.0479e+05,1948.8,7148.7
1.0479e+05,1948.8,7398.7
1.0479e+05,1948.8,7648.7
1.0479e+05,1948.8,6898.7
1.0479e+05,1948.8,7148.7
1.0479e+05,1948.8,7398.7
1.0479e+05,1948.8,7648.7
1.0479e+05,1948.8,7898.7
1.0479e+05,1948.8,6898.7
1.0479e+05,1948.8,7148.7
1.0479e+05,1948.8,7398.7
1.0479e+05,1948.8,6898.7
1.0479e+05,1948.8,7148.7
1.0479e+05,1948.8,7398.7
1.0479e+05,1948.8,7648.7
1.0479e+05,1948.8,6898.7
1.0479e+05,1948.8,7148.7
1.0479e+05,1948.8,7398.7
1.0479e+05,1948.8,7648.7
1.0479e+05,1948.8,7898.7
1.0479e+05,1948.8,7148.7
1.0479e+05,1948.8,7398.7
1.0479e+05,1948.8,7648.7
1.0479e+05,1948.8,7898.7
1.0479e+05,1948.8,8148.7
1.0479e+05,1948.8,6898.7
1.0479e+05,1948.8,7148.7
1.0479e+05,1948.8,7398.7
1.0479e+05,1948.8,6898.7
1.0479e+05,1948.8,7148.7
1.0479e+05,1948.8,7398.7
1.0479e+05,1948.8,7648.7
1.0479e+05,1948.8,6898.7
1.0479e+05,1948.8,7148.7
1.0479e+05,1948.8,7398.7
1.0479e+05,1948.8,7648.7
1.0479e+05,1948.8,7898.7
1.0479e+05,1948.8,7148.7
1.0479e+05,1948.8,7398.7
1.0479e+05,1948.8,7648.7
1.0479e+05,1948.8,7898.7
1.0479e+05,1948.8,8148.7
1.0479e+05,1948.8,7398.7
1.0479e+05,1948.8,7648.7
1.0479e+05,1948.8,7898.7
1.0479e+05,1948.8,8148.7
1.0479e+05,1948.8,8398.7
1.0479e+05,1948.8,6898.7
1.0479e+05,1948.8,7148.7
1.0479e+05,1948.8,7398.7
1.0479e+05,1948.8,6898.7
1.0479e+05,1948.8,7148.7
1.0479e+05,1948.8,7398.7
1.0479e+05,1948.8,7648.7
1.0479e+05,1948.8,6898.7
1.0479e+05,1948.8,7148.7
1.0479e+05,1948.8,7398.7
1.0479e+05,1948.8,7648.7
1.0479e+05,1948.8,7898.7
1.0479e+05,1948.8,6898.7
1.0479e+05,1948.8,7148.7
1.0479e+05,1948.8,7398.7
1.0479e+05,1948.8,6898.7
1.0479e+05,1948.8,7148.7
1.0479e+05,1948.8,7398.7
1.0479e+05,1948.8,7648.7
1.0479e+05,1948.8,6898.7
1.0479e+05,1948.8,7148.7
1.0479e+05,1948.8,7398.7
1.0479e+05,1948.8,7648.7
1.0479e+05,1948.8,7898.7
1.0479e+05,1948.8,7148.7
1.0479e+05,1948.8,7398.7
1.0479e+05,1948.8,7648.7
1.0479e+05,1948.8,7898.7
1.0479e+05,1948.8,8148.7
1.0479e+05,1948.8,6898.7
1.0479e+05,1948.8,7148.7
1.0479e+05,1948.8,7398.7
1.0479e+05,1948.8,6898.7
1.0479e+05,1948.8,7148.7
1.0479e+05,1948.8,7398.7
1.0479e+05,1948.8,7648.7
1.0479e+05,1948.8,6898.7
1.0479e+05,1948.8,7148.7
1.0479e+05,1948.8,7398.7
1.0479e+05,1948.8,7648.7
1.0479e+05,1948.8,7898.7
1.0479e+05,1948.8,7148.7
1.0479e+05,1948.8,7398.7
1.0479e+05,1948.8,7648.7
1.0479e+05,1948.8,7898.7
1.0479e+05,1948.8,8148.7
1.0479e+05,1948.8,7398.7
1.0479e+05,1948.8,7648.7
1.0479e+05,1948.8,7898.7
1.0479e+05,1948.8,8148.7
1.0479e+05,1948.8,8398.7
1.0479e+05,1948.8,6898.7
1.0479e+05,1948.8,7148.7
1.0479e+05,1948.8,7398.7
1.0479e+05,1948.8,7648.7
1.0479e+05,1948.8,6898.7
1.0479e+05,1948.8,7148.7
1.0479e+05,1948.8,7398.7
1.0479e+05,1948.8,7648.7
1.0479e+05,1948.8,7898.7
1.0479e+05,1948.8,7148.7
1.0479e+05,1948.8,7398.7
1.0479e+05,1948.8,7648.7
1.0479e+05,1948.8,7898.7
1.0479e+05,1948.8,8148.7
1.0479e+05,1948.8,7398.7
1.0479e+05,1948.8,7648.7
1.0479e+05,1948.8,7898.7
1.0479e+05,1948.8,8148.7
1.0479e+05,1948.8,8398.7
1.0479e+05,1948.8,7648.7
1.0479e+05,1948.8,7898.7
1.0479e+05,1948.8,8148.7
1.0479e+05,1948.8,8398.7
1.0479e+05,1948.8,8648.7
1.0479e+05,1948.8,6898.7
1.0479e+05,1948.8,7148.7
1.0479e+05,1948.8,7398.7
1.0479e+05,1948.8,6898.7
1.0479e+05,1948.8,7148.7
1.0479e+05,1948.8,7398.7
1.0479e+05,1948.8,7648.7
1.0479e+05,1948.8,6898.7
1.0479e+05,1948.8,7148.7
1.0479e+05,1948.8,7398.7
1.0479e+05,1948.8,7648.7
1.0479e+05,1948.8,7898.7
1.0479e+05,1948.8,6898.7
1.0479e+05,1948.8,7148.7
1.0479e+05,1948.8,7398.7
1.0479e+05,1948.8,6898.7
1.0479e+05,1948.8,7148.7
1.0479e+05,1948.8,7398.7
1.0479e+05,1948.8,7648.7
1.0479e+05,1948.8,6898.7
1.0479e+05,1948.8,7148.7
1.0479e+05,1948.8,7398.7
1.0479e+05,1948.8,7648.7
1.0479e+05,1948.8,7898.7
1.0479e+05,1948.8,7148.7
1.0479e+05,1948.8,7398.7
1.0479e+05,1948.8,7648.7
1.0479e+05,1948.8,7898.7
1.0479e+05,1948.8,8148.7
1.0479e+05,1948.8,6898.7
1.0479e+05,1948.8,7148.7
1.0479e+05,1948.8,7398.7
1.0479e+05,1948.8,6898.7
1.0479e+05,1948.8,7148.7
1.0479e+05,1948.8,7398.7
1.0479e+05,1948.8,7648.7
1.0479e+05,1948.8,6898.7
1.0479e+05,1948.8,7148.7
1.0479e+05,1948.8,7398.7
1.0479e+05,1948.8,7648.7
1.0479e+05,1948.8,7898.7
1.0479e+05,1948.8,7148.7
1.0479e+05,1948.8,7398.7
1.0479e+05,1948.8,7648.7
1.0479e+05,1948.8,7898.7
1.0479e+05,1948.8,8148.7
1.0479e+05,1948.8,7398.7
1.0479e+05,1948.8,7648.7
1.0479e+05,1948.8,7898.7
1.0479e+05,1948.8,8148.7
1.0479e+05,1948.8,8398.7
1.0479e+05,1948.8,6898.7
1.0479e+05,1948.8,7148.7
1.0479e+05,1948.8,7398.7
1.0479e+05,1948.8,7648.7
1.0479e+05,1948.8,6898.7
1.0479e+05,1948.8,7148.7
1.0479e+05,1948.8,7398.7
1.0479e+05,1948.8,7648.7
1.0479e+05,1948.8,7898.7
1.0479e+05,1948.8,7148.7
1.0479e+05,1948.8,7398.7
1.0479e+05,1948.8,7648.7
1.0479e+05,1948.8,7898.7
1.0479e+05,1948.8,8148.7
1.0479e+05,1948.8,7398.7
1.0479e+05,1948.8,7648.7
1.0479e+05,1948.8,7898.7
1.0479e+05,1948.8,8148.7
1.0479e+05,1948.8,8398.7
1.0479e+05,1948.8,7648.7
1.0479e+05,1948.8,7898.7
1.0479e+05,1948.8,8148.7
1.0479e+05,1948.8,8398.7
1.0479e+05,1948.8,8648.7
1.0479e+05,1948.8,6898.7
1.0479e+05,1948.8,7148.7
1.0479e+05,1948.8,7398.7
1.0479e+05,1948.8,7648.7
1.0479e+05,1948.8,7898.7
1.0479e+05,1948.8,7148.7
1.0479e+05,1948.8,7398.7
1.0479e+05,1948.8,7648.7
1.0479e+05,1948.8,7898.7
1.0479e+05,1948.8,8148.7
1.0479e+05,1948.8,7398.7
1.0479e+05,1948.8,7648.7
1.0479e+05,1948.8,7898.7
1.0479e+05,1948.8,8148.7
1.0479e+05,1948.8,8398.7
1.0479e+05,1948.8,7648.7
1.0479e+05,1948.8,7898.7
1.0479e+05,1948.8,8148.7
1.0479e+05,1948.8,8398.7
1.0479e+05,1948.8,8648.7
1.0479e+05,1948.8,7898.7
1.0479e+05,1948.8,8148.7
1.0479e+05,1948.8,8398.7
1.0479e+05,1948.8,8648.7
1.0479e+05,1948.8,8898.7
1.0479e+05,1948.8,6898.7
1.0479e+05,1948.8,7148.7
1.0479e+05,1948.8,7398.7
1.0479e+05,1948.8,6898.7
1.0479e+05,1948.8,7148.7
1.0479e+05,1948.8,7398.7
1.0479e+05,1948.8,7648.7
1.0479e+05,1948.8,6898.7
1.0479e+05,1948.8,7148.7
1.0479e+05,1948.8,7398.7
1.0479e+05,1948.8,7648.7
1.0479e+05,1948.8,7898.7
1.0479e+05,1948.8,6898.7
1.0479e+05,1948.8,7148.7
1.0479e+05,1948.8,7398.7
1.0479e+05,1948.8,6898.7
1.0479e+05,1948.8,7148.7
1.0479e+05,1948.8,7398.7
1.0479e+05,1948.8,7648.7
1.0479e+05,1948.8,6898.7
1.0479e+05,1948.8,7148.7
1.0479e+05,1948.8,7398.7
1.0479e+05,1948.8,7648.7
1.0479e+05,1948.8,7898.7
1.0479e+05,1948.8,7148.7
1.0479e+05,1948.8,7398.7
1.0479e+05,1948.8,7648.7
1.0479e+05,1948.8,7898.7
1.0479e+05,1948.8,8148.7
1.0479e+05,1948.8,6898.7
1.0479e+05,1948.8,7148.7
1.0479e+05,1948.8,7398.7
1.0479e+05,1948.8,6898.7
1.0479e+05,1948.8,7148.7
1.0479e+05,1948.8,7398.7
1.0479e+05,1948.8,7648.7
1.0479e+05,1948.8,6898.7
1.0479e+05,1948.8,7148.7
1.0479e+05,1948.8,7398.7
1.0479e+05,1948.8,7648.7
1.0479e+05,1948.8,7898.7
1.0479e+05,1948.8,7148.7
1.0479e+05,1948.8,7398.7
1.0479e+05,1948.8,7648.7
1.0479e+05,1948.8,7898.7
1.0479e+05,1948.8,8148.7
1.0479e+05,1948.8,7398.7
1.0479e+05,1948.8,7648.7
1.0479e+05,1948.8,7898.7
1.0479e+05,1948.8,8148.7
1.0479e+05,1948.8,8398.7
1.0479e+05,1948.8,6898.7
1.0479e+05,1948.8,7148.7
1.0479e+05,1948.8,7398.7
1.0479e+05,1948.8,6898.7
1.0479e+05,1948.8,7148.7
1.0479e+05,1948.8,7398.7
1.0479e+05,1948.8,7648.7
1.0479e+05,1948.8,6898.7
1.0479e+05,1948.8,7148.7
1.0479e+05,1948.8,7398.7
1.0479e+05,1948.8,7648.7
1.0479e+05,1948.8,7898.7
1.0479e+05,1948.8,6898.7
1.0479e+05,1948.8,7148.7
1.0479e+05,1948.8,7398.7
1.0479e+05,1948.8,6898.7
1.0479e+05,1948.8,7148.7
1.0479e+05,1948.8,7398.7
1.0479e+05,1948.8,7648.7
1.0479e+05,1948.8,6898.7
1.0479e+05,1948.8,7148.7
1.0479e+05,1948.8,7398.7
1.0479e+05,1948.8,7648.7
1.0479e+05,1948.8,7898.7
1.0479e+05,1948.8,7148.7
1.0479e+05,1948.8,7398.7
1.0479e+05,1948.8,7648.7
1.0479e+05,1948.8,7898.7
1.0479e+05,1948.8,8148.7
1.0479e+05,1948.8,6898.7
1.0479e+05,1948.8,7148.7
1.0479e+05,1948.8,7398.7
1.0479e+05,1948.8,6898.7
1.0479e+05,1948.8,7148.7
1.0479e+05,1948.8,7398.7
1.0479e+05,1948.8,7648.7
1.0479e+05,1948.8,6898.7
1.0479e+05,1948.8,7148.7
1.0479e+05,1948.8,7398.7
1.0479e+05,1948.8,7648.7
1.0479e+05,1948.8,7898.7
1.0479e+05,1948.8,7148.7
1.0479e+05,1948.8,7398.7
1.0479e+05,1948.8,7648.7
1.0479e+05,1948.8,7898.7
1.0479e+05,1948.8,8148.7
1.0479e+05,1948.8,7398.7
1.0479e+05,1948.8,7648.7
1.0479e+05,1948.8,7898.7
1.0479e+05,1948.8,8148.7
1.0479e+05,1948.8,8398.7
1.0479e+05,1948.8,6898.7
1.0479e+05,1948.8,7148.7
1.0479e+05,1948.8,7398.7
1.0479e+05,1948.8,7648.7
1.0479e+05,1948.8,6898.7
1.0479e+05,1948.8,7148.7
1.0479e+05,1948.8,7398.7
1.0479e+05,1948.8,7648.7
1.0479e+05,1948.8,7898.7
1.0479e+05,1948.8,7148.7
1.0479e+05,1948.8,7398.7
1.0479e+05,1948.8,7648.7
1.0479e+05,1948.8,7898.7
1.0479e+05,1948.8,8148.7
1.0479e+05,1948.8,7398.7
1.0479e+05,1948.8,7648.7
1.0479e+05,1948.8,7898.7
1.0479e+05,1948.8,8148.7
1.0479e+05,1948.8,8398.7
1.0479e+05,1948.8,7648.7
1.0479e+05,1948.8,7898.7
1.0479e+05,1948.8,8148.7
1.0479e+05,1948.8,8398.7
1.0479e+05,1948.8,8648.7
1.0479e+05,1948.8,6898.7
1.0479e+05,1948.8,7148.7
1.0479e+05,1948.8,7398.7
1.0479e+05,1948.8,6898.7
1.0479e+05,1948.8,7148.7
1.0479e+05,1948.8,7398.7
1.0479e+05,1948.8,7648.7
1.0479e+05,1948.8,6898.7
1.0479e+05,1948.8,7148.7
1.0479e+05,1948.8,7398.7
1.0479e+05,1948.8,7648.7
1.0479e+05,1948.8,7898.7
1.0479e+05,1948.8,6898.7
1.0479e+05,1948.8,7148.7
1.0479e+05,1948.8,7398.7
1.0479e+05,1948.8,6898.7
1.0479e+05,1948.8,7148.7
1.0479e+05,1948.8,7398.7
1.0479e+05,1948.8,7648.7
1.0479e+05,1948.8,6898.7
1.0479e+05,1948.8,7148.7
1.0479e+05,1948.8,7398.7
1.0479e+05,1948.8,7648.7
1.0479e+05,1948.8,7898.7
1.0479e+05,1948.8,7148.7
1.0479e+05,1948.8,7398.7
1.0479e+05,1948.8,7648.7
1.0479e+05,1948.8,7898.7
1.0479e+05,1948.8,8148.7
1.0479e+05,1948.8,6898.7
1.0479e+05,1948.8,7148.7
1.0479e+05,1948.8,7398.7
1.0479e+05,1948.8,6898.7
1.0479e+05,1948.8,7148.7
1.0479e+05,1948.8,7398.7
1.0479e+05,1948.8,7648.7
1.0479e+05,1948.8,6898.7
1.0479e+05,1948.8,7148.7
1.0479e+05,1948.8,7398.7
1.0479e+05,1948.8,7648.7
1.0479e+05,1948.8,7898.7
1.0479e+05,1948.8,7148.7
1.0479e+05,1948.8,7398.7
1.0479e+05,1948.8,7648.7
1.0479e+05,1948.8,7898.7
1.0479e+05,1948.8,8148.7
1.0479e+05,1948.8,7398.7
1.0479e+05,1948.8,7648.7
1.0479e+05,1948.8,7898.7
1.0479e+05,1948.8,8148.7
1.0479e+05,1948.8,8398.7
1.0479e+05,1948.8,6898.7
1.0479e+05,1948.8,7148.7
1.0479e+05,1948.8,7398.7
1.0479e+05,1948.8,7648.7
1.0479e+05,1948.8,6898.7
1.0479e+05,1948.8,7148.7
1.0479e+05,1948.8,7398.7
1.0479e+05,1948.8,7648.7
1.0479e+05,1948.8,7898.7
1.0479e+05,1948.8,7148.7
1.0479e+05,1948.8,7398.7
1.0479e+05,1948.8,7648.7
1.0479e+05,1948.8,7898.7
1.0479e+05,1948.8,8148.7
1.0479e+05,1948.8,7398.7
1.0479e+05,1948.8,7648.7
1.0479e+05,1948.8,7898.7
1.0479e+05,1948.8,8148.7
1.0479e+05,1948.8,8398.7
1.0479e+05,1948.8,7648.7
1.0479e+05,1948.8,7898.7
1.0479e+05,1948.8,8148.7
1.0479e+05,1948.8,8398.7
1.0479e+05,1948.8,8648.7
1.0479e+05,1948.8,6898.7
1.0479e+05,1948.8,7148.7
1.0479e+05,1948.8,7398.7
1.0479e+05,1948.8,7648.7
1.0479e+05,1948.8,7898.7
1.0479e+05,1948.8,7148.7
1.0479e+05,1948.8,7398.7
1.0479e+05,1948.8,7648.7
1.0479e+05,1948.8,7898.7
1.0479e+05,1948.8,8148.7
1.0479e+05,1948.8,7398.7
1.0479e+05,1948.8,7648.7
1.0479e+05,1948.8,7898.7
1.0479e+05,1948.8,8148.7
1.0479e+05,1948.8,8398.7
1.0479e+05,1948.8,7648.7
1.0479e+05,1948.8,7898.7
1.0479e+05,1948.8,8148.7
1.0479e+05,1948.8,8398.7
1.0479e+05,1948.8,8648.7
1.0479e+05,1948.8,7898.7
1.0479e+05,1948.8,8148.7
1.0479e+05,1948.8,8398.7
1.0479e+05,1948.8,8648.7
1.0479e+05,1948.8,8898.7
1.0479e+05,1948.8,6898.7
1.0479e+05,1948.8,7148.7
1.0479e+05,1948.8,7398.7
1.0479e+05,1948.8,6898.7
1.0479e+05,1948.8,7148.7
1.0479e+05,1948.8,7398.7
1.0479e+05,1948.8,7648.7
1.0479e+05,1948.8,6898.7
1.0479e+05,1948.8,7148.7
1.0479e+05,1948.8,7398.7
1.0479e+05,1948.8,7648.7
1.0479e+05,1948.8,7898.7
1.0479e+05,1948.8,7148.7
1.0479e+05,1948.8,7398.7
1.0479e+05,1948.8,7648.7
1.0479e+05,1948.8,7898.7
1.0479e+05,1948.8,8148.7
1.0479e+05,1948.8,6898.7
1.0479e+05,1948.8,7148.7
1.0479e+05,1948.8,7398.7
1.0479e+05,1948.8,6898.7
1.0479e+05,1948.8,7148.7
1.0479e+05,1948.8,7398.7
1.0479e+05,1948.8,7648.7
1.0479e+05,1948.8,6898.7
1.0479e+05,1948.8,7148.7
1.0479e+05,1948.8,7398.7
1.0479e+05,1948.8,7648.7
1.0479e+05,1948.8,7898.7
1.0479e+05,1948.8,7148.7
1.0479e+05,1948.8,7398.7
1.0479e+05,1948.8,7648.7
1.0479e+05,1948.8,7898.7
1.0479e+05,1948.8,8148.7
1.0479e+05,1948.8,7398.7
1.0479e+05,1948.8,7648.7
1.0479e+05,1948.8,7898.7
1.0479e+05,1948.8,8148.7
1.0479e+05,1948.8,8398.7
1.0479e+05,1948.8,6898.7
1.0479e+05,1948.8,7148.7
1.0479e+05,1948.8,7398.7
1.0479e+05,1948.8,7648.7
1.0479e+05,1948.8,6898.7
1.0479e+05,1948.8,7148.7
1.0479e+05,1948.8,7398.7
1.0479e+05,1948.8,7648.7
1.0479e+05,1948.8,7898.7
1.0479e+05,1948.8,7148.7
1.0479e+05,1948.8,7398.7
1.0479e+05,1948.8,7648.7
1.0479e+05,1948.8,7898.7
1.0479e+05,1948.8,8148.7
1.0479e+05,1948.8,7398.7
1.0479e+05,1948.8,7648.7
1.0479e+05,1948.8,7898.7
1.0479e+05,1948.8,8148.7
1.0479e+05,1948.8,8398.7
1.0479e+05,1948.8,7648.7
1.0479e+05,1948.8,7898.7
1.0479e+05,1948.8,8148.7
1.0479e+05,1948.8,8398.7
1.0479e+05,1948.8,8648.7
1.0479e+05,1948.8,6898.7
1.0479e+05,1948.8,7148.7
1.0479e+05,1948.8,7398.7
1.0479e+05,1948.8,7648.7
1.0479e+05,1948.8,7898.7
1.0479e+05,1948.8,7148.7
1.0479e+05,1948.8,7398.7
1.0479e+05,1948.8,7648.7
1.0479e+05,1948.8,7898.7
1.0479e+05,1948.8,8148.7
1.0479e+05,1948.8,7398.7
1.0479e+05,1948.8,7648.7
1.0479e+05,1948.8,7898.7
1.0479e+05,1948.8,8148.7
1.0479e+05,1948.8,8398.7
1.0479e+05,1948.8,7648.7
1.0479e+05,1948.8,7898.7
1.0479e+05,1948.8,8148.7
1.0479e+05,1948.8,8398.7
1.0479e+05,1948.8,8648.7
1.0479e+05,1948.8,7898.7
1.0479e+05,1948.8,8148.7
1.0479e+05,1948.8,8398.7
1.0479e+05,1948.8,8648.7
1.0479e+05,1948.8,8898.7
1.0479e+05,1948.8,7148.7
1.0479e+05,1948.8,7398.7
1.0479e+05,1948.8,7648.7
1.0479e+05,1948.8,7898.7
1.0479e+05,1948.8,8148.7
1.0479e+05,1948.8,7398.7
1.0479e+05,1948.8,7648.7
1.0479e+05,1948.8,7898.7
1.0479e+05,1948.8,8148.7
1.0479e+05,1948.8,8398.7
1.0479e+05,1948.8,7648.7
1.0479e+05,1948.8,7898.7
1.0479e+05,1948.8,8148.7
1.0479e+05,1948.8,8398.7
1.0479e+05,1948.8,8648.7
1.0479e+05,1948.8,7898.7
1.0479e+05,1948.8,8148.7
1.0479e+05,1948.8,8398.7
1.0479e+05,1948.8,8648.7
1.0479e+05,1948.8,8898.7
1.0479e+05,1948.8,8148.7
1.0479e+05,1948.8,8398.7
1.0479e+05,1948.8,8648.7
1.0479e+05,1948.8,8898.7
1.0479e+05,1948.8,9148.7
1.0479e+05,1948.8,6898.7
1.0479e+05,1948.8,7148.7
1.0479e+05,1948.8,7398.7
1.0479e+05,1948.8,6898.7
1.0479e+05,1948.8,7148.7
1.0479e+05,1948.8,7398.7
1.0479e+05,1948.8,7648.7
1.0479e+05,1948.8,6898.7
1.0479e+05,1948.8,7148.7
1.0479e+05,1948.8,7398.7
1.0479e+05,1948.8,7648.7
1.0479e+05,1948.8,7898.7
1.0479e+05,1948.8,6898.7
1.0479e+05,1948.8,7148.7
1.0479e+05,1948.8,7398.7
1.0479e+05,1948.8,6898.7
1.0479e+05,1948.8,7148.7
1.0479e+05,1948.8,7398.7
1.0479e+05,1948.8,7648.7
1.0479e+05,1948.8,6898.7
1.0479e+05,1948.8,7148.7
1.0479e+05,1948.8,7398.7
1.0479e+05,1948.8,7648.7
1.0479e+05,1948.8,7898.7
1.0479e+05,1948.8,7148.7
1.0479e+05,1948.8,7398.7
1.0479e+05,1948.8,7648.7
1.0479e+05,1948.8,7898.7
1.0479e+05,1948.8,8148.7
1.0479e+05,1948.8,6898.7
1.0479e+05,1948.8,7148.7
1.0479e+05,1948.8,7398.7
1.0479e+05,1948.8,6898.7
1.0479e+05,1948.8,7148.7
1.0479e+05,1948.8,7398.7
1.0479e+05,1948.8,7648.7
1.0479e+05,1948.8,6898.7
1.0479e+05,1948.8,7148.7
1.0479e+05,1948.8,7398.7
1.0479e+05,1948.8,7648.7
1.0479e+05,1948.8,7898.7
1.0479e+05,1948.8,7148.7
1.0479e+05,1948.8,7398.7
1.0479e+05,1948.8,7648.7
1.0479e+05,1948.8,7898.7
1.0479e+05,1948.8,8148.7
1.0479e+05,1948.8,7398.7
1.0479e+05,1948.8,7648.7
1.0479e+05,1948.8,7898.7
1.0479e+05,1948.8,8148.7
1.0479e+05,1948.8,8398.7
1.0479e+05,1948.8,6898.7
1.0479e+05,1948.8,7148.7
1.0479e+05,1948.8,7398.7
1.0479e+05,1948.8,6898.7
1.0479e+05,1948.8,7148.7
1.0479e+05,1948.8,7398.7
1.0479e+05,1948.8,7648.7
1.0479e+05,1948.8,6898.7
1.0479e+05,1948.8,7148.7
1.0479e+05,1948.8,7398.7
1.0479e+05,1948.8,7648.7
1.0479e+05,1948.8,7898.7
1.0479e+05,1948.8,6898.7
1.0479e+05,1948.8,7148.7
1.0479e+05,1948.8,7398.7
1.0479e+05,1948.8,6898.7
1.0479e+05,1948.8,7148.7
1.0479e+05,1948.8,7398.7
1.0479e+05,1948.8,7648.7
1.0479e+05,1948.8,6898.7
1.0479e+05,1948.8,7148.7
1.0479e+05,1948.8,7398.7
1.0479e+05,1948.8,7648.7
1.0479e+05,1948.8,7898.7
1.0479e+05,1948.8,7148.7
1.0479e+05,1948.8,7398.7
1.0479e+05,1948.8,7648.7
1.0479e+05,1948.8,7898.7
1.0479e+05,1948.8,8148.7
1.0479e+05,1948.8,6898.7
1.0479e+05,1948.8,7148.7
1.0479e+05,1948.8,7398.7
1.0479e+05,1948.8,6898.7
1.0479e+05,1948.8,7148.7
1.0479e+05,1948.8,7398.7
1.0479e+05,1948.8,7648.7
1.0479e+05,1948.8,6898.7
1.0479e+05,1948.8,7148.7
1.0479e+05,1948.8,7398.7
1.0479e+05,1948.8,7648.7
1.0479e+05,1948.8,7898.7
1.0479e+05,1948.8,7148.7
1.0479e+05,1948.8,7398.7
1.0479e+05,1948.8,7648.7
1.0479e+05,1948.8,7898.7
1.0479e+05,1948.8,8148.7
1.0479e+05,1948.8,7398.7
1.0479e+05,1948.8,7648.7
1.0479e+05,1948.8,7898.7
1.0479e+05,1948.8,8148.7
1.0479e+05,1948.8,8398.7
1.0479e+05,1948.8,6898.7
1.0479e+05,1948.8,7148.7
1.0479e+05,1948.8,7398.7
1.0479e+05,1948.8,7648.7
1.0479e+05,1948.8,6898.7
1.0479e+05,1948.8,7148.7
1.0479e+05,1948.8,7398.7
1.0479e+05,1948.8,7648.7
1.0479e+05,1948.8,7898.7
1.0479e+05,1948.8,7148.7
1.0479e+05,1948.8,7398.7
1.0479e+05,1948.8,7648.7
1.0479e+05,1948.8,7898.7
1.0479e+05,1948.8,8148.7
1.0479e+05,1948.8,7398.7
1.0479e+05,1948.8,7648.7
1.0479e+05,1948.8,7898.7
1.0479e+05,1948.8,8148.7
1.0479e+05,1948.8,8398.7
1.0479e+05,1948.8,7648.7
1.0479e+05,1948.8,7898.7
1.0479e+05,1948.8,8148.7
1.0479e+05,1948.8,8398.7
1.0479e+05,1948.8,8648.7
1.0479e+05,1948.8,6898.7
1.0479e+05,1948.8,7148.7
1.0479e+05,1948.8,7398.7
1.0479e+05,1948.8,6898.7
1.0479e+05,1948.8,7148.7
1.0479e+05,1948.8,7398.7
1.0479e+05,1948.8,7648.7
1.0479e+05,1948.8,6898.7
1.0479e+05,1948.8,7148.7
1.0479e+05,1948.8,7398.7
1.0479e+05,1948.8,7648.7
1.0479e+05,1948.8,7898.7
1.0479e+05,1948.8,6898.7
1.0479e+05,1948.8,7148.7
1.0479e+05,1948.8,7398.7
1.0479e+05,1948.8,6898.7
1.0479e+05,1948.8,7148.7
1.0479e+05,1948.8,7398.7
1.0479e+05,1948.8,7648.7
1.0479e+05,1948.8,6898.7
1.0479e+05,1948.8,7148.7
1.0479e+05,1948.8,7398.7
1.0479e+05,1948.8,7648.7
1.0479e+05,1948.8,7898.7
1.0479e+05,1948.8,7148.7
1.0479e+05,1948.8,7398.7
1.0479e+05,1948.8,7648.7
1.0479e+05,1948.8,7898.7
1.0479e+05,1948.8,8148.7
1.0479e+05,1948.8,6898.7
1.0479e+05,1948.8,7148.7
1.0479e+05,1948.8,7398.7
1.0479e+05,1948.8,6898.7
1.0479e+05,1948.8,7148.7
1.0479e+05,1948.8,7398.7
1.0479e+05,1948.8,7648.7
1.0479e+05,1948.8,6898.7
1.0479e+05,1948.8,7148.7
1.0479e+05,1948.8,7398.7
1.0479e+05,1948.8,7648.7
1.0479e+05,1948.8,7898.7
1.0479e+05,1948.8,7148.7
1.0479e+05,1948.8,7398.7
1.0479e+05,1948.8,7648.7
1.0479e+05,1948.8,7898.7
1.0479e+05,1948.8,8148.7
1.0479e+05,1948.8,7398.7
1.0479e+05,1948.8,7648.7
1.0479e+05,1948.8,7898.7
1.0479e+05,1948.8,8148.7
1.0479e+05,1948.8,8398.7
1.0479e+05,1948.8,6898.7
1.0479e+05,1948.8,7148.7
1.0479e+05,1948.8,7398.7
1.0479e+05,1948.8,7648.7
1.0479e+05,1948.8,6898.7
1.0479e+05,1948.8,7148.7
1.0479e+05,1948.8,7398.7
1.0479e+05,1948.8,7648.7
1.0479e+05,1948.8,7898.7
1.0479e+05,1948.8,7148.7
1.0479e+05,1948.8,7398.7
1.0479e+05,1948.8,7648.7
1.0479e+05,1948.8,7898.7
1.0479e+05,1948.8,8148.7
1.0479e+05,1948.8,7398.7
1.0479e+05,1948.8,7648.7
1.0479e+05,1948.8,7898.7
1.0479e+05,1948.8,8148.7
1.0479e+05,1948.8,8398.7
1.0479e+05,1948.8,7648.7
1.0479e+05,1948.8,7898.7
1.0479e+05,1948.8,8148.7
1.0479e+05,1948.8,8398.7
1.0479e+05,1948.8,8648.7
1.0479e+05,1948.8,6898.7
1.0479e+05,1948.8,7148.7
1.0479e+05,1948.8,7398.7
1.0479e+05,1948.8,7648.7
1.0479e+05,1948.8,7898.7
1.0479e+05,1948.8,7148.7
1.0479e+05,1948.8,7398.7
1.0479e+05,1948.8,7648.7
1.0479e+05,1948.8,7898.7
1.0479e+05,1948.8,8148.7
1.0479e+05,1948.8,7398.7
1.0479e+05,1948.8,7648.7
1.0479e+05,1948.8,7898.7
1.0479e+05,1948.8,8148.7
1.0479e+05,1948.8,8398.7
1.0479e+05,1948.8,7648.7
1.0479e+05,1948.8,7898.7
1.0479e+05,1948.8,8148.7
1.0479e+05,1948.8,8398.7
1.0479e+05,1948.8,8648.7
1.0479e+05,1948.8,7898.7
1.0479e+05,1948.8,8148.7
1.0479e+05,1948.8,8398.7
1.0479e+05,1948.8,8648.7
1.0479e+05,1948.8,8898.7
1.0479e+05,1948.8,6898.7
1.0479e+05,1948.8,7148.7
1.0479e+05,1948.8,7398.7
1.0479e+05,1948.8,6898.7
1.0479e+05,1948.8,7148.7
1.0479e+05,1948.8,7398.7
1.0479e+05,1948.8,7648.7
1.0479e+05,1948.8,6898.7
1.0479e+05,1948.8,7148.7
1.0479e+05,1948.8,7398.7
1.0479e+05,1948.8,7648.7
1.0479e+05,1948.8,7898.7
1.0479e+05,1948.8,7148.7
1.0479e+05,1948.8,7398.7
1.0479e+05,1948.8,7648.7
1.0479e+05,1948.8,7898.7
1.0479e+05,1948.8,8148.7
1.0479e+05,1948.8,6898.7
1.0479e+05,1948.8,7148.7
1.0479e+05,1948.8,7398.7
1.0479e+05,1948.8,6898.7
1.0479e+05,1948.8,7148.7
1.0479e+05,1948.8,7398.7
1.0479e+05,1948.8,7648.7
1.0479e+05,1948.8,6898.7
1.0479e+05,1948.8,7148.7
1.0479e+05,1948.8,7398.7
1.0479e+05,1948.8,7648.7
1.0479e+05,1948.8,7898.7
1.0479e+05,1948.8,7148.7
1.0479e+05,1948.8,7398.7
1.0479e+05,1948.8,7648.7
1.0479e+05,1948.8,7898.7
1.0479e+05,1948.8,8148.7
1.0479e+05,1948.8,7398.7
1.0479e+05,1948.8,7648.7
1.0479e+05,1948.8,7898.7
1.0479e+05,1948.8,8148.7
1.0479e+05,1948.8,8398.7
1.0479e+05,1948.8,6898.7
1.0479e+05,1948.8,7148.7
1.0479e+05,1948.8,7398.7
1.0479e+05,1948.8,7648.7
1.0479e+05,1948.8,6898.7
1.0479e+05,1948.8,7148.7
1.0479e+05,1948.8,7398.7
1.0479e+05,1948.8,7648.7
1.0479e+05,1948.8,7898.7
1.0479e+05,1948.8,7148.7
1.0479e+05,1948.8,7398.7
1.0479e+05,1948.8,7648.7
1.0479e+05,1948.8,7898.7
1.0479e+05,1948.8,8148.7
1.0479e+05,1948.8,7398.7
1.0479e+05,1948.8,7648.7
1.0479e+05,1948.8,7898.7
1.0479e+05,1948.8,8148.7
1.0479e+05,1948.8,8398.7
1.0479e+05,1948.8,7648.7
1.0479e+05,1948.8,7898.7
1.0479e+05,1948.8,8148.7
1.0479e+05,1948.8,8398.7
1.0479e+05,1948.8,8648.7
1.0479e+05,1948.8,6898.7
1.0479e+05,1948.8,7148.7
1.0479e+05,1948.8,7398.7
1.0479e+05,1948.8,7648.7
1.0479e+05,1948.8,7898.7
1.0479e+05,1948.8,7148.7
1.0479e+05,1948.8,7398.7
1.0479e+05,1948.8,7648.7
1.0479e+05,1948.8,7898.7
1.0479e+05,1948.8,8148.7
1.0479e+05,1948.8,7398.7
1.0479e+05,1948.8,7648.7
1.0479e+05,1948.8,7898.7
1.0479e+05,1948.8,8148.7
1.0479e+05,1948.8,8398.7
1.0479e+05,1948.8,7648.7
1.0479e+05,1948.8,7898.7
1.0479e+05,1948.8,8148.7
1.0479e+05,1948.8,8398.7
1.0479e+05,1948.8,8648.7
1.0479e+05,1948.8,7898.7
1.0479e+05,1948.8,8148.7
1.0479e+05,1948.8,8398.7
1.0479e+05,1948.8,8648.7
1.0479e+05,1948.8,8898.7
1.0479e+05,1948.8,7148.7
1.0479e+05,1948.8,7398.7
1.0479e+05,1948.8,7648.7
1.0479e+05,1948.8,7898.7
1.0479e+05,1948.8,8148.7
1.0479e+05,1948.8,7398.7
1.0479e+05,1948.8,7648.7
1.0479e+05,1948.8,7898.7
1.0479e+05,1948.8,8148.7
1.0479e+05,1948.8,8398.7
1.0479e+05,1948.8,7648.7
1.0479e+05,1948.8,7898.7
1.0479e+05,1948.8,8148.7
1.0479e+05,1948.8,8398.7
1.0479e+05,1948.8,8648.7
1.0479e+05,1948.8,7898.7
1.0479e+05,1948.8,8148.7
1.0479e+05,1948.8,8398.7
1.0479e+05,1948.8,8648.7
1.0479e+05,1948.8,8898.7
1.0479e+05,1948.8,8148.7
1.0479e+05,1948.8,8398.7
1.0479e+05,1948.8,8648.7
1.0479e+05,1948.8,8898.7
1.0479e+05,1948.8,9148.7
1.0479e+05,1948.8,6898.7
1.0479e+05,1948.8,7148.7
1.0479e+05,1948.8,7398.7
1.0479e+05,1948.8,6898.7
1.0479e+05,1948.8,7148.7
1.0479e+05,1948.8,7398.7
1.0479e+05,1948.8,7648.7
1.0479e+05,1948.8,6898.7
1.0479e+05,1948.8,7148.7
1.0479e+05,1948.8,7398.7
1.0479e+05,1948.8,7648.7
1.0479e+05,1948.8,7898.7
1.0479e+05,1948.8,7148.7
1.0479e+05,1948.8,7398.7
1.0479e+05,1948.8,7648.7
1.0479e+05,1948.8,7898.7
1.0479e+05,1948.8,8148.7
1.0479e+05,1948.8,7398.7
1.0479e+05,1948.8,7648.7
1.0479e+05,1948.8,7898.7
1.0479e+05,1948.8,8148.7
1.0479e+05,1948.8,8398.7
1.0479e+05,1948.8,6898.7
1.0479e+05,1948.8,7148.7
1.0479e+05,1948.8,7398.7
1.0479e+05,1948.8,7648.7
1.0479e+05,1948.8,6898.7
1.0479e+05,1948.8,7148.7
1.0479e+05,1948.8,7398.7
1.0479e+05,1948.8,7648.7
1.0479e+05,1948.8,7898.7
1.0479e+05,1948.8,7148.7
1.0479e+05,1948.8,7398.7
1.0479e+05,1948.8,7648.7
1.0479e+05,1948.8,7898.7
1.0479e+05,1948.8,8148.7
1.0479e+05,1948.8,7398.7
1.0479e+05,1948.8,7648.7
1.0479e+05,1948.8,7898.7
1.0479e+05,1948.8,8148.7
1.0479e+05,1948.8,8398.7
1.0479e+05,1948.8,7648.7
1.0479e+05,1948.8,7898.7
1.0479e+05,1948.8,8148.7
1.0479e+05,1948.8,8398.7
1.0479e+05,1948.8,8648.7
1.0479e+05,1948.8,6898.7
1.0479e+05,1948.8,7148.7
1.0479e+05,1948.8,7398.7
1.0479e+05,1948.8,7648.7
1.0479e+05,1948.8,7898.7
1.0479e+05,1948.8,7148.7
1.0479e+05,1948.8,7398.7
1.0479e+05,1948.8,7648.7
1.0479e+05,1948.8,7898.7
1.0479e+05,1948.8,8148.7
1.0479e+05,1948.8,7398.7
1.0479e+05,1948.8,7648.7
1.0479e+05,1948.8,7898.7
1.0479e+05,1948.8,8148.7
1.0479e+05,1948.8,8398.7
1.0479e+05,1948.8,7648.7
1.0479e+05,1948.8,7898.7
1.0479e+05,1948.8,8148.7
1.0479e+05,1948.8,8398.7
1.0479e+05,1948.8,8648.7
1.0479e+05,1948.8,7898.7
1.0479e+05,1948.8,8148.7
1.0479e+05,1948.8,8398.7
1.0479e+05,1948.8,8648.7
1.0479e+05,1948.8,8898.7
1.0479e+05,1948.8,7148.7
1.0479e+05,1948.8,7398.7
1.0479e+05,1948.8,7648.7
1.0479e+05,1948.8,7898.7
1.0479e+05,1948.8,8148.7
1.0479e+05,1948.8,7398.7
1.0479e+05,1948.8,7648.7
1.0479e+05,1948.8,7898.7
1.0479e+05,1948.8,8148.7
1.0479e+05,1948.8,8398.7
1.0479e+05,1948.8,7648.7
1.0479e+05,1948.8,7898.7
1.0479e+05,1948.8,8148.7
1.0479e+05,1948.8,8398.7
1.0479e+05,1948.8,8648.7
1.0479e+05,1948.8,7898.7
1.0479e+05,1948.8,8148.7
1.0479e+05,1948.8,8398.7
1.0479e+05,1948.8,8648.7
1.0479e+05,1948.8,8898.7
1.0479e+05,1948.8,8148.7
1.0479e+05,1948.8,8398.7
1.0479e+05,1948.8,8648.7
1.0479e+05,1948.8,8898.7
1.0479e+05,1948.8,9148.7
1.0479e+05,1948.8,7398.7
1.0479e+05,1948.8,7648.7
1.0479e+05,1948.8,7898.7
1.0479e+05,1948.8,8148.7
1.0479e+05,1948.8,8398.7
1.0479e+05,1948.8,7648.7
1.0479e+05,1948.8,7898.7
1.0479e+05,1948.8,8148.7
1.0479e+05,1948.8,8398.7
1.0479e+05,1948.8,8648.7
1.0479e+05,1948.8,7898.7
1.0479e+05,1948.8,8148.7
1.0479e+05,1948.8,8398.7
1.0479e+05,1948.8,8648.7
1.0479e+05,1948.8,8898.7
1.0479e+05,1948.8,8148.7
1.0479e+05,1948.8,8398.7
1.0479e+05,1948.8,8648.7
1.0479e+05,1948.8,8898.7
1.0479e+05,1948.8,9148.7
1.0479e+05,1948.8,8398.7
1.0479e+05,1948.8,8648.7
1.0479e+05,1948.8,8898.7
1.0479e+05,1948.8,9148.7
1.0479e+05,1948.8,9398.7
1.0479e+05,1948.8,6898.7
1.0479e+05,1948.8,7148.7
1.0479e+05,1948.8,7398.7
1.0479e+05,1948.8,6898.7
1.0479e+05,1948.8,7148.7
1.0479e+05,1948.8,7398.7
1.0479e+05,1948.8,7648.7
1.0479e+05,1948.8,6898.7
1.0479e+05,1948.8,7148.7
1.0479e+05,1948.8,7398.7
1.0479e+05,1948.8,7648.7
1.0479e+05,1948.8,7898.7
1.0479e+05,1948.8,6898.7
1.0479e+05,1948.8,7148.7
1.0479e+05,1948.8,7398.7
1.0479e+05,1948.8,6898.7
1.0479e+05,1948.8,7148.7
1.0479e+05,1948.8,7398.7
1.0479e+05,1948.8,7648.7
1.0479e+05,1948.8,6898.7
1.0479e+05,1948.8,7148.7
1.0479e+05,1948.8,7398.7
1.0479e+05,1948.8,7648.7
1.0479e+05,1948.8,7898.7
1.0479e+05,1948.8,7148.7
1.0479e+05,1948.8,7398.7
1.0479e+05,1948.8,7648.7
1.0479e+05,1948.8,7898.7
1.0479e+05,1948.8,8148.7
1.0479e+05,1948.8,6898.7
1.0479e+05,1948.8,7148.7
1.0479e+05,1948.8,7398.7
1.0479e+05,1948.8,6898.7
1.0479e+05,1948.8,7148.7
1.0479e+05,1948.8,7398.7
1.0479e+05,1948.8,7648.7
1.0479e+05,1948.8,6898.7
1.0479e+05,1948.8,7148.7
1.0479e+05,1948.8,7398.7
1.0479e+05,1948.8,7648.7
1.0479e+05,1948.8,7898.7
1.0479e+05,1948.8,7148.7
1.0479e+05,1948.8,7398.7
1.0479e+05,1948.8,7648.7
1.0479e+05,1948.8,7898.7
1.0479e+05,1948.8,8148.7
1.0479e+05,1948.8,7398.7
1.0479e+05,1948.8,7648.7
1.0479e+05,1948.8,7898.7
1.0479e+05,1948.8,8148.7
1.0479e+05,1948.8,8398.7
1.0479e+05,1948.8,6898.7
1.0479e+05,1948.8,7148.7
1.0479e+05,1948.8,7398.7
1.0479e+05,1948.8,7648.7
1.0479e+05,1948.8,6898.7
1.0479e+05,1948.8,7148.7
1.0479e+05,1948.8,7398.7
1.0479e+05,1948.8,7648.7
1.0479e+05,1948.8,7898.7
1.0479e+05,1948.8,7148.7
1.0479e+05,1948.8,7398.7
1.0479e+05,1948.8,7648.7
1.0479e+05,1948.8,7898.7
1.0479e+05,1948.8,8148.7
1.0479e+05,1948.8,7398.7
1.0479e+05,1948.8,7648.7
1.0479e+05,1948.8,7898.7
1.0479e+05,1948.8,8148.7
1.0479e+05,1948.8,8398.7
1.0479e+05,1948.8,7648.7
1.0479e+05,1948.8,7898.7
1.0479e+05,1948.8,8148.7
1.0479e+05,1948.8,8398.7
1.0479e+05,1948.8,8648.7
1.0479e+05,1948.8,6898.7
1.0479e+05,1948.8,7148.7
1.0479e+05,1948.8,7398.7
1.0479e+05,1948.8,6898.7
1.0479e+05,1948.8,7148.7
1.0479e+05,1948.8,7398.7
1.0479e+05,1948.8,7648.7
1.0479e+05,1948.8,6898.7
1.0479e+05,1948.8,7148.7
1.0479e+05,1948.8,7398.7
1.0479e+05,1948.8,7648.7
1.0479e+05,1948.8,7898.7
1.0479e+05,1948.8,6898.7
1.0479e+05,1948.8,7148.7
1.0479e+05,1948.8,7398.7
1.0479e+05,1948.8,6898.7
1.0479e+05,1948.8,7148.7
1.0479e+05,1948.8,7398.7
1.0479e+05,1948.8,7648.7
1.0479e+05,1948.8,6898.7
1.0479e+05,1948.8,7148.7
1.0479e+05,1948.8,7398.7
1.0479e+05,1948.8,7648.7
1.0479e+05,1948.8,7898.7
1.0479e+05,1948.8,7148.7
1.0479e+05,1948.8,7398.7
1.0479e+05,1948.8,7648.7
1.0479e+05,1948.8,7898.7
1.0479e+05,1948.8,8148.7
1.0479e+05,1948.8,6898.7
1.0479e+05,1948.8,7148.7
1.0479e+05,1948.8,7398.7
1.0479e+05,1948.8,6898.7
1.0479e+05,1948.8,7148.7
1.0479e+05,1948.8,7398.7
1.0479e+05,1948.8,7648.7
1.0479e+05,1948.8,6898.7
1.0479e+05,1948.8,7148.7
1.0479e+05,1948.8,7398.7
1.0479e+05,1948.8,7648.7
1.0479e+05,1948.8,7898.7
1.0479e+05,1948.8,7148.7
1.0479e+05,1948.8,7398.7
1.0479e+05,1948.8,7648.7
1.0479e+05,1948.8,7898.7
1.0479e+05,1948.8,8148.7
1.0479e+05,1948.8,7398.7
1.0479e+05,1948.8,7648.7
1.0479e+05,1948.8,7898.7
1.0479e+05,1948.8,8148.7
1.0479e+05,1948.8,8398.7
1.0479e+05,1948.8,6898.7
1.0479e+05,1948.8,7148.7
1.0479e+05,1948.8,7398.7
1.0479e+05,1948.8,7648.7
1.0479e+05,1948.8,6898.7
1.0479e+05,1948.8,7148.7
1.0479e+05,1948.8,7398.7
1.0479e+05,1948.8,7648.7
1.0479e+05,1948.8,7898.7
1.0479e+05,1948.8,7148.7
1.0479e+05,1948.8,7398.7
1.0479e+05,1948.8,7648.7
1.0479e+05,1948.8,7898.7
1.0479e+05,1948.8,8148.7
1.0479e+05,1948.8,7398.7
1.0479e+05,1948.8,7648.7
1.0479e+05,1948.8,7898.7
1.0479e+05,1948.8,8148.7
1.0479e+05,1948.8,8398.7
1.0479e+05,1948.8,7648.7
1.0479e+05,1948.8,7898.7
1.0479e+05,1948.8,8148.7
1.0479e+05,1948.8,8398.7
1.0479e+05,1948.8,8648.7
1.0479e+05,1948.8,6898.7
1.0479e+05,1948.8,7148.7
1.0479e+05,1948.8,7398.7
1.0479e+05,1948.8,7648.7
1.0479e+05,1948.8,7898.7
1.0479e+05,1948.8,7148.7
1.0479e+05,1948.8,7398.7
1.0479e+05,1948.8,7648.7
1.0479e+05,1948.8,7898.7
1.0479e+05,1948.8,8148.7
1.0479e+05,1948.8,7398.7
1.0479e+05,1948.8,7648.7
1.0479e+05,1948.8,7898.7
1.0479e+05,1948.8,8148.7
1.0479e+05,1948.8,8398.7
1.0479e+05,1948.8,7648.7
1.0479e+05,1948.8,7898.7
1.0479e+05,1948.8,8148.7
1.0479e+05,1948.8,8398.7
1.0479e+05,1948.8,8648.7
1.0479e+05,1948.8,7898.7
1.0479e+05,1948.8,8148.7
1.0479e+05,1948.8,8398.7
1.0479e+05,1948.8,8648.7
1.0479e+05,1948.8,8898.7
1.0479e+05,1948.8,6898.7
1.0479e+05,1948.8,7148.7
1.0479e+05,1948.8,7398.7
1.0479e+05,1948.8,6898.7
1.0479e+05,1948.8,7148.7
1.0479e+05,1948.8,7398.7
1.0479e+05,1948.8,7648.7
1.0479e+05,1948.8,6898.7
1.0479e+05,1948.8,7148.7
1.0479e+05,1948.8,7398.7
1.0479e+05,1948.8,7648.7
1.0479e+05,1948.8,7898.7
1.0479e+05,1948.8,7148.7
1.0479e+05,1948.8,7398.7
1.0479e+05,1948.8,7648.7
1.0479e+05,1948.8,7898.7
1.0479e+05,1948.8,8148.7
1.0479e+05,1948.8,6898.7
1.0479e+05,1948.8,7148.7
1.0479e+05,1948.8,7398.7
1.0479e+05,1948.8,6898.7
1.0479e+05,1948.8,7148.7
1.0479e+05,1948.8,7398.7
1.0479e+05,1948.8,7648.7
1.0479e+05,1948.8,6898.7
1.0479e+05,1948.8,7148.7
1.0479e+05,1948.8,7398.7
1.0479e+05,1948.8,7648.7
1.0479e+05,1948.8,7898.7
1.0479e+05,1948.8,7148.7
1.0479e+05,1948.8,7398.7
1.0479e+05,1948.8,7648.7
1.0479e+05,1948.8,7898.7
1.0479e+05,1948.8,8148.7
1.0479e+05,1948.8,7398.7
1.0479e+05,1948.8,7648.7
1.0479e+05,1948.8,7898.7
1.0479e+05,1948.8,8148.7
1.0479e+05,1948.8,8398.7
1.0479e+05,1948.8,6898.7
1.0479e+05,1948.8,7148.7
1.0479e+05,1948.8,7398.7
1.0479e+05,1948.8,7648.7
1.0479e+05,1948.8,6898.7
1.0479e+05,1948.8,7148.7
1.0479e+05,1948.8,7398.7
1.0479e+05,1948.8,7648.7
1.0479e+05,1948.8,7898.7
1.0479e+05,1948.8,7148.7
1.0479e+05,1948.8,7398.7
1.0479e+05,1948.8,7648.7
1.0479e+05,1948.8,7898.7
1.0479e+05,1948.8,8148.7
1.0479e+05,1948.8,7398.7
1.0479e+05,1948.8,7648.7
1.0479e+05,1948.8,7898.7
1.0479e+05,1948.8,8148.7
1.0479e+05,1948.8,8398.7
1.0479e+05,1948.8,7648.7
1.0479e+05,1948.8,7898.7
1.0479e+05,1948.8,8148.7
1.0479e+05,1948.8,8398.7
1.0479e+05,1948.8,8648.7
1.0479e+05,1948.8,6898.7
1.0479e+05,1948.8,7148.7
1.0479e+05,1948.8,7398.7
1.0479e+05,1948.8,7648.7
1.0479e+05,1948.8,7898.7
1.0479e+05,1948.8,7148.7
1.0479e+05,1948.8,7398.7
1.0479e+05,1948.8,7648.7
1.0479e+05,1948.8,7898.7
1.0479e+05,1948.8,8148.7
1.0479e+05,1948.8,7398.7
1.0479e+05,1948.8,7648.7
1.0479e+05,1948.8,7898.7
1.0479e+05,1948.8,8148.7
1.0479e+05,1948.8,8398.7
1.0479e+05,1948.8,7648.7
1.0479e+05,1948.8,7898.7
1.0479e+05,1948.8,8148.7
1.0479e+05,1948.8,8398.7
1.0479e+05,1948.8,8648.7
1.0479e+05,1948.8,7898.7
1.0479e+05,1948.8,8148.7
1.0479e+05,1948.8,8398.7
1.0479e+05,1948.8,8648.7
1.0479e+05,1948.8,8898.7
1.0479e+05,1948.8,7148.7
1.0479e+05,1948.8,7398.7
1.0479e+05,1948.8,7648.7
1.0479e+05,1948.8,7898.7
1.0479e+05,1948.8,8148.7
1.0479e+05,1948.8,7398.7
1.0479e+05,1948.8,7648.7
1.0479e+05,1948.8,7898.7
1.0479e+05,1948.8,8148.7
1.0479e+05,1948.8,8398.7
1.0479e+05,1948.8,7648.7
1.0479e+05,1948.8,7898.7
1.0479e+05,1948.8,8148.7
1.0479e+05,1948.8,8398.7
1.0479e+05,1948.8,8648.7
1.0479e+05,1948.8,7898.7
1.0479e+05,1948.8,8148.7
1.0479e+05,1948.8,8398.7
1.0479e+05,1948.8,8648.7
1.0479e+05,1948.8,8898.7
1.0479e+05,1948.8,8148.7
1.0479e+05,1948.8,8398.7
1.0479e+05,1948.8,8648.7
1.0479e+05,1948.8,8898.7
1.0479e+05,1948.8,9148.7
1.0479e+05,1948.8,6898.7
1.0479e+05,1948.8,7148.7
1.0479e+05,1948.8,7398.7
1.0479e+05,1948.8,6898.7
1.0479e+05,1948.8,7148.7
1.0479e+05,1948.8,7398.7
1.0479e+05,1948.8,7648.7
1.0479e+05,1948.8,6898.7
1.0479e+05,1948.8,7148.7
1.0479e+05,1948.8,7398.7
1.0479e+05,1948.8,7648.7
1.0479e+05,1948.8,7898.7
1.0479e+05,1948.8,7148.7
1.0479e+05,1948.8,7398.7
1.0479e+05,1948.8,7648.7
1.0479e+05,1948.8,7898.7
1.0479e+05,1948.8,8148.7
1.0479e+05,1948.8,7398.7
1.0479e+05,1948.8,7648.7
1.0479e+05,1948.8,7898.7
1.0479e+05,1948.8,8148.7
1.0479e+05,1948.8,8398.7
1.0479e+05,1948.8,6898.7
1.0479e+05,1948.8,7148.7
1.0479e+05,1948.8,7398.7
1.0479e+05,1948.8,7648.7
1.0479e+05,1948.8,6898.7
1.0479e+05,1948.8,7148.7
1.0479e+05,1948.8,7398.7
1.0479e+05,1948.8,7648.7
1.0479e+05,1948.8,7898.7
1.0479e+05,1948.8,7148.7
1.0479e+05,1948.8,7398.7
1.0479e+05,1948.8,7648.7
1.0479e+05,1948.8,7898.7
1.0479e+05,1948.8,8148.7
1.0479e+05,1948.8,7398.7
1.0479e+05,1948.8,7648.7
1.0479e+05,1948.8,7898.7
1.0479e+05,1948.8,8148.7
1.0479e+05,1948.8,8398.7
1.0479e+05,1948.8,7648.7
1.0479e+05,1948.8,7898.7
1.0479e+05,1948.8,8148.7
1.0479e+05,1948.8,8398.7
1.0479e+05,1948.8,8648.7
1.0479e+05,1948.8,6898.7
1.0479e+05,1948.8,7148.7
1.0479e+05,1948.8,7398.7
1.0479e+05,1948.8,7648.7
1.0479e+05,1948.8,7898.7
1.0479e+05,1948.8,7148.7
1.0479e+05,1948.8,7398.7
1.0479e+05,1948.8,7648.7
1.0479e+05,1948.8,7898.7
1.0479e+05,1948.8,8148.7
1.0479e+05,1948.8,7398.7
1.0479e+05,1948.8,7648.7
1.0479e+05,1948.8,7898.7
1.0479e+05,1948.8,8148.7
1.0479e+05,1948.8,8398.7
1.0479e+05,1948.8,7648.7
1.0479e+05,1948.8,7898.7
1.0479e+05,1948.8,8148.7
1.0479e+05,1948.8,8398.7
1.0479e+05,1948.8,8648.7
1.0479e+05,1948.8,7898.7
1.0479e+05,1948.8,8148.7
1.0479e+05,1948.8,8398.7
1.0479e+05,1948.8,8648.7
1.0479e+05,1948.8,8898.7
1.0479e+05,1948.8,7148.7
1.0479e+05,1948.8,7398.7
1.0479e+05,1948.8,7648.7
1.0479e+05,1948.8,7898.7
1.0479e+05,1948.8,8148.7
1.0479e+05,1948.8,7398.7
1.0479e+05,1948.8,7648.7
1.0479e+05,1948.8,7898.7
1.0479e+05,1948.8,8148.7
1.0479e+05,1948.8,8398.7
1.0479e+05,1948.8,7648.7
1.0479e+05,1948.8,7898.7
1.0479e+05,1948.8,8148.7
1.0479e+05,1948.8,8398.7
1.0479e+05,1948.8,8648.7
1.0479e+05,1948.8,7898.7
1.0479e+05,1948.8,8148.7
1.0479e+05,1948.8,8398.7
1.0479e+05,1948.8,8648.7
1.0479e+05,1948.8,8898.7
1.0479e+05,1948.8,8148.7
1.0479e+05,1948.8,8398.7
1.0479e+05,1948.8,8648.7
1.0479e+05,1948.8,8898.7
1.0479e+05,1948.8,9148.7
1.0479e+05,1948.8,7398.7
1.0479e+05,1948.8,7648.7
1.0479e+05,1948.8,7898.7
1.0479e+05,1948.8,8148.7
1.0479e+05,1948.8,8398.7
1.0479e+05,1948.8,7648.7
1.0479e+05,1948.8,7898.7
1.0479e+05,1948.8,8148.7
1.0479e+05,1948.8,8398.7
1.0479e+05,1948.8,8648.7
1.0479e+05,1948.8,7898.7
1.0479e+05,1948.8,8148.7
1.0479e+05,1948.8,8398.7
1.0479e+05,1948.8,8648.7
1.0479e+05,1948.8,8898.7
1.0479e+05,1948.8,8148.7
1.0479e+05,1948.8,8398.7
1.0479e+05,1948.8,8648.7
1.0479e+05,1948.8,8898.7
1.0479e+05,1948.8,9148.7
1.0479e+05,1948.8,8398.7
1.0479e+05,1948.8,8648.7
1.0479e+05,1948.8,8898.7
1.0479e+05,1948.8,9148.7
1.0479e+05,1948.8,9398.7
1.0479e+05,1948.8,6898.7
1.0479e+05,1948.8,7148.7
1.0479e+05,1948.8,7398.7
1.0479e+05,1948.8,7648.7
1.0479e+05,1948.8,6898.7
1.0479e+05,1948.8,7148.7
1.0479e+05,1948.8,7398.7
1.0479e+05,1948.8,7648.7
1.0479e+05,1948.8,7898.7
1.0479e+05,1948.8,7148.7
1.0479e+05,1948.8,7398.7
1.0479e+05,1948.8,7648.7
1.0479e+05,1948.8,7898.7
1.0479e+05,1948.8,8148.7
1.0479e+05,1948.8,7398.7
1.0479e+05,1948.8,7648.7
1.0479e+05,1948.8,7898.7
1.0479e+05,1948.8,8148.7
1.0479e+05,1948.8,8398.7
1.0479e+05,1948.8,7648.7
1.0479e+05,1948.8,7898.7
1.0479e+05,1948.8,8148.7
1.0479e+05,1948.8,8398.7
1.0479e+05,1948.8,8648.7
1.0479e+05,1948.8,6898.7
1.0479e+05,1948.8,7148.7
1.0479e+05,1948.8,7398.7
1.0479e+05,1948.8,7648.7
1.0479e+05,1948.8,7898.7
1.0479e+05,1948.8,7148.7
1.0479e+05,1948.8,7398.7
1.0479e+05,1948.8,7648.7
1.0479e+05,1948.8,7898.7
1.0479e+05,1948.8,8148.7
1.0479e+05,1948.8,7398.7
1.0479e+05,1948.8,7648.7
1.0479e+05,1948.8,7898.7
1.0479e+05,1948.8,8148.7
1.0479e+05,1948.8,8398.7
1.0479e+05,1948.8,7648.7
1.0479e+05,1948.8,7898.7
1.0479e+05,1948.8,8148.7
1.0479e+05,1948.8,8398.7
1.0479e+05,1948.8,8648.7
1.0479e+05,1948.8,7898.7
1.0479e+05,1948.8,8148.7
1.0479e+05,1948.8,8398.7
1.0479e+05,1948.8,8648.7
1.0479e+05,1948.8,8898.7
1.0479e+05,1948.8,7148.7
1.0479e+05,1948.8,7398.7
1.0479e+05,1948.8,7648.7
1.0479e+05,1948.8,7898.7
1.0479e+05,1948.8,8148.7
1.0479e+05,1948.8,7398.7
1.0479e+05,1948.8,7648.7
1.0479e+05,1948.8,7898.7
1.0479e+05,1948.8,8148.7
1.0479e+05,1948.8,8398.7
1.0479e+05,1948.8,7648.7
1.0479e+05,1948.8,7898.7
1.0479e+05,1948.8,8148.7
1.0479e+05,1948.8,8398.7
1.0479e+05,1948.8,8648.7
1.0479e+05,1948.8,7898.7
1.0479e+05,1948.8,8148.7
1.0479e+05,1948.8,8398.7
1.0479e+05,1948.8,8648.7
1.0479e+05,1948.8,8898.7
1.0479e+05,1948.8,8148.7
1.0479e+05,1948.8,8398.7
1.0479e+05,1948.8,8648.7
1.0479e+05,1948.8,8898.7
1.0479e+05,1948.8,9148.7
1.0479e+05,1948.8,7398.7
1.0479e+05,1948.8,7648.7
1.0479e+05,1948.8,7898.7
1.0479e+05,1948.8,8148.7
1.0479e+05,1948.8,8398.7
1.0479e+05,1948.8,7648.7
1.0479e+05,1948.8,7898.7
1.0479e+05,1948.8,8148.7
1.0479e+05,1948.8,8398.7
1.0479e+05,1948.8,8648.7
1.0479e+05,1948.8,7898.7
1.0479e+05,1948.8,8148.7
1.0479e+05,1948.8,8398.7
1.0479e+05,1948.8,8648.7
1.0479e+05,1948.8,8898.7
1.0479e+05,1948.8,8148.7
1.0479e+05,1948.8,8398.7
1.0479e+05,1948.8,8648.7
1.0479e+05,1948.8,8898.7
1.0479e+05,1948.8,9148.7
1.0479e+05,1948.8,8398.7
1.0479e+05,1948.8,8648.7
1.0479e+05,1948.8,8898.7
1.0479e+05,1948.8,9148.7
1.0479e+05,1948.8,9398.7
1.0479e+05,1948.8,7648.7
1.0479e+05,1948.8,7898.7
1.0479e+05,1948.8,8148.7
1.0479e+05,1948.8,8398.7
1.0479e+05,1948.8,8648.7
1.0479e+05,1948.8,7898.7
1.0479e+05,1948.8,8148.7
1.0479e+05,1948.8,8398.7
1.0479e+05,1948.8,8648.7
1.0479e+05,1948.8,8898.7
1.0479e+05,1948.8,8148.7
1.0479e+05,1948.8,8398.7
1.0479e+05,1948.8,8648.7
1.0479e+05,1948.8,8898.7
1.0479e+05,1948.8,9148.7
1.0479e+05,1948.8,8398.7
1.0479e+05,1948.8,8648.7
1.0479e+05,1948.8,8898.7
1.0479e+05,1948.8,9148.7
1.0479e+05,1948.8,9398.7
1.0479e+05,1948.8,8648.7
1.0479e+05,1948.8,8898.7
1.0479e+05,1948.8,9148.7
1.0479e+05,1948.8,9398.7
1.0479e+05,1948.8,9648.7
