61536,1948.8,6000
60634,1948.8,5500
60634,1948.8,5750
59732,1948.8,5000
59732,1948.8,5250
59732,1948.8,5250
58830,1948.8,4500
58830,1948.8,4750
58830,1948.8,4750
58830,1948.8,4750
57928,1948.8,4000
57928,1948.8,4250
57928,1948.8,4250
57928,1948.8,4250
57928,1948.8,4250
57026,1948.8,3500
57026,1948.8,3750
57026,1948.8,4000
57026,1948.8,4250
57026,1948.8,4500
57026,1948.8,3750
57026,1948.8,4000
57026,1948.8,4250
57026,1948.8,4500
57026,1948.8,4750
57026,1948.8,3750
57026,1948.8,4000
57026,1948.8,4250
57026,1948.8,4500
57026,1948.8,4750
57026,1948.8,3750
57026,1948.8,4000
57026,1948.8,4250
57026,1948.8,4500
57026,1948.8,4750
57026,1948.8,3750
57026,1948.8,4000
57026,1948.8,4250
57026,1948.8,4500
57026,1948.8,4750
56124,1948.8,3000
56124,1948.8,3250
56124,1948.8,3500
56124,1948.8,3750
56124,1948.8,4000
56124,1948.8,3250
56124,1948.8,3500
56124,1948.8,3750
56124,1948.8,4000
56124,1948.8,4250
56124,1948.8,3500
56124,1948.8,3750
56124,1948.8,4000
56124,1948.8,4250
56124,1948.8,3750
56124,1948.8,4000
56124,1948.8,4250
56124,1948.8,4000
56124,1948.8,4250
56124,1948.8,3250
56124,1948.8,3500
56124,1948.8,3750
56124,1948.8,4000
56124,1948.8,4250
56124,1948.8,3500
56124,1948.8,3750
56124,1948.8,4000
56124,1948.8,4250
56124,1948.8,3750
56124,1948.8,4000
56124,1948.8,4250
56124,1948.8,4000
56124,1948.8,4250
56124,1948.8,4250
56124,1948.8,3250
56124,1948.8,3500
56124,1948.8,3750
56124,1948.8,4000
56124,1948.8,4250
56124,1948.8,3500
56124,1948.8,3750
56124,1948.8,4000
56124,1948.8,4250
56124,1948.8,3750
56124,1948.8,4000
56124,1948.8,4250
56124,1948.8,4000
56124,1948.8,4250
56124,1948.8,4250
56124,1948.8,3250
56124,1948.8,3500
56124,1948.8,3750
56124,1948.8,4000
56124,1948.8,4250
56124,1948.8,3500
56124,1948.8,3750
56124,1948.8,4000
56124,1948.8,4250
56124,1948.8,3750
56124,1948.8,4000
56124,1948.8,4250
56124,1948.8,4000
56124,1948.8,4250
56124,1948.8,4250
56124,1948.8,3250
56124,1948.8,3500
56124,1948.8,3750
56124,1948.8,4000
56124,1948.8,4250
56124,1948.8,3500
56124,1948.8,3750
56124,1948.8,4000
56124,1948.8,4250
56124,1948.8,3750
56124,1948.8,4000
56124,1948.8,4250
56124,1948.8,4000
56124,1948.8,4250
56124,1948.8,4250
