27444,1948.8,5351
28346,1948.8,4851
28346,1948.8,5101
29248,1948.8,4351
29248,1948.8,4601
29248,1948.8,4851
29248,1948.8,5101
29248,1948.8,4601
29248,1948.8,4851
29248,1948.8,5101
30150,1948.8,3851
30150,1948.8,4101
30150,1948.8,4351
30150,1948.8,4601
30150,1948.8,4851
30150,1948.8,4101
30150,1948.8,4351
30150,1948.8,4601
30150,1948.8,4851
30150,1948.8,5101
30150,1948.8,4351
30150,1948.8,4601
30150,1948.8,4851
30150,1948.8,5101
30150,1948.8,4601
30150,1948.8,4851
30150,1948.8,5101
30150,1948.8,4101
30150,1948.8,4351
30150,1948.8,4601
30150,1948.8,4851
30150,1948.8,5101
30150,1948.8,4351
30150,1948.8,4601
30150,1948.8,4851
30150,1948.8,5101
30150,1948.8,4601
30150,1948.8,4851
30150,1948.8,5101
31052,1948.8,3351
31052,1948.8,3601
31052,1948.8,3851
31052,1948.8,4101
31052,1948.8,4351
31052,1948.8,3601
31052,1948.8,3851
31052,1948.8,4101
31052,1948.8,4351
31052,1948.8,4601
31052,1948.8,3851
31052,1948.8,4101
31052,1948.8,4351
31052,1948.8,4601
31052,1948.8,4851
31052,1948.8,4101
31052,1948.8,4351
31052,1948.8,4601
31052,1948.8,4851
31052,1948.8,5101
31052,1948.8,4351
31052,1948.8,4601
31052,1948.8,4851
31052,1948.8,5101
31052,1948.8,3601
31052,1948.8,3851
31052,1948.8,4101
31052,1948.8,4351
31052,1948.8,4601
31052,1948.8,3851
31052,1948.8,4101
31052,1948.8,4351
31052,1948.8,4601
31052,1948.8,4851
31052,1948.8,4101
31052,1948.8,4351
31052,1948.8,4601
31052,1948.8,4851
31052,1948.8,5101
31052,1948.8,4351
31052,1948.8,4601
31052,1948.8,4851
31052,1948.8,5101
31052,1948.8,4601
31052,1948.8,4851
31052,1948.8,5101
31052,1948.8,3851
31052,1948.8,4101
31052,1948.8,4351
31052,1948.8,4601
31052,1948.8,4851
31052,1948.8,4101
31052,1948.8,4351
31052,1948.8,4601
31052,1948.8,4851
31052,1948.8,5101
31052,1948.8,4351
31052,1948.8,4601
31052,1948.8,4851
31052,1948.8,5101
31052,1948.8,4601
31052,1948.8,4851
31052,1948.8,5101
31052,1948.8,4101
31052,1948.8,4351
31052,1948.8,4601
31052,1948.8,4851
31052,1948.8,5101
31052,1948.8,4351
31052,1948.8,4601
31052,1948.8,4851
31052,1948.8,5101
31052,1948.8,4601
31052,1948.8,4851
31052,1948.8,5101
31052,1948.8,3601
31052,1948.8,3851
31052,1948.8,4101
31052,1948.8,4351
31052,1948.8,4601
31052,1948.8,3851
31052,1948.8,4101
31052,1948.8,4351
31052,1948.8,4601
31052,1948.8,4851
31052,1948.8,4101
31052,1948.8,4351
31052,1948.8,4601
31052,1948.8,4851
31052,1948.8,5101
31052,1948.8,4351
31052,1948.8,4601
31052,1948.8,4851
31052,1948.8,5101
31052,1948.8,4601
31052,1948.8,4851
31052,1948.8,5101
31052,1948.8,3851
31052,1948.8,4101
31052,1948.8,4351
31052,1948.8,4601
31052,1948.8,4851
31052,1948.8,4101
31052,1948.8,4351
31052,1948.8,4601
31052,1948.8,4851
31052,1948.8,5101
31052,1948.8,4351
31052,1948.8,4601
31052,1948.8,4851
31052,1948.8,5101
31052,1948.8,4601
31052,1948.8,4851
31052,1948.8,5101
31052,1948.8,4101
31052,1948.8,4351
31052,1948.8,4601
31052,1948.8,4851
31052,1948.8,5101
31052,1948.8,4351
31052,1948.8,4601
31052,1948.8,4851
31052,1948.8,5101
31052,1948.8,4601
31052,1948.8,4851
31052,1948.8,5101
31954,1948.8,2851
31954,1948.8,3101
31954,1948.8,3351
31954,1948.8,3601
31954,1948.8,3851
31954,1948.8,3101
31954,1948.8,3351
31954,1948.8,3601
31954,1948.8,3851
31954,1948.8,4101
31954,1948.8,3351
31954,1948.8,3601
31954,1948.8,3851
31954,1948.8,4101
31954,1948.8,4351
31954,1948.8,3601
31954,1948.8,3851
31954,1948.8,4101
31954,1948.8,4351
31954,1948.8,4601
31954,1948.8,3851
31954,1948.8,4101
31954,1948.8,4351
31954,1948.8,4601
31954,1948.8,4851
31954,1948.8,3101
31954,1948.8,3351
31954,1948.8,3601
31954,1948.8,3851
31954,1948.8,4101
31954,1948.8,3351
31954,1948.8,3601
31954,1948.8,3851
31954,1948.8,4101
31954,1948.8,4351
31954,1948.8,3601
31954,1948.8,3851
31954,1948.8,4101
31954,1948.8,4351
31954,1948.8,4601
31954,1948.8,3851
31954,1948.8,4101
31954,1948.8,4351
31954,1948.8,4601
31954,1948.8,4851
31954,1948.8,4101
31954,1948.8,4351
31954,1948.8,4601
31954,1948.8,4851
31954,1948.8,5101
31954,1948.8,3351
31954,1948.8,3601
31954,1948.8,3851
31954,1948.8,4101
31954,1948.8,4351
31954,1948.8,3601
31954,1948.8,3851
31954,1948.8,4101
31954,1948.8,4351
31954,1948.8,4601
31954,1948.8,3851
31954,1948.8,4101
31954,1948.8,4351
31954,1948.8,4601
31954,1948.8,4851
31954,1948.8,4101
31954,1948.8,4351
31954,1948.8,4601
31954,1948.8,4851
31954,1948.8,5101
31954,1948.8,4351
31954,1948.8,4601
31954,1948.8,4851
31954,1948.8,5101
31954,1948.8,3601
31954,1948.8,3851
31954,1948.8,4101
31954,1948.8,4351
31954,1948.8,4601
31954,1948.8,3851
31954,1948.8,4101
31954,1948.8,4351
31954,1948.8,4601
31954,1948.8,4851
31954,1948.8,4101
31954,1948.8,4351
31954,1948.8,4601
31954,1948.8,4851
31954,1948.8,5101
31954,1948.8,4351
31954,1948.8,4601
31954,1948.8,4851
31954,1948.8,5101
31954,1948.8,4601
31954,1948.8,4851
31954,1948.8,5101
31954,1948.8,3851
31954,1948.8,4101
31954,1948.8,4351
31954,1948.8,4601
31954,1948.8,4851
31954,1948.8,4101
31954,1948.8,4351
31954,1948.8,4601
31954,1948.8,4851
31954,1948.8,5101
31954,1948.8,4351
31954,1948.8,4601
31954,1948.8,4851
31954,1948.8,5101
31954,1948.8,4601
31954,1948.8,4851
31954,1948.8,5101
31954,1948.8,3101
31954,1948.8,3351
31954,1948.8,3601
31954,1948.8,3851
31954,1948.8,4101
31954,1948.8,3351
31954,1948.8,3601
31954,1948.8,3851
31954,1948.8,4101
31954,1948.8,4351
31954,1948.8,3601
31954,1948.8,3851
31954,1948.8,4101
31954,1948.8,4351
31954,1948.8,4601
31954,1948.8,3851
31954,1948.8,4101
31954,1948.8,4351
31954,1948.8,4601
31954,1948.8,4851
31954,1948.8,4101
31954,1948.8,4351
31954,1948.8,4601
31954,1948.8,4851
31954,1948.8,5101
31954,1948.8,3351
31954,1948.8,3601
31954,1948.8,3851
31954,1948.8,4101
31954,1948.8,4351
31954,1948.8,3601
31954,1948.8,3851
31954,1948.8,4101
31954,1948.8,4351
31954,1948.8,4601
31954,1948.8,3851
31954,1948.8,4101
31954,1948.8,4351
31954,1948.8,4601
31954,1948.8,4851
31954,1948.8,4101
31954,1948.8,4351
31954,1948.8,4601
31954,1948.8,4851
31954,1948.8,5101
31954,1948.8,4351
31954,1948.8,4601
31954,1948.8,4851
31954,1948.8,5101
31954,1948.8,3601
31954,1948.8,3851
31954,1948.8,4101
31954,1948.8,4351
31954,1948.8,4601
31954,1948.8,3851
31954,1948.8,4101
31954,1948.8,4351
31954,1948.8,4601
31954,1948.8,4851
31954,1948.8,4101
31954,1948.8,4351
31954,1948.8,4601
31954,1948.8,4851
31954,1948.8,5101
31954,1948.8,4351
31954,1948.8,4601
31954,1948.8,4851
31954,1948.8,5101
31954,1948.8,4601
31954,1948.8,4851
31954,1948.8,5101
31954,1948.8,3851
31954,1948.8,4101
31954,1948.8,4351
31954,1948.8,4601
31954,1948.8,4851
31954,1948.8,4101
31954,1948.8,4351
31954,1948.8,4601
31954,1948.8,4851
31954,1948.8,5101
31954,1948.8,4351
31954,1948.8,4601
31954,1948.8,4851
31954,1948.8,5101
31954,1948.8,4601
31954,1948.8,4851
31954,1948.8,5101
31954,1948.8,4101
31954,1948.8,4351
31954,1948.8,4601
31954,1948.8,4851
31954,1948.8,5101
31954,1948.8,4351
31954,1948.8,4601
31954,1948.8,4851
31954,1948.8,5101
31954,1948.8,4601
31954,1948.8,4851
31954,1948.8,5101
31954,1948.8,3351
31954,1948.8,3601
31954,1948.8,3851
31954,1948.8,4101
31954,1948.8,4351
31954,1948.8,3601
31954,1948.8,3851
31954,1948.8,4101
31954,1948.8,4351
31954,1948.8,4601
31954,1948.8,3851
31954,1948.8,4101
31954,1948.8,4351
31954,1948.8,4601
31954,1948.8,4851
31954,1948.8,4101
31954,1948.8,4351
31954,1948.8,4601
31954,1948.8,4851
31954,1948.8,5101
31954,1948.8,4351
31954,1948.8,4601
31954,1948.8,4851
31954,1948.8,5101
31954,1948.8,3601
31954,1948.8,3851
31954,1948.8,4101
31954,1948.8,4351
31954,1948.8,4601
31954,1948.8,3851
31954,1948.8,4101
31954,1948.8,4351
31954,1948.8,4601
31954,1948.8,4851
31954,1948.8,4101
31954,1948.8,4351
31954,1948.8,4601
31954,1948.8,4851
31954,1948.8,5101
31954,1948.8,4351
31954,1948.8,4601
31954,1948.8,4851
31954,1948.8,5101
31954,1948.8,4601
31954,1948.8,4851
31954,1948.8,5101
31954,1948.8,3851
31954,1948.8,4101
31954,1948.8,4351
31954,1948.8,4601
31954,1948.8,4851
31954,1948.8,4101
31954,1948.8,4351
31954,1948.8,4601
31954,1948.8,4851
31954,1948.8,5101
31954,1948.8,4351
31954,1948.8,4601
31954,1948.8,4851
31954,1948.8,5101
31954,1948.8,4601
31954,1948.8,4851
31954,1948.8,5101
31954,1948.8,4101
31954,1948.8,4351
31954,1948.8,4601
31954,1948.8,4851
31954,1948.8,5101
31954,1948.8,4351
31954,1948.8,4601
31954,1948.8,4851
31954,1948.8,5101
31954,1948.8,4601
31954,1948.8,4851
31954,1948.8,5101
31954,1948.8,3601
31954,1948.8,3851
31954,1948.8,4101
31954,1948.8,4351
31954,1948.8,4601
31954,1948.8,3851
31954,1948.8,4101
31954,1948.8,4351
31954,1948.8,4601
31954,1948.8,4851
31954,1948.8,4101
31954,1948.8,4351
31954,1948.8,4601
31954,1948.8,4851
31954,1948.8,5101
31954,1948.8,4351
31954,1948.8,4601
31954,1948.8,4851
31954,1948.8,5101
31954,1948.8,4601
31954,1948.8,4851
31954,1948.8,5101
31954,1948.8,3851
31954,1948.8,4101
31954,1948.8,4351
31954,1948.8,4601
31954,1948.8,4851
31954,1948.8,4101
31954,1948.8,4351
31954,1948.8,4601
31954,1948.8,4851
31954,1948.8,5101
31954,1948.8,4351
31954,1948.8,4601
31954,1948.8,4851
31954,1948.8,5101
31954,1948.8,4601
31954,1948.8,4851
31954,1948.8,5101
31954,1948.8,4101
31954,1948.8,4351
31954,1948.8,4601
31954,1948.8,4851
31954,1948.8,5101
31954,1948.8,4351
31954,1948.8,4601
31954,1948.8,4851
31954,1948.8,5101
31954,1948.8,4601
31954,1948.8,4851
31954,1948.8,5101
31954,1948.8,3101
31954,1948.8,3351
31954,1948.8,3601
31954,1948.8,3851
31954,1948.8,4101
31954,1948.8,3351
31954,1948.8,3601
31954,1948.8,3851
31954,1948.8,4101
31954,1948.8,4351
31954,1948.8,3601
31954,1948.8,3851
31954,1948.8,4101
31954,1948.8,4351
31954,1948.8,4601
31954,1948.8,3851
31954,1948.8,4101
31954,1948.8,4351
31954,1948.8,4601
31954,1948.8,4851
31954,1948.8,4101
31954,1948.8,4351
31954,1948.8,4601
31954,1948.8,4851
31954,1948.8,5101
31954,1948.8,3351
31954,1948.8,3601
31954,1948.8,3851
31954,1948.8,4101
31954,1948.8,4351
31954,1948.8,3601
31954,1948.8,3851
31954,1948.8,4101
31954,1948.8,4351
31954,1948.8,4601
31954,1948.8,3851
31954,1948.8,4101
31954,1948.8,4351
31954,1948.8,4601
31954,1948.8,4851
31954,1948.8,4101
31954,1948.8,4351
31954,1948.8,4601
31954,1948.8,4851
31954,1948.8,5101
31954,1948.8,4351
31954,1948.8,4601
31954,1948.8,4851
31954,1948.8,5101
31954,1948.8,3601
31954,1948.8,3851
31954,1948.8,4101
31954,1948.8,4351
31954,1948.8,4601
31954,1948.8,3851
31954,1948.8,4101
31954,1948.8,4351
31954,1948.8,4601
31954,1948.8,4851
31954,1948.8,4101
31954,1948.8,4351
31954,1948.8,4601
31954,1948.8,4851
31954,1948.8,5101
31954,1948.8,4351
31954,1948.8,4601
31954,1948.8,4851
31954,1948.8,5101
31954,1948.8,4601
31954,1948.8,4851
31954,1948.8,5101
31954,1948.8,3851
31954,1948.8,4101
31954,1948.8,4351
31954,1948.8,4601
31954,1948.8,4851
31954,1948.8,4101
31954,1948.8,4351
31954,1948.8,4601
31954,1948.8,4851
31954,1948.8,5101
31954,1948.8,4351
31954,1948.8,4601
31954,1948.8,4851
31954,1948.8,5101
31954,1948.8,4601
31954,1948.8,4851
31954,1948.8,5101
31954,1948.8,4101
31954,1948.8,4351
31954,1948.8,4601
31954,1948.8,4851
31954,1948.8,5101
31954,1948.8,4351
31954,1948.8,4601
31954,1948.8,4851
31954,1948.8,5101
31954,1948.8,4601
31954,1948.8,4851
31954,1948.8,5101
31954,1948.8,3351
31954,1948.8,3601
31954,1948.8,3851
31954,1948.8,4101
31954,1948.8,4351
31954,1948.8,3601
31954,1948.8,3851
31954,1948.8,4101
31954,1948.8,4351
31954,1948.8,4601
31954,1948.8,3851
31954,1948.8,4101
31954,1948.8,4351
31954,1948.8,4601
31954,1948.8,4851
31954,1948.8,4101
31954,1948.8,4351
31954,1948.8,4601
31954,1948.8,4851
31954,1948.8,5101
31954,1948.8,4351
31954,1948.8,4601
31954,1948.8,4851
31954,1948.8,5101
31954,1948.8,3601
31954,1948.8,3851
31954,1948.8,4101
31954,1948.8,4351
31954,1948.8,4601
31954,1948.8,3851
31954,1948.8,4101
31954,1948.8,4351
31954,1948.8,4601
31954,1948.8,4851
31954,1948.8,4101
31954,1948.8,4351
31954,1948.8,4601
31954,1948.8,4851
31954,1948.8,5101
31954,1948.8,4351
31954,1948.8,4601
31954,1948.8,4851
31954,1948.8,5101
31954,1948.8,4601
31954,1948.8,4851
31954,1948.8,5101
31954,1948.8,3851
31954,1948.8,4101
31954,1948.8,4351
31954,1948.8,4601
31954,1948.8,4851
31954,1948.8,4101
31954,1948.8,4351
31954,1948.8,4601
31954,1948.8,4851
31954,1948.8,5101
31954,1948.8,4351
31954,1948.8,4601
31954,1948.8,4851
31954,1948.8,5101
31954,1948.8,4601
31954,1948.8,4851
31954,1948.8,5101
31954,1948.8,4101
31954,1948.8,4351
31954,1948.8,4601
31954,1948.8,4851
31954,1948.8,5101
31954,1948.8,4351
31954,1948.8,4601
31954,1948.8,4851
31954,1948.8,5101
31954,1948.8,4601
31954,1948.8,4851
31954,1948.8,5101
31954,1948.8,3601
31954,1948.8,3851
31954,1948.8,4101
31954,1948.8,4351
31954,1948.8,4601
31954,1948.8,3851
31954,1948.8,4101
31954,1948.8,4351
31954,1948.8,4601
31954,1948.8,4851
31954,1948.8,4101
31954,1948.8,4351
31954,1948.8,4601
31954,1948.8,4851
31954,1948.8,5101
31954,1948.8,4351
31954,1948.8,4601
31954,1948.8,4851
31954,1948.8,5101
31954,1948.8,4601
31954,1948.8,4851
31954,1948.8,5101
31954,1948.8,3851
31954,1948.8,4101
31954,1948.8,4351
31954,1948.8,4601
31954,1948.8,4851
31954,1948.8,4101
31954,1948.8,4351
31954,1948.8,4601
31954,1948.8,4851
31954,1948.8,5101
31954,1948.8,4351
31954,1948.8,4601
31954,1948.8,4851
31954,1948.8,5101
31954,1948.8,4601
31954,1948.8,4851
31954,1948.8,5101
31954,1948.8,4101
31954,1948.8,4351
31954,1948.8,4601
31954,1948.8,4851
31954,1948.8,5101
31954,1948.8,4351
31954,1948.8,4601
31954,1948.8,4851
31954,1948.8,5101
31954,1948.8,4601
31954,1948.8,4851
31954,1948.8,5101
32856,1948.8,2351
32856,1948.8,2601
32856,1948.8,2851
32856,1948.8,3101
32856,1948.8,3351
32856,1948.8,2601
32856,1948.8,2851
32856,1948.8,3101
32856,1948.8,3351
32856,1948.8,3601
32856,1948.8,2851
32856,1948.8,3101
32856,1948.8,3351
32856,1948.8,3601
32856,1948.8,3851
32856,1948.8,3101
32856,1948.8,3351
32856,1948.8,3601
32856,1948.8,3851
32856,1948.8,4101
32856,1948.8,3351
32856,1948.8,3601
32856,1948.8,3851
32856,1948.8,4101
32856,1948.8,4351
32856,1948.8,2601
32856,1948.8,2851
32856,1948.8,3101
32856,1948.8,3351
32856,1948.8,3601
32856,1948.8,2851
32856,1948.8,3101
32856,1948.8,3351
32856,1948.8,3601
32856,1948.8,3851
32856,1948.8,3101
32856,1948.8,3351
32856,1948.8,3601
32856,1948.8,3851
32856,1948.8,4101
32856,1948.8,3351
32856,1948.8,3601
32856,1948.8,3851
32856,1948.8,4101
32856,1948.8,4351
32856,1948.8,3601
32856,1948.8,3851
32856,1948.8,4101
32856,1948.8,4351
32856,1948.8,4601
32856,1948.8,2851
32856,1948.8,3101
32856,1948.8,3351
32856,1948.8,3601
32856,1948.8,3851
32856,1948.8,3101
32856,1948.8,3351
32856,1948.8,3601
32856,1948.8,3851
32856,1948.8,4101
32856,1948.8,3351
32856,1948.8,3601
32856,1948.8,3851
32856,1948.8,4101
32856,1948.8,4351
32856,1948.8,3601
32856,1948.8,3851
32856,1948.8,4101
32856,1948.8,4351
32856,1948.8,4601
32856,1948.8,3851
32856,1948.8,4101
32856,1948.8,4351
32856,1948.8,4601
32856,1948.8,4851
32856,1948.8,3101
32856,1948.8,3351
32856,1948.8,3601
32856,1948.8,3851
32856,1948.8,4101
32856,1948.8,3351
32856,1948.8,3601
32856,1948.8,3851
32856,1948.8,4101
32856,1948.8,4351
32856,1948.8,3601
32856,1948.8,3851
32856,1948.8,4101
32856,1948.8,4351
32856,1948.8,4601
32856,1948.8,3851
32856,1948.8,4101
32856,1948.8,4351
32856,1948.8,4601
32856,1948.8,4851
32856,1948.8,4101
32856,1948.8,4351
32856,1948.8,4601
32856,1948.8,4851
32856,1948.8,5101
32856,1948.8,3351
32856,1948.8,3601
32856,1948.8,3851
32856,1948.8,4101
32856,1948.8,4351
32856,1948.8,3601
32856,1948.8,3851
32856,1948.8,4101
32856,1948.8,4351
32856,1948.8,4601
32856,1948.8,3851
32856,1948.8,4101
32856,1948.8,4351
32856,1948.8,4601
32856,1948.8,4851
32856,1948.8,4101
32856,1948.8,4351
32856,1948.8,4601
32856,1948.8,4851
32856,1948.8,5101
32856,1948.8,4351
32856,1948.8,4601
32856,1948.8,4851
32856,1948.8,5101
32856,1948.8,2601
32856,1948.8,2851
32856,1948.8,3101
32856,1948.8,3351
32856,1948.8,3601
32856,1948.8,2851
32856,1948.8,3101
32856,1948.8,3351
32856,1948.8,3601
32856,1948.8,3851
32856,1948.8,3101
32856,1948.8,3351
32856,1948.8,3601
32856,1948.8,3851
32856,1948.8,4101
32856,1948.8,3351
32856,1948.8,3601
32856,1948.8,3851
32856,1948.8,4101
32856,1948.8,4351
32856,1948.8,3601
32856,1948.8,3851
32856,1948.8,4101
32856,1948.8,4351
32856,1948.8,4601
32856,1948.8,2851
32856,1948.8,3101
32856,1948.8,3351
32856,1948.8,3601
32856,1948.8,3851
32856,1948.8,3101
32856,1948.8,3351
32856,1948.8,3601
32856,1948.8,3851
32856,1948.8,4101
32856,1948.8,3351
32856,1948.8,3601
32856,1948.8,3851
32856,1948.8,4101
32856,1948.8,4351
32856,1948.8,3601
32856,1948.8,3851
32856,1948.8,4101
32856,1948.8,4351
32856,1948.8,4601
32856,1948.8,3851
32856,1948.8,4101
32856,1948.8,4351
32856,1948.8,4601
32856,1948.8,4851
32856,1948.8,3101
32856,1948.8,3351
32856,1948.8,3601
32856,1948.8,3851
32856,1948.8,4101
32856,1948.8,3351
32856,1948.8,3601
32856,1948.8,3851
32856,1948.8,4101
32856,1948.8,4351
32856,1948.8,3601
32856,1948.8,3851
32856,1948.8,4101
32856,1948.8,4351
32856,1948.8,4601
32856,1948.8,3851
32856,1948.8,4101
32856,1948.8,4351
32856,1948.8,4601
32856,1948.8,4851
32856,1948.8,4101
32856,1948.8,4351
32856,1948.8,4601
32856,1948.8,4851
32856,1948.8,5101
32856,1948.8,3351
32856,1948.8,3601
32856,1948.8,3851
32856,1948.8,4101
32856,1948.8,4351
32856,1948.8,3601
32856,1948.8,3851
32856,1948.8,4101
32856,1948.8,4351
32856,1948.8,4601
32856,1948.8,3851
32856,1948.8,4101
32856,1948.8,4351
32856,1948.8,4601
32856,1948.8,4851
32856,1948.8,4101
32856,1948.8,4351
32856,1948.8,4601
32856,1948.8,4851
32856,1948.8,5101
32856,1948.8,4351
32856,1948.8,4601
32856,1948.8,4851
32856,1948.8,5101
32856,1948.8,3601
32856,1948.8,3851
32856,1948.8,4101
32856,1948.8,4351
32856,1948.8,4601
32856,1948.8,3851
32856,1948.8,4101
32856,1948.8,4351
32856,1948.8,4601
32856,1948.8,4851
32856,1948.8,4101
32856,1948.8,4351
32856,1948.8,4601
32856,1948.8,4851
32856,1948.8,5101
32856,1948.8,4351
32856,1948.8,4601
32856,1948.8,4851
32856,1948.8,5101
32856,1948.8,4601
32856,1948.8,4851
32856,1948.8,5101
32856,1948.8,2851
32856,1948.8,3101
32856,1948.8,3351
32856,1948.8,3601
32856,1948.8,3851
32856,1948.8,3101
32856,1948.8,3351
32856,1948.8,3601
32856,1948.8,3851
32856,1948.8,4101
32856,1948.8,3351
32856,1948.8,3601
32856,1948.8,3851
32856,1948.8,4101
32856,1948.8,4351
32856,1948.8,3601
32856,1948.8,3851
32856,1948.8,4101
32856,1948.8,4351
32856,1948.8,4601
32856,1948.8,3851
32856,1948.8,4101
32856,1948.8,4351
32856,1948.8,4601
32856,1948.8,4851
32856,1948.8,3101
32856,1948.8,3351
32856,1948.8,3601
32856,1948.8,3851
32856,1948.8,4101
32856,1948.8,3351
32856,1948.8,3601
32856,1948.8,3851
32856,1948.8,4101
32856,1948.8,4351
32856,1948.8,3601
32856,1948.8,3851
32856,1948.8,4101
32856,1948.8,4351
32856,1948.8,4601
32856,1948.8,3851
32856,1948.8,4101
32856,1948.8,4351
32856,1948.8,4601
32856,1948.8,4851
32856,1948.8,4101
32856,1948.8,4351
32856,1948.8,4601
32856,1948.8,4851
32856,1948.8,5101
32856,1948.8,3351
32856,1948.8,3601
32856,1948.8,3851
32856,1948.8,4101
32856,1948.8,4351
32856,1948.8,3601
32856,1948.8,3851
32856,1948.8,4101
32856,1948.8,4351
32856,1948.8,4601
32856,1948.8,3851
32856,1948.8,4101
32856,1948.8,4351
32856,1948.8,4601
32856,1948.8,4851
32856,1948.8,4101
32856,1948.8,4351
32856,1948.8,4601
32856,1948.8,4851
32856,1948.8,5101
32856,1948.8,4351
32856,1948.8,4601
32856,1948.8,4851
32856,1948.8,5101
32856,1948.8,3601
32856,1948.8,3851
32856,1948.8,4101
32856,1948.8,4351
32856,1948.8,4601
32856,1948.8,3851
32856,1948.8,4101
32856,1948.8,4351
32856,1948.8,4601
32856,1948.8,4851
32856,1948.8,4101
32856,1948.8,4351
32856,1948.8,4601
32856,1948.8,4851
32856,1948.8,5101
32856,1948.8,4351
32856,1948.8,4601
32856,1948.8,4851
32856,1948.8,5101
32856,1948.8,4601
32856,1948.8,4851
32856,1948.8,5101
32856,1948.8,3851
32856,1948.8,4101
32856,1948.8,4351
32856,1948.8,4601
32856,1948.8,4851
32856,1948.8,4101
32856,1948.8,4351
32856,1948.8,4601
32856,1948.8,4851
32856,1948.8,5101
32856,1948.8,4351
32856,1948.8,4601
32856,1948.8,4851
32856,1948.8,5101
32856,1948.8,4601
32856,1948.8,4851
32856,1948.8,5101
32856,1948.8,3101
32856,1948.8,3351
32856,1948.8,3601
32856,1948.8,3851
32856,1948.8,4101
32856,1948.8,3351
32856,1948.8,3601
32856,1948.8,3851
32856,1948.8,4101
32856,1948.8,4351
32856,1948.8,3601
32856,1948.8,3851
32856,1948.8,4101
32856,1948.8,4351
32856,1948.8,4601
32856,1948.8,3851
32856,1948.8,4101
32856,1948.8,4351
32856,1948.8,4601
32856,1948.8,4851
32856,1948.8,4101
32856,1948.8,4351
32856,1948.8,4601
32856,1948.8,4851
32856,1948.8,5101
32856,1948.8,3351
32856,1948.8,3601
32856,1948.8,3851
32856,1948.8,4101
32856,1948.8,4351
32856,1948.8,3601
32856,1948.8,3851
32856,1948.8,4101
32856,1948.8,4351
32856,1948.8,4601
32856,1948.8,3851
32856,1948.8,4101
32856,1948.8,4351
32856,1948.8,4601
32856,1948.8,4851
32856,1948.8,4101
32856,1948.8,4351
32856,1948.8,4601
32856,1948.8,4851
32856,1948.8,5101
32856,1948.8,4351
32856,1948.8,4601
32856,1948.8,4851
32856,1948.8,5101
32856,1948.8,3601
32856,1948.8,3851
32856,1948.8,4101
32856,1948.8,4351
32856,1948.8,4601
32856,1948.8,3851
32856,1948.8,4101
32856,1948.8,4351
32856,1948.8,4601
32856,1948.8,4851
32856,1948.8,4101
32856,1948.8,4351
32856,1948.8,4601
32856,1948.8,4851
32856,1948.8,5101
32856,1948.8,4351
32856,1948.8,4601
32856,1948.8,4851
32856,1948.8,5101
32856,1948.8,4601
32856,1948.8,4851
32856,1948.8,5101
32856,1948.8,3851
32856,1948.8,4101
32856,1948.8,4351
32856,1948.8,4601
32856,1948.8,4851
32856,1948.8,4101
32856,1948.8,4351
32856,1948.8,4601
32856,1948.8,4851
32856,1948.8,5101
32856,1948.8,4351
32856,1948.8,4601
32856,1948.8,4851
32856,1948.8,5101
32856,1948.8,4601
32856,1948.8,4851
32856,1948.8,5101
32856,1948.8,4101
32856,1948.8,4351
32856,1948.8,4601
32856,1948.8,4851
32856,1948.8,5101
32856,1948.8,4351
32856,1948.8,4601
32856,1948.8,4851
32856,1948.8,5101
32856,1948.8,4601
32856,1948.8,4851
32856,1948.8,5101
32856,1948.8,3351
32856,1948.8,3601
32856,1948.8,3851
32856,1948.8,4101
32856,1948.8,4351
32856,1948.8,3601
32856,1948.8,3851
32856,1948.8,4101
32856,1948.8,4351
32856,1948.8,4601
32856,1948.8,3851
32856,1948.8,4101
32856,1948.8,4351
32856,1948.8,4601
32856,1948.8,4851
32856,1948.8,4101
32856,1948.8,4351
32856,1948.8,4601
32856,1948.8,4851
32856,1948.8,5101
32856,1948.8,4351
32856,1948.8,4601
32856,1948.8,4851
32856,1948.8,5101
32856,1948.8,3601
32856,1948.8,3851
32856,1948.8,4101
32856,1948.8,4351
32856,1948.8,4601
32856,1948.8,3851
32856,1948.8,4101
32856,1948.8,4351
32856,1948.8,4601
32856,1948.8,4851
32856,1948.8,4101
32856,1948.8,4351
32856,1948.8,4601
32856,1948.8,4851
32856,1948.8,5101
32856,1948.8,4351
32856,1948.8,4601
32856,1948.8,4851
32856,1948.8,5101
32856,1948.8,4601
32856,1948.8,4851
32856,1948.8,5101
32856,1948.8,3851
32856,1948.8,4101
32856,1948.8,4351
32856,1948.8,4601
32856,1948.8,4851
32856,1948.8,4101
32856,1948.8,4351
32856,1948.8,4601
32856,1948.8,4851
32856,1948.8,5101
32856,1948.8,4351
32856,1948.8,4601
32856,1948.8,4851
32856,1948.8,5101
32856,1948.8,4601
32856,1948.8,4851
32856,1948.8,5101
32856,1948.8,4101
32856,1948.8,4351
32856,1948.8,4601
32856,1948.8,4851
32856,1948.8,5101
32856,1948.8,4351
32856,1948.8,4601
32856,1948.8,4851
32856,1948.8,5101
32856,1948.8,4601
32856,1948.8,4851
32856,1948.8,5101
32856,1948.8,2601
32856,1948.8,2851
32856,1948.8,3101
32856,1948.8,3351
32856,1948.8,3601
32856,1948.8,2851
32856,1948.8,3101
32856,1948.8,3351
32856,1948.8,3601
32856,1948.8,3851
32856,1948.8,3101
32856,1948.8,3351
32856,1948.8,3601
32856,1948.8,3851
32856,1948.8,4101
32856,1948.8,3351
32856,1948.8,3601
32856,1948.8,3851
32856,1948.8,4101
32856,1948.8,4351
32856,1948.8,3601
32856,1948.8,3851
32856,1948.8,4101
32856,1948.8,4351
32856,1948.8,4601
32856,1948.8,2851
32856,1948.8,3101
32856,1948.8,3351
32856,1948.8,3601
32856,1948.8,3851
32856,1948.8,3101
32856,1948.8,3351
32856,1948.8,3601
32856,1948.8,3851
32856,1948.8,4101
32856,1948.8,3351
32856,1948.8,3601
32856,1948.8,3851
32856,1948.8,4101
32856,1948.8,4351
32856,1948.8,3601
32856,1948.8,3851
32856,1948.8,4101
32856,1948.8,4351
32856,1948.8,4601
32856,1948.8,3851
32856,1948.8,4101
32856,1948.8,4351
32856,1948.8,4601
32856,1948.8,4851
32856,1948.8,3101
32856,1948.8,3351
32856,1948.8,3601
32856,1948.8,3851
32856,1948.8,4101
32856,1948.8,3351
32856,1948.8,3601
32856,1948.8,3851
32856,1948.8,4101
32856,1948.8,4351
32856,1948.8,3601
32856,1948.8,3851
32856,1948.8,4101
32856,1948.8,4351
32856,1948.8,4601
32856,1948.8,3851
32856,1948.8,4101
32856,1948.8,4351
32856,1948.8,4601
32856,1948.8,4851
32856,1948.8,4101
32856,1948.8,4351
32856,1948.8,4601
32856,1948.8,4851
32856,1948.8,5101
32856,1948.8,3351
32856,1948.8,3601
32856,1948.8,3851
32856,1948.8,4101
32856,1948.8,4351
32856,1948.8,3601
32856,1948.8,3851
32856,1948.8,4101
32856,1948.8,4351
32856,1948.8,4601
32856,1948.8,3851
32856,1948.8,4101
32856,1948.8,4351
32856,1948.8,4601
32856,1948.8,4851
32856,1948.8,4101
32856,1948.8,4351
32856,1948.8,4601
32856,1948.8,4851
32856,1948.8,5101
32856,1948.8,4351
32856,1948.8,4601
32856,1948.8,4851
32856,1948.8,5101
32856,1948.8,3601
32856,1948.8,3851
32856,1948.8,4101
32856,1948.8,4351
32856,1948.8,4601
32856,1948.8,3851
32856,1948.8,4101
32856,1948.8,4351
32856,1948.8,4601
32856,1948.8,4851
32856,1948.8,4101
32856,1948.8,4351
32856,1948.8,4601
32856,1948.8,4851
32856,1948.8,5101
32856,1948.8,4351
32856,1948.8,4601
32856,1948.8,4851
32856,1948.8,5101
32856,1948.8,4601
32856,1948.8,4851
32856,1948.8,5101
32856,1948.8,2851
32856,1948.8,3101
32856,1948.8,3351
32856,1948.8,3601
32856,1948.8,3851
32856,1948.8,3101
32856,1948.8,3351
32856,1948.8,3601
32856,1948.8,3851
32856,1948.8,4101
32856,1948.8,3351
32856,1948.8,3601
32856,1948.8,3851
32856,1948.8,4101
32856,1948.8,4351
32856,1948.8,3601
32856,1948.8,3851
32856,1948.8,4101
32856,1948.8,4351
32856,1948.8,4601
32856,1948.8,3851
32856,1948.8,4101
32856,1948.8,4351
32856,1948.8,4601
32856,1948.8,4851
32856,1948.8,3101
32856,1948.8,3351
32856,1948.8,3601
32856,1948.8,3851
32856,1948.8,4101
32856,1948.8,3351
32856,1948.8,3601
32856,1948.8,3851
32856,1948.8,4101
32856,1948.8,4351
32856,1948.8,3601
32856,1948.8,3851
32856,1948.8,4101
32856,1948.8,4351
32856,1948.8,4601
32856,1948.8,3851
32856,1948.8,4101
32856,1948.8,4351
32856,1948.8,4601
32856,1948.8,4851
32856,1948.8,4101
32856,1948.8,4351
32856,1948.8,4601
32856,1948.8,4851
32856,1948.8,5101
32856,1948.8,3351
32856,1948.8,3601
32856,1948.8,3851
32856,1948.8,4101
32856,1948.8,4351
32856,1948.8,3601
32856,1948.8,3851
32856,1948.8,4101
32856,1948.8,4351
32856,1948.8,4601
32856,1948.8,3851
32856,1948.8,4101
32856,1948.8,4351
32856,1948.8,4601
32856,1948.8,4851
32856,1948.8,4101
32856,1948.8,4351
32856,1948.8,4601
32856,1948.8,4851
32856,1948.8,5101
32856,1948.8,4351
32856,1948.8,4601
32856,1948.8,4851
32856,1948.8,5101
32856,1948.8,3601
32856,1948.8,3851
32856,1948.8,4101
32856,1948.8,4351
32856,1948.8,4601
32856,1948.8,3851
32856,1948.8,4101
32856,1948.8,4351
32856,1948.8,4601
32856,1948.8,4851
32856,1948.8,4101
32856,1948.8,4351
32856,1948.8,4601
32856,1948.8,4851
32856,1948.8,5101
32856,1948.8,4351
32856,1948.8,4601
32856,1948.8,4851
32856,1948.8,5101
32856,1948.8,4601
32856,1948.8,4851
32856,1948.8,5101
32856,1948.8,3851
32856,1948.8,4101
32856,1948.8,4351
32856,1948.8,4601
32856,1948.8,4851
32856,1948.8,4101
32856,1948.8,4351
32856,1948.8,4601
32856,1948.8,4851
32856,1948.8,5101
32856,1948.8,4351
32856,1948.8,4601
32856,1948.8,4851
32856,1948.8,5101
32856,1948.8,4601
32856,1948.8,4851
32856,1948.8,5101
32856,1948.8,3101
32856,1948.8,3351
32856,1948.8,3601
32856,1948.8,3851
32856,1948.8,4101
32856,1948.8,3351
32856,1948.8,3601
32856,1948.8,3851
32856,1948.8,4101
32856,1948.8,4351
32856,1948.8,3601
32856,1948.8,3851
32856,1948.8,4101
32856,1948.8,4351
32856,1948.8,4601
32856,1948.8,3851
32856,1948.8,4101
32856,1948.8,4351
32856,1948.8,4601
32856,1948.8,4851
32856,1948.8,4101
32856,1948.8,4351
32856,1948.8,4601
32856,1948.8,4851
32856,1948.8,5101
32856,1948.8,3351
32856,1948.8,3601
32856,1948.8,3851
32856,1948.8,4101
32856,1948.8,4351
32856,1948.8,3601
32856,1948.8,3851
32856,1948.8,4101
32856,1948.8,4351
32856,1948.8,4601
32856,1948.8,3851
32856,1948.8,4101
32856,1948.8,4351
32856,1948.8,4601
32856,1948.8,4851
32856,1948.8,4101
32856,1948.8,4351
32856,1948.8,4601
32856,1948.8,4851
32856,1948.8,5101
32856,1948.8,4351
32856,1948.8,4601
32856,1948.8,4851
32856,1948.8,5101
32856,1948.8,3601
32856,1948.8,3851
32856,1948.8,4101
32856,1948.8,4351
32856,1948.8,4601
32856,1948.8,3851
32856,1948.8,4101
32856,1948.8,4351
32856,1948.8,4601
32856,1948.8,4851
32856,1948.8,4101
32856,1948.8,4351
32856,1948.8,4601
32856,1948.8,4851
32856,1948.8,5101
32856,1948.8,4351
32856,1948.8,4601
32856,1948.8,4851
32856,1948.8,5101
32856,1948.8,4601
32856,1948.8,4851
32856,1948.8,5101
32856,1948.8,3851
32856,1948.8,4101
32856,1948.8,4351
32856,1948.8,4601
32856,1948.8,4851
32856,1948.8,4101
32856,1948.8,4351
32856,1948.8,4601
32856,1948.8,4851
32856,1948.8,5101
32856,1948.8,4351
32856,1948.8,4601
32856,1948.8,4851
32856,1948.8,5101
32856,1948.8,4601
32856,1948.8,4851
32856,1948.8,5101
32856,1948.8,4101
32856,1948.8,4351
32856,1948.8,4601
32856,1948.8,4851
32856,1948.8,5101
32856,1948.8,4351
32856,1948.8,4601
32856,1948.8,4851
32856,1948.8,5101
32856,1948.8,4601
32856,1948.8,4851
32856,1948.8,5101
32856,1948.8,3351
32856,1948.8,3601
32856,1948.8,3851
32856,1948.8,4101
32856,1948.8,4351
32856,1948.8,3601
32856,1948.8,3851
32856,1948.8,4101
32856,1948.8,4351
32856,1948.8,4601
32856,1948.8,3851
32856,1948.8,4101
32856,1948.8,4351
32856,1948.8,4601
32856,1948.8,4851
32856,1948.8,4101
32856,1948.8,4351
32856,1948.8,4601
32856,1948.8,4851
32856,1948.8,5101
32856,1948.8,4351
32856,1948.8,4601
32856,1948.8,4851
32856,1948.8,5101
32856,1948.8,3601
32856,1948.8,3851
32856,1948.8,4101
32856,1948.8,4351
32856,1948.8,4601
32856,1948.8,3851
32856,1948.8,4101
32856,1948.8,4351
32856,1948.8,4601
32856,1948.8,4851
32856,1948.8,4101
32856,1948.8,4351
32856,1948.8,4601
32856,1948.8,4851
32856,1948.8,5101
32856,1948.8,4351
32856,1948.8,4601
32856,1948.8,4851
32856,1948.8,5101
32856,1948.8,4601
32856,1948.8,4851
32856,1948.8,5101
32856,1948.8,3851
32856,1948.8,4101
32856,1948.8,4351
32856,1948.8,4601
32856,1948.8,4851
32856,1948.8,4101
32856,1948.8,4351
32856,1948.8,4601
32856,1948.8,4851
32856,1948.8,5101
32856,1948.8,4351
32856,1948.8,4601
32856,1948.8,4851
32856,1948.8,5101
32856,1948.8,4601
32856,1948.8,4851
32856,1948.8,5101
32856,1948.8,4101
32856,1948.8,4351
32856,1948.8,4601
32856,1948.8,4851
32856,1948.8,5101
32856,1948.8,4351
32856,1948.8,4601
32856,1948.8,4851
32856,1948.8,5101
32856,1948.8,4601
32856,1948.8,4851
32856,1948.8,5101
32856,1948.8,3601
32856,1948.8,3851
32856,1948.8,4101
32856,1948.8,4351
32856,1948.8,4601
32856,1948.8,3851
32856,1948.8,4101
32856,1948.8,4351
32856,1948.8,4601
32856,1948.8,4851
32856,1948.8,4101
32856,1948.8,4351
32856,1948.8,4601
32856,1948.8,4851
32856,1948.8,5101
32856,1948.8,4351
32856,1948.8,4601
32856,1948.8,4851
32856,1948.8,5101
32856,1948.8,4601
32856,1948.8,4851
32856,1948.8,5101
32856,1948.8,3851
32856,1948.8,4101
32856,1948.8,4351
32856,1948.8,4601
32856,1948.8,4851
32856,1948.8,4101
32856,1948.8,4351
32856,1948.8,4601
32856,1948.8,4851
32856,1948.8,5101
32856,1948.8,4351
32856,1948.8,4601
32856,1948.8,4851
32856,1948.8,5101
32856,1948.8,4601
32856,1948.8,4851
32856,1948.8,5101
32856,1948.8,4101
32856,1948.8,4351
32856,1948.8,4601
32856,1948.8,4851
32856,1948.8,5101
32856,1948.8,4351
32856,1948.8,4601
32856,1948.8,4851
32856,1948.8,5101
32856,1948.8,4601
32856,1948.8,4851
32856,1948.8,5101
32856,1948.8,2851
32856,1948.8,3101
32856,1948.8,3351
32856,1948.8,3601
32856,1948.8,3851
32856,1948.8,3101
32856,1948.8,3351
32856,1948.8,3601
32856,1948.8,3851
32856,1948.8,4101
32856,1948.8,3351
32856,1948.8,3601
32856,1948.8,3851
32856,1948.8,4101
32856,1948.8,4351
32856,1948.8,3601
32856,1948.8,3851
32856,1948.8,4101
32856,1948.8,4351
32856,1948.8,4601
32856,1948.8,3851
32856,1948.8,4101
32856,1948.8,4351
32856,1948.8,4601
32856,1948.8,4851
32856,1948.8,3101
32856,1948.8,3351
32856,1948.8,3601
32856,1948.8,3851
32856,1948.8,4101
32856,1948.8,3351
32856,1948.8,3601
32856,1948.8,3851
32856,1948.8,4101
32856,1948.8,4351
32856,1948.8,3601
32856,1948.8,3851
32856,1948.8,4101
32856,1948.8,4351
32856,1948.8,4601
32856,1948.8,3851
32856,1948.8,4101
32856,1948.8,4351
32856,1948.8,4601
32856,1948.8,4851
32856,1948.8,4101
32856,1948.8,4351
32856,1948.8,4601
32856,1948.8,4851
32856,1948.8,5101
32856,1948.8,3351
32856,1948.8,3601
32856,1948.8,3851
32856,1948.8,4101
32856,1948.8,4351
32856,1948.8,3601
32856,1948.8,3851
32856,1948.8,4101
32856,1948.8,4351
32856,1948.8,4601
32856,1948.8,3851
32856,1948.8,4101
32856,1948.8,4351
32856,1948.8,4601
32856,1948.8,4851
32856,1948.8,4101
32856,1948.8,4351
32856,1948.8,4601
32856,1948.8,4851
32856,1948.8,5101
32856,1948.8,4351
32856,1948.8,4601
32856,1948.8,4851
32856,1948.8,5101
32856,1948.8,3601
32856,1948.8,3851
32856,1948.8,4101
32856,1948.8,4351
32856,1948.8,4601
32856,1948.8,3851
32856,1948.8,4101
32856,1948.8,4351
32856,1948.8,4601
32856,1948.8,4851
32856,1948.8,4101
32856,1948.8,4351
32856,1948.8,4601
32856,1948.8,4851
32856,1948.8,5101
32856,1948.8,4351
32856,1948.8,4601
32856,1948.8,4851
32856,1948.8,5101
32856,1948.8,4601
32856,1948.8,4851
32856,1948.8,5101
32856,1948.8,3851
32856,1948.8,4101
32856,1948.8,4351
32856,1948.8,4601
32856,1948.8,4851
32856,1948.8,4101
32856,1948.8,4351
32856,1948.8,4601
32856,1948.8,4851
32856,1948.8,5101
32856,1948.8,4351
32856,1948.8,4601
32856,1948.8,4851
32856,1948.8,5101
32856,1948.8,4601
32856,1948.8,4851
32856,1948.8,5101
32856,1948.8,3101
32856,1948.8,3351
32856,1948.8,3601
32856,1948.8,3851
32856,1948.8,4101
32856,1948.8,3351
32856,1948.8,3601
32856,1948.8,3851
32856,1948.8,4101
32856,1948.8,4351
32856,1948.8,3601
32856,1948.8,3851
32856,1948.8,4101
32856,1948.8,4351
32856,1948.8,4601
32856,1948.8,3851
32856,1948.8,4101
32856,1948.8,4351
32856,1948.8,4601
32856,1948.8,4851
32856,1948.8,4101
32856,1948.8,4351
32856,1948.8,4601
32856,1948.8,4851
32856,1948.8,5101
32856,1948.8,3351
32856,1948.8,3601
32856,1948.8,3851
32856,1948.8,4101
32856,1948.8,4351
32856,1948.8,3601
32856,1948.8,3851
32856,1948.8,4101
32856,1948.8,4351
32856,1948.8,4601
32856,1948.8,3851
32856,1948.8,4101
32856,1948.8,4351
32856,1948.8,4601
32856,1948.8,4851
32856,1948.8,4101
32856,1948.8,4351
32856,1948.8,4601
32856,1948.8,4851
32856,1948.8,5101
32856,1948.8,4351
32856,1948.8,4601
32856,1948.8,4851
32856,1948.8,5101
32856,1948.8,3601
32856,1948.8,3851
32856,1948.8,4101
32856,1948.8,4351
32856,1948.8,4601
32856,1948.8,3851
32856,1948.8,4101
32856,1948.8,4351
32856,1948.8,4601
32856,1948.8,4851
32856,1948.8,4101
32856,1948.8,4351
32856,1948.8,4601
32856,1948.8,4851
32856,1948.8,5101
32856,1948.8,4351
32856,1948.8,4601
32856,1948.8,4851
32856,1948.8,5101
32856,1948.8,4601
32856,1948.8,4851
32856,1948.8,5101
32856,1948.8,3851
32856,1948.8,4101
32856,1948.8,4351
32856,1948.8,4601
32856,1948.8,4851
32856,1948.8,4101
32856,1948.8,4351
32856,1948.8,4601
32856,1948.8,4851
32856,1948.8,5101
32856,1948.8,4351
32856,1948.8,4601
32856,1948.8,4851
32856,1948.8,5101
32856,1948.8,4601
32856,1948.8,4851
32856,1948.8,5101
32856,1948.8,4101
32856,1948.8,4351
32856,1948.8,4601
32856,1948.8,4851
32856,1948.8,5101
32856,1948.8,4351
32856,1948.8,4601
32856,1948.8,4851
32856,1948.8,5101
32856,1948.8,4601
32856,1948.8,4851
32856,1948.8,5101
32856,1948.8,3351
32856,1948.8,3601
32856,1948.8,3851
32856,1948.8,4101
32856,1948.8,4351
32856,1948.8,3601
32856,1948.8,3851
32856,1948.8,4101
32856,1948.8,4351
32856,1948.8,4601
32856,1948.8,3851
32856,1948.8,4101
32856,1948.8,4351
32856,1948.8,4601
32856,1948.8,4851
32856,1948.8,4101
32856,1948.8,4351
32856,1948.8,4601
32856,1948.8,4851
32856,1948.8,5101
32856,1948.8,4351
32856,1948.8,4601
32856,1948.8,4851
32856,1948.8,5101
32856,1948.8,3601
32856,1948.8,3851
32856,1948.8,4101
32856,1948.8,4351
32856,1948.8,4601
32856,1948.8,3851
32856,1948.8,4101
32856,1948.8,4351
32856,1948.8,4601
32856,1948.8,4851
32856,1948.8,4101
32856,1948.8,4351
32856,1948.8,4601
32856,1948.8,4851
32856,1948.8,5101
32856,1948.8,4351
32856,1948.8,4601
32856,1948.8,4851
32856,1948.8,5101
32856,1948.8,4601
32856,1948.8,4851
32856,1948.8,5101
32856,1948.8,3851
32856,1948.8,4101
32856,1948.8,4351
32856,1948.8,4601
32856,1948.8,4851
32856,1948.8,4101
32856,1948.8,4351
32856,1948.8,4601
32856,1948.8,4851
32856,1948.8,5101
32856,1948.8,4351
32856,1948.8,4601
32856,1948.8,4851
32856,1948.8,5101
32856,1948.8,4601
32856,1948.8,4851
32856,1948.8,5101
32856,1948.8,4101
32856,1948.8,4351
32856,1948.8,4601
32856,1948.8,4851
32856,1948.8,5101
32856,1948.8,4351
32856,1948.8,4601
32856,1948.8,4851
32856,1948.8,5101
32856,1948.8,4601
32856,1948.8,4851
32856,1948.8,5101
32856,1948.8,3601
32856,1948.8,3851
32856,1948.8,4101
32856,1948.8,4351
32856,1948.8,4601
32856,1948.8,3851
32856,1948.8,4101
32856,1948.8,4351
32856,1948.8,4601
32856,1948.8,4851
32856,1948.8,4101
32856,1948.8,4351
32856,1948.8,4601
32856,1948.8,4851
32856,1948.8,5101
32856,1948.8,4351
32856,1948.8,4601
32856,1948.8,4851
32856,1948.8,5101
32856,1948.8,4601
32856,1948.8,4851
32856,1948.8,5101
32856,1948.8,3851
32856,1948.8,4101
32856,1948.8,4351
32856,1948.8,4601
32856,1948.8,4851
32856,1948.8,4101
32856,1948.8,4351
32856,1948.8,4601
32856,1948.8,4851
32856,1948.8,5101
32856,1948.8,4351
32856,1948.8,4601
32856,1948.8,4851
32856,1948.8,5101
32856,1948.8,4601
32856,1948.8,4851
32856,1948.8,5101
32856,1948.8,4101
32856,1948.8,4351
32856,1948.8,4601
32856,1948.8,4851
32856,1948.8,5101
32856,1948.8,4351
32856,1948.8,4601
32856,1948.8,4851
32856,1948.8,5101
32856,1948.8,4601
32856,1948.8,4851
32856,1948.8,5101
32856,1948.8,3101
32856,1948.8,3351
32856,1948.8,3601
32856,1948.8,3851
32856,1948.8,4101
32856,1948.8,3351
32856,1948.8,3601
32856,1948.8,3851
32856,1948.8,4101
32856,1948.8,4351
32856,1948.8,3601
32856,1948.8,3851
32856,1948.8,4101
32856,1948.8,4351
32856,1948.8,4601
32856,1948.8,3851
32856,1948.8,4101
32856,1948.8,4351
32856,1948.8,4601
32856,1948.8,4851
32856,1948.8,4101
32856,1948.8,4351
32856,1948.8,4601
32856,1948.8,4851
32856,1948.8,5101
32856,1948.8,3351
32856,1948.8,3601
32856,1948.8,3851
32856,1948.8,4101
32856,1948.8,4351
32856,1948.8,3601
32856,1948.8,3851
32856,1948.8,4101
32856,1948.8,4351
32856,1948.8,4601
32856,1948.8,3851
32856,1948.8,4101
32856,1948.8,4351
32856,1948.8,4601
32856,1948.8,4851
32856,1948.8,4101
32856,1948.8,4351
32856,1948.8,4601
32856,1948.8,4851
32856,1948.8,5101
32856,1948.8,4351
32856,1948.8,4601
32856,1948.8,4851
32856,1948.8,5101
32856,1948.8,3601
32856,1948.8,3851
32856,1948.8,4101
32856,1948.8,4351
32856,1948.8,4601
32856,1948.8,3851
32856,1948.8,4101
32856,1948.8,4351
32856,1948.8,4601
32856,1948.8,4851
32856,1948.8,4101
32856,1948.8,4351
32856,1948.8,4601
32856,1948.8,4851
32856,1948.8,5101
32856,1948.8,4351
32856,1948.8,4601
32856,1948.8,4851
32856,1948.8,5101
32856,1948.8,4601
32856,1948.8,4851
32856,1948.8,5101
32856,1948.8,3851
32856,1948.8,4101
32856,1948.8,4351
32856,1948.8,4601
32856,1948.8,4851
32856,1948.8,4101
32856,1948.8,4351
32856,1948.8,4601
32856,1948.8,4851
32856,1948.8,5101
32856,1948.8,4351
32856,1948.8,4601
32856,1948.8,4851
32856,1948.8,5101
32856,1948.8,4601
32856,1948.8,4851
32856,1948.8,5101
32856,1948.8,4101
32856,1948.8,4351
32856,1948.8,4601
32856,1948.8,4851
32856,1948.8,5101
32856,1948.8,4351
32856,1948.8,4601
32856,1948.8,4851
32856,1948.8,5101
32856,1948.8,4601
32856,1948.8,4851
32856,1948.8,5101
32856,1948.8,3351
32856,1948.8,3601
32856,1948.8,3851
32856,1948.8,4101
32856,1948.8,4351
32856,1948.8,3601
32856,1948.8,3851
32856,1948.8,4101
32856,1948.8,4351
32856,1948.8,4601
32856,1948.8,3851
32856,1948.8,4101
32856,1948.8,4351
32856,1948.8,4601
32856,1948.8,4851
32856,1948.8,4101
32856,1948.8,4351
32856,1948.8,4601
32856,1948.8,4851
32856,1948.8,5101
32856,1948.8,4351
32856,1948.8,4601
32856,1948.8,4851
32856,1948.8,5101
32856,1948.8,3601
32856,1948.8,3851
32856,1948.8,4101
32856,1948.8,4351
32856,1948.8,4601
32856,1948.8,3851
32856,1948.8,4101
32856,1948.8,4351
32856,1948.8,4601
32856,1948.8,4851
32856,1948.8,4101
32856,1948.8,4351
32856,1948.8,4601
32856,1948.8,4851
32856,1948.8,5101
32856,1948.8,4351
32856,1948.8,4601
32856,1948.8,4851
32856,1948.8,5101
32856,1948.8,4601
32856,1948.8,4851
32856,1948.8,5101
32856,1948.8,3851
32856,1948.8,4101
32856,1948.8,4351
32856,1948.8,4601
32856,1948.8,4851
32856,1948.8,4101
32856,1948.8,4351
32856,1948.8,4601
32856,1948.8,4851
32856,1948.8,5101
32856,1948.8,4351
32856,1948.8,4601
32856,1948.8,4851
32856,1948.8,5101
32856,1948.8,4601
32856,1948.8,4851
32856,1948.8,5101
32856,1948.8,4101
32856,1948.8,4351
32856,1948.8,4601
32856,1948.8,4851
32856,1948.8,5101
32856,1948.8,4351
32856,1948.8,4601
32856,1948.8,4851
32856,1948.8,5101
32856,1948.8,4601
32856,1948.8,4851
32856,1948.8,5101
32856,1948.8,3601
32856,1948.8,3851
32856,1948.8,4101
32856,1948.8,4351
32856,1948.8,4601
32856,1948.8,3851
32856,1948.8,4101
32856,1948.8,4351
32856,1948.8,4601
32856,1948.8,4851
32856,1948.8,4101
32856,1948.8,4351
32856,1948.8,4601
32856,1948.8,4851
32856,1948.8,5101
32856,1948.8,4351
32856,1948.8,4601
32856,1948.8,4851
32856,1948.8,5101
32856,1948.8,4601
32856,1948.8,4851
32856,1948.8,5101
32856,1948.8,3851
32856,1948.8,4101
32856,1948.8,4351
32856,1948.8,4601
32856,1948.8,4851
32856,1948.8,4101
32856,1948.8,4351
32856,1948.8,4601
32856,1948.8,4851
32856,1948.8,5101
32856,1948.8,4351
32856,1948.8,4601
32856,1948.8,4851
32856,1948.8,5101
32856,1948.8,4601
32856,1948.8,4851
32856,1948.8,5101
32856,1948.8,4101
32856,1948.8,4351
32856,1948.8,4601
32856,1948.8,4851
32856,1948.8,5101
32856,1948.8,4351
32856,1948.8,4601
32856,1948.8,4851
32856,1948.8,5101
32856,1948.8,4601
32856,1948.8,4851
32856,1948.8,5101
32856,1948.8,2601
32856,1948.8,2851
32856,1948.8,3101
32856,1948.8,3351
32856,1948.8,3601
32856,1948.8,2851
32856,1948.8,3101
32856,1948.8,3351
32856,1948.8,3601
32856,1948.8,3851
32856,1948.8,3101
32856,1948.8,3351
32856,1948.8,3601
32856,1948.8,3851
32856,1948.8,4101
32856,1948.8,3351
32856,1948.8,3601
32856,1948.8,3851
32856,1948.8,4101
32856,1948.8,4351
32856,1948.8,3601
32856,1948.8,3851
32856,1948.8,4101
32856,1948.8,4351
32856,1948.8,4601
32856,1948.8,2851
32856,1948.8,3101
32856,1948.8,3351
32856,1948.8,3601
32856,1948.8,3851
32856,1948.8,3101
32856,1948.8,3351
32856,1948.8,3601
32856,1948.8,3851
32856,1948.8,4101
32856,1948.8,3351
32856,1948.8,3601
32856,1948.8,3851
32856,1948.8,4101
32856,1948.8,4351
32856,1948.8,3601
32856,1948.8,3851
32856,1948.8,4101
32856,1948.8,4351
32856,1948.8,4601
32856,1948.8,3851
32856,1948.8,4101
32856,1948.8,4351
32856,1948.8,4601
32856,1948.8,4851
32856,1948.8,3101
32856,1948.8,3351
32856,1948.8,3601
32856,1948.8,3851
32856,1948.8,4101
32856,1948.8,3351
32856,1948.8,3601
32856,1948.8,3851
32856,1948.8,4101
32856,1948.8,4351
32856,1948.8,3601
32856,1948.8,3851
32856,1948.8,4101
32856,1948.8,4351
32856,1948.8,4601
32856,1948.8,3851
32856,1948.8,4101
32856,1948.8,4351
32856,1948.8,4601
32856,1948.8,4851
32856,1948.8,4101
32856,1948.8,4351
32856,1948.8,4601
32856,1948.8,4851
32856,1948.8,5101
32856,1948.8,3351
32856,1948.8,3601
32856,1948.8,3851
32856,1948.8,4101
32856,1948.8,4351
32856,1948.8,3601
32856,1948.8,3851
32856,1948.8,4101
32856,1948.8,4351
32856,1948.8,4601
32856,1948.8,3851
32856,1948.8,4101
32856,1948.8,4351
32856,1948.8,4601
32856,1948.8,4851
32856,1948.8,4101
32856,1948.8,4351
32856,1948.8,4601
32856,1948.8,4851
32856,1948.8,5101
32856,1948.8,4351
32856,1948.8,4601
32856,1948.8,4851
32856,1948.8,5101
32856,1948.8,3601
32856,1948.8,3851
32856,1948.8,4101
32856,1948.8,4351
32856,1948.8,4601
32856,1948.8,3851
32856,1948.8,4101
32856,1948.8,4351
32856,1948.8,4601
32856,1948.8,4851
32856,1948.8,4101
32856,1948.8,4351
32856,1948.8,4601
32856,1948.8,4851
32856,1948.8,5101
32856,1948.8,4351
32856,1948.8,4601
32856,1948.8,4851
32856,1948.8,5101
32856,1948.8,4601
32856,1948.8,4851
32856,1948.8,5101
32856,1948.8,2851
32856,1948.8,3101
32856,1948.8,3351
32856,1948.8,3601
32856,1948.8,3851
32856,1948.8,3101
32856,1948.8,3351
32856,1948.8,3601
32856,1948.8,3851
32856,1948.8,4101
32856,1948.8,3351
32856,1948.8,3601
32856,1948.8,3851
32856,1948.8,4101
32856,1948.8,4351
32856,1948.8,3601
32856,1948.8,3851
32856,1948.8,4101
32856,1948.8,4351
32856,1948.8,4601
32856,1948.8,3851
32856,1948.8,4101
32856,1948.8,4351
32856,1948.8,4601
32856,1948.8,4851
32856,1948.8,3101
32856,1948.8,3351
32856,1948.8,3601
32856,1948.8,3851
32856,1948.8,4101
32856,1948.8,3351
32856,1948.8,3601
32856,1948.8,3851
32856,1948.8,4101
32856,1948.8,4351
32856,1948.8,3601
32856,1948.8,3851
32856,1948.8,4101
32856,1948.8,4351
32856,1948.8,4601
32856,1948.8,3851
32856,1948.8,4101
32856,1948.8,4351
32856,1948.8,4601
32856,1948.8,4851
32856,1948.8,4101
32856,1948.8,4351
32856,1948.8,4601
32856,1948.8,4851
32856,1948.8,5101
32856,1948.8,3351
32856,1948.8,3601
32856,1948.8,3851
32856,1948.8,4101
32856,1948.8,4351
32856,1948.8,3601
32856,1948.8,3851
32856,1948.8,4101
32856,1948.8,4351
32856,1948.8,4601
32856,1948.8,3851
32856,1948.8,4101
32856,1948.8,4351
32856,1948.8,4601
32856,1948.8,4851
32856,1948.8,4101
32856,1948.8,4351
32856,1948.8,4601
32856,1948.8,4851
32856,1948.8,5101
32856,1948.8,4351
32856,1948.8,4601
32856,1948.8,4851
32856,1948.8,5101
32856,1948.8,3601
32856,1948.8,3851
32856,1948.8,4101
32856,1948.8,4351
32856,1948.8,4601
32856,1948.8,3851
32856,1948.8,4101
32856,1948.8,4351
32856,1948.8,4601
32856,1948.8,4851
32856,1948.8,4101
32856,1948.8,4351
32856,1948.8,4601
32856,1948.8,4851
32856,1948.8,5101
32856,1948.8,4351
32856,1948.8,4601
32856,1948.8,4851
32856,1948.8,5101
32856,1948.8,4601
32856,1948.8,4851
32856,1948.8,5101
32856,1948.8,3851
32856,1948.8,4101
32856,1948.8,4351
32856,1948.8,4601
32856,1948.8,4851
32856,1948.8,4101
32856,1948.8,4351
32856,1948.8,4601
32856,1948.8,4851
32856,1948.8,5101
32856,1948.8,4351
32856,1948.8,4601
32856,1948.8,4851
32856,1948.8,5101
32856,1948.8,4601
32856,1948.8,4851
32856,1948.8,5101
32856,1948.8,3101
32856,1948.8,3351
32856,1948.8,3601
32856,1948.8,3851
32856,1948.8,4101
32856,1948.8,3351
32856,1948.8,3601
32856,1948.8,3851
32856,1948.8,4101
32856,1948.8,4351
32856,1948.8,3601
32856,1948.8,3851
32856,1948.8,4101
32856,1948.8,4351
32856,1948.8,4601
32856,1948.8,3851
32856,1948.8,4101
32856,1948.8,4351
32856,1948.8,4601
32856,1948.8,4851
32856,1948.8,4101
32856,1948.8,4351
32856,1948.8,4601
32856,1948.8,4851
32856,1948.8,5101
32856,1948.8,3351
32856,1948.8,3601
32856,1948.8,3851
32856,1948.8,4101
32856,1948.8,4351
32856,1948.8,3601
32856,1948.8,3851
32856,1948.8,4101
32856,1948.8,4351
32856,1948.8,4601
32856,1948.8,3851
32856,1948.8,4101
32856,1948.8,4351
32856,1948.8,4601
32856,1948.8,4851
32856,1948.8,4101
32856,1948.8,4351
32856,1948.8,4601
32856,1948.8,4851
32856,1948.8,5101
32856,1948.8,4351
32856,1948.8,4601
32856,1948.8,4851
32856,1948.8,5101
32856,1948.8,3601
32856,1948.8,3851
32856,1948.8,4101
32856,1948.8,4351
32856,1948.8,4601
32856,1948.8,3851
32856,1948.8,4101
32856,1948.8,4351
32856,1948.8,4601
32856,1948.8,4851
32856,1948.8,4101
32856,1948.8,4351
32856,1948.8,4601
32856,1948.8,4851
32856,1948.8,5101
32856,1948.8,4351
32856,1948.8,4601
32856,1948.8,4851
32856,1948.8,5101
32856,1948.8,4601
32856,1948.8,4851
32856,1948.8,5101
32856,1948.8,3851
32856,1948.8,4101
32856,1948.8,4351
32856,1948.8,4601
32856,1948.8,4851
32856,1948.8,4101
32856,1948.8,4351
32856,1948.8,4601
32856,1948.8,4851
32856,1948.8,5101
32856,1948.8,4351
32856,1948.8,4601
32856,1948.8,4851
32856,1948.8,5101
32856,1948.8,4601
32856,1948.8,4851
32856,1948.8,5101
32856,1948.8,4101
32856,1948.8,4351
32856,1948.8,4601
32856,1948.8,4851
32856,1948.8,5101
32856,1948.8,4351
32856,1948.8,4601
32856,1948.8,4851
32856,1948.8,5101
32856,1948.8,4601
32856,1948.8,4851
32856,1948.8,5101
32856,1948.8,3351
32856,1948.8,3601
32856,1948.8,3851
32856,1948.8,4101
32856,1948.8,4351
32856,1948.8,3601
32856,1948.8,3851
32856,1948.8,4101
32856,1948.8,4351
32856,1948.8,4601
32856,1948.8,3851
32856,1948.8,4101
32856,1948.8,4351
32856,1948.8,4601
32856,1948.8,4851
32856,1948.8,4101
32856,1948.8,4351
32856,1948.8,4601
32856,1948.8,4851
32856,1948.8,5101
32856,1948.8,4351
32856,1948.8,4601
32856,1948.8,4851
32856,1948.8,5101
32856,1948.8,3601
32856,1948.8,3851
32856,1948.8,4101
32856,1948.8,4351
32856,1948.8,4601
32856,1948.8,3851
32856,1948.8,4101
32856,1948.8,4351
32856,1948.8,4601
32856,1948.8,4851
32856,1948.8,4101
32856,1948.8,4351
32856,1948.8,4601
32856,1948.8,4851
32856,1948.8,5101
32856,1948.8,4351
32856,1948.8,4601
32856,1948.8,4851
32856,1948.8,5101
32856,1948.8,4601
32856,1948.8,4851
32856,1948.8,5101
32856,1948.8,3851
32856,1948.8,4101
32856,1948.8,4351
32856,1948.8,4601
32856,1948.8,4851
32856,1948.8,4101
32856,1948.8,4351
32856,1948.8,4601
32856,1948.8,4851
32856,1948.8,5101
32856,1948.8,4351
32856,1948.8,4601
32856,1948.8,4851
32856,1948.8,5101
32856,1948.8,4601
32856,1948.8,4851
32856,1948.8,5101
32856,1948.8,4101
32856,1948.8,4351
32856,1948.8,4601
32856,1948.8,4851
32856,1948.8,5101
32856,1948.8,4351
32856,1948.8,4601
32856,1948.8,4851
32856,1948.8,5101
32856,1948.8,4601
32856,1948.8,4851
32856,1948.8,5101
32856,1948.8,3601
32856,1948.8,3851
32856,1948.8,4101
32856,1948.8,4351
32856,1948.8,4601
32856,1948.8,3851
32856,1948.8,4101
32856,1948.8,4351
32856,1948.8,4601
32856,1948.8,4851
32856,1948.8,4101
32856,1948.8,4351
32856,1948.8,4601
32856,1948.8,4851
32856,1948.8,5101
32856,1948.8,4351
32856,1948.8,4601
32856,1948.8,4851
32856,1948.8,5101
32856,1948.8,4601
32856,1948.8,4851
32856,1948.8,5101
32856,1948.8,3851
32856,1948.8,4101
32856,1948.8,4351
32856,1948.8,4601
32856,1948.8,4851
32856,1948.8,4101
32856,1948.8,4351
32856,1948.8,4601
32856,1948.8,4851
32856,1948.8,5101
32856,1948.8,4351
32856,1948.8,4601
32856,1948.8,4851
32856,1948.8,5101
32856,1948.8,4601
32856,1948.8,4851
32856,1948.8,5101
32856,1948.8,4101
32856,1948.8,4351
32856,1948.8,4601
32856,1948.8,4851
32856,1948.8,5101
32856,1948.8,4351
32856,1948.8,4601
32856,1948.8,4851
32856,1948.8,5101
32856,1948.8,4601
32856,1948.8,4851
32856,1948.8,5101
32856,1948.8,2851
32856,1948.8,3101
32856,1948.8,3351
32856,1948.8,3601
32856,1948.8,3851
32856,1948.8,3101
32856,1948.8,3351
32856,1948.8,3601
32856,1948.8,3851
32856,1948.8,4101
32856,1948.8,3351
32856,1948.8,3601
32856,1948.8,3851
32856,1948.8,4101
32856,1948.8,4351
32856,1948.8,3601
32856,1948.8,3851
32856,1948.8,4101
32856,1948.8,4351
32856,1948.8,4601
32856,1948.8,3851
32856,1948.8,4101
32856,1948.8,4351
32856,1948.8,4601
32856,1948.8,4851
32856,1948.8,3101
32856,1948.8,3351
32856,1948.8,3601
32856,1948.8,3851
32856,1948.8,4101
32856,1948.8,3351
32856,1948.8,3601
32856,1948.8,3851
32856,1948.8,4101
32856,1948.8,4351
32856,1948.8,3601
32856,1948.8,3851
32856,1948.8,4101
32856,1948.8,4351
32856,1948.8,4601
32856,1948.8,3851
32856,1948.8,4101
32856,1948.8,4351
32856,1948.8,4601
32856,1948.8,4851
32856,1948.8,4101
32856,1948.8,4351
32856,1948.8,4601
32856,1948.8,4851
32856,1948.8,5101
32856,1948.8,3351
32856,1948.8,3601
32856,1948.8,3851
32856,1948.8,4101
32856,1948.8,4351
32856,1948.8,3601
32856,1948.8,3851
32856,1948.8,4101
32856,1948.8,4351
32856,1948.8,4601
32856,1948.8,3851
32856,1948.8,4101
32856,1948.8,4351
32856,1948.8,4601
32856,1948.8,4851
32856,1948.8,4101
32856,1948.8,4351
32856,1948.8,4601
32856,1948.8,4851
32856,1948.8,5101
32856,1948.8,4351
32856,1948.8,4601
32856,1948.8,4851
32856,1948.8,5101
32856,1948.8,3601
32856,1948.8,3851
32856,1948.8,4101
32856,1948.8,4351
32856,1948.8,4601
32856,1948.8,3851
32856,1948.8,4101
32856,1948.8,4351
32856,1948.8,4601
32856,1948.8,4851
32856,1948.8,4101
32856,1948.8,4351
32856,1948.8,4601
32856,1948.8,4851
32856,1948.8,5101
32856,1948.8,4351
32856,1948.8,4601
32856,1948.8,4851
32856,1948.8,5101
32856,1948.8,4601
32856,1948.8,4851
32856,1948.8,5101
32856,1948.8,3851
32856,1948.8,4101
32856,1948.8,4351
32856,1948.8,4601
32856,1948.8,4851
32856,1948.8,4101
32856,1948.8,4351
32856,1948.8,4601
32856,1948.8,4851
32856,1948.8,5101
32856,1948.8,4351
32856,1948.8,4601
32856,1948.8,4851
32856,1948.8,5101
32856,1948.8,4601
32856,1948.8,4851
32856,1948.8,5101
32856,1948.8,3101
32856,1948.8,3351
32856,1948.8,3601
32856,1948.8,3851
32856,1948.8,4101
32856,1948.8,3351
32856,1948.8,3601
32856,1948.8,3851
32856,1948.8,4101
32856,1948.8,4351
32856,1948.8,3601
32856,1948.8,3851
32856,1948.8,4101
32856,1948.8,4351
32856,1948.8,4601
32856,1948.8,3851
32856,1948.8,4101
32856,1948.8,4351
32856,1948.8,4601
32856,1948.8,4851
32856,1948.8,4101
32856,1948.8,4351
32856,1948.8,4601
32856,1948.8,4851
32856,1948.8,5101
32856,1948.8,3351
32856,1948.8,3601
32856,1948.8,3851
32856,1948.8,4101
32856,1948.8,4351
32856,1948.8,3601
32856,1948.8,3851
32856,1948.8,4101
32856,1948.8,4351
32856,1948.8,4601
32856,1948.8,3851
32856,1948.8,4101
32856,1948.8,4351
32856,1948.8,4601
32856,1948.8,4851
32856,1948.8,4101
32856,1948.8,4351
32856,1948.8,4601
32856,1948.8,4851
32856,1948.8,5101
32856,1948.8,4351
32856,1948.8,4601
32856,1948.8,4851
32856,1948.8,5101
32856,1948.8,3601
32856,1948.8,3851
32856,1948.8,4101
32856,1948.8,4351
32856,1948.8,4601
32856,1948.8,3851
32856,1948.8,4101
32856,1948.8,4351
32856,1948.8,4601
32856,1948.8,4851
32856,1948.8,4101
32856,1948.8,4351
32856,1948.8,4601
32856,1948.8,4851
32856,1948.8,5101
32856,1948.8,4351
32856,1948.8,4601
32856,1948.8,4851
32856,1948.8,5101
32856,1948.8,4601
32856,1948.8,4851
32856,1948.8,5101
32856,1948.8,3851
32856,1948.8,4101
32856,1948.8,4351
32856,1948.8,4601
32856,1948.8,4851
32856,1948.8,4101
32856,1948.8,4351
32856,1948.8,4601
32856,1948.8,4851
32856,1948.8,5101
32856,1948.8,4351
32856,1948.8,4601
32856,1948.8,4851
32856,1948.8,5101
32856,1948.8,4601
32856,1948.8,4851
32856,1948.8,5101
32856,1948.8,4101
32856,1948.8,4351
32856,1948.8,4601
32856,1948.8,4851
32856,1948.8,5101
32856,1948.8,4351
32856,1948.8,4601
32856,1948.8,4851
32856,1948.8,5101
32856,1948.8,4601
32856,1948.8,4851
32856,1948.8,5101
32856,1948.8,3351
32856,1948.8,3601
32856,1948.8,3851
32856,1948.8,4101
32856,1948.8,4351
32856,1948.8,3601
32856,1948.8,3851
32856,1948.8,4101
32856,1948.8,4351
32856,1948.8,4601
32856,1948.8,3851
32856,1948.8,4101
32856,1948.8,4351
32856,1948.8,4601
32856,1948.8,4851
32856,1948.8,4101
32856,1948.8,4351
32856,1948.8,4601
32856,1948.8,4851
32856,1948.8,5101
32856,1948.8,4351
32856,1948.8,4601
32856,1948.8,4851
32856,1948.8,5101
32856,1948.8,3601
32856,1948.8,3851
32856,1948.8,4101
32856,1948.8,4351
32856,1948.8,4601
32856,1948.8,3851
32856,1948.8,4101
32856,1948.8,4351
32856,1948.8,4601
32856,1948.8,4851
32856,1948.8,4101
32856,1948.8,4351
32856,1948.8,4601
32856,1948.8,4851
32856,1948.8,5101
32856,1948.8,4351
32856,1948.8,4601
32856,1948.8,4851
32856,1948.8,5101
32856,1948.8,4601
32856,1948.8,4851
32856,1948.8,5101
32856,1948.8,3851
32856,1948.8,4101
32856,1948.8,4351
32856,1948.8,4601
32856,1948.8,4851
32856,1948.8,4101
32856,1948.8,4351
32856,1948.8,4601
32856,1948.8,4851
32856,1948.8,5101
32856,1948.8,4351
32856,1948.8,4601
32856,1948.8,4851
32856,1948.8,5101
32856,1948.8,4601
32856,1948.8,4851
32856,1948.8,5101
32856,1948.8,4101
32856,1948.8,4351
32856,1948.8,4601
32856,1948.8,4851
32856,1948.8,5101
32856,1948.8,4351
32856,1948.8,4601
32856,1948.8,4851
32856,1948.8,5101
32856,1948.8,4601
32856,1948.8,4851
32856,1948.8,5101
32856,1948.8,3601
32856,1948.8,3851
32856,1948.8,4101
32856,1948.8,4351
32856,1948.8,4601
32856,1948.8,3851
32856,1948.8,4101
32856,1948.8,4351
32856,1948.8,4601
32856,1948.8,4851
32856,1948.8,4101
32856,1948.8,4351
32856,1948.8,4601
32856,1948.8,4851
32856,1948.8,5101
32856,1948.8,4351
32856,1948.8,4601
32856,1948.8,4851
32856,1948.8,5101
32856,1948.8,4601
32856,1948.8,4851
32856,1948.8,5101
32856,1948.8,3851
32856,1948.8,4101
32856,1948.8,4351
32856,1948.8,4601
32856,1948.8,4851
32856,1948.8,4101
32856,1948.8,4351
32856,1948.8,4601
32856,1948.8,4851
32856,1948.8,5101
32856,1948.8,4351
32856,1948.8,4601
32856,1948.8,4851
32856,1948.8,5101
32856,1948.8,4601
32856,1948.8,4851
32856,1948.8,5101
32856,1948.8,4101
32856,1948.8,4351
32856,1948.8,4601
32856,1948.8,4851
32856,1948.8,5101
32856,1948.8,4351
32856,1948.8,4601
32856,1948.8,4851
32856,1948.8,5101
32856,1948.8,4601
32856,1948.8,4851
32856,1948.8,5101
32856,1948.8,3101
32856,1948.8,3351
32856,1948.8,3601
32856,1948.8,3851
32856,1948.8,4101
32856,1948.8,3351
32856,1948.8,3601
32856,1948.8,3851
32856,1948.8,4101
32856,1948.8,4351
32856,1948.8,3601
32856,1948.8,3851
32856,1948.8,4101
32856,1948.8,4351
32856,1948.8,4601
32856,1948.8,3851
32856,1948.8,4101
32856,1948.8,4351
32856,1948.8,4601
32856,1948.8,4851
32856,1948.8,4101
32856,1948.8,4351
32856,1948.8,4601
32856,1948.8,4851
32856,1948.8,5101
32856,1948.8,3351
32856,1948.8,3601
32856,1948.8,3851
32856,1948.8,4101
32856,1948.8,4351
32856,1948.8,3601
32856,1948.8,3851
32856,1948.8,4101
32856,1948.8,4351
32856,1948.8,4601
32856,1948.8,3851
32856,1948.8,4101
32856,1948.8,4351
32856,1948.8,4601
32856,1948.8,4851
32856,1948.8,4101
32856,1948.8,4351
32856,1948.8,4601
32856,1948.8,4851
32856,1948.8,5101
32856,1948.8,4351
32856,1948.8,4601
32856,1948.8,4851
32856,1948.8,5101
32856,1948.8,3601
32856,1948.8,3851
32856,1948.8,4101
32856,1948.8,4351
32856,1948.8,4601
32856,1948.8,3851
32856,1948.8,4101
32856,1948.8,4351
32856,1948.8,4601
32856,1948.8,4851
32856,1948.8,4101
32856,1948.8,4351
32856,1948.8,4601
32856,1948.8,4851
32856,1948.8,5101
32856,1948.8,4351
32856,1948.8,4601
32856,1948.8,4851
32856,1948.8,5101
32856,1948.8,4601
32856,1948.8,4851
32856,1948.8,5101
32856,1948.8,3851
32856,1948.8,4101
32856,1948.8,4351
32856,1948.8,4601
32856,1948.8,4851
32856,1948.8,4101
32856,1948.8,4351
32856,1948.8,4601
32856,1948.8,4851
32856,1948.8,5101
32856,1948.8,4351
32856,1948.8,4601
32856,1948.8,4851
32856,1948.8,5101
32856,1948.8,4601
32856,1948.8,4851
32856,1948.8,5101
32856,1948.8,4101
32856,1948.8,4351
32856,1948.8,4601
32856,1948.8,4851
32856,1948.8,5101
32856,1948.8,4351
32856,1948.8,4601
32856,1948.8,4851
32856,1948.8,5101
32856,1948.8,4601
32856,1948.8,4851
32856,1948.8,5101
32856,1948.8,3351
32856,1948.8,3601
32856,1948.8,3851
32856,1948.8,4101
32856,1948.8,4351
32856,1948.8,3601
32856,1948.8,3851
32856,1948.8,4101
32856,1948.8,4351
32856,1948.8,4601
32856,1948.8,3851
32856,1948.8,4101
32856,1948.8,4351
32856,1948.8,4601
32856,1948.8,4851
32856,1948.8,4101
32856,1948.8,4351
32856,1948.8,4601
32856,1948.8,4851
32856,1948.8,5101
32856,1948.8,4351
32856,1948.8,4601
32856,1948.8,4851
32856,1948.8,5101
32856,1948.8,3601
32856,1948.8,3851
32856,1948.8,4101
32856,1948.8,4351
32856,1948.8,4601
32856,1948.8,3851
32856,1948.8,4101
32856,1948.8,4351
32856,1948.8,4601
32856,1948.8,4851
32856,1948.8,4101
32856,1948.8,4351
32856,1948.8,4601
32856,1948.8,4851
32856,1948.8,5101
32856,1948.8,4351
32856,1948.8,4601
32856,1948.8,4851
32856,1948.8,5101
32856,1948.8,4601
32856,1948.8,4851
32856,1948.8,5101
32856,1948.8,3851
32856,1948.8,4101
32856,1948.8,4351
32856,1948.8,4601
32856,1948.8,4851
32856,1948.8,4101
32856,1948.8,4351
32856,1948.8,4601
32856,1948.8,4851
32856,1948.8,5101
32856,1948.8,4351
32856,1948.8,4601
32856,1948.8,4851
32856,1948.8,5101
32856,1948.8,4601
32856,1948.8,4851
32856,1948.8,5101
32856,1948.8,4101
32856,1948.8,4351
32856,1948.8,4601
32856,1948.8,4851
32856,1948.8,5101
32856,1948.8,4351
32856,1948.8,4601
32856,1948.8,4851
32856,1948.8,5101
32856,1948.8,4601
32856,1948.8,4851
32856,1948.8,5101
32856,1948.8,3601
32856,1948.8,3851
32856,1948.8,4101
32856,1948.8,4351
32856,1948.8,4601
32856,1948.8,3851
32856,1948.8,4101
32856,1948.8,4351
32856,1948.8,4601
32856,1948.8,4851
32856,1948.8,4101
32856,1948.8,4351
32856,1948.8,4601
32856,1948.8,4851
32856,1948.8,5101
32856,1948.8,4351
32856,1948.8,4601
32856,1948.8,4851
32856,1948.8,5101
32856,1948.8,4601
32856,1948.8,4851
32856,1948.8,5101
32856,1948.8,3851
32856,1948.8,4101
32856,1948.8,4351
32856,1948.8,4601
32856,1948.8,4851
32856,1948.8,4101
32856,1948.8,4351
32856,1948.8,4601
32856,1948.8,4851
32856,1948.8,5101
32856,1948.8,4351
32856,1948.8,4601
32856,1948.8,4851
32856,1948.8,5101
32856,1948.8,4601
32856,1948.8,4851
32856,1948.8,5101
32856,1948.8,4101
32856,1948.8,4351
32856,1948.8,4601
32856,1948.8,4851
32856,1948.8,5101
32856,1948.8,4351
32856,1948.8,4601
32856,1948.8,4851
32856,1948.8,5101
32856,1948.8,4601
32856,1948.8,4851
32856,1948.8,5101
