61537,1948.8,6649.2
60685,1948.8,6899.2
60685,1948.8,7149.2
59833,1948.8,6899.2
59833,1948.8,7149.2
59833,1948.8,7399.2
59833,1948.8,6899.2
59833,1948.8,7149.2
59833,1948.8,7399.2
59833,1948.8,7649.2
58981,1948.8,6899.2
58981,1948.8,7149.2
58981,1948.8,7399.2
58981,1948.8,6899.2
58981,1948.8,7149.2
58981,1948.8,7399.2
58981,1948.8,7649.2
58981,1948.8,6899.2
58981,1948.8,7149.2
58981,1948.8,7399.2
58981,1948.8,7649.2
58981,1948.8,7899.2
58981,1948.8,6899.2
58981,1948.8,7149.2
58981,1948.8,7399.2
58981,1948.8,6899.2
58981,1948.8,7149.2
58981,1948.8,7399.2
58981,1948.8,7649.2
58981,1948.8,6899.2
58981,1948.8,7149.2
58981,1948.8,7399.2
58981,1948.8,7649.2
58981,1948.8,7899.2
58981,1948.8,7149.2
58981,1948.8,7399.2
58981,1948.8,7649.2
58981,1948.8,7899.2
58981,1948.8,8149.2
58129,1948.8,6899.2
58129,1948.8,7149.2
58129,1948.8,7399.2
58129,1948.8,6899.2
58129,1948.8,7149.2
58129,1948.8,7399.2
58129,1948.8,7649.2
58129,1948.8,6899.2
58129,1948.8,7149.2
58129,1948.8,7399.2
58129,1948.8,7649.2
58129,1948.8,7899.2
58129,1948.8,6899.2
58129,1948.8,7149.2
58129,1948.8,7399.2
58129,1948.8,6899.2
58129,1948.8,7149.2
58129,1948.8,7399.2
58129,1948.8,7649.2
58129,1948.8,6899.2
58129,1948.8,7149.2
58129,1948.8,7399.2
58129,1948.8,7649.2
58129,1948.8,7899.2
58129,1948.8,7149.2
58129,1948.8,7399.2
58129,1948.8,7649.2
58129,1948.8,7899.2
58129,1948.8,8149.2
58129,1948.8,6899.2
58129,1948.8,7149.2
58129,1948.8,7399.2
58129,1948.8,6899.2
58129,1948.8,7149.2
58129,1948.8,7399.2
58129,1948.8,7649.2
58129,1948.8,6899.2
58129,1948.8,7149.2
58129,1948.8,7399.2
58129,1948.8,7649.2
58129,1948.8,7899.2
58129,1948.8,7149.2
58129,1948.8,7399.2
58129,1948.8,7649.2
58129,1948.8,7899.2
58129,1948.8,8149.2
58129,1948.8,7399.2
58129,1948.8,7649.2
58129,1948.8,7899.2
58129,1948.8,8149.2
58129,1948.8,8399.2
58129,1948.8,6899.2
58129,1948.8,7149.2
58129,1948.8,7399.2
58129,1948.8,6899.2
58129,1948.8,7149.2
58129,1948.8,7399.2
58129,1948.8,7649.2
58129,1948.8,6899.2
58129,1948.8,7149.2
58129,1948.8,7399.2
58129,1948.8,7649.2
58129,1948.8,7899.2
58129,1948.8,6899.2
58129,1948.8,7149.2
58129,1948.8,7399.2
58129,1948.8,6899.2
58129,1948.8,7149.2
58129,1948.8,7399.2
58129,1948.8,7649.2
58129,1948.8,6899.2
58129,1948.8,7149.2
58129,1948.8,7399.2
58129,1948.8,7649.2
58129,1948.8,7899.2
58129,1948.8,7149.2
58129,1948.8,7399.2
58129,1948.8,7649.2
58129,1948.8,7899.2
58129,1948.8,8149.2
58129,1948.8,6899.2
58129,1948.8,7149.2
58129,1948.8,7399.2
58129,1948.8,6899.2
58129,1948.8,7149.2
58129,1948.8,7399.2
58129,1948.8,7649.2
58129,1948.8,6899.2
58129,1948.8,7149.2
58129,1948.8,7399.2
58129,1948.8,7649.2
58129,1948.8,7899.2
58129,1948.8,7149.2
58129,1948.8,7399.2
58129,1948.8,7649.2
58129,1948.8,7899.2
58129,1948.8,8149.2
58129,1948.8,7399.2
58129,1948.8,7649.2
58129,1948.8,7899.2
58129,1948.8,8149.2
58129,1948.8,8399.2
58129,1948.8,6899.2
58129,1948.8,7149.2
58129,1948.8,7399.2
58129,1948.8,7649.2
58129,1948.8,6899.2
58129,1948.8,7149.2
58129,1948.8,7399.2
58129,1948.8,7649.2
58129,1948.8,7899.2
58129,1948.8,7149.2
58129,1948.8,7399.2
58129,1948.8,7649.2
58129,1948.8,7899.2
58129,1948.8,8149.2
58129,1948.8,7399.2
58129,1948.8,7649.2
58129,1948.8,7899.2
58129,1948.8,8149.2
58129,1948.8,8399.2
58129,1948.8,7649.2
58129,1948.8,7899.2
58129,1948.8,8149.2
58129,1948.8,8399.2
58129,1948.8,8649.2
57277,1948.8,6899.2
57277,1948.8,7149.2
57277,1948.8,7399.2
57277,1948.8,6899.2
57277,1948.8,7149.2
57277,1948.8,7399.2
57277,1948.8,7649.2
57277,1948.8,6899.2
57277,1948.8,7149.2
57277,1948.8,7399.2
57277,1948.8,7649.2
57277,1948.8,7899.2
57277,1948.8,6899.2
57277,1948.8,7149.2
57277,1948.8,7399.2
57277,1948.8,6899.2
57277,1948.8,7149.2
57277,1948.8,7399.2
57277,1948.8,7649.2
57277,1948.8,6899.2
57277,1948.8,7149.2
57277,1948.8,7399.2
57277,1948.8,7649.2
57277,1948.8,7899.2
57277,1948.8,7149.2
57277,1948.8,7399.2
57277,1948.8,7649.2
57277,1948.8,7899.2
57277,1948.8,8149.2
57277,1948.8,6899.2
57277,1948.8,7149.2
57277,1948.8,7399.2
57277,1948.8,6899.2
57277,1948.8,7149.2
57277,1948.8,7399.2
57277,1948.8,7649.2
57277,1948.8,6899.2
57277,1948.8,7149.2
57277,1948.8,7399.2
57277,1948.8,7649.2
57277,1948.8,7899.2
57277,1948.8,7149.2
57277,1948.8,7399.2
57277,1948.8,7649.2
57277,1948.8,7899.2
57277,1948.8,8149.2
57277,1948.8,7399.2
57277,1948.8,7649.2
57277,1948.8,7899.2
57277,1948.8,8149.2
57277,1948.8,8399.2
57277,1948.8,6899.2
57277,1948.8,7149.2
57277,1948.8,7399.2
57277,1948.8,6899.2
57277,1948.8,7149.2
57277,1948.8,7399.2
57277,1948.8,7649.2
57277,1948.8,6899.2
57277,1948.8,7149.2
57277,1948.8,7399.2
57277,1948.8,7649.2
57277,1948.8,7899.2
57277,1948.8,6899.2
57277,1948.8,7149.2
57277,1948.8,7399.2
57277,1948.8,6899.2
57277,1948.8,7149.2
57277,1948.8,7399.2
57277,1948.8,7649.2
57277,1948.8,6899.2
57277,1948.8,7149.2
57277,1948.8,7399.2
57277,1948.8,7649.2
57277,1948.8,7899.2
57277,1948.8,7149.2
57277,1948.8,7399.2
57277,1948.8,7649.2
57277,1948.8,7899.2
57277,1948.8,8149.2
57277,1948.8,6899.2
57277,1948.8,7149.2
57277,1948.8,7399.2
57277,1948.8,6899.2
57277,1948.8,7149.2
57277,1948.8,7399.2
57277,1948.8,7649.2
57277,1948.8,6899.2
57277,1948.8,7149.2
57277,1948.8,7399.2
57277,1948.8,7649.2
57277,1948.8,7899.2
57277,1948.8,7149.2
57277,1948.8,7399.2
57277,1948.8,7649.2
57277,1948.8,7899.2
57277,1948.8,8149.2
57277,1948.8,7399.2
57277,1948.8,7649.2
57277,1948.8,7899.2
57277,1948.8,8149.2
57277,1948.8,8399.2
57277,1948.8,6899.2
57277,1948.8,7149.2
57277,1948.8,7399.2
57277,1948.8,7649.2
57277,1948.8,6899.2
57277,1948.8,7149.2
57277,1948.8,7399.2
57277,1948.8,7649.2
57277,1948.8,7899.2
57277,1948.8,7149.2
57277,1948.8,7399.2
57277,1948.8,7649.2
57277,1948.8,7899.2
57277,1948.8,8149.2
57277,1948.8,7399.2
57277,1948.8,7649.2
57277,1948.8,7899.2
57277,1948.8,8149.2
57277,1948.8,8399.2
57277,1948.8,7649.2
57277,1948.8,7899.2
57277,1948.8,8149.2
57277,1948.8,8399.2
57277,1948.8,8649.2
57277,1948.8,6899.2
57277,1948.8,7149.2
57277,1948.8,7399.2
57277,1948.8,6899.2
57277,1948.8,7149.2
57277,1948.8,7399.2
57277,1948.8,7649.2
57277,1948.8,6899.2
57277,1948.8,7149.2
57277,1948.8,7399.2
57277,1948.8,7649.2
57277,1948.8,7899.2
57277,1948.8,6899.2
57277,1948.8,7149.2
57277,1948.8,7399.2
57277,1948.8,6899.2
57277,1948.8,7149.2
57277,1948.8,7399.2
57277,1948.8,7649.2
57277,1948.8,6899.2
57277,1948.8,7149.2
57277,1948.8,7399.2
57277,1948.8,7649.2
57277,1948.8,7899.2
57277,1948.8,7149.2
57277,1948.8,7399.2
57277,1948.8,7649.2
57277,1948.8,7899.2
57277,1948.8,8149.2
57277,1948.8,6899.2
57277,1948.8,7149.2
57277,1948.8,7399.2
57277,1948.8,6899.2
57277,1948.8,7149.2
57277,1948.8,7399.2
57277,1948.8,7649.2
57277,1948.8,6899.2
57277,1948.8,7149.2
57277,1948.8,7399.2
57277,1948.8,7649.2
57277,1948.8,7899.2
57277,1948.8,7149.2
57277,1948.8,7399.2
57277,1948.8,7649.2
57277,1948.8,7899.2
57277,1948.8,8149.2
57277,1948.8,7399.2
57277,1948.8,7649.2
57277,1948.8,7899.2
57277,1948.8,8149.2
57277,1948.8,8399.2
57277,1948.8,6899.2
57277,1948.8,7149.2
57277,1948.8,7399.2
57277,1948.8,7649.2
57277,1948.8,6899.2
57277,1948.8,7149.2
57277,1948.8,7399.2
57277,1948.8,7649.2
57277,1948.8,7899.2
57277,1948.8,7149.2
57277,1948.8,7399.2
57277,1948.8,7649.2
57277,1948.8,7899.2
57277,1948.8,8149.2
57277,1948.8,7399.2
57277,1948.8,7649.2
57277,1948.8,7899.2
57277,1948.8,8149.2
57277,1948.8,8399.2
57277,1948.8,7649.2
57277,1948.8,7899.2
57277,1948.8,8149.2
57277,1948.8,8399.2
57277,1948.8,8649.2
57277,1948.8,6899.2
57277,1948.8,7149.2
57277,1948.8,7399.2
57277,1948.8,7649.2
57277,1948.8,7899.2
57277,1948.8,7149.2
57277,1948.8,7399.2
57277,1948.8,7649.2
57277,1948.8,7899.2
57277,1948.8,8149.2
57277,1948.8,7399.2
57277,1948.8,7649.2
57277,1948.8,7899.2
57277,1948.8,8149.2
57277,1948.8,8399.2
57277,1948.8,7649.2
57277,1948.8,7899.2
57277,1948.8,8149.2
57277,1948.8,8399.2
57277,1948.8,8649.2
57277,1948.8,7899.2
57277,1948.8,8149.2
57277,1948.8,8399.2
57277,1948.8,8649.2
57277,1948.8,8899.2
57277,1948.8,6899.2
57277,1948.8,7149.2
57277,1948.8,7399.2
57277,1948.8,6899.2
57277,1948.8,7149.2
57277,1948.8,7399.2
57277,1948.8,7649.2
57277,1948.8,6899.2
57277,1948.8,7149.2
57277,1948.8,7399.2
57277,1948.8,7649.2
57277,1948.8,7899.2
57277,1948.8,6899.2
57277,1948.8,7149.2
57277,1948.8,7399.2
57277,1948.8,6899.2
57277,1948.8,7149.2
57277,1948.8,7399.2
57277,1948.8,7649.2
57277,1948.8,6899.2
57277,1948.8,7149.2
57277,1948.8,7399.2
57277,1948.8,7649.2
57277,1948.8,7899.2
57277,1948.8,7149.2
57277,1948.8,7399.2
57277,1948.8,7649.2
57277,1948.8,7899.2
57277,1948.8,8149.2
57277,1948.8,6899.2
57277,1948.8,7149.2
57277,1948.8,7399.2
57277,1948.8,6899.2
57277,1948.8,7149.2
57277,1948.8,7399.2
57277,1948.8,7649.2
57277,1948.8,6899.2
57277,1948.8,7149.2
57277,1948.8,7399.2
57277,1948.8,7649.2
57277,1948.8,7899.2
57277,1948.8,7149.2
57277,1948.8,7399.2
57277,1948.8,7649.2
57277,1948.8,7899.2
57277,1948.8,8149.2
57277,1948.8,7399.2
57277,1948.8,7649.2
57277,1948.8,7899.2
57277,1948.8,8149.2
57277,1948.8,8399.2
57277,1948.8,6899.2
57277,1948.8,7149.2
57277,1948.8,7399.2
57277,1948.8,6899.2
57277,1948.8,7149.2
57277,1948.8,7399.2
57277,1948.8,7649.2
57277,1948.8,6899.2
57277,1948.8,7149.2
57277,1948.8,7399.2
57277,1948.8,7649.2
57277,1948.8,7899.2
57277,1948.8,6899.2
57277,1948.8,7149.2
57277,1948.8,7399.2
57277,1948.8,6899.2
57277,1948.8,7149.2
57277,1948.8,7399.2
57277,1948.8,7649.2
57277,1948.8,6899.2
57277,1948.8,7149.2
57277,1948.8,7399.2
57277,1948.8,7649.2
57277,1948.8,7899.2
57277,1948.8,7149.2
57277,1948.8,7399.2
57277,1948.8,7649.2
57277,1948.8,7899.2
57277,1948.8,8149.2
57277,1948.8,6899.2
57277,1948.8,7149.2
57277,1948.8,7399.2
57277,1948.8,6899.2
57277,1948.8,7149.2
57277,1948.8,7399.2
57277,1948.8,7649.2
57277,1948.8,6899.2
57277,1948.8,7149.2
57277,1948.8,7399.2
57277,1948.8,7649.2
57277,1948.8,7899.2
57277,1948.8,7149.2
57277,1948.8,7399.2
57277,1948.8,7649.2
57277,1948.8,7899.2
57277,1948.8,8149.2
57277,1948.8,7399.2
57277,1948.8,7649.2
57277,1948.8,7899.2
57277,1948.8,8149.2
57277,1948.8,8399.2
57277,1948.8,6899.2
57277,1948.8,7149.2
57277,1948.8,7399.2
57277,1948.8,7649.2
57277,1948.8,6899.2
57277,1948.8,7149.2
57277,1948.8,7399.2
57277,1948.8,7649.2
57277,1948.8,7899.2
57277,1948.8,7149.2
57277,1948.8,7399.2
57277,1948.8,7649.2
57277,1948.8,7899.2
57277,1948.8,8149.2
57277,1948.8,7399.2
57277,1948.8,7649.2
57277,1948.8,7899.2
57277,1948.8,8149.2
57277,1948.8,8399.2
57277,1948.8,7649.2
57277,1948.8,7899.2
57277,1948.8,8149.2
57277,1948.8,8399.2
57277,1948.8,8649.2
57277,1948.8,6899.2
57277,1948.8,7149.2
57277,1948.8,7399.2
57277,1948.8,6899.2
57277,1948.8,7149.2
57277,1948.8,7399.2
57277,1948.8,7649.2
57277,1948.8,6899.2
57277,1948.8,7149.2
57277,1948.8,7399.2
57277,1948.8,7649.2
57277,1948.8,7899.2
57277,1948.8,6899.2
57277,1948.8,7149.2
57277,1948.8,7399.2
57277,1948.8,6899.2
57277,1948.8,7149.2
57277,1948.8,7399.2
57277,1948.8,7649.2
57277,1948.8,6899.2
57277,1948.8,7149.2
57277,1948.8,7399.2
57277,1948.8,7649.2
57277,1948.8,7899.2
57277,1948.8,7149.2
57277,1948.8,7399.2
57277,1948.8,7649.2
57277,1948.8,7899.2
57277,1948.8,8149.2
57277,1948.8,6899.2
57277,1948.8,7149.2
57277,1948.8,7399.2
57277,1948.8,6899.2
57277,1948.8,7149.2
57277,1948.8,7399.2
57277,1948.8,7649.2
57277,1948.8,6899.2
57277,1948.8,7149.2
57277,1948.8,7399.2
57277,1948.8,7649.2
57277,1948.8,7899.2
57277,1948.8,7149.2
57277,1948.8,7399.2
57277,1948.8,7649.2
57277,1948.8,7899.2
57277,1948.8,8149.2
57277,1948.8,7399.2
57277,1948.8,7649.2
57277,1948.8,7899.2
57277,1948.8,8149.2
57277,1948.8,8399.2
57277,1948.8,6899.2
57277,1948.8,7149.2
57277,1948.8,7399.2
57277,1948.8,7649.2
57277,1948.8,6899.2
57277,1948.8,7149.2
57277,1948.8,7399.2
57277,1948.8,7649.2
57277,1948.8,7899.2
57277,1948.8,7149.2
57277,1948.8,7399.2
57277,1948.8,7649.2
57277,1948.8,7899.2
57277,1948.8,8149.2
57277,1948.8,7399.2
57277,1948.8,7649.2
57277,1948.8,7899.2
57277,1948.8,8149.2
57277,1948.8,8399.2
57277,1948.8,7649.2
57277,1948.8,7899.2
57277,1948.8,8149.2
57277,1948.8,8399.2
57277,1948.8,8649.2
57277,1948.8,6899.2
57277,1948.8,7149.2
57277,1948.8,7399.2
57277,1948.8,7649.2
57277,1948.8,7899.2
57277,1948.8,7149.2
57277,1948.8,7399.2
57277,1948.8,7649.2
57277,1948.8,7899.2
57277,1948.8,8149.2
57277,1948.8,7399.2
57277,1948.8,7649.2
57277,1948.8,7899.2
57277,1948.8,8149.2
57277,1948.8,8399.2
57277,1948.8,7649.2
57277,1948.8,7899.2
57277,1948.8,8149.2
57277,1948.8,8399.2
57277,1948.8,8649.2
57277,1948.8,7899.2
57277,1948.8,8149.2
57277,1948.8,8399.2
57277,1948.8,8649.2
57277,1948.8,8899.2
57277,1948.8,6899.2
57277,1948.8,7149.2
57277,1948.8,7399.2
57277,1948.8,6899.2
57277,1948.8,7149.2
57277,1948.8,7399.2
57277,1948.8,7649.2
57277,1948.8,6899.2
57277,1948.8,7149.2
57277,1948.8,7399.2
57277,1948.8,7649.2
57277,1948.8,7899.2
57277,1948.8,7149.2
57277,1948.8,7399.2
57277,1948.8,7649.2
57277,1948.8,7899.2
57277,1948.8,8149.2
57277,1948.8,6899.2
57277,1948.8,7149.2
57277,1948.8,7399.2
57277,1948.8,6899.2
57277,1948.8,7149.2
57277,1948.8,7399.2
57277,1948.8,7649.2
57277,1948.8,6899.2
57277,1948.8,7149.2
57277,1948.8,7399.2
57277,1948.8,7649.2
57277,1948.8,7899.2
57277,1948.8,7149.2
57277,1948.8,7399.2
57277,1948.8,7649.2
57277,1948.8,7899.2
57277,1948.8,8149.2
57277,1948.8,7399.2
57277,1948.8,7649.2
57277,1948.8,7899.2
57277,1948.8,8149.2
57277,1948.8,8399.2
57277,1948.8,6899.2
57277,1948.8,7149.2
57277,1948.8,7399.2
57277,1948.8,7649.2
57277,1948.8,6899.2
57277,1948.8,7149.2
57277,1948.8,7399.2
57277,1948.8,7649.2
57277,1948.8,7899.2
57277,1948.8,7149.2
57277,1948.8,7399.2
57277,1948.8,7649.2
57277,1948.8,7899.2
57277,1948.8,8149.2
57277,1948.8,7399.2
57277,1948.8,7649.2
57277,1948.8,7899.2
57277,1948.8,8149.2
57277,1948.8,8399.2
57277,1948.8,7649.2
57277,1948.8,7899.2
57277,1948.8,8149.2
57277,1948.8,8399.2
57277,1948.8,8649.2
57277,1948.8,6899.2
57277,1948.8,7149.2
57277,1948.8,7399.2
57277,1948.8,7649.2
57277,1948.8,7899.2
57277,1948.8,7149.2
57277,1948.8,7399.2
57277,1948.8,7649.2
57277,1948.8,7899.2
57277,1948.8,8149.2
57277,1948.8,7399.2
57277,1948.8,7649.2
57277,1948.8,7899.2
57277,1948.8,8149.2
57277,1948.8,8399.2
57277,1948.8,7649.2
57277,1948.8,7899.2
57277,1948.8,8149.2
57277,1948.8,8399.2
57277,1948.8,8649.2
57277,1948.8,7899.2
57277,1948.8,8149.2
57277,1948.8,8399.2
57277,1948.8,8649.2
57277,1948.8,8899.2
57277,1948.8,7149.2
57277,1948.8,7399.2
57277,1948.8,7649.2
57277,1948.8,7899.2
57277,1948.8,8149.2
57277,1948.8,7399.2
57277,1948.8,7649.2
57277,1948.8,7899.2
57277,1948.8,8149.2
57277,1948.8,8399.2
57277,1948.8,7649.2
57277,1948.8,7899.2
57277,1948.8,8149.2
57277,1948.8,8399.2
57277,1948.8,8649.2
57277,1948.8,7899.2
57277,1948.8,8149.2
57277,1948.8,8399.2
57277,1948.8,8649.2
57277,1948.8,8899.2
57277,1948.8,8149.2
57277,1948.8,8399.2
57277,1948.8,8649.2
57277,1948.8,8899.2
57277,1948.8,9149.2
56425,1948.8,6899.2
56425,1948.8,7149.2
56425,1948.8,7399.2
56425,1948.8,6899.2
56425,1948.8,7149.2
56425,1948.8,7399.2
56425,1948.8,7649.2
56425,1948.8,6899.2
56425,1948.8,7149.2
56425,1948.8,7399.2
56425,1948.8,7649.2
56425,1948.8,7899.2
56425,1948.8,6899.2
56425,1948.8,7149.2
56425,1948.8,7399.2
56425,1948.8,6899.2
56425,1948.8,7149.2
56425,1948.8,7399.2
56425,1948.8,7649.2
56425,1948.8,6899.2
56425,1948.8,7149.2
56425,1948.8,7399.2
56425,1948.8,7649.2
56425,1948.8,7899.2
56425,1948.8,7149.2
56425,1948.8,7399.2
56425,1948.8,7649.2
56425,1948.8,7899.2
56425,1948.8,8149.2
56425,1948.8,6899.2
56425,1948.8,7149.2
56425,1948.8,7399.2
56425,1948.8,6899.2
56425,1948.8,7149.2
56425,1948.8,7399.2
56425,1948.8,7649.2
56425,1948.8,6899.2
56425,1948.8,7149.2
56425,1948.8,7399.2
56425,1948.8,7649.2
56425,1948.8,7899.2
56425,1948.8,7149.2
56425,1948.8,7399.2
56425,1948.8,7649.2
56425,1948.8,7899.2
56425,1948.8,8149.2
56425,1948.8,7399.2
56425,1948.8,7649.2
56425,1948.8,7899.2
56425,1948.8,8149.2
56425,1948.8,8399.2
56425,1948.8,6899.2
56425,1948.8,7149.2
56425,1948.8,7399.2
56425,1948.8,6899.2
56425,1948.8,7149.2
56425,1948.8,7399.2
56425,1948.8,7649.2
56425,1948.8,6899.2
56425,1948.8,7149.2
56425,1948.8,7399.2
56425,1948.8,7649.2
56425,1948.8,7899.2
56425,1948.8,6899.2
56425,1948.8,7149.2
56425,1948.8,7399.2
56425,1948.8,6899.2
56425,1948.8,7149.2
56425,1948.8,7399.2
56425,1948.8,7649.2
56425,1948.8,6899.2
56425,1948.8,7149.2
56425,1948.8,7399.2
56425,1948.8,7649.2
56425,1948.8,7899.2
56425,1948.8,7149.2
56425,1948.8,7399.2
56425,1948.8,7649.2
56425,1948.8,7899.2
56425,1948.8,8149.2
56425,1948.8,6899.2
56425,1948.8,7149.2
56425,1948.8,7399.2
56425,1948.8,6899.2
56425,1948.8,7149.2
56425,1948.8,7399.2
56425,1948.8,7649.2
56425,1948.8,6899.2
56425,1948.8,7149.2
56425,1948.8,7399.2
56425,1948.8,7649.2
56425,1948.8,7899.2
56425,1948.8,7149.2
56425,1948.8,7399.2
56425,1948.8,7649.2
56425,1948.8,7899.2
56425,1948.8,8149.2
56425,1948.8,7399.2
56425,1948.8,7649.2
56425,1948.8,7899.2
56425,1948.8,8149.2
56425,1948.8,8399.2
56425,1948.8,6899.2
56425,1948.8,7149.2
56425,1948.8,7399.2
56425,1948.8,7649.2
56425,1948.8,6899.2
56425,1948.8,7149.2
56425,1948.8,7399.2
56425,1948.8,7649.2
56425,1948.8,7899.2
56425,1948.8,7149.2
56425,1948.8,7399.2
56425,1948.8,7649.2
56425,1948.8,7899.2
56425,1948.8,8149.2
56425,1948.8,7399.2
56425,1948.8,7649.2
56425,1948.8,7899.2
56425,1948.8,8149.2
56425,1948.8,8399.2
56425,1948.8,7649.2
56425,1948.8,7899.2
56425,1948.8,8149.2
56425,1948.8,8399.2
56425,1948.8,8649.2
56425,1948.8,6899.2
56425,1948.8,7149.2
56425,1948.8,7399.2
56425,1948.8,6899.2
56425,1948.8,7149.2
56425,1948.8,7399.2
56425,1948.8,7649.2
56425,1948.8,6899.2
56425,1948.8,7149.2
56425,1948.8,7399.2
56425,1948.8,7649.2
56425,1948.8,7899.2
56425,1948.8,6899.2
56425,1948.8,7149.2
56425,1948.8,7399.2
56425,1948.8,6899.2
56425,1948.8,7149.2
56425,1948.8,7399.2
56425,1948.8,7649.2
56425,1948.8,6899.2
56425,1948.8,7149.2
56425,1948.8,7399.2
56425,1948.8,7649.2
56425,1948.8,7899.2
56425,1948.8,7149.2
56425,1948.8,7399.2
56425,1948.8,7649.2
56425,1948.8,7899.2
56425,1948.8,8149.2
56425,1948.8,6899.2
56425,1948.8,7149.2
56425,1948.8,7399.2
56425,1948.8,6899.2
56425,1948.8,7149.2
56425,1948.8,7399.2
56425,1948.8,7649.2
56425,1948.8,6899.2
56425,1948.8,7149.2
56425,1948.8,7399.2
56425,1948.8,7649.2
56425,1948.8,7899.2
56425,1948.8,7149.2
56425,1948.8,7399.2
56425,1948.8,7649.2
56425,1948.8,7899.2
56425,1948.8,8149.2
56425,1948.8,7399.2
56425,1948.8,7649.2
56425,1948.8,7899.2
56425,1948.8,8149.2
56425,1948.8,8399.2
56425,1948.8,6899.2
56425,1948.8,7149.2
56425,1948.8,7399.2
56425,1948.8,7649.2
56425,1948.8,6899.2
56425,1948.8,7149.2
56425,1948.8,7399.2
56425,1948.8,7649.2
56425,1948.8,7899.2
56425,1948.8,7149.2
56425,1948.8,7399.2
56425,1948.8,7649.2
56425,1948.8,7899.2
56425,1948.8,8149.2
56425,1948.8,7399.2
56425,1948.8,7649.2
56425,1948.8,7899.2
56425,1948.8,8149.2
56425,1948.8,8399.2
56425,1948.8,7649.2
56425,1948.8,7899.2
56425,1948.8,8149.2
56425,1948.8,8399.2
56425,1948.8,8649.2
56425,1948.8,6899.2
56425,1948.8,7149.2
56425,1948.8,7399.2
56425,1948.8,7649.2
56425,1948.8,7899.2
56425,1948.8,7149.2
56425,1948.8,7399.2
56425,1948.8,7649.2
56425,1948.8,7899.2
56425,1948.8,8149.2
56425,1948.8,7399.2
56425,1948.8,7649.2
56425,1948.8,7899.2
56425,1948.8,8149.2
56425,1948.8,8399.2
56425,1948.8,7649.2
56425,1948.8,7899.2
56425,1948.8,8149.2
56425,1948.8,8399.2
56425,1948.8,8649.2
56425,1948.8,7899.2
56425,1948.8,8149.2
56425,1948.8,8399.2
56425,1948.8,8649.2
56425,1948.8,8899.2
56425,1948.8,6899.2
56425,1948.8,7149.2
56425,1948.8,7399.2
56425,1948.8,6899.2
56425,1948.8,7149.2
56425,1948.8,7399.2
56425,1948.8,7649.2
56425,1948.8,6899.2
56425,1948.8,7149.2
56425,1948.8,7399.2
56425,1948.8,7649.2
56425,1948.8,7899.2
56425,1948.8,6899.2
56425,1948.8,7149.2
56425,1948.8,7399.2
56425,1948.8,6899.2
56425,1948.8,7149.2
56425,1948.8,7399.2
56425,1948.8,7649.2
56425,1948.8,6899.2
56425,1948.8,7149.2
56425,1948.8,7399.2
56425,1948.8,7649.2
56425,1948.8,7899.2
56425,1948.8,7149.2
56425,1948.8,7399.2
56425,1948.8,7649.2
56425,1948.8,7899.2
56425,1948.8,8149.2
56425,1948.8,6899.2
56425,1948.8,7149.2
56425,1948.8,7399.2
56425,1948.8,6899.2
56425,1948.8,7149.2
56425,1948.8,7399.2
56425,1948.8,7649.2
56425,1948.8,6899.2
56425,1948.8,7149.2
56425,1948.8,7399.2
56425,1948.8,7649.2
56425,1948.8,7899.2
56425,1948.8,7149.2
56425,1948.8,7399.2
56425,1948.8,7649.2
56425,1948.8,7899.2
56425,1948.8,8149.2
56425,1948.8,7399.2
56425,1948.8,7649.2
56425,1948.8,7899.2
56425,1948.8,8149.2
56425,1948.8,8399.2
56425,1948.8,6899.2
56425,1948.8,7149.2
56425,1948.8,7399.2
56425,1948.8,6899.2
56425,1948.8,7149.2
56425,1948.8,7399.2
56425,1948.8,7649.2
56425,1948.8,6899.2
56425,1948.8,7149.2
56425,1948.8,7399.2
56425,1948.8,7649.2
56425,1948.8,7899.2
56425,1948.8,6899.2
56425,1948.8,7149.2
56425,1948.8,7399.2
56425,1948.8,6899.2
56425,1948.8,7149.2
56425,1948.8,7399.2
56425,1948.8,7649.2
56425,1948.8,6899.2
56425,1948.8,7149.2
56425,1948.8,7399.2
56425,1948.8,7649.2
56425,1948.8,7899.2
56425,1948.8,7149.2
56425,1948.8,7399.2
56425,1948.8,7649.2
56425,1948.8,7899.2
56425,1948.8,8149.2
56425,1948.8,6899.2
56425,1948.8,7149.2
56425,1948.8,7399.2
56425,1948.8,6899.2
56425,1948.8,7149.2
56425,1948.8,7399.2
56425,1948.8,7649.2
56425,1948.8,6899.2
56425,1948.8,7149.2
56425,1948.8,7399.2
56425,1948.8,7649.2
56425,1948.8,7899.2
56425,1948.8,7149.2
56425,1948.8,7399.2
56425,1948.8,7649.2
56425,1948.8,7899.2
56425,1948.8,8149.2
56425,1948.8,7399.2
56425,1948.8,7649.2
56425,1948.8,7899.2
56425,1948.8,8149.2
56425,1948.8,8399.2
56425,1948.8,6899.2
56425,1948.8,7149.2
56425,1948.8,7399.2
56425,1948.8,7649.2
56425,1948.8,6899.2
56425,1948.8,7149.2
56425,1948.8,7399.2
56425,1948.8,7649.2
56425,1948.8,7899.2
56425,1948.8,7149.2
56425,1948.8,7399.2
56425,1948.8,7649.2
56425,1948.8,7899.2
56425,1948.8,8149.2
56425,1948.8,7399.2
56425,1948.8,7649.2
56425,1948.8,7899.2
56425,1948.8,8149.2
56425,1948.8,8399.2
56425,1948.8,7649.2
56425,1948.8,7899.2
56425,1948.8,8149.2
56425,1948.8,8399.2
56425,1948.8,8649.2
56425,1948.8,6899.2
56425,1948.8,7149.2
56425,1948.8,7399.2
56425,1948.8,6899.2
56425,1948.8,7149.2
56425,1948.8,7399.2
56425,1948.8,7649.2
56425,1948.8,6899.2
56425,1948.8,7149.2
56425,1948.8,7399.2
56425,1948.8,7649.2
56425,1948.8,7899.2
56425,1948.8,6899.2
56425,1948.8,7149.2
56425,1948.8,7399.2
56425,1948.8,6899.2
56425,1948.8,7149.2
56425,1948.8,7399.2
56425,1948.8,7649.2
56425,1948.8,6899.2
56425,1948.8,7149.2
56425,1948.8,7399.2
56425,1948.8,7649.2
56425,1948.8,7899.2
56425,1948.8,7149.2
56425,1948.8,7399.2
56425,1948.8,7649.2
56425,1948.8,7899.2
56425,1948.8,8149.2
56425,1948.8,6899.2
56425,1948.8,7149.2
56425,1948.8,7399.2
56425,1948.8,6899.2
56425,1948.8,7149.2
56425,1948.8,7399.2
56425,1948.8,7649.2
56425,1948.8,6899.2
56425,1948.8,7149.2
56425,1948.8,7399.2
56425,1948.8,7649.2
56425,1948.8,7899.2
56425,1948.8,7149.2
56425,1948.8,7399.2
56425,1948.8,7649.2
56425,1948.8,7899.2
56425,1948.8,8149.2
56425,1948.8,7399.2
56425,1948.8,7649.2
56425,1948.8,7899.2
56425,1948.8,8149.2
56425,1948.8,8399.2
56425,1948.8,6899.2
56425,1948.8,7149.2
56425,1948.8,7399.2
56425,1948.8,7649.2
56425,1948.8,6899.2
56425,1948.8,7149.2
56425,1948.8,7399.2
56425,1948.8,7649.2
56425,1948.8,7899.2
56425,1948.8,7149.2
56425,1948.8,7399.2
56425,1948.8,7649.2
56425,1948.8,7899.2
56425,1948.8,8149.2
56425,1948.8,7399.2
56425,1948.8,7649.2
56425,1948.8,7899.2
56425,1948.8,8149.2
56425,1948.8,8399.2
56425,1948.8,7649.2
56425,1948.8,7899.2
56425,1948.8,8149.2
56425,1948.8,8399.2
56425,1948.8,8649.2
56425,1948.8,6899.2
56425,1948.8,7149.2
56425,1948.8,7399.2
56425,1948.8,7649.2
56425,1948.8,7899.2
56425,1948.8,7149.2
56425,1948.8,7399.2
56425,1948.8,7649.2
56425,1948.8,7899.2
56425,1948.8,8149.2
56425,1948.8,7399.2
56425,1948.8,7649.2
56425,1948.8,7899.2
56425,1948.8,8149.2
56425,1948.8,8399.2
56425,1948.8,7649.2
56425,1948.8,7899.2
56425,1948.8,8149.2
56425,1948.8,8399.2
56425,1948.8,8649.2
56425,1948.8,7899.2
56425,1948.8,8149.2
56425,1948.8,8399.2
56425,1948.8,8649.2
56425,1948.8,8899.2
56425,1948.8,6899.2
56425,1948.8,7149.2
56425,1948.8,7399.2
56425,1948.8,6899.2
56425,1948.8,7149.2
56425,1948.8,7399.2
56425,1948.8,7649.2
56425,1948.8,6899.2
56425,1948.8,7149.2
56425,1948.8,7399.2
56425,1948.8,7649.2
56425,1948.8,7899.2
56425,1948.8,7149.2
56425,1948.8,7399.2
56425,1948.8,7649.2
56425,1948.8,7899.2
56425,1948.8,8149.2
56425,1948.8,6899.2
56425,1948.8,7149.2
56425,1948.8,7399.2
56425,1948.8,6899.2
56425,1948.8,7149.2
56425,1948.8,7399.2
56425,1948.8,7649.2
56425,1948.8,6899.2
56425,1948.8,7149.2
56425,1948.8,7399.2
56425,1948.8,7649.2
56425,1948.8,7899.2
56425,1948.8,7149.2
56425,1948.8,7399.2
56425,1948.8,7649.2
56425,1948.8,7899.2
56425,1948.8,8149.2
56425,1948.8,7399.2
56425,1948.8,7649.2
56425,1948.8,7899.2
56425,1948.8,8149.2
56425,1948.8,8399.2
56425,1948.8,6899.2
56425,1948.8,7149.2
56425,1948.8,7399.2
56425,1948.8,7649.2
56425,1948.8,6899.2
56425,1948.8,7149.2
56425,1948.8,7399.2
56425,1948.8,7649.2
56425,1948.8,7899.2
56425,1948.8,7149.2
56425,1948.8,7399.2
56425,1948.8,7649.2
56425,1948.8,7899.2
56425,1948.8,8149.2
56425,1948.8,7399.2
56425,1948.8,7649.2
56425,1948.8,7899.2
56425,1948.8,8149.2
56425,1948.8,8399.2
56425,1948.8,7649.2
56425,1948.8,7899.2
56425,1948.8,8149.2
56425,1948.8,8399.2
56425,1948.8,8649.2
56425,1948.8,6899.2
56425,1948.8,7149.2
56425,1948.8,7399.2
56425,1948.8,7649.2
56425,1948.8,7899.2
56425,1948.8,7149.2
56425,1948.8,7399.2
56425,1948.8,7649.2
56425,1948.8,7899.2
56425,1948.8,8149.2
56425,1948.8,7399.2
56425,1948.8,7649.2
56425,1948.8,7899.2
56425,1948.8,8149.2
56425,1948.8,8399.2
56425,1948.8,7649.2
56425,1948.8,7899.2
56425,1948.8,8149.2
56425,1948.8,8399.2
56425,1948.8,8649.2
56425,1948.8,7899.2
56425,1948.8,8149.2
56425,1948.8,8399.2
56425,1948.8,8649.2
56425,1948.8,8899.2
56425,1948.8,7149.2
56425,1948.8,7399.2
56425,1948.8,7649.2
56425,1948.8,7899.2
56425,1948.8,8149.2
56425,1948.8,7399.2
56425,1948.8,7649.2
56425,1948.8,7899.2
56425,1948.8,8149.2
56425,1948.8,8399.2
56425,1948.8,7649.2
56425,1948.8,7899.2
56425,1948.8,8149.2
56425,1948.8,8399.2
56425,1948.8,8649.2
56425,1948.8,7899.2
56425,1948.8,8149.2
56425,1948.8,8399.2
56425,1948.8,8649.2
56425,1948.8,8899.2
56425,1948.8,8149.2
56425,1948.8,8399.2
56425,1948.8,8649.2
56425,1948.8,8899.2
56425,1948.8,9149.2
56425,1948.8,6899.2
56425,1948.8,7149.2
56425,1948.8,7399.2
56425,1948.8,6899.2
56425,1948.8,7149.2
56425,1948.8,7399.2
56425,1948.8,7649.2
56425,1948.8,6899.2
56425,1948.8,7149.2
56425,1948.8,7399.2
56425,1948.8,7649.2
56425,1948.8,7899.2
56425,1948.8,6899.2
56425,1948.8,7149.2
56425,1948.8,7399.2
56425,1948.8,6899.2
56425,1948.8,7149.2
56425,1948.8,7399.2
56425,1948.8,7649.2
56425,1948.8,6899.2
56425,1948.8,7149.2
56425,1948.8,7399.2
56425,1948.8,7649.2
56425,1948.8,7899.2
56425,1948.8,7149.2
56425,1948.8,7399.2
56425,1948.8,7649.2
56425,1948.8,7899.2
56425,1948.8,8149.2
56425,1948.8,6899.2
56425,1948.8,7149.2
56425,1948.8,7399.2
56425,1948.8,6899.2
56425,1948.8,7149.2
56425,1948.8,7399.2
56425,1948.8,7649.2
56425,1948.8,6899.2
56425,1948.8,7149.2
56425,1948.8,7399.2
56425,1948.8,7649.2
56425,1948.8,7899.2
56425,1948.8,7149.2
56425,1948.8,7399.2
56425,1948.8,7649.2
56425,1948.8,7899.2
56425,1948.8,8149.2
56425,1948.8,7399.2
56425,1948.8,7649.2
56425,1948.8,7899.2
56425,1948.8,8149.2
56425,1948.8,8399.2
56425,1948.8,6899.2
56425,1948.8,7149.2
56425,1948.8,7399.2
56425,1948.8,6899.2
56425,1948.8,7149.2
56425,1948.8,7399.2
56425,1948.8,7649.2
56425,1948.8,6899.2
56425,1948.8,7149.2
56425,1948.8,7399.2
56425,1948.8,7649.2
56425,1948.8,7899.2
56425,1948.8,6899.2
56425,1948.8,7149.2
56425,1948.8,7399.2
56425,1948.8,6899.2
56425,1948.8,7149.2
56425,1948.8,7399.2
56425,1948.8,7649.2
56425,1948.8,6899.2
56425,1948.8,7149.2
56425,1948.8,7399.2
56425,1948.8,7649.2
56425,1948.8,7899.2
56425,1948.8,7149.2
56425,1948.8,7399.2
56425,1948.8,7649.2
56425,1948.8,7899.2
56425,1948.8,8149.2
56425,1948.8,6899.2
56425,1948.8,7149.2
56425,1948.8,7399.2
56425,1948.8,6899.2
56425,1948.8,7149.2
56425,1948.8,7399.2
56425,1948.8,7649.2
56425,1948.8,6899.2
56425,1948.8,7149.2
56425,1948.8,7399.2
56425,1948.8,7649.2
56425,1948.8,7899.2
56425,1948.8,7149.2
56425,1948.8,7399.2
56425,1948.8,7649.2
56425,1948.8,7899.2
56425,1948.8,8149.2
56425,1948.8,7399.2
56425,1948.8,7649.2
56425,1948.8,7899.2
56425,1948.8,8149.2
56425,1948.8,8399.2
56425,1948.8,6899.2
56425,1948.8,7149.2
56425,1948.8,7399.2
56425,1948.8,7649.2
56425,1948.8,6899.2
56425,1948.8,7149.2
56425,1948.8,7399.2
56425,1948.8,7649.2
56425,1948.8,7899.2
56425,1948.8,7149.2
56425,1948.8,7399.2
56425,1948.8,7649.2
56425,1948.8,7899.2
56425,1948.8,8149.2
56425,1948.8,7399.2
56425,1948.8,7649.2
56425,1948.8,7899.2
56425,1948.8,8149.2
56425,1948.8,8399.2
56425,1948.8,7649.2
56425,1948.8,7899.2
56425,1948.8,8149.2
56425,1948.8,8399.2
56425,1948.8,8649.2
56425,1948.8,6899.2
56425,1948.8,7149.2
56425,1948.8,7399.2
56425,1948.8,6899.2
56425,1948.8,7149.2
56425,1948.8,7399.2
56425,1948.8,7649.2
56425,1948.8,6899.2
56425,1948.8,7149.2
56425,1948.8,7399.2
56425,1948.8,7649.2
56425,1948.8,7899.2
56425,1948.8,6899.2
56425,1948.8,7149.2
56425,1948.8,7399.2
56425,1948.8,6899.2
56425,1948.8,7149.2
56425,1948.8,7399.2
56425,1948.8,7649.2
56425,1948.8,6899.2
56425,1948.8,7149.2
56425,1948.8,7399.2
56425,1948.8,7649.2
56425,1948.8,7899.2
56425,1948.8,7149.2
56425,1948.8,7399.2
56425,1948.8,7649.2
56425,1948.8,7899.2
56425,1948.8,8149.2
56425,1948.8,6899.2
56425,1948.8,7149.2
56425,1948.8,7399.2
56425,1948.8,6899.2
56425,1948.8,7149.2
56425,1948.8,7399.2
56425,1948.8,7649.2
56425,1948.8,6899.2
56425,1948.8,7149.2
56425,1948.8,7399.2
56425,1948.8,7649.2
56425,1948.8,7899.2
56425,1948.8,7149.2
56425,1948.8,7399.2
56425,1948.8,7649.2
56425,1948.8,7899.2
56425,1948.8,8149.2
56425,1948.8,7399.2
56425,1948.8,7649.2
56425,1948.8,7899.2
56425,1948.8,8149.2
56425,1948.8,8399.2
56425,1948.8,6899.2
56425,1948.8,7149.2
56425,1948.8,7399.2
56425,1948.8,7649.2
56425,1948.8,6899.2
56425,1948.8,7149.2
56425,1948.8,7399.2
56425,1948.8,7649.2
56425,1948.8,7899.2
56425,1948.8,7149.2
56425,1948.8,7399.2
56425,1948.8,7649.2
56425,1948.8,7899.2
56425,1948.8,8149.2
56425,1948.8,7399.2
56425,1948.8,7649.2
56425,1948.8,7899.2
56425,1948.8,8149.2
56425,1948.8,8399.2
56425,1948.8,7649.2
56425,1948.8,7899.2
56425,1948.8,8149.2
56425,1948.8,8399.2
56425,1948.8,8649.2
56425,1948.8,6899.2
56425,1948.8,7149.2
56425,1948.8,7399.2
56425,1948.8,7649.2
56425,1948.8,7899.2
56425,1948.8,7149.2
56425,1948.8,7399.2
56425,1948.8,7649.2
56425,1948.8,7899.2
56425,1948.8,8149.2
56425,1948.8,7399.2
56425,1948.8,7649.2
56425,1948.8,7899.2
56425,1948.8,8149.2
56425,1948.8,8399.2
56425,1948.8,7649.2
56425,1948.8,7899.2
56425,1948.8,8149.2
56425,1948.8,8399.2
56425,1948.8,8649.2
56425,1948.8,7899.2
56425,1948.8,8149.2
56425,1948.8,8399.2
56425,1948.8,8649.2
56425,1948.8,8899.2
56425,1948.8,6899.2
56425,1948.8,7149.2
56425,1948.8,7399.2
56425,1948.8,6899.2
56425,1948.8,7149.2
56425,1948.8,7399.2
56425,1948.8,7649.2
56425,1948.8,6899.2
56425,1948.8,7149.2
56425,1948.8,7399.2
56425,1948.8,7649.2
56425,1948.8,7899.2
56425,1948.8,7149.2
56425,1948.8,7399.2
56425,1948.8,7649.2
56425,1948.8,7899.2
56425,1948.8,8149.2
56425,1948.8,6899.2
56425,1948.8,7149.2
56425,1948.8,7399.2
56425,1948.8,6899.2
56425,1948.8,7149.2
56425,1948.8,7399.2
56425,1948.8,7649.2
56425,1948.8,6899.2
56425,1948.8,7149.2
56425,1948.8,7399.2
56425,1948.8,7649.2
56425,1948.8,7899.2
56425,1948.8,7149.2
56425,1948.8,7399.2
56425,1948.8,7649.2
56425,1948.8,7899.2
56425,1948.8,8149.2
56425,1948.8,7399.2
56425,1948.8,7649.2
56425,1948.8,7899.2
56425,1948.8,8149.2
56425,1948.8,8399.2
56425,1948.8,6899.2
56425,1948.8,7149.2
56425,1948.8,7399.2
56425,1948.8,7649.2
56425,1948.8,6899.2
56425,1948.8,7149.2
56425,1948.8,7399.2
56425,1948.8,7649.2
56425,1948.8,7899.2
56425,1948.8,7149.2
56425,1948.8,7399.2
56425,1948.8,7649.2
56425,1948.8,7899.2
56425,1948.8,8149.2
56425,1948.8,7399.2
56425,1948.8,7649.2
56425,1948.8,7899.2
56425,1948.8,8149.2
56425,1948.8,8399.2
56425,1948.8,7649.2
56425,1948.8,7899.2
56425,1948.8,8149.2
56425,1948.8,8399.2
56425,1948.8,8649.2
56425,1948.8,6899.2
56425,1948.8,7149.2
56425,1948.8,7399.2
56425,1948.8,7649.2
56425,1948.8,7899.2
56425,1948.8,7149.2
56425,1948.8,7399.2
56425,1948.8,7649.2
56425,1948.8,7899.2
56425,1948.8,8149.2
56425,1948.8,7399.2
56425,1948.8,7649.2
56425,1948.8,7899.2
56425,1948.8,8149.2
56425,1948.8,8399.2
56425,1948.8,7649.2
56425,1948.8,7899.2
56425,1948.8,8149.2
56425,1948.8,8399.2
56425,1948.8,8649.2
56425,1948.8,7899.2
56425,1948.8,8149.2
56425,1948.8,8399.2
56425,1948.8,8649.2
56425,1948.8,8899.2
56425,1948.8,7149.2
56425,1948.8,7399.2
56425,1948.8,7649.2
56425,1948.8,7899.2
56425,1948.8,8149.2
56425,1948.8,7399.2
56425,1948.8,7649.2
56425,1948.8,7899.2
56425,1948.8,8149.2
56425,1948.8,8399.2
56425,1948.8,7649.2
56425,1948.8,7899.2
56425,1948.8,8149.2
56425,1948.8,8399.2
56425,1948.8,8649.2
56425,1948.8,7899.2
56425,1948.8,8149.2
56425,1948.8,8399.2
56425,1948.8,8649.2
56425,1948.8,8899.2
56425,1948.8,8149.2
56425,1948.8,8399.2
56425,1948.8,8649.2
56425,1948.8,8899.2
56425,1948.8,9149.2
56425,1948.8,6899.2
56425,1948.8,7149.2
56425,1948.8,7399.2
56425,1948.8,6899.2
56425,1948.8,7149.2
56425,1948.8,7399.2
56425,1948.8,7649.2
56425,1948.8,6899.2
56425,1948.8,7149.2
56425,1948.8,7399.2
56425,1948.8,7649.2
56425,1948.8,7899.2
56425,1948.8,7149.2
56425,1948.8,7399.2
56425,1948.8,7649.2
56425,1948.8,7899.2
56425,1948.8,8149.2
56425,1948.8,7399.2
56425,1948.8,7649.2
56425,1948.8,7899.2
56425,1948.8,8149.2
56425,1948.8,8399.2
56425,1948.8,6899.2
56425,1948.8,7149.2
56425,1948.8,7399.2
56425,1948.8,7649.2
56425,1948.8,6899.2
56425,1948.8,7149.2
56425,1948.8,7399.2
56425,1948.8,7649.2
56425,1948.8,7899.2
56425,1948.8,7149.2
56425,1948.8,7399.2
56425,1948.8,7649.2
56425,1948.8,7899.2
56425,1948.8,8149.2
56425,1948.8,7399.2
56425,1948.8,7649.2
56425,1948.8,7899.2
56425,1948.8,8149.2
56425,1948.8,8399.2
56425,1948.8,7649.2
56425,1948.8,7899.2
56425,1948.8,8149.2
56425,1948.8,8399.2
56425,1948.8,8649.2
56425,1948.8,6899.2
56425,1948.8,7149.2
56425,1948.8,7399.2
56425,1948.8,7649.2
56425,1948.8,7899.2
56425,1948.8,7149.2
56425,1948.8,7399.2
56425,1948.8,7649.2
56425,1948.8,7899.2
56425,1948.8,8149.2
56425,1948.8,7399.2
56425,1948.8,7649.2
56425,1948.8,7899.2
56425,1948.8,8149.2
56425,1948.8,8399.2
56425,1948.8,7649.2
56425,1948.8,7899.2
56425,1948.8,8149.2
56425,1948.8,8399.2
56425,1948.8,8649.2
56425,1948.8,7899.2
56425,1948.8,8149.2
56425,1948.8,8399.2
56425,1948.8,8649.2
56425,1948.8,8899.2
56425,1948.8,7149.2
56425,1948.8,7399.2
56425,1948.8,7649.2
56425,1948.8,7899.2
56425,1948.8,8149.2
56425,1948.8,7399.2
56425,1948.8,7649.2
56425,1948.8,7899.2
56425,1948.8,8149.2
56425,1948.8,8399.2
56425,1948.8,7649.2
56425,1948.8,7899.2
56425,1948.8,8149.2
56425,1948.8,8399.2
56425,1948.8,8649.2
56425,1948.8,7899.2
56425,1948.8,8149.2
56425,1948.8,8399.2
56425,1948.8,8649.2
56425,1948.8,8899.2
56425,1948.8,8149.2
56425,1948.8,8399.2
56425,1948.8,8649.2
56425,1948.8,8899.2
56425,1948.8,9149.2
56425,1948.8,7399.2
56425,1948.8,7649.2
56425,1948.8,7899.2
56425,1948.8,8149.2
56425,1948.8,8399.2
56425,1948.8,7649.2
56425,1948.8,7899.2
56425,1948.8,8149.2
56425,1948.8,8399.2
56425,1948.8,8649.2
56425,1948.8,7899.2
56425,1948.8,8149.2
56425,1948.8,8399.2
56425,1948.8,8649.2
56425,1948.8,8899.2
56425,1948.8,8149.2
56425,1948.8,8399.2
56425,1948.8,8649.2
56425,1948.8,8899.2
56425,1948.8,9149.2
56425,1948.8,8399.2
56425,1948.8,8649.2
56425,1948.8,8899.2
56425,1948.8,9149.2
56425,1948.8,9399.2
56425,1948.8,6899.2
56425,1948.8,7149.2
56425,1948.8,7399.2
56425,1948.8,6899.2
56425,1948.8,7149.2
56425,1948.8,7399.2
56425,1948.8,7649.2
56425,1948.8,6899.2
56425,1948.8,7149.2
56425,1948.8,7399.2
56425,1948.8,7649.2
56425,1948.8,7899.2
56425,1948.8,6899.2
56425,1948.8,7149.2
56425,1948.8,7399.2
56425,1948.8,6899.2
56425,1948.8,7149.2
56425,1948.8,7399.2
56425,1948.8,7649.2
56425,1948.8,6899.2
56425,1948.8,7149.2
56425,1948.8,7399.2
56425,1948.8,7649.2
56425,1948.8,7899.2
56425,1948.8,7149.2
56425,1948.8,7399.2
56425,1948.8,7649.2
56425,1948.8,7899.2
56425,1948.8,8149.2
56425,1948.8,6899.2
56425,1948.8,7149.2
56425,1948.8,7399.2
56425,1948.8,6899.2
56425,1948.8,7149.2
56425,1948.8,7399.2
56425,1948.8,7649.2
56425,1948.8,6899.2
56425,1948.8,7149.2
56425,1948.8,7399.2
56425,1948.8,7649.2
56425,1948.8,7899.2
56425,1948.8,7149.2
56425,1948.8,7399.2
56425,1948.8,7649.2
56425,1948.8,7899.2
56425,1948.8,8149.2
56425,1948.8,7399.2
56425,1948.8,7649.2
56425,1948.8,7899.2
56425,1948.8,8149.2
56425,1948.8,8399.2
56425,1948.8,6899.2
56425,1948.8,7149.2
56425,1948.8,7399.2
56425,1948.8,6899.2
56425,1948.8,7149.2
56425,1948.8,7399.2
56425,1948.8,7649.2
56425,1948.8,6899.2
56425,1948.8,7149.2
56425,1948.8,7399.2
56425,1948.8,7649.2
56425,1948.8,7899.2
56425,1948.8,6899.2
56425,1948.8,7149.2
56425,1948.8,7399.2
56425,1948.8,6899.2
56425,1948.8,7149.2
56425,1948.8,7399.2
56425,1948.8,7649.2
56425,1948.8,6899.2
56425,1948.8,7149.2
56425,1948.8,7399.2
56425,1948.8,7649.2
56425,1948.8,7899.2
56425,1948.8,7149.2
56425,1948.8,7399.2
56425,1948.8,7649.2
56425,1948.8,7899.2
56425,1948.8,8149.2
56425,1948.8,6899.2
56425,1948.8,7149.2
56425,1948.8,7399.2
56425,1948.8,6899.2
56425,1948.8,7149.2
56425,1948.8,7399.2
56425,1948.8,7649.2
56425,1948.8,6899.2
56425,1948.8,7149.2
56425,1948.8,7399.2
56425,1948.8,7649.2
56425,1948.8,7899.2
56425,1948.8,7149.2
56425,1948.8,7399.2
56425,1948.8,7649.2
56425,1948.8,7899.2
56425,1948.8,8149.2
56425,1948.8,7399.2
56425,1948.8,7649.2
56425,1948.8,7899.2
56425,1948.8,8149.2
56425,1948.8,8399.2
56425,1948.8,6899.2
56425,1948.8,7149.2
56425,1948.8,7399.2
56425,1948.8,7649.2
56425,1948.8,6899.2
56425,1948.8,7149.2
56425,1948.8,7399.2
56425,1948.8,7649.2
56425,1948.8,7899.2
56425,1948.8,7149.2
56425,1948.8,7399.2
56425,1948.8,7649.2
56425,1948.8,7899.2
56425,1948.8,8149.2
56425,1948.8,7399.2
56425,1948.8,7649.2
56425,1948.8,7899.2
56425,1948.8,8149.2
56425,1948.8,8399.2
56425,1948.8,7649.2
56425,1948.8,7899.2
56425,1948.8,8149.2
56425,1948.8,8399.2
56425,1948.8,8649.2
56425,1948.8,6899.2
56425,1948.8,7149.2
56425,1948.8,7399.2
56425,1948.8,6899.2
56425,1948.8,7149.2
56425,1948.8,7399.2
56425,1948.8,7649.2
56425,1948.8,6899.2
56425,1948.8,7149.2
56425,1948.8,7399.2
56425,1948.8,7649.2
56425,1948.8,7899.2
56425,1948.8,6899.2
56425,1948.8,7149.2
56425,1948.8,7399.2
56425,1948.8,6899.2
56425,1948.8,7149.2
56425,1948.8,7399.2
56425,1948.8,7649.2
56425,1948.8,6899.2
56425,1948.8,7149.2
56425,1948.8,7399.2
56425,1948.8,7649.2
56425,1948.8,7899.2
56425,1948.8,7149.2
56425,1948.8,7399.2
56425,1948.8,7649.2
56425,1948.8,7899.2
56425,1948.8,8149.2
56425,1948.8,6899.2
56425,1948.8,7149.2
56425,1948.8,7399.2
56425,1948.8,6899.2
56425,1948.8,7149.2
56425,1948.8,7399.2
56425,1948.8,7649.2
56425,1948.8,6899.2
56425,1948.8,7149.2
56425,1948.8,7399.2
56425,1948.8,7649.2
56425,1948.8,7899.2
56425,1948.8,7149.2
56425,1948.8,7399.2
56425,1948.8,7649.2
56425,1948.8,7899.2
56425,1948.8,8149.2
56425,1948.8,7399.2
56425,1948.8,7649.2
56425,1948.8,7899.2
56425,1948.8,8149.2
56425,1948.8,8399.2
56425,1948.8,6899.2
56425,1948.8,7149.2
56425,1948.8,7399.2
56425,1948.8,7649.2
56425,1948.8,6899.2
56425,1948.8,7149.2
56425,1948.8,7399.2
56425,1948.8,7649.2
56425,1948.8,7899.2
56425,1948.8,7149.2
56425,1948.8,7399.2
56425,1948.8,7649.2
56425,1948.8,7899.2
56425,1948.8,8149.2
56425,1948.8,7399.2
56425,1948.8,7649.2
56425,1948.8,7899.2
56425,1948.8,8149.2
56425,1948.8,8399.2
56425,1948.8,7649.2
56425,1948.8,7899.2
56425,1948.8,8149.2
56425,1948.8,8399.2
56425,1948.8,8649.2
56425,1948.8,6899.2
56425,1948.8,7149.2
56425,1948.8,7399.2
56425,1948.8,7649.2
56425,1948.8,7899.2
56425,1948.8,7149.2
56425,1948.8,7399.2
56425,1948.8,7649.2
56425,1948.8,7899.2
56425,1948.8,8149.2
56425,1948.8,7399.2
56425,1948.8,7649.2
56425,1948.8,7899.2
56425,1948.8,8149.2
56425,1948.8,8399.2
56425,1948.8,7649.2
56425,1948.8,7899.2
56425,1948.8,8149.2
56425,1948.8,8399.2
56425,1948.8,8649.2
56425,1948.8,7899.2
56425,1948.8,8149.2
56425,1948.8,8399.2
56425,1948.8,8649.2
56425,1948.8,8899.2
56425,1948.8,6899.2
56425,1948.8,7149.2
56425,1948.8,7399.2
56425,1948.8,6899.2
56425,1948.8,7149.2
56425,1948.8,7399.2
56425,1948.8,7649.2
56425,1948.8,6899.2
56425,1948.8,7149.2
56425,1948.8,7399.2
56425,1948.8,7649.2
56425,1948.8,7899.2
56425,1948.8,6899.2
56425,1948.8,7149.2
56425,1948.8,7399.2
56425,1948.8,6899.2
56425,1948.8,7149.2
56425,1948.8,7399.2
56425,1948.8,7649.2
56425,1948.8,6899.2
56425,1948.8,7149.2
56425,1948.8,7399.2
56425,1948.8,7649.2
56425,1948.8,7899.2
56425,1948.8,7149.2
56425,1948.8,7399.2
56425,1948.8,7649.2
56425,1948.8,7899.2
56425,1948.8,8149.2
56425,1948.8,6899.2
56425,1948.8,7149.2
56425,1948.8,7399.2
56425,1948.8,6899.2
56425,1948.8,7149.2
56425,1948.8,7399.2
56425,1948.8,7649.2
56425,1948.8,6899.2
56425,1948.8,7149.2
56425,1948.8,7399.2
56425,1948.8,7649.2
56425,1948.8,7899.2
56425,1948.8,7149.2
56425,1948.8,7399.2
56425,1948.8,7649.2
56425,1948.8,7899.2
56425,1948.8,8149.2
56425,1948.8,7399.2
56425,1948.8,7649.2
56425,1948.8,7899.2
56425,1948.8,8149.2
56425,1948.8,8399.2
56425,1948.8,6899.2
56425,1948.8,7149.2
56425,1948.8,7399.2
56425,1948.8,6899.2
56425,1948.8,7149.2
56425,1948.8,7399.2
56425,1948.8,7649.2
56425,1948.8,6899.2
56425,1948.8,7149.2
56425,1948.8,7399.2
56425,1948.8,7649.2
56425,1948.8,7899.2
56425,1948.8,6899.2
56425,1948.8,7149.2
56425,1948.8,7399.2
56425,1948.8,6899.2
56425,1948.8,7149.2
56425,1948.8,7399.2
56425,1948.8,7649.2
56425,1948.8,6899.2
56425,1948.8,7149.2
56425,1948.8,7399.2
56425,1948.8,7649.2
56425,1948.8,7899.2
56425,1948.8,7149.2
56425,1948.8,7399.2
56425,1948.8,7649.2
56425,1948.8,7899.2
56425,1948.8,8149.2
56425,1948.8,6899.2
56425,1948.8,7149.2
56425,1948.8,7399.2
56425,1948.8,6899.2
56425,1948.8,7149.2
56425,1948.8,7399.2
56425,1948.8,7649.2
56425,1948.8,6899.2
56425,1948.8,7149.2
56425,1948.8,7399.2
56425,1948.8,7649.2
56425,1948.8,7899.2
56425,1948.8,7149.2
56425,1948.8,7399.2
56425,1948.8,7649.2
56425,1948.8,7899.2
56425,1948.8,8149.2
56425,1948.8,7399.2
56425,1948.8,7649.2
56425,1948.8,7899.2
56425,1948.8,8149.2
56425,1948.8,8399.2
56425,1948.8,6899.2
56425,1948.8,7149.2
56425,1948.8,7399.2
56425,1948.8,7649.2
56425,1948.8,6899.2
56425,1948.8,7149.2
56425,1948.8,7399.2
56425,1948.8,7649.2
56425,1948.8,7899.2
56425,1948.8,7149.2
56425,1948.8,7399.2
56425,1948.8,7649.2
56425,1948.8,7899.2
56425,1948.8,8149.2
56425,1948.8,7399.2
56425,1948.8,7649.2
56425,1948.8,7899.2
56425,1948.8,8149.2
56425,1948.8,8399.2
56425,1948.8,7649.2
56425,1948.8,7899.2
56425,1948.8,8149.2
56425,1948.8,8399.2
56425,1948.8,8649.2
56425,1948.8,6899.2
56425,1948.8,7149.2
56425,1948.8,7399.2
56425,1948.8,6899.2
56425,1948.8,7149.2
56425,1948.8,7399.2
56425,1948.8,7649.2
56425,1948.8,6899.2
56425,1948.8,7149.2
56425,1948.8,7399.2
56425,1948.8,7649.2
56425,1948.8,7899.2
56425,1948.8,6899.2
56425,1948.8,7149.2
56425,1948.8,7399.2
56425,1948.8,6899.2
56425,1948.8,7149.2
56425,1948.8,7399.2
56425,1948.8,7649.2
56425,1948.8,6899.2
56425,1948.8,7149.2
56425,1948.8,7399.2
56425,1948.8,7649.2
56425,1948.8,7899.2
56425,1948.8,7149.2
56425,1948.8,7399.2
56425,1948.8,7649.2
56425,1948.8,7899.2
56425,1948.8,8149.2
56425,1948.8,6899.2
56425,1948.8,7149.2
56425,1948.8,7399.2
56425,1948.8,6899.2
56425,1948.8,7149.2
56425,1948.8,7399.2
56425,1948.8,7649.2
56425,1948.8,6899.2
56425,1948.8,7149.2
56425,1948.8,7399.2
56425,1948.8,7649.2
56425,1948.8,7899.2
56425,1948.8,7149.2
56425,1948.8,7399.2
56425,1948.8,7649.2
56425,1948.8,7899.2
56425,1948.8,8149.2
56425,1948.8,7399.2
56425,1948.8,7649.2
56425,1948.8,7899.2
56425,1948.8,8149.2
56425,1948.8,8399.2
56425,1948.8,6899.2
56425,1948.8,7149.2
56425,1948.8,7399.2
56425,1948.8,7649.2
56425,1948.8,6899.2
56425,1948.8,7149.2
56425,1948.8,7399.2
56425,1948.8,7649.2
56425,1948.8,7899.2
56425,1948.8,7149.2
56425,1948.8,7399.2
56425,1948.8,7649.2
56425,1948.8,7899.2
56425,1948.8,8149.2
56425,1948.8,7399.2
56425,1948.8,7649.2
56425,1948.8,7899.2
56425,1948.8,8149.2
56425,1948.8,8399.2
56425,1948.8,7649.2
56425,1948.8,7899.2
56425,1948.8,8149.2
56425,1948.8,8399.2
56425,1948.8,8649.2
56425,1948.8,6899.2
56425,1948.8,7149.2
56425,1948.8,7399.2
56425,1948.8,7649.2
56425,1948.8,7899.2
56425,1948.8,7149.2
56425,1948.8,7399.2
56425,1948.8,7649.2
56425,1948.8,7899.2
56425,1948.8,8149.2
56425,1948.8,7399.2
56425,1948.8,7649.2
56425,1948.8,7899.2
56425,1948.8,8149.2
56425,1948.8,8399.2
56425,1948.8,7649.2
56425,1948.8,7899.2
56425,1948.8,8149.2
56425,1948.8,8399.2
56425,1948.8,8649.2
56425,1948.8,7899.2
56425,1948.8,8149.2
56425,1948.8,8399.2
56425,1948.8,8649.2
56425,1948.8,8899.2
56425,1948.8,6899.2
56425,1948.8,7149.2
56425,1948.8,7399.2
56425,1948.8,6899.2
56425,1948.8,7149.2
56425,1948.8,7399.2
56425,1948.8,7649.2
56425,1948.8,6899.2
56425,1948.8,7149.2
56425,1948.8,7399.2
56425,1948.8,7649.2
56425,1948.8,7899.2
56425,1948.8,7149.2
56425,1948.8,7399.2
56425,1948.8,7649.2
56425,1948.8,7899.2
56425,1948.8,8149.2
56425,1948.8,6899.2
56425,1948.8,7149.2
56425,1948.8,7399.2
56425,1948.8,6899.2
56425,1948.8,7149.2
56425,1948.8,7399.2
56425,1948.8,7649.2
56425,1948.8,6899.2
56425,1948.8,7149.2
56425,1948.8,7399.2
56425,1948.8,7649.2
56425,1948.8,7899.2
56425,1948.8,7149.2
56425,1948.8,7399.2
56425,1948.8,7649.2
56425,1948.8,7899.2
56425,1948.8,8149.2
56425,1948.8,7399.2
56425,1948.8,7649.2
56425,1948.8,7899.2
56425,1948.8,8149.2
56425,1948.8,8399.2
56425,1948.8,6899.2
56425,1948.8,7149.2
56425,1948.8,7399.2
56425,1948.8,7649.2
56425,1948.8,6899.2
56425,1948.8,7149.2
56425,1948.8,7399.2
56425,1948.8,7649.2
56425,1948.8,7899.2
56425,1948.8,7149.2
56425,1948.8,7399.2
56425,1948.8,7649.2
56425,1948.8,7899.2
56425,1948.8,8149.2
56425,1948.8,7399.2
56425,1948.8,7649.2
56425,1948.8,7899.2
56425,1948.8,8149.2
56425,1948.8,8399.2
56425,1948.8,7649.2
56425,1948.8,7899.2
56425,1948.8,8149.2
56425,1948.8,8399.2
56425,1948.8,8649.2
56425,1948.8,6899.2
56425,1948.8,7149.2
56425,1948.8,7399.2
56425,1948.8,7649.2
56425,1948.8,7899.2
56425,1948.8,7149.2
56425,1948.8,7399.2
56425,1948.8,7649.2
56425,1948.8,7899.2
56425,1948.8,8149.2
56425,1948.8,7399.2
56425,1948.8,7649.2
56425,1948.8,7899.2
56425,1948.8,8149.2
56425,1948.8,8399.2
56425,1948.8,7649.2
56425,1948.8,7899.2
56425,1948.8,8149.2
56425,1948.8,8399.2
56425,1948.8,8649.2
56425,1948.8,7899.2
56425,1948.8,8149.2
56425,1948.8,8399.2
56425,1948.8,8649.2
56425,1948.8,8899.2
56425,1948.8,7149.2
56425,1948.8,7399.2
56425,1948.8,7649.2
56425,1948.8,7899.2
56425,1948.8,8149.2
56425,1948.8,7399.2
56425,1948.8,7649.2
56425,1948.8,7899.2
56425,1948.8,8149.2
56425,1948.8,8399.2
56425,1948.8,7649.2
56425,1948.8,7899.2
56425,1948.8,8149.2
56425,1948.8,8399.2
56425,1948.8,8649.2
56425,1948.8,7899.2
56425,1948.8,8149.2
56425,1948.8,8399.2
56425,1948.8,8649.2
56425,1948.8,8899.2
56425,1948.8,8149.2
56425,1948.8,8399.2
56425,1948.8,8649.2
56425,1948.8,8899.2
56425,1948.8,9149.2
56425,1948.8,6899.2
56425,1948.8,7149.2
56425,1948.8,7399.2
56425,1948.8,6899.2
56425,1948.8,7149.2
56425,1948.8,7399.2
56425,1948.8,7649.2
56425,1948.8,6899.2
56425,1948.8,7149.2
56425,1948.8,7399.2
56425,1948.8,7649.2
56425,1948.8,7899.2
56425,1948.8,6899.2
56425,1948.8,7149.2
56425,1948.8,7399.2
56425,1948.8,6899.2
56425,1948.8,7149.2
56425,1948.8,7399.2
56425,1948.8,7649.2
56425,1948.8,6899.2
56425,1948.8,7149.2
56425,1948.8,7399.2
56425,1948.8,7649.2
56425,1948.8,7899.2
56425,1948.8,7149.2
56425,1948.8,7399.2
56425,1948.8,7649.2
56425,1948.8,7899.2
56425,1948.8,8149.2
56425,1948.8,6899.2
56425,1948.8,7149.2
56425,1948.8,7399.2
56425,1948.8,6899.2
56425,1948.8,7149.2
56425,1948.8,7399.2
56425,1948.8,7649.2
56425,1948.8,6899.2
56425,1948.8,7149.2
56425,1948.8,7399.2
56425,1948.8,7649.2
56425,1948.8,7899.2
56425,1948.8,7149.2
56425,1948.8,7399.2
56425,1948.8,7649.2
56425,1948.8,7899.2
56425,1948.8,8149.2
56425,1948.8,7399.2
56425,1948.8,7649.2
56425,1948.8,7899.2
56425,1948.8,8149.2
56425,1948.8,8399.2
56425,1948.8,6899.2
56425,1948.8,7149.2
56425,1948.8,7399.2
56425,1948.8,6899.2
56425,1948.8,7149.2
56425,1948.8,7399.2
56425,1948.8,7649.2
56425,1948.8,6899.2
56425,1948.8,7149.2
56425,1948.8,7399.2
56425,1948.8,7649.2
56425,1948.8,7899.2
56425,1948.8,6899.2
56425,1948.8,7149.2
56425,1948.8,7399.2
56425,1948.8,6899.2
56425,1948.8,7149.2
56425,1948.8,7399.2
56425,1948.8,7649.2
56425,1948.8,6899.2
56425,1948.8,7149.2
56425,1948.8,7399.2
56425,1948.8,7649.2
56425,1948.8,7899.2
56425,1948.8,7149.2
56425,1948.8,7399.2
56425,1948.8,7649.2
56425,1948.8,7899.2
56425,1948.8,8149.2
56425,1948.8,6899.2
56425,1948.8,7149.2
56425,1948.8,7399.2
56425,1948.8,6899.2
56425,1948.8,7149.2
56425,1948.8,7399.2
56425,1948.8,7649.2
56425,1948.8,6899.2
56425,1948.8,7149.2
56425,1948.8,7399.2
56425,1948.8,7649.2
56425,1948.8,7899.2
56425,1948.8,7149.2
56425,1948.8,7399.2
56425,1948.8,7649.2
56425,1948.8,7899.2
56425,1948.8,8149.2
56425,1948.8,7399.2
56425,1948.8,7649.2
56425,1948.8,7899.2
56425,1948.8,8149.2
56425,1948.8,8399.2
56425,1948.8,6899.2
56425,1948.8,7149.2
56425,1948.8,7399.2
56425,1948.8,7649.2
56425,1948.8,6899.2
56425,1948.8,7149.2
56425,1948.8,7399.2
56425,1948.8,7649.2
56425,1948.8,7899.2
56425,1948.8,7149.2
56425,1948.8,7399.2
56425,1948.8,7649.2
56425,1948.8,7899.2
56425,1948.8,8149.2
56425,1948.8,7399.2
56425,1948.8,7649.2
56425,1948.8,7899.2
56425,1948.8,8149.2
56425,1948.8,8399.2
56425,1948.8,7649.2
56425,1948.8,7899.2
56425,1948.8,8149.2
56425,1948.8,8399.2
56425,1948.8,8649.2
56425,1948.8,6899.2
56425,1948.8,7149.2
56425,1948.8,7399.2
56425,1948.8,6899.2
56425,1948.8,7149.2
56425,1948.8,7399.2
56425,1948.8,7649.2
56425,1948.8,6899.2
56425,1948.8,7149.2
56425,1948.8,7399.2
56425,1948.8,7649.2
56425,1948.8,7899.2
56425,1948.8,6899.2
56425,1948.8,7149.2
56425,1948.8,7399.2
56425,1948.8,6899.2
56425,1948.8,7149.2
56425,1948.8,7399.2
56425,1948.8,7649.2
56425,1948.8,6899.2
56425,1948.8,7149.2
56425,1948.8,7399.2
56425,1948.8,7649.2
56425,1948.8,7899.2
56425,1948.8,7149.2
56425,1948.8,7399.2
56425,1948.8,7649.2
56425,1948.8,7899.2
56425,1948.8,8149.2
56425,1948.8,6899.2
56425,1948.8,7149.2
56425,1948.8,7399.2
56425,1948.8,6899.2
56425,1948.8,7149.2
56425,1948.8,7399.2
56425,1948.8,7649.2
56425,1948.8,6899.2
56425,1948.8,7149.2
56425,1948.8,7399.2
56425,1948.8,7649.2
56425,1948.8,7899.2
56425,1948.8,7149.2
56425,1948.8,7399.2
56425,1948.8,7649.2
56425,1948.8,7899.2
56425,1948.8,8149.2
56425,1948.8,7399.2
56425,1948.8,7649.2
56425,1948.8,7899.2
56425,1948.8,8149.2
56425,1948.8,8399.2
56425,1948.8,6899.2
56425,1948.8,7149.2
56425,1948.8,7399.2
56425,1948.8,7649.2
56425,1948.8,6899.2
56425,1948.8,7149.2
56425,1948.8,7399.2
56425,1948.8,7649.2
56425,1948.8,7899.2
56425,1948.8,7149.2
56425,1948.8,7399.2
56425,1948.8,7649.2
56425,1948.8,7899.2
56425,1948.8,8149.2
56425,1948.8,7399.2
56425,1948.8,7649.2
56425,1948.8,7899.2
56425,1948.8,8149.2
56425,1948.8,8399.2
56425,1948.8,7649.2
56425,1948.8,7899.2
56425,1948.8,8149.2
56425,1948.8,8399.2
56425,1948.8,8649.2
56425,1948.8,6899.2
56425,1948.8,7149.2
56425,1948.8,7399.2
56425,1948.8,7649.2
56425,1948.8,7899.2
56425,1948.8,7149.2
56425,1948.8,7399.2
56425,1948.8,7649.2
56425,1948.8,7899.2
56425,1948.8,8149.2
56425,1948.8,7399.2
56425,1948.8,7649.2
56425,1948.8,7899.2
56425,1948.8,8149.2
56425,1948.8,8399.2
56425,1948.8,7649.2
56425,1948.8,7899.2
56425,1948.8,8149.2
56425,1948.8,8399.2
56425,1948.8,8649.2
56425,1948.8,7899.2
56425,1948.8,8149.2
56425,1948.8,8399.2
56425,1948.8,8649.2
56425,1948.8,8899.2
56425,1948.8,6899.2
56425,1948.8,7149.2
56425,1948.8,7399.2
56425,1948.8,6899.2
56425,1948.8,7149.2
56425,1948.8,7399.2
56425,1948.8,7649.2
56425,1948.8,6899.2
56425,1948.8,7149.2
56425,1948.8,7399.2
56425,1948.8,7649.2
56425,1948.8,7899.2
56425,1948.8,7149.2
56425,1948.8,7399.2
56425,1948.8,7649.2
56425,1948.8,7899.2
56425,1948.8,8149.2
56425,1948.8,6899.2
56425,1948.8,7149.2
56425,1948.8,7399.2
56425,1948.8,6899.2
56425,1948.8,7149.2
56425,1948.8,7399.2
56425,1948.8,7649.2
56425,1948.8,6899.2
56425,1948.8,7149.2
56425,1948.8,7399.2
56425,1948.8,7649.2
56425,1948.8,7899.2
56425,1948.8,7149.2
56425,1948.8,7399.2
56425,1948.8,7649.2
56425,1948.8,7899.2
56425,1948.8,8149.2
56425,1948.8,7399.2
56425,1948.8,7649.2
56425,1948.8,7899.2
56425,1948.8,8149.2
56425,1948.8,8399.2
56425,1948.8,6899.2
56425,1948.8,7149.2
56425,1948.8,7399.2
56425,1948.8,7649.2
56425,1948.8,6899.2
56425,1948.8,7149.2
56425,1948.8,7399.2
56425,1948.8,7649.2
56425,1948.8,7899.2
56425,1948.8,7149.2
56425,1948.8,7399.2
56425,1948.8,7649.2
56425,1948.8,7899.2
56425,1948.8,8149.2
56425,1948.8,7399.2
56425,1948.8,7649.2
56425,1948.8,7899.2
56425,1948.8,8149.2
56425,1948.8,8399.2
56425,1948.8,7649.2
56425,1948.8,7899.2
56425,1948.8,8149.2
56425,1948.8,8399.2
56425,1948.8,8649.2
56425,1948.8,6899.2
56425,1948.8,7149.2
56425,1948.8,7399.2
56425,1948.8,7649.2
56425,1948.8,7899.2
56425,1948.8,7149.2
56425,1948.8,7399.2
56425,1948.8,7649.2
56425,1948.8,7899.2
56425,1948.8,8149.2
56425,1948.8,7399.2
56425,1948.8,7649.2
56425,1948.8,7899.2
56425,1948.8,8149.2
56425,1948.8,8399.2
56425,1948.8,7649.2
56425,1948.8,7899.2
56425,1948.8,8149.2
56425,1948.8,8399.2
56425,1948.8,8649.2
56425,1948.8,7899.2
56425,1948.8,8149.2
56425,1948.8,8399.2
56425,1948.8,8649.2
56425,1948.8,8899.2
56425,1948.8,7149.2
56425,1948.8,7399.2
56425,1948.8,7649.2
56425,1948.8,7899.2
56425,1948.8,8149.2
56425,1948.8,7399.2
56425,1948.8,7649.2
56425,1948.8,7899.2
56425,1948.8,8149.2
56425,1948.8,8399.2
56425,1948.8,7649.2
56425,1948.8,7899.2
56425,1948.8,8149.2
56425,1948.8,8399.2
56425,1948.8,8649.2
56425,1948.8,7899.2
56425,1948.8,8149.2
56425,1948.8,8399.2
56425,1948.8,8649.2
56425,1948.8,8899.2
56425,1948.8,8149.2
56425,1948.8,8399.2
56425,1948.8,8649.2
56425,1948.8,8899.2
56425,1948.8,9149.2
56425,1948.8,6899.2
56425,1948.8,7149.2
56425,1948.8,7399.2
56425,1948.8,6899.2
56425,1948.8,7149.2
56425,1948.8,7399.2
56425,1948.8,7649.2
56425,1948.8,6899.2
56425,1948.8,7149.2
56425,1948.8,7399.2
56425,1948.8,7649.2
56425,1948.8,7899.2
56425,1948.8,7149.2
56425,1948.8,7399.2
56425,1948.8,7649.2
56425,1948.8,7899.2
56425,1948.8,8149.2
56425,1948.8,7399.2
56425,1948.8,7649.2
56425,1948.8,7899.2
56425,1948.8,8149.2
56425,1948.8,8399.2
56425,1948.8,6899.2
56425,1948.8,7149.2
56425,1948.8,7399.2
56425,1948.8,7649.2
56425,1948.8,6899.2
56425,1948.8,7149.2
56425,1948.8,7399.2
56425,1948.8,7649.2
56425,1948.8,7899.2
56425,1948.8,7149.2
56425,1948.8,7399.2
56425,1948.8,7649.2
56425,1948.8,7899.2
56425,1948.8,8149.2
56425,1948.8,7399.2
56425,1948.8,7649.2
56425,1948.8,7899.2
56425,1948.8,8149.2
56425,1948.8,8399.2
56425,1948.8,7649.2
56425,1948.8,7899.2
56425,1948.8,8149.2
56425,1948.8,8399.2
56425,1948.8,8649.2
56425,1948.8,6899.2
56425,1948.8,7149.2
56425,1948.8,7399.2
56425,1948.8,7649.2
56425,1948.8,7899.2
56425,1948.8,7149.2
56425,1948.8,7399.2
56425,1948.8,7649.2
56425,1948.8,7899.2
56425,1948.8,8149.2
56425,1948.8,7399.2
56425,1948.8,7649.2
56425,1948.8,7899.2
56425,1948.8,8149.2
56425,1948.8,8399.2
56425,1948.8,7649.2
56425,1948.8,7899.2
56425,1948.8,8149.2
56425,1948.8,8399.2
56425,1948.8,8649.2
56425,1948.8,7899.2
56425,1948.8,8149.2
56425,1948.8,8399.2
56425,1948.8,8649.2
56425,1948.8,8899.2
56425,1948.8,7149.2
56425,1948.8,7399.2
56425,1948.8,7649.2
56425,1948.8,7899.2
56425,1948.8,8149.2
56425,1948.8,7399.2
56425,1948.8,7649.2
56425,1948.8,7899.2
56425,1948.8,8149.2
56425,1948.8,8399.2
56425,1948.8,7649.2
56425,1948.8,7899.2
56425,1948.8,8149.2
56425,1948.8,8399.2
56425,1948.8,8649.2
56425,1948.8,7899.2
56425,1948.8,8149.2
56425,1948.8,8399.2
56425,1948.8,8649.2
56425,1948.8,8899.2
56425,1948.8,8149.2
56425,1948.8,8399.2
56425,1948.8,8649.2
56425,1948.8,8899.2
56425,1948.8,9149.2
56425,1948.8,7399.2
56425,1948.8,7649.2
56425,1948.8,7899.2
56425,1948.8,8149.2
56425,1948.8,8399.2
56425,1948.8,7649.2
56425,1948.8,7899.2
56425,1948.8,8149.2
56425,1948.8,8399.2
56425,1948.8,8649.2
56425,1948.8,7899.2
56425,1948.8,8149.2
56425,1948.8,8399.2
56425,1948.8,8649.2
56425,1948.8,8899.2
56425,1948.8,8149.2
56425,1948.8,8399.2
56425,1948.8,8649.2
56425,1948.8,8899.2
56425,1948.8,9149.2
56425,1948.8,8399.2
56425,1948.8,8649.2
56425,1948.8,8899.2
56425,1948.8,9149.2
56425,1948.8,9399.2
56425,1948.8,6899.2
56425,1948.8,7149.2
56425,1948.8,7399.2
56425,1948.8,6899.2
56425,1948.8,7149.2
56425,1948.8,7399.2
56425,1948.8,7649.2
56425,1948.8,6899.2
56425,1948.8,7149.2
56425,1948.8,7399.2
56425,1948.8,7649.2
56425,1948.8,7899.2
56425,1948.8,6899.2
56425,1948.8,7149.2
56425,1948.8,7399.2
56425,1948.8,6899.2
56425,1948.8,7149.2
56425,1948.8,7399.2
56425,1948.8,7649.2
56425,1948.8,6899.2
56425,1948.8,7149.2
56425,1948.8,7399.2
56425,1948.8,7649.2
56425,1948.8,7899.2
56425,1948.8,7149.2
56425,1948.8,7399.2
56425,1948.8,7649.2
56425,1948.8,7899.2
56425,1948.8,8149.2
56425,1948.8,6899.2
56425,1948.8,7149.2
56425,1948.8,7399.2
56425,1948.8,6899.2
56425,1948.8,7149.2
56425,1948.8,7399.2
56425,1948.8,7649.2
56425,1948.8,6899.2
56425,1948.8,7149.2
56425,1948.8,7399.2
56425,1948.8,7649.2
56425,1948.8,7899.2
56425,1948.8,7149.2
56425,1948.8,7399.2
56425,1948.8,7649.2
56425,1948.8,7899.2
56425,1948.8,8149.2
56425,1948.8,7399.2
56425,1948.8,7649.2
56425,1948.8,7899.2
56425,1948.8,8149.2
56425,1948.8,8399.2
56425,1948.8,6899.2
56425,1948.8,7149.2
56425,1948.8,7399.2
56425,1948.8,7649.2
56425,1948.8,6899.2
56425,1948.8,7149.2
56425,1948.8,7399.2
56425,1948.8,7649.2
56425,1948.8,7899.2
56425,1948.8,7149.2
56425,1948.8,7399.2
56425,1948.8,7649.2
56425,1948.8,7899.2
56425,1948.8,8149.2
56425,1948.8,7399.2
56425,1948.8,7649.2
56425,1948.8,7899.2
56425,1948.8,8149.2
56425,1948.8,8399.2
56425,1948.8,7649.2
56425,1948.8,7899.2
56425,1948.8,8149.2
56425,1948.8,8399.2
56425,1948.8,8649.2
56425,1948.8,6899.2
56425,1948.8,7149.2
56425,1948.8,7399.2
56425,1948.8,6899.2
56425,1948.8,7149.2
56425,1948.8,7399.2
56425,1948.8,7649.2
56425,1948.8,6899.2
56425,1948.8,7149.2
56425,1948.8,7399.2
56425,1948.8,7649.2
56425,1948.8,7899.2
56425,1948.8,6899.2
56425,1948.8,7149.2
56425,1948.8,7399.2
56425,1948.8,6899.2
56425,1948.8,7149.2
56425,1948.8,7399.2
56425,1948.8,7649.2
56425,1948.8,6899.2
56425,1948.8,7149.2
56425,1948.8,7399.2
56425,1948.8,7649.2
56425,1948.8,7899.2
56425,1948.8,7149.2
56425,1948.8,7399.2
56425,1948.8,7649.2
56425,1948.8,7899.2
56425,1948.8,8149.2
56425,1948.8,6899.2
56425,1948.8,7149.2
56425,1948.8,7399.2
56425,1948.8,6899.2
56425,1948.8,7149.2
56425,1948.8,7399.2
56425,1948.8,7649.2
56425,1948.8,6899.2
56425,1948.8,7149.2
56425,1948.8,7399.2
56425,1948.8,7649.2
56425,1948.8,7899.2
56425,1948.8,7149.2
56425,1948.8,7399.2
56425,1948.8,7649.2
56425,1948.8,7899.2
56425,1948.8,8149.2
56425,1948.8,7399.2
56425,1948.8,7649.2
56425,1948.8,7899.2
56425,1948.8,8149.2
56425,1948.8,8399.2
56425,1948.8,6899.2
56425,1948.8,7149.2
56425,1948.8,7399.2
56425,1948.8,7649.2
56425,1948.8,6899.2
56425,1948.8,7149.2
56425,1948.8,7399.2
56425,1948.8,7649.2
56425,1948.8,7899.2
56425,1948.8,7149.2
56425,1948.8,7399.2
56425,1948.8,7649.2
56425,1948.8,7899.2
56425,1948.8,8149.2
56425,1948.8,7399.2
56425,1948.8,7649.2
56425,1948.8,7899.2
56425,1948.8,8149.2
56425,1948.8,8399.2
56425,1948.8,7649.2
56425,1948.8,7899.2
56425,1948.8,8149.2
56425,1948.8,8399.2
56425,1948.8,8649.2
56425,1948.8,6899.2
56425,1948.8,7149.2
56425,1948.8,7399.2
56425,1948.8,7649.2
56425,1948.8,7899.2
56425,1948.8,7149.2
56425,1948.8,7399.2
56425,1948.8,7649.2
56425,1948.8,7899.2
56425,1948.8,8149.2
56425,1948.8,7399.2
56425,1948.8,7649.2
56425,1948.8,7899.2
56425,1948.8,8149.2
56425,1948.8,8399.2
56425,1948.8,7649.2
56425,1948.8,7899.2
56425,1948.8,8149.2
56425,1948.8,8399.2
56425,1948.8,8649.2
56425,1948.8,7899.2
56425,1948.8,8149.2
56425,1948.8,8399.2
56425,1948.8,8649.2
56425,1948.8,8899.2
56425,1948.8,6899.2
56425,1948.8,7149.2
56425,1948.8,7399.2
56425,1948.8,6899.2
56425,1948.8,7149.2
56425,1948.8,7399.2
56425,1948.8,7649.2
56425,1948.8,6899.2
56425,1948.8,7149.2
56425,1948.8,7399.2
56425,1948.8,7649.2
56425,1948.8,7899.2
56425,1948.8,7149.2
56425,1948.8,7399.2
56425,1948.8,7649.2
56425,1948.8,7899.2
56425,1948.8,8149.2
56425,1948.8,6899.2
56425,1948.8,7149.2
56425,1948.8,7399.2
56425,1948.8,6899.2
56425,1948.8,7149.2
56425,1948.8,7399.2
56425,1948.8,7649.2
56425,1948.8,6899.2
56425,1948.8,7149.2
56425,1948.8,7399.2
56425,1948.8,7649.2
56425,1948.8,7899.2
56425,1948.8,7149.2
56425,1948.8,7399.2
56425,1948.8,7649.2
56425,1948.8,7899.2
56425,1948.8,8149.2
56425,1948.8,7399.2
56425,1948.8,7649.2
56425,1948.8,7899.2
56425,1948.8,8149.2
56425,1948.8,8399.2
56425,1948.8,6899.2
56425,1948.8,7149.2
56425,1948.8,7399.2
56425,1948.8,7649.2
56425,1948.8,6899.2
56425,1948.8,7149.2
56425,1948.8,7399.2
56425,1948.8,7649.2
56425,1948.8,7899.2
56425,1948.8,7149.2
56425,1948.8,7399.2
56425,1948.8,7649.2
56425,1948.8,7899.2
56425,1948.8,8149.2
56425,1948.8,7399.2
56425,1948.8,7649.2
56425,1948.8,7899.2
56425,1948.8,8149.2
56425,1948.8,8399.2
56425,1948.8,7649.2
56425,1948.8,7899.2
56425,1948.8,8149.2
56425,1948.8,8399.2
56425,1948.8,8649.2
56425,1948.8,6899.2
56425,1948.8,7149.2
56425,1948.8,7399.2
56425,1948.8,7649.2
56425,1948.8,7899.2
56425,1948.8,7149.2
56425,1948.8,7399.2
56425,1948.8,7649.2
56425,1948.8,7899.2
56425,1948.8,8149.2
56425,1948.8,7399.2
56425,1948.8,7649.2
56425,1948.8,7899.2
56425,1948.8,8149.2
56425,1948.8,8399.2
56425,1948.8,7649.2
56425,1948.8,7899.2
56425,1948.8,8149.2
56425,1948.8,8399.2
56425,1948.8,8649.2
56425,1948.8,7899.2
56425,1948.8,8149.2
56425,1948.8,8399.2
56425,1948.8,8649.2
56425,1948.8,8899.2
56425,1948.8,7149.2
56425,1948.8,7399.2
56425,1948.8,7649.2
56425,1948.8,7899.2
56425,1948.8,8149.2
56425,1948.8,7399.2
56425,1948.8,7649.2
56425,1948.8,7899.2
56425,1948.8,8149.2
56425,1948.8,8399.2
56425,1948.8,7649.2
56425,1948.8,7899.2
56425,1948.8,8149.2
56425,1948.8,8399.2
56425,1948.8,8649.2
56425,1948.8,7899.2
56425,1948.8,8149.2
56425,1948.8,8399.2
56425,1948.8,8649.2
56425,1948.8,8899.2
56425,1948.8,8149.2
56425,1948.8,8399.2
56425,1948.8,8649.2
56425,1948.8,8899.2
56425,1948.8,9149.2
56425,1948.8,6899.2
56425,1948.8,7149.2
56425,1948.8,7399.2
56425,1948.8,6899.2
56425,1948.8,7149.2
56425,1948.8,7399.2
56425,1948.8,7649.2
56425,1948.8,6899.2
56425,1948.8,7149.2
56425,1948.8,7399.2
56425,1948.8,7649.2
56425,1948.8,7899.2
56425,1948.8,7149.2
56425,1948.8,7399.2
56425,1948.8,7649.2
56425,1948.8,7899.2
56425,1948.8,8149.2
56425,1948.8,7399.2
56425,1948.8,7649.2
56425,1948.8,7899.2
56425,1948.8,8149.2
56425,1948.8,8399.2
56425,1948.8,6899.2
56425,1948.8,7149.2
56425,1948.8,7399.2
56425,1948.8,7649.2
56425,1948.8,6899.2
56425,1948.8,7149.2
56425,1948.8,7399.2
56425,1948.8,7649.2
56425,1948.8,7899.2
56425,1948.8,7149.2
56425,1948.8,7399.2
56425,1948.8,7649.2
56425,1948.8,7899.2
56425,1948.8,8149.2
56425,1948.8,7399.2
56425,1948.8,7649.2
56425,1948.8,7899.2
56425,1948.8,8149.2
56425,1948.8,8399.2
56425,1948.8,7649.2
56425,1948.8,7899.2
56425,1948.8,8149.2
56425,1948.8,8399.2
56425,1948.8,8649.2
56425,1948.8,6899.2
56425,1948.8,7149.2
56425,1948.8,7399.2
56425,1948.8,7649.2
56425,1948.8,7899.2
56425,1948.8,7149.2
56425,1948.8,7399.2
56425,1948.8,7649.2
56425,1948.8,7899.2
56425,1948.8,8149.2
56425,1948.8,7399.2
56425,1948.8,7649.2
56425,1948.8,7899.2
56425,1948.8,8149.2
56425,1948.8,8399.2
56425,1948.8,7649.2
56425,1948.8,7899.2
56425,1948.8,8149.2
56425,1948.8,8399.2
56425,1948.8,8649.2
56425,1948.8,7899.2
56425,1948.8,8149.2
56425,1948.8,8399.2
56425,1948.8,8649.2
56425,1948.8,8899.2
56425,1948.8,7149.2
56425,1948.8,7399.2
56425,1948.8,7649.2
56425,1948.8,7899.2
56425,1948.8,8149.2
56425,1948.8,7399.2
56425,1948.8,7649.2
56425,1948.8,7899.2
56425,1948.8,8149.2
56425,1948.8,8399.2
56425,1948.8,7649.2
56425,1948.8,7899.2
56425,1948.8,8149.2
56425,1948.8,8399.2
56425,1948.8,8649.2
56425,1948.8,7899.2
56425,1948.8,8149.2
56425,1948.8,8399.2
56425,1948.8,8649.2
56425,1948.8,8899.2
56425,1948.8,8149.2
56425,1948.8,8399.2
56425,1948.8,8649.2
56425,1948.8,8899.2
56425,1948.8,9149.2
56425,1948.8,7399.2
56425,1948.8,7649.2
56425,1948.8,7899.2
56425,1948.8,8149.2
56425,1948.8,8399.2
56425,1948.8,7649.2
56425,1948.8,7899.2
56425,1948.8,8149.2
56425,1948.8,8399.2
56425,1948.8,8649.2
56425,1948.8,7899.2
56425,1948.8,8149.2
56425,1948.8,8399.2
56425,1948.8,8649.2
56425,1948.8,8899.2
56425,1948.8,8149.2
56425,1948.8,8399.2
56425,1948.8,8649.2
56425,1948.8,8899.2
56425,1948.8,9149.2
56425,1948.8,8399.2
56425,1948.8,8649.2
56425,1948.8,8899.2
56425,1948.8,9149.2
56425,1948.8,9399.2
56425,1948.8,6899.2
56425,1948.8,7149.2
56425,1948.8,7399.2
56425,1948.8,7649.2
56425,1948.8,6899.2
56425,1948.8,7149.2
56425,1948.8,7399.2
56425,1948.8,7649.2
56425,1948.8,7899.2
56425,1948.8,7149.2
56425,1948.8,7399.2
56425,1948.8,7649.2
56425,1948.8,7899.2
56425,1948.8,8149.2
56425,1948.8,7399.2
56425,1948.8,7649.2
56425,1948.8,7899.2
56425,1948.8,8149.2
56425,1948.8,8399.2
56425,1948.8,7649.2
56425,1948.8,7899.2
56425,1948.8,8149.2
56425,1948.8,8399.2
56425,1948.8,8649.2
56425,1948.8,6899.2
56425,1948.8,7149.2
56425,1948.8,7399.2
56425,1948.8,7649.2
56425,1948.8,7899.2
56425,1948.8,7149.2
56425,1948.8,7399.2
56425,1948.8,7649.2
56425,1948.8,7899.2
56425,1948.8,8149.2
56425,1948.8,7399.2
56425,1948.8,7649.2
56425,1948.8,7899.2
56425,1948.8,8149.2
56425,1948.8,8399.2
56425,1948.8,7649.2
56425,1948.8,7899.2
56425,1948.8,8149.2
56425,1948.8,8399.2
56425,1948.8,8649.2
56425,1948.8,7899.2
56425,1948.8,8149.2
56425,1948.8,8399.2
56425,1948.8,8649.2
56425,1948.8,8899.2
56425,1948.8,7149.2
56425,1948.8,7399.2
56425,1948.8,7649.2
56425,1948.8,7899.2
56425,1948.8,8149.2
56425,1948.8,7399.2
56425,1948.8,7649.2
56425,1948.8,7899.2
56425,1948.8,8149.2
56425,1948.8,8399.2
56425,1948.8,7649.2
56425,1948.8,7899.2
56425,1948.8,8149.2
56425,1948.8,8399.2
56425,1948.8,8649.2
56425,1948.8,7899.2
56425,1948.8,8149.2
56425,1948.8,8399.2
56425,1948.8,8649.2
56425,1948.8,8899.2
56425,1948.8,8149.2
56425,1948.8,8399.2
56425,1948.8,8649.2
56425,1948.8,8899.2
56425,1948.8,9149.2
56425,1948.8,7399.2
56425,1948.8,7649.2
56425,1948.8,7899.2
56425,1948.8,8149.2
56425,1948.8,8399.2
56425,1948.8,7649.2
56425,1948.8,7899.2
56425,1948.8,8149.2
56425,1948.8,8399.2
56425,1948.8,8649.2
56425,1948.8,7899.2
56425,1948.8,8149.2
56425,1948.8,8399.2
56425,1948.8,8649.2
56425,1948.8,8899.2
56425,1948.8,8149.2
56425,1948.8,8399.2
56425,1948.8,8649.2
56425,1948.8,8899.2
56425,1948.8,9149.2
56425,1948.8,8399.2
56425,1948.8,8649.2
56425,1948.8,8899.2
56425,1948.8,9149.2
56425,1948.8,9399.2
56425,1948.8,7649.2
56425,1948.8,7899.2
56425,1948.8,8149.2
56425,1948.8,8399.2
56425,1948.8,8649.2
56425,1948.8,7899.2
56425,1948.8,8149.2
56425,1948.8,8399.2
56425,1948.8,8649.2
56425,1948.8,8899.2
56425,1948.8,8149.2
56425,1948.8,8399.2
56425,1948.8,8649.2
56425,1948.8,8899.2
56425,1948.8,9149.2
56425,1948.8,8399.2
56425,1948.8,8649.2
56425,1948.8,8899.2
56425,1948.8,9149.2
56425,1948.8,9399.2
56425,1948.8,8649.2
56425,1948.8,8899.2
56425,1948.8,9149.2
56425,1948.8,9399.2
56425,1948.8,9649.2
